User_ID,Date,Timestamp,Hand,Hold_Time,Direction,Latency_Time,Flight_Time
1XNJCXS3EY,160806.0,05:49:23.279,L,156.3,RL,232.4,154.3
1XNJCXS3EY,160806.0,05:49:23.609,L,93.8,LL,392.6,236.3
1XNJCXS3EY,160806.0,05:49:30.361,L,109.4,LL,484.4,343.8
1XNJCXS3EY,160806.0,05:49:30.846,L,140.6,LL,453.1,343.8
1XNJCXS3EY,160806.0,05:49:31.283,L,187.5,LL,390.6,250.0
1XNJCXS3EY,160806.0,05:49:31.689,R,109.4,LR,484.4,296.9
1XNJCXS3EY,160806.0,05:49:32.064,R,93.8,RR,390.6,281.3
1XNJCXS3EY,160806.0,05:49:32.314,R,93.8,RR,250.0,156.3
1XNJCXS3EY,160806.0,05:52:45.279,L,156.3,LL,296.9,171.9
1XNJCXS3EY,160806.0,05:52:45.529,R,93.8,LR,312.5,156.3
1XNJCXS3EY,160806.0,05:52:45.764,R,109.4,RR,218.8,125.0
1XNJCXS3EY,160806.0,05:52:46.170,R,93.8,RR,421.9,312.5
1XNJCXS3EY,160806.0,05:52:47.373,R,93.8,LR,296.9,125.0
1XNJCXS3EY,160806.0,05:52:48.264,R,93.8,LR,234.4,125.0
1XNJCXS3EY,160806.0,05:52:52.936,R,109.4,LR,343.8,203.1
1XNJCXS3EY,160806.0,05:53:10.602,R,93.8,LR,250.0,93.8
1XNJCXS3EY,160806.0,05:53:17.461,R,125.0,LR,312.5,156.3
1XNJCXS3EY,160806.0,05:53:17.789,R,76.2,RR,377.0,252.0
1XNJCXS3EY,160806.0,05:53:37.701,R,109.4,LR,203.1,46.9
1XNJCXS3EY,160806.0,05:53:38.654,L,156.3,LL,375.0,265.6
1XNJCXS3EY,160806.0,05:53:38.951,L,125.0,LL,328.1,171.9
1XNJCXS3EY,160806.0,05:53:39.311,L,93.8,LL,390.6,265.6
1XNJCXS3EY,160806.0,05:54:15.248,L,234.4,LL,265.6,125.0
1XNJCXS3EY,160806.0,05:54:15.404,R,78.1,LR,312.5,78.1
1XNJCXS3EY,160806.0,05:54:15.623,R,109.4,RR,187.5,109.4
1XNJCXS3EY,160806.0,05:54:15.998,R,93.8,RR,390.6,281.3
1XNJCXS3EY,160806.0,05:54:17.107,R,125.0,LR,312.5,140.6
1XNJCXS3EY,160806.0,05:54:17.529,L,156.3,RL,390.6,265.6
1XNJCXS3EY,160806.0,05:54:17.842,R,93.8,LR,375.0,218.8
1XNJCXS3EY,160806.0,05:54:25.008,R,109.4,LR,375.0,203.1
1XNJCXS3EY,160806.0,05:54:26.090,R,93.8,LR,156.3,15.6
1XNJCXS3EY,160806.0,05:54:26.387,R,109.4,RR,281.3,187.5
1XNJCXS3EY,160806.0,05:54:46.859,R,140.6,LR,203.1,31.3
1XNJCXS3EY,160806.0,05:54:47.201,R,78.1,RR,404.3,263.7
1XNJCXS3EY,160806.0,05:56:13.771,L,93.8,RL,468.8,390.6
1XNJCXS3EY,160806.0,05:56:14.240,L,109.4,LL,453.1,359.4
1XNJCXS3EY,160806.0,05:56:14.553,L,125.0,LL,296.9,187.5
1XNJCXS3EY,160806.0,05:56:14.881,L,109.4,LL,343.8,218.8
1XNJCXS3EY,160806.0,05:56:21.121,R,125.0,LR,265.6,62.5
1XNJCXS3EY,160806.0,05:56:21.480,L,156.3,RL,328.1,203.1
1XNJCXS3EY,160806.0,05:56:21.889,R,93.8,LR,470.7,314.5
1XNJCXS3EY,160806.0,05:56:22.877,R,146.5,LR,406.3,234.4
1XNJCXS3EY,160806.0,05:56:23.939,R,95.7,LR,437.5,285.2
1XNJCXS3EY,160806.0,05:56:35.977,L,179.7,RL,320.3,234.4
1XNJCXS3EY,160806.0,05:56:36.350,R,99.6,LR,453.1,273.4
1XNJCXS3EY,160806.0,05:56:36.635,L,68.4,RL,154.3,216.8
1XNJCXS3EY,160806.0,05:56:36.650,R,84.0,LR,154.3,216.8
1XNJCXS3EY,160806.0,05:56:37.637,R,99.6,LR,453.1,287.1
1XNJCXS3EY,160806.0,05:58:05.629,L,168.0,LL,296.9,164.1
1XNJCXS3EY,160806.0,05:58:05.967,R,101.6,LR,404.3,236.3
1XNJCXS3EY,160806.0,05:58:06.182,R,99.6,RR,216.8,115.2
1XNJCXS3EY,160806.0,05:58:06.613,R,99.6,RR,431.6,332.0
1XNJCXS3EY,160806.0,05:58:07.600,R,115.2,LR,267.6,121.1
1XNJCXS3EY,160806.0,05:58:08.434,R,117.2,LR,248.0,84.0
1XNJCXS3EY,160806.0,05:58:17.783,R,62.5,LR,285.2,152.3
1XNJCXS3EY,160806.0,05:58:21.014,R,84.0,LR,252.0,115.2
1XNJCXS3EY,160806.0,05:59:14.363,L,207.0,RL,199.2,97.7
1XNJCXS3EY,160806.0,05:59:15.246,L,138.7,LL,431.6,316.4
1XNJCXS3EY,160806.0,05:59:15.738,L,246.1,LL,384.8,246.1
1XNJCXS3EY,160806.0,05:59:15.879,R,93.8,LR,293.0,46.9
1XNJCXS3EY,160806.0,05:59:16.182,R,103.5,RR,293.0,199.2
1XNJCXS3EY,160806.0,05:59:16.434,R,101.6,RR,253.9,150.4
1XNJCXS3EY,160806.0,05:59:16.781,L,248.0,RL,201.2,99.6
1XNJCXS3EY,160806.0,06:01:31.436,R,130.9,LR,330.1,185.5
1XNJCXS3EY,160806.0,06:01:33.010,R,113.3,LR,318.4,203.1
1XNJCXS3EY,160806.0,06:01:53.730,R,160.2,LR,269.5,130.9
1XNJCXS3EY,160806.0,06:01:55.264,R,158.2,LR,332.0,162.1
1XNJCXS3EY,160806.0,06:01:56.863,L,115.2,LL,169.9,35.2
1XNJCXS3EY,160806.0,06:02:06.689,R,127.0,LR,271.5,85.9
1XNJCXS3EY,160806.0,06:02:08.285,R,140.6,LR,363.3,214.8
1XNJCXS3EY,160806.0,06:02:08.730,L,132.8,RL,453.1,312.5
1XNJCXS3EY,160806.0,06:02:09.170,L,185.5,LL,386.7,253.9
1XNJCXS3EY,160806.0,06:03:40.408,R,85.9,LR,316.4,146.5
1XNJCXS3EY,160806.0,06:03:56.910,R,91.8,LR,193.4,15.6
1XNJCXS3EY,160806.0,06:03:58.076,R,132.8,LR,236.3,93.8
1XNJCXS3EY,160806.0,06:04:07.592,R,85.9,LR,242.2,97.7
1XNJCXS3EY,160806.0,06:04:42.232,R,85.9,LR,195.3,78.1
1XNJCXS3EY,160806.0,06:04:43.459,R,132.8,LR,252.0,134.8
1XNJCXS3EY,160806.0,06:05:26.543,L,203.1,RL,252.0,156.3
1XNJCXS3EY,160806.0,06:05:27.059,L,236.3,LL,482.4,279.3
1XNJCXS3EY,160806.0,06:05:27.918,L,203.1,LL,359.4,220.7
1XNJCXS3EY,160806.0,06:05:28.123,R,107.4,LR,300.8,97.7
1XNJCXS3EY,160806.0,06:05:28.422,R,125.0,RR,281.3,173.8
1XNJCXS3EY,160806.0,06:05:28.654,R,78.1,RR,279.3,154.3
1XNJCXS3EY,160806.0,06:05:28.951,L,171.9,RL,203.1,125.0
1XNJCXS3EY,160806.0,06:29:41.959,R,117.2,RR,257.8,152.3
1XNJCXS3EY,160806.0,06:30:41.729,L,271.5,RL,302.7,201.2
1XNJCXS3EY,160806.0,06:30:42.848,L,173.8,LL,429.7,201.2
1XNJCXS3EY,160806.0,06:30:45.920,L,115.2,LL,371.1,216.8
1XNJCXS3EY,160806.0,06:30:46.867,S,99.6,LS,382.8,191.4
1XNJCXS3EY,160806.0,06:30:47.334,R,115.2,SR,451.2,351.6
1XNJCXS3EY,160806.0,06:30:48.523,R,91.8,RR,355.5,255.9
1XNJCXS3EY,160806.0,06:30:48.904,S,78.1,RS,394.5,302.7
1XNJCXS3EY,160806.0,06:30:49.365,L,158.2,SL,380.9,302.7
1XNJCXS3EY,160806.0,06:30:49.873,L,240.2,LL,425.8,267.6
1XNJCXS3EY,160806.0,06:30:50.146,R,142.6,LR,371.1,130.9
1XNJCXS3EY,160806.0,06:36:58.238,R,93.8,RR,363.3,240.2
1XNJCXS3EY,160806.0,06:36:59.225,R,78.1,SR,334.0,234.4
1XNJCXS3EY,160806.0,06:37:01.115,L,99.6,LL,367.2,248.0
1XNJCXS3EY,160806.0,06:37:01.479,L,87.9,LL,375.0,275.4
1XNJCXS3EY,160806.0,06:37:01.887,S,119.1,LS,377.0,289.1
1XNJCXS3EY,160806.0,06:37:03.168,R,97.7,RR,466.8,367.2
1XNJCXS3EY,160806.0,06:37:06.385,S,80.1,SS,310.5,201.2
1XNJCXS3EY,160806.0,07:32:52.561,L,255.9,RL,216.8,117.2
1XNJCXS3EY,160806.0,07:32:52.705,S,99.6,LS,300.8,44.9
1XNJCXS3EY,160806.0,07:32:53.160,L,285.2,SL,269.5,169.9
1XNJCXS3EY,160806.0,07:33:07.783,L,214.8,RL,390.6,267.6
1XNJCXS3EY,160806.0,07:33:08.502,R,85.9,RR,300.8,185.5
1XNJCXS3EY,160806.0,07:33:08.887,L,154.3,RL,316.4,230.5
1XNJCXS3EY,160806.0,07:33:48.893,R,68.4,RR,265.6,164.1
1XNJCXS3EY,160806.0,07:33:49.193,R,146.5,RR,222.7,154.3
1XNJCXS3EY,160806.0,07:33:49.426,R,132.8,RR,246.1,99.6
1XNJCXS3EY,160806.0,07:33:49.662,R,115.2,RR,253.9,121.1
1XNJCXS3EY,160806.0,07:33:49.881,R,85.9,RR,248.0,132.8
1XNJCXS3EY,160806.0,07:33:50.064,R,84.0,RR,185.5,99.6
1XNJCXS3EY,160806.0,07:35:55.545,L,285.2,RL,203.1,101.6
1XNJCXS3EY,160806.0,07:35:56.359,S,101.6,LS,402.3,234.4
1XNJCXS3EY,160806.0,07:35:58.473,R,119.1,LR,216.8,101.6
1XNJCXS3EY,160806.0,08:24:21.279,L,218.8,RL,238.3,107.4
1XNJCXS3EY,160806.0,08:24:21.604,R,162.1,LR,380.9,162.1
1XNJCXS3EY,160806.0,08:24:21.939,L,162.1,RL,335.9,173.8
1XNJCXS3EY,160806.0,08:24:22.309,S,125.0,LS,406.3,244.1
1XNJCXS3EY,160806.0,08:24:22.609,L,173.8,SL,252.0,127.0
1XNJCXS3EY,160806.0,08:24:23.107,L,222.7,LL,449.2,275.4
1XNJCXS3EY,160806.0,08:24:23.453,L,132.8,LL,435.5,212.9
1XNJCXS3EY,160806.0,08:24:25.012,R,127.0,RR,400.4,283.2
1XNJCXS3EY,160806.0,08:24:25.424,L,140.6,RL,398.4,271.5
1XNJCXS3EY,160806.0,10:06:51.430,R,160.2,RR,335.9,175.8
1XNJCXS3EY,160806.0,10:12:44.566,R,113.3,SR,496.1,398.4
1XNJCXS3EY,160806.0,10:12:45.047,R,113.3,RR,480.5,367.2
1XNJCXS3EY,160806.0,10:12:45.301,R,109.4,RR,257.8,144.5
1XNJCXS3EY,160806.0,10:12:46.184,S,128.9,LS,335.9,175.8
1XNJCXS3EY,160806.0,10:12:47.332,R,109.4,RR,480.5,351.6
1XNJCXS3EY,160806.0,10:13:07.316,L,253.9,RL,191.4,97.7
1XNJCXS3EY,160806.0,10:13:08.230,S,128.9,LS,429.7,160.2
1XNJCXS3EY,160806.0,10:13:08.520,R,97.7,SR,320.3,191.4
1XNJCXS3EY,160806.0,10:13:08.820,R,109.4,RR,289.1,191.4
1XNJCXS3EY,160806.0,10:13:09.047,R,82.0,RR,253.9,144.5
1XNJCXS3EY,160806.0,10:13:09.461,L,175.8,RL,320.3,238.3
1XNJCXS3EY,160806.0,10:13:09.637,S,144.5,LS,207.0,31.3
1XNJCXS3EY,160806.0,10:13:13.207,R,82.0,RR,335.9,253.9
1XNJCXS3EY,160806.0,10:13:13.621,L,175.8,RL,320.3,238.3
1XNJCXS3EY,160806.0,15:28:24.438,L,187.5,LL,484.4,281.3
1XNJCXS3EY,160806.0,15:28:36.234,R,125.0,RR,273.4,164.1
1XNJCXS3EY,160806.0,15:28:36.676,L,187.5,RL,378.9,253.9
1XNJCXS3EY,160806.0,15:28:37.070,L,31.3,LL,27.3,363.3
1XNJCXS3EY,160806.0,15:28:37.117,L,78.1,LL,27.3,363.3
1XNJCXS3EY,160806.0,15:31:36.348,R,171.9,RR,472.7,363.3
1XNJCXS3EY,160806.0,15:31:41.590,L,222.7,RL,265.6,152.3
1XNJCXS3EY,160806.0,15:31:41.984,L,125.0,LL,492.2,269.5
1XNJCXS3EY,160806.0,15:32:55.504,R,109.4,RR,312.5,203.1
1XNJCXS3EY,160806.0,16:02:36.641,L,203.1,LL,296.9,171.9
1XNJCXS3EY,160806.0,16:02:38.051,L,234.4,SL,425.8,300.8
1XNJCXS3EY,160807.0,03:48:50.107,S,62.5,SS,187.5,93.8
1XNJCXS3EY,160807.0,03:49:49.040,S,78.1,LS,453.1,296.9
1XNJCXS3EY,160807.0,03:50:31.631,L,265.6,RL,218.8,125.0
1XNJCXS3EY,160807.0,03:50:51.003,L,31.3,LL,328.1,203.1
1XNJCXS3EY,160807.0,03:51:13.472,L,155.3,LL,422.9,313.5
1XNJCXS3EY,160807.0,03:51:42.741,L,140.6,LL,468.8,312.5
1XNJCXS3EY,160807.0,03:51:45.120,R,96.7,RR,360.4,219.7
1XNJCXS3EY,160807.0,03:58:10.668,L,187.5,RL,437.5,359.4
1XNJCXS3EY,160807.0,03:59:17.451,R,16.6,RR,358.4,250.0
1XNJCXS3EY,160807.0,04:00:11.209,L,203.1,RL,258.8,93.8
1XNJCXS3EY,160807.0,04:00:14.729,R,110.4,RR,469.7,359.4
1XNJCXS3EY,160807.0,04:00:15.042,R,78.1,RR,345.7,235.4
1XNJCXS3EY,160807.0,15:51:26.160,R,125.0,LR,468.8,265.6
1XNJCXS3EY,160807.0,15:51:26.707,L,281.3,RL,390.6,265.6
1XNJCXS3EY,160807.0,15:51:28.145,L,265.6,RL,453.1,312.5
1XNJCXS3EY,160807.0,15:51:35.512,L,93.8,LL,312.5,78.1
1XNJCXS3EY,160807.0,15:51:38.496,R,93.8,LR,343.8,156.3
1XNJCXS3EY,160807.0,15:51:38.824,R,109.4,RR,312.5,218.8
1XNJCXS3EY,160807.0,15:51:39.168,L,156.3,RL,296.9,187.5
1XNJCXS3EY,160807.0,15:54:06.496,L,109.4,LL,421.9,328.1
1XNJCXS3EY,160807.0,15:54:08.148,L,62.5,LL,464.8,328.1
1XNJCXS3EY,160808.0,06:35:18.828,R,125.0,RR,484.4,375.0
1XNJCXS3EY,160808.0,06:35:30.604,R,185.5,RR,375.0,236.3
1XNJCXS3EY,160808.0,06:35:32.275,R,357.4,RR,406.3,250.0
1XNJCXS3EY,160808.0,06:49:22.549,L,127.0,LL,416.0,337.9
1XNJCXS3EY,160808.0,06:49:22.963,L,78.1,LL,464.8,337.9
1XNJCXS3EY,160808.0,06:49:24.578,L,127.0,LL,480.5,369.1
1XNJCXS3EY,160808.0,07:01:54.709,L,93.8,LL,218.8,125.0
1XNJCXS3EY,160808.0,07:01:55.146,L,109.4,LL,421.9,328.1
1XNJCXS3EY,160808.0,07:01:55.428,L,93.8,LL,296.9,187.5
1XNJCXS3EY,160808.0,07:01:59.662,L,109.4,LL,265.6,156.3
1XNJCXS3EY,160808.0,07:46:08.912,S,31.3,SS,93.8,46.9
1XNJCXS3EY,160809.0,18:09:03.055,L,191.4,LL,250.0,140.6
1XNJCXS3EY,160809.0,18:09:03.363,R,93.8,LR,406.3,214.8
1XNJCXS3EY,160809.0,18:09:03.566,R,78.1,RR,218.8,125.0
1XNJCXS3EY,160809.0,18:09:05.180,R,82.0,LR,187.5,62.5
1XNJCXS3EY,160809.0,18:09:06.273,R,93.8,LR,234.4,125.0
1XNJCXS3EY,160809.0,18:09:11.227,R,78.1,LR,484.4,312.5
1XNJCXS3EY,160809.0,18:09:12.336,R,109.4,LR,156.3,15.6
1XNJCXS3EY,160809.0,18:09:12.633,R,93.8,RR,312.5,203.1
1XNJCXS3EY,160809.0,18:09:14.789,L,46.9,RL,125.0,328.1
1XNJCXS3EY,160809.0,18:09:14.852,R,109.4,LR,125.0,328.1
1XNJCXS3EY,160809.0,18:09:15.117,R,62.5,RR,312.5,203.1
1XNJCXS3EY,160809.0,18:09:47.715,L,191.4,LL,261.7,156.3
1XNJCXS3EY,160809.0,18:09:47.945,R,58.6,LR,363.3,171.9
1XNJCXS3EY,160809.0,18:09:48.184,R,93.8,RR,203.1,144.5
1XNJCXS3EY,160809.0,18:09:48.539,R,93.8,RR,355.5,261.7
1XNJCXS3EY,160809.0,18:09:49.090,L,175.8,RL,468.8,375.0
1XNJCXS3EY,160809.0,18:09:49.387,R,78.1,LR,394.5,218.8
1XNJCXS3EY,160809.0,18:09:55.043,R,93.8,LR,390.6,265.6
1XNJCXS3EY,160809.0,18:09:56.715,R,93.8,RR,484.4,390.6
1XNJCXS3EY,160809.0,18:09:58.965,L,156.3,RL,250.0,171.9
1XNJCXS3EY,160809.0,18:09:59.188,R,128.9,LR,250.0,93.8
1XNJCXS3EY,160809.0,18:09:59.469,R,78.1,RR,332.0,203.1
1XNJCXS3EY,160809.0,18:10:58.215,L,187.5,RL,218.8,140.6
1XNJCXS3EY,160809.0,18:10:58.637,L,140.6,LL,468.8,281.3
1XNJCXS3EY,160809.0,18:10:59.090,L,171.9,LL,421.9,281.3
1XNJCXS3EY,160809.0,18:11:00.555,R,93.8,LR,187.5,78.1
1XNJCXS3EY,160809.0,18:11:00.820,R,78.1,RR,281.3,187.5
1XNJCXS3EY,160809.0,18:11:01.133,R,78.1,RR,312.5,234.4
1XNJCXS3EY,160809.0,18:11:01.461,L,140.6,RL,265.6,187.5
1XNJCXS3EY,160809.0,18:35:58.922,R,31.3,RR,46.9,15.6
1XNJCXS3EY,160809.0,18:35:58.984,R,46.9,RR,46.9,15.6
1XNJCXS3EY,160809.0,18:35:59.031,R,31.3,RR,62.5,15.6
1XNJCXS3EY,160809.0,18:35:59.109,R,62.5,RR,46.9,15.6
1XNJCXS3EY,160809.0,18:35:59.266,L,46.9,LL,62.5,15.6
1XNJCXS3EY,160809.0,18:35:59.297,L,15.6,LL,62.5,15.6
1XNJCXS3EY,160809.0,18:51:51.703,R,93.8,LR,250.0,54.7
1XNJCXS3EY,160809.0,18:51:52.039,L,187.5,RL,242.2,148.4
1XNJCXS3EY,160809.0,18:52:05.930,R,101.6,LR,304.7,117.2
1XNJCXS3EY,160809.0,18:52:06.242,R,117.2,RR,296.9,195.3
1XNJCXS3EY,160809.0,18:52:07.898,R,85.9,RR,484.4,335.9
1XNJCXS3EY,160809.0,18:52:08.438,L,140.6,RL,484.4,398.4
1XNJCXS3EY,160809.0,18:52:08.797,L,132.8,LL,367.2,226.6
1XNJCXS3EY,160809.0,18:52:09.102,S,46.9,LS,390.6,257.8
1XNJCXS3EY,160809.0,18:52:09.516,L,234.4,SL,226.6,179.7
1XNJCXS3EY,160809.0,18:52:09.820,L,140.6,LL,398.4,164.1
1XNJCXS3EY,160809.0,18:52:10.250,L,39.1,LL,164.1,390.6
1XNJCXS3EY,160809.0,18:52:10.398,L,187.5,LL,164.1,390.6
1XNJCXS3EY,160809.0,18:52:10.773,R,93.8,LR,468.8,281.3
1XNJCXS3EY,160809.0,18:52:11.180,S,85.9,RS,414.1,320.3
1XNJCXS3EY,160809.0,18:52:11.625,R,117.2,SR,414.1,328.1
1XNJCXS3EY,160809.0,18:52:11.891,R,117.2,RR,265.6,148.4
1XNJCXS3EY,160809.0,18:52:12.242,R,101.6,RR,367.2,250.0
1XNJCXS3EY,160809.0,18:52:12.609,R,85.9,RR,382.8,281.3
1XNJCXS3EY,160809.0,18:52:13.062,L,156.3,RL,382.8,296.9
1XNJCXS3EY,160809.0,18:52:24.531,L,187.5,RL,242.2,140.6
1XNJCXS3EY,160809.0,18:52:24.625,S,54.7,LS,226.6,39.1
1XNJCXS3EY,160809.0,18:52:25.031,L,54.7,SL,132.8,351.6
1XNJCXS3EY,160809.0,18:52:25.094,R,117.2,LR,132.8,351.6
1XNJCXS3EY,160809.0,18:52:25.484,L,226.6,RL,281.3,164.1
1XNJCXS3EY,160809.0,18:52:25.578,S,78.1,LS,242.2,15.6
1XNJCXS3EY,160809.0,18:52:25.914,L,140.6,SL,273.4,195.3
1XNJCXS3EY,160809.0,18:52:26.438,L,195.3,LL,468.8,328.1
1XNJCXS3EY,160809.0,18:52:36.891,S,62.5,LS,476.6,328.1
1XNJCXS3EY,160809.0,18:52:38.172,L,171.9,RL,242.2,156.3
1XNJCXS3EY,160809.0,18:52:38.453,S,109.4,LS,343.8,171.9
1XNJCXS3EY,160809.0,18:52:40.273,L,156.3,LL,437.5,343.8
1XNJCXS3EY,160809.0,18:52:41.875,R,93.8,RR,312.5,210.9
1XNJCXS3EY,160809.0,18:52:42.266,L,140.6,RL,343.8,250.0
1XNJCXS3EY,160809.0,18:52:42.477,S,54.7,LS,296.9,156.3
1XNJCXS3EY,160809.0,18:52:44.523,L,85.9,SL,281.3,218.8
1XNJCXS3EY,160809.0,18:52:44.984,L,203.1,LL,343.8,257.8
1XNJCXS3EY,160809.0,18:52:46.508,S,46.9,RS,414.1,335.9
1XNJCXS3EY,160809.0,18:52:46.883,L,171.9,SL,250.0,203.1
1XNJCXS3EY,160809.0,18:52:47.164,R,117.2,LR,335.9,164.1
1XNJCXS3EY,160809.0,18:52:47.445,R,70.3,RR,328.1,210.9
1XNJCXS3EY,160809.0,18:52:47.742,L,140.6,RL,226.6,156.3
1XNJCXS3EY,160809.0,18:52:47.969,S,101.6,LS,265.6,125.0
1XNJCXS3EY,160809.0,18:52:48.391,R,117.2,SR,406.3,304.7
1XNJCXS3EY,160809.0,18:52:48.734,R,117.2,RR,343.8,226.6
1XNJCXS3EY,160809.0,18:52:51.055,S,78.1,LS,453.1,335.9
1XNJCXS3EY,160809.0,18:52:51.938,L,179.7,RL,226.6,117.2
1XNJCXS3EY,160809.0,18:52:52.102,R,101.6,LR,242.2,62.5
1XNJCXS3EY,160809.0,18:52:54.039,L,179.7,RL,171.9,62.5
1XNJCXS3EY,160809.0,18:52:54.391,R,101.6,LR,429.7,250.0
1XNJCXS3EY,160809.0,18:52:54.734,L,164.1,RL,281.3,179.7
1XNJCXS3EY,160809.0,18:52:55.156,L,125.0,LL,460.9,296.9
1XNJCXS3EY,160809.0,18:53:10.234,S,54.7,SS,242.2,140.6
1XNJCXS3EY,160809.0,20:57:35.969,R,93.8,RR,343.8,250.0
1XNJCXS3EY,160809.0,20:57:37.203,R,140.6,RR,281.3,171.9
1XNJCXS3EY,160809.0,20:57:37.484,R,109.4,RR,312.5,171.9
1XNJCXS3EY,160809.0,20:57:38.312,L,93.8,LL,296.9,203.1
1XNJCXS3EY,160809.0,20:57:39.539,R,109.4,RR,359.4,234.4
1XNJCXS3EY,160809.0,20:57:39.930,R,125.0,RR,375.0,265.6
1XNJCXS3EY,160809.0,20:57:49.562,R,125.0,RR,328.1,187.5
1XNJCXS3EY,160809.0,21:02:09.859,L,78.1,RL,421.9,281.3
1XNJCXS3EY,160809.0,21:02:10.188,S,125.0,LS,281.3,203.1
1XNJCXS3EY,160809.0,21:02:12.094,L,62.5,RL,453.1,343.8
1XNJCXS3EY,160809.0,21:02:22.328,L,250.0,LL,265.6,125.0
1XNJCXS3EY,160809.0,21:02:22.609,R,93.8,LR,437.5,187.5
1XNJCXS3EY,160809.0,21:02:22.844,R,125.0,RR,203.1,109.4
1XNJCXS3EY,160809.0,21:02:23.219,R,93.8,RR,406.3,281.3
1XNJCXS3EY,160809.0,21:02:23.750,L,140.6,RL,484.4,390.6
1XNJCXS3EY,160809.0,21:02:24.000,R,78.1,LR,312.5,171.9
1XNJCXS3EY,160809.0,21:02:24.820,R,62.5,LR,234.4,125.0
1XNJCXS3EY,160809.0,21:02:31.641,R,125.0,LR,164.1,39.1
1XNJCXS3EY,160809.0,21:02:35.391,R,62.5,LR,390.6,265.6
1XNJCXS3EY,160809.0,21:02:51.781,R,93.8,SR,375.0,296.9
1XNJCXS3EY,160809.0,21:02:52.125,L,203.1,RL,234.4,140.6
1XNJCXS3EY,160809.0,21:02:52.430,L,132.8,LL,375.0,171.9
1XNJCXS3EY,160809.0,21:02:52.805,L,140.6,LL,367.2,234.4
1XNJCXS3EY,160809.0,21:02:53.086,L,187.5,LL,234.4,93.8
1XNJCXS3EY,160809.0,21:02:53.414,S,78.1,LS,437.5,250.0
1XNJCXS3EY,160809.0,21:02:53.773,R,93.8,SR,343.8,265.6
1XNJCXS3EY,160809.0,21:03:00.773,L,140.6,LL,367.2,234.4
1XNJCXS3EY,160809.0,21:03:01.945,R,93.8,SR,359.4,281.3
1XNJCXS3EY,160809.0,21:03:02.305,R,93.8,RR,359.4,265.6
1XNJCXS3EY,160809.0,21:03:02.664,S,93.8,RS,359.4,265.6
1XNJCXS3EY,160809.0,21:03:03.852,R,109.4,LR,250.0,109.4
1XNJCXS3EY,160809.0,21:03:04.148,L,140.6,RL,265.6,156.3
1XNJCXS3EY,160809.0,21:03:04.484,R,101.6,LR,375.0,234.4
1XNJCXS3EY,160809.0,21:04:05.102,L,218.8,LL,359.4,234.4
1XNJCXS3EY,160809.0,21:04:05.289,L,109.4,LL,296.9,78.1
1XNJCXS3EY,160809.0,21:04:07.078,L,140.6,SL,328.1,250.0
1XNJCXS3EY,160809.0,21:04:07.453,L,140.6,LL,375.0,234.4
1XNJCXS3EY,160809.0,21:04:07.883,R,101.6,LR,468.8,328.1
1XNJCXS3EY,160809.0,21:04:09.281,R,140.6,LR,156.3,15.6
1XNJCXS3EY,160809.0,21:04:09.594,R,78.1,RR,375.0,234.4
1XNJCXS3EY,160809.0,21:04:11.227,S,62.5,RS,281.3,203.1
1XNJCXS3EY,160809.0,21:04:11.617,L,140.6,SL,312.5,250.0
1XNJCXS3EY,160809.0,21:04:11.836,R,93.8,LR,265.6,125.0
1XNJCXS3EY,160809.0,21:04:12.273,L,140.6,RL,390.6,296.9
1XNJCXS3EY,160809.0,21:04:12.555,S,78.1,LS,343.8,203.1
1XNJCXS3EY,160809.0,21:04:14.852,R,78.1,LR,234.4,93.8
1XNJCXS3EY,160809.0,21:04:16.133,R,125.0,LR,296.9,140.6
1XNJCXS3EY,160809.0,21:04:16.461,S,62.5,RS,390.6,265.6
1XNJCXS3EY,160809.0,21:04:18.305,L,265.6,SL,406.3,359.4
1XNJCXS3EY,160809.0,21:04:21.938,L,156.3,RL,203.1,125.0
1XNJCXS3EY,160809.0,21:04:22.219,S,78.1,LS,359.4,203.1
1XNJCXS3EY,160809.0,21:04:23.289,R,93.8,LR,265.6,78.1
1XNJCXS3EY,160809.0,21:04:23.695,L,171.9,RL,328.1,234.4
1XNJCXS3EY,160809.0,21:04:24.023,R,93.8,LR,406.3,234.4
1XNJCXS3EY,160809.0,21:04:24.586,L,171.9,RL,484.4,390.6
1XNJCXS3EY,160809.0,21:04:24.945,S,62.5,LS,468.8,296.9
1XNJCXS3EY,160809.0,21:04:26.656,L,148.4,LL,265.6,54.7
1XNJCXS3EY,160809.0,21:04:27.070,L,171.9,LL,390.6,242.2
1XNJCXS3EY,160809.0,21:04:59.242,S,78.1,SS,218.8,125.0
1XNJCXS3EY,160809.0,21:06:52.812,L,187.5,RL,335.9,218.8
1XNJCXS3EY,160809.0,21:06:53.172,L,109.4,LL,437.5,250.0
1XNJCXS3EY,160809.0,21:06:53.547,S,109.4,LS,375.0,265.6
1XNJCXS3EY,160809.0,21:06:56.727,R,85.9,LR,218.8,23.4
1XNJCXS3EY,160809.0,21:06:57.117,L,226.6,RL,250.0,164.1
1XNJCXS3EY,160809.0,21:06:57.422,L,101.6,LL,429.7,203.1
1XNJCXS3EY,160809.0,21:06:58.609,S,78.1,RS,312.5,226.6
1XNJCXS3EY,160809.0,21:06:59.102,L,148.4,SL,421.9,343.8
1XNJCXS3EY,160809.0,21:07:01.227,R,109.4,LR,320.3,218.8
1XNJCXS3EY,160809.0,21:07:01.430,R,78.1,RR,234.4,125.0
1XNJCXS3EY,160809.0,21:07:03.016,L,78.1,LL,125.0,93.8
1XNJCXS3EY,160809.0,21:07:21.430,R,93.8,LR,250.0,46.9
1XNJCXS3EY,160809.0,21:07:21.867,R,78.1,RR,453.1,359.4
1XNJCXS3EY,160809.0,21:07:22.305,L,187.5,RL,328.1,250.0
1XNJCXS3EY,160809.0,21:07:22.617,R,93.8,LR,406.3,218.8
1XNJCXS3EY,160809.0,21:07:23.023,L,140.6,RL,359.4,265.6
1XNJCXS3EY,160809.0,21:07:23.352,L,125.0,LL,343.8,203.1
1XNJCXS3EY,160809.0,21:07:24.258,R,109.4,SR,359.4,281.3
1XNJCXS3EY,160809.0,21:07:24.602,R,93.8,RR,359.4,250.0
1XNJCXS3EY,160809.0,21:07:24.992,S,109.4,RS,375.0,281.3
1XNJCXS3EY,160809.0,21:07:25.945,L,171.9,RL,328.1,234.4
1XNJCXS3EY,160809.0,21:07:26.211,R,78.1,LR,359.4,187.5
1XNJCXS3EY,160809.0,21:07:26.734,L,125.0,RL,476.6,398.4
1XNJCXS3EY,160809.0,21:07:29.688,R,85.9,LR,164.1,23.4
1XNJCXS3EY,160809.0,21:07:30.062,L,125.0,RL,335.9,250.0
1XNJCXS3EY,160809.0,21:07:45.055,R,125.0,LR,265.6,62.5
1XNJCXS3EY,160809.0,21:07:45.492,L,218.8,RL,343.8,218.8
1XNJCXS3EY,160809.0,21:07:46.383,L,187.5,RL,203.1,93.8
1XNJCXS3EY,160809.0,21:07:46.797,L,187.5,LL,414.1,226.6
1XNJCXS3EY,160809.0,21:07:48.141,R,109.4,LR,437.5,265.6
1XNJCXS3EY,160809.0,21:07:48.383,L,195.3,RL,156.3,46.9
1XNJCXS3EY,160809.0,21:07:48.836,L,234.4,LL,414.1,218.8
1XNJCXS3EY,160809.0,21:07:49.117,R,109.4,LR,406.3,171.9
1XNJCXS3EY,160809.0,21:07:49.430,L,187.5,RL,234.4,125.0
1XNJCXS3EY,160809.0,21:07:50.133,R,78.1,LR,296.9,187.5
1XNJCXS3EY,160809.0,21:07:50.562,L,125.0,RL,382.8,304.7
1XNJCXS3EY,160809.0,21:07:51.016,L,203.1,LL,375.0,250.0
1XNJCXS3EY,160809.0,21:07:51.352,S,85.9,LS,453.1,250.0
1XNJCXS3EY,160809.0,21:07:51.805,L,156.3,SL,382.8,296.9
1XNJCXS3EY,160809.0,21:07:52.195,L,140.6,LL,406.3,250.0
1XNJCXS3EY,160809.0,21:07:52.531,L,125.0,LL,351.6,210.9
1XNJCXS3EY,160809.0,21:07:52.766,R,93.8,LR,265.6,140.6
1XNJCXS3EY,160809.0,21:07:53.141,L,125.0,RL,343.8,250.0
1XNJCXS3EY,160809.0,21:07:53.500,L,171.9,LL,312.5,187.5
1XNJCXS3EY,160809.0,21:07:53.797,L,109.4,LL,359.4,187.5
1XNJCXS3EY,160809.0,21:07:55.016,R,93.8,RR,250.0,156.3
1XNJCXS3EY,160809.0,21:07:55.203,R,78.1,RR,203.1,109.4
1XNJCXS3EY,160809.0,21:09:17.773,L,218.8,RL,187.5,93.8
1XNJCXS3EY,160809.0,21:09:20.383,R,109.4,LR,234.4,62.5
1XNJCXS3EY,160809.0,21:09:20.773,R,93.8,RR,406.3,296.9
1XNJCXS3EY,160809.0,21:09:21.133,L,171.9,RL,281.3,187.5
1XNJCXS3EY,160809.0,21:09:21.539,R,93.8,LR,484.4,312.5
1XNJCXS3EY,160809.0,21:09:21.836,R,109.4,RR,281.3,187.5
1XNJCXS3EY,160809.0,21:09:29.094,R,101.6,SR,335.9,273.4
1XNJCXS3EY,160809.0,21:09:29.406,L,156.3,RL,257.8,156.3
1XNJCXS3EY,160809.0,21:09:29.688,S,93.8,LS,343.8,187.5
1XNJCXS3EY,160809.0,21:09:29.984,R,93.8,SR,296.9,203.1
1XNJCXS3EY,160809.0,21:09:30.312,L,156.3,RL,265.6,171.9
1XNJCXS3EY,160809.0,21:09:30.516,S,78.1,LS,281.3,125.0
1XNJCXS3EY,160809.0,21:09:30.859,L,140.6,SL,281.3,203.1
1XNJCXS3EY,160809.0,21:09:31.250,L,148.4,LL,382.8,242.2
1XNJCXS3EY,160809.0,21:09:31.547,L,125.0,LL,320.3,171.9
1XNJCXS3EY,160809.0,21:09:33.062,L,328.1,RL,171.9,93.8
1XNJCXS3EY,160809.0,21:09:33.258,L,109.4,LL,414.1,85.9
1XNJCXS3EY,160809.0,21:09:33.539,S,93.8,LS,296.9,187.5
1XNJCXS3EY,160809.0,21:09:33.867,L,140.6,SL,281.3,187.5
1XNJCXS3EY,160809.0,21:09:34.055,R,109.4,LR,218.8,78.1
1XNJCXS3EY,160809.0,21:09:34.430,S,93.8,RS,390.6,281.3
1XNJCXS3EY,160809.0,21:09:35.344,L,203.1,RL,289.1,164.1
1XNJCXS3EY,160809.0,21:09:35.672,R,93.8,LR,437.5,234.4
1XNJCXS3EY,160809.0,21:09:36.062,S,62.5,RS,421.9,328.1
1XNJCXS3EY,160809.0,21:09:36.969,R,78.1,LR,328.1,125.0
1XNJCXS3EY,160809.0,21:09:37.320,R,93.8,RR,335.9,257.8
1XNJCXS3EY,160809.0,21:09:37.555,R,78.1,RR,250.0,156.3
1XNJCXS3EY,160809.0,21:09:37.898,S,93.8,RS,328.1,250.0
1XNJCXS3EY,160809.0,21:09:38.180,L,109.4,SL,265.6,171.9
1XNJCXS3EY,160809.0,21:09:38.547,L,179.7,LL,296.9,187.5
1XNJCXS3EY,160809.0,21:09:38.719,R,117.2,LR,234.4,54.7
1XNJCXS3EY,160809.0,21:09:38.969,R,78.1,RR,289.1,171.9
1XNJCXS3EY,160809.0,21:09:39.250,S,93.8,RS,265.6,187.5
1XNJCXS3EY,160809.0,21:09:40.609,R,109.4,RR,437.5,312.5
1XNJCXS3EY,160809.0,21:09:40.688,R,62.5,RR,125.0,15.6
1XNJCXS3EY,160809.0,21:09:41.117,R,117.2,RR,375.0,312.5
1XNJCXS3EY,160809.0,21:09:43.664,L,156.3,SL,312.5,218.8
1XNJCXS3EY,160809.0,21:09:43.914,R,78.1,LR,328.1,171.9
1XNJCXS3EY,160809.0,21:09:44.148,L,171.9,RL,140.6,62.5
1XNJCXS3EY,160809.0,21:09:44.555,L,187.5,LL,390.6,218.8
1XNJCXS3EY,160809.0,21:09:44.820,R,93.8,LR,359.4,171.9
1XNJCXS3EY,160809.0,21:09:45.133,R,109.4,RR,296.9,203.1
1XNJCXS3EY,160809.0,21:09:45.383,R,78.1,RR,281.3,171.9
1XNJCXS3EY,160809.0,21:09:45.680,L,187.5,RL,187.5,109.4
1XNJCXS3EY,160809.0,21:09:45.805,S,62.5,LS,250.0,62.5
1XNJCXS3EY,160809.0,21:09:46.195,L,156.3,SL,296.9,234.4
1XNJCXS3EY,160809.0,21:09:47.055,L,109.4,LL,265.6,171.9
1XNJCXS3EY,160809.0,21:09:47.477,L,109.4,LL,421.9,312.5
1XNJCXS3EY,160810.0,02:28:40.691,L,234.4,RL,328.1,235.4
1XNJCXS3EY,160810.0,02:28:42.425,L,170.9,LL,390.6,250.0
1XNJCXS3EY,160810.0,02:28:43.582,R,171.9,RR,406.3,266.6
1XNJCXS3EY,160810.0,02:28:43.911,R,125.0,RR,376.0,204.1
1XNJCXS3EY,160810.0,02:48:28.494,R,141.6,RR,390.6,265.6
1XNJCXS3EY,160810.0,02:48:28.822,R,141.6,RR,328.1,186.5
1XNJCXS3EY,160810.0,03:14:46.033,R,83.0,RR,369.1,239.3
1XNJCXS3EY,160810.0,03:14:56.293,R,93.8,RR,375.0,296.9
1XNJCXS3EY,160810.0,09:49:33.312,L,125.0,LL,421.9,316.4
1XNJCXS3EY,160810.0,09:49:33.672,L,62.5,LL,421.9,296.9
1XNJCXS3EY,160810.0,09:49:35.426,R,109.4,RR,410.2,296.9
1XNJCXS3EY,160810.0,09:49:35.723,R,109.4,RR,296.9,187.5
1XNJCXS3EY,160810.0,09:56:43.844,L,78.1,RL,453.1,328.1
1XNJCXS3EY,160810.0,09:56:44.234,L,125.0,LL,343.8,265.6
1XNJCXS3EY,160810.0,09:56:44.547,L,140.6,LL,296.9,171.9
1XNJCXS3EY,160810.0,09:56:44.852,L,101.6,LL,343.8,203.1
1XNJCXS3EY,160810.0,09:56:49.730,L,171.9,RL,293.0,195.3
1XNJCXS3EY,160810.0,09:56:50.027,R,46.9,LR,421.9,250.0
1XNJCXS3EY,160810.0,09:56:50.355,L,93.8,RL,156.3,234.4
1XNJCXS3EY,160810.0,09:56:50.355,R,93.8,LR,156.3,234.4
1XNJCXS3EY,160810.0,09:56:50.887,L,140.6,RL,484.4,390.6
1XNJCXS3EY,160810.0,09:56:51.184,R,93.8,LR,343.8,203.1
1XNJCXS3EY,160810.0,09:57:17.781,L,171.9,LL,390.6,218.8
1XNJCXS3EY,160810.0,09:57:17.000,R,46.9,LR,343.8,171.9
1XNJCXS3EY,160810.0,09:57:18.250,R,109.4,RR,187.5,140.6
1XNJCXS3EY,160810.0,09:57:21.141,R,93.8,LR,359.4,218.8
1XNJCXS3EY,160810.0,09:57:22.594,R,93.8,LR,187.5,78.1
1XNJCXS3EY,160810.0,09:57:29.203,R,109.4,LR,234.4,125.0
1XNJCXS3EY,160810.0,09:57:29.578,R,93.8,RR,390.6,281.3
1XNJCXS3EY,160810.0,09:57:32.828,R,93.8,RR,328.1,218.8
1XNJCXS3EY,160810.0,09:57:44.438,R,78.1,RR,296.9,187.5
1XNJCXS3EY,160810.0,09:57:45.328,R,109.4,LR,218.8,109.4
1XNJCXS3EY,160810.0,09:57:45.594,R,93.8,RR,281.3,171.9
1XNJCXS3EY,160810.0,09:57:50.859,R,93.8,LR,281.3,140.6
1XNJCXS3EY,160810.0,09:57:51.203,S,78.1,RS,359.4,265.6
1XNJCXS3EY,160810.0,09:57:52.250,L,140.6,RL,375.0,265.6
1XNJCXS3EY,160810.0,09:57:52.469,S,78.1,LS,281.3,140.6
1XNJCXS3EY,160810.0,09:57:53.922,R,93.8,RR,437.5,328.1
1XNJCXS3EY,160810.0,09:57:56.594,L,125.0,SL,343.8,265.6
1XNJCXS3EY,160810.0,09:57:57.734,L,78.1,LL,468.8,343.8
1XNJCXS3EY,160810.0,09:57:58.219,L,187.5,LL,375.0,296.9
1XNJCXS3EY,160810.0,09:57:59.219,L,156.3,RL,421.9,312.5
1XNJCXS3EY,160810.0,09:57:59.609,S,93.8,LS,453.1,296.9
1XNJCXS3EY,160810.0,09:58:00.594,R,109.4,LR,234.4,93.8
1XNJCXS3EY,160810.0,09:58:00.859,L,187.5,RL,187.5,78.1
1XNJCXS3EY,160810.0,09:58:01.062,S,78.1,LS,312.5,125.0
1XNJCXS3EY,160810.0,09:58:04.078,R,125.0,RR,312.5,218.8
1XNJCXS3EY,160810.0,09:58:04.438,L,140.6,RL,343.8,218.8
1XNJCXS3EY,160810.0,09:58:05.625,L,109.4,LL,421.9,281.3
1XNJCXS3EY,160810.0,09:58:06.109,L,156.3,LL,437.5,328.1
1XNJCXS3EY,160810.0,16:59:59.258,L,238.3,RL,234.4,136.7
1XNJCXS3EY,160810.0,17:00:01.020,L,203.1,LL,390.6,250.0
1XNJCXS3EY,160810.0,17:00:01.258,R,97.7,LR,343.8,140.6
1XNJCXS3EY,160810.0,17:00:01.566,R,93.8,RR,312.5,214.8
1XNJCXS3EY,160810.0,17:00:01.816,R,105.5,RR,238.3,144.5
1XNJCXS3EY,160810.0,17:00:02.098,L,187.5,RL,199.2,93.8
1XNJCXS3EY,160810.0,17:02:14.867,R,101.6,SR,363.3,250.0
1XNJCXS3EY,160810.0,17:02:15.270,L,183.6,RL,320.3,218.8
1XNJCXS3EY,160810.0,17:02:16.320,L,191.4,LL,351.6,203.1
1XNJCXS3EY,160810.0,17:02:19.461,L,93.8,RL,218.8,125.0
1XNJCXS3EY,160810.0,17:02:19.852,L,164.1,LL,320.3,226.6
1XNJCXS3EY,160810.0,17:02:20.184,L,191.4,LL,304.7,140.6
1XNJCXS3EY,160810.0,17:02:20.340,S,78.1,LS,269.5,78.1
1XNJCXS3EY,160810.0,17:02:20.746,L,218.8,SL,265.6,187.5
1XNJCXS3EY,160810.0,17:02:20.887,L,31.3,LL,31.3,109.4
1XNJCXS3EY,160810.0,17:02:20.918,R,62.5,LR,31.3,109.4
1XNJCXS3EY,160810.0,17:02:21.191,S,85.9,RS,250.0,187.5
1XNJCXS3EY,160810.0,17:02:21.570,L,230.5,SL,234.4,148.4
1XNJCXS3EY,160810.0,17:02:21.812,R,101.6,LR,371.1,140.6
1XNJCXS3EY,160810.0,17:02:22.020,R,82.0,RR,226.6,125.0
1XNJCXS3EY,160810.0,17:02:22.387,L,164.1,RL,285.2,203.1
1XNJCXS3EY,160810.0,17:02:23.484,S,82.0,RS,316.4,234.4
1XNJCXS3EY,160810.0,17:02:24.020,L,160.2,SL,457.0,375.0
1XNJCXS3EY,160810.0,17:02:24.145,R,93.8,LR,191.4,31.3
1XNJCXS3EY,160810.0,17:02:24.500,L,50.8,RL,89.8,304.7
1XNJCXS3EY,160810.0,17:02:24.562,R,113.3,LR,89.8,304.7
1XNJCXS3EY,160810.0,17:02:25.961,R,101.6,LR,261.7,93.8
1XNJCXS3EY,160810.0,17:02:26.273,R,140.6,RR,273.4,171.9
1XNJCXS3EY,160810.0,17:02:26.715,L,39.1,RL,121.1,402.3
1XNJCXS3EY,160810.0,17:02:26.754,R,78.1,LR,121.1,402.3
1XNJCXS3EY,160810.0,17:02:27.184,L,246.1,RL,261.7,183.6
1XNJCXS3EY,160810.0,17:02:27.352,L,121.1,LL,293.0,46.9
1XNJCXS3EY,160810.0,17:02:27.676,S,109.4,LS,335.9,214.8
1XNJCXS3EY,160810.0,17:02:28.879,R,82.0,LR,472.7,343.8
1XNJCXS3EY,160810.0,17:02:29.180,L,144.5,RL,238.3,156.3
1XNJCXS3EY,160810.0,17:02:31.926,L,117.2,RL,218.8,136.7
1XNJCXS3EY,160810.0,17:02:32.211,S,82.0,LS,320.3,203.1
1XNJCXS3EY,160810.0,17:02:32.488,L,136.7,SL,222.7,140.6
1XNJCXS3EY,160810.0,17:02:32.629,R,121.1,LR,156.3,19.5
1XNJCXS3EY,160810.0,17:02:32.883,L,144.5,RL,230.5,109.4
1XNJCXS3EY,160810.0,17:02:33.008,S,93.8,LS,175.8,31.3
1XNJCXS3EY,160810.0,17:02:33.293,R,97.7,SR,281.3,187.5
1XNJCXS3EY,160810.0,17:02:33.609,R,109.4,RR,304.7,207.0
1XNJCXS3EY,160810.0,17:02:33.980,S,132.8,RS,347.7,238.3
1XNJCXS3EY,160810.0,17:02:37.191,L,148.4,RL,230.5,140.6
1XNJCXS3EY,160810.0,17:02:37.934,L,121.1,SL,199.2,125.0
1XNJCXS3EY,160810.0,17:02:39.414,L,140.6,LL,414.1,304.7
1XNJCXS3EY,160810.0,17:02:39.758,R,109.4,LR,375.0,234.4
1XNJCXS3EY,160810.0,17:02:41.320,S,66.4,SS,207.0,144.5
1XNJCXS3EY,160810.0,17:02:43.656,L,46.9,RL,179.7,273.4
1XNJCXS3EY,160810.0,17:02:43.703,R,93.8,LR,179.7,273.4
1XNJCXS3EY,160810.0,17:02:44.074,R,164.1,RR,300.8,207.0
1XNJCXS3EY,160810.0,17:02:45.008,R,113.3,SR,410.2,312.5
1XNJCXS3EY,160810.0,17:02:45.406,R,164.1,RR,347.7,234.4
1XNJCXS3EY,160810.0,17:02:45.559,R,105.5,RR,210.9,46.9
1XNJCXS3EY,160810.0,17:04:38.145,S,93.8,LS,308.6,78.1
1XNJCXS3EY,160810.0,17:04:38.512,L,183.6,SL,277.3,183.6
1XNJCXS3EY,160810.0,17:04:38.629,R,101.6,LR,199.2,15.6
1XNJCXS3EY,160810.0,17:04:39.684,L,210.9,RL,285.2,187.5
1XNJCXS3EY,160810.0,17:04:39.840,S,93.8,LS,273.4,62.5
1XNJCXS3EY,160810.0,17:04:40.215,L,27.3,SL,175.8,347.7
1XNJCXS3EY,160810.0,17:04:40.277,R,89.8,LR,175.8,347.7
1XNJCXS3EY,160810.0,17:04:40.594,L,46.9,RL,207.0,269.5
1XNJCXS3EY,160810.0,17:04:40.641,R,93.8,LR,207.0,269.5
1XNJCXS3EY,160810.0,17:04:41.004,S,97.7,RS,359.4,265.6
1XNJCXS3EY,160810.0,17:04:41.473,L,144.5,SL,421.9,324.2
1XNJCXS3EY,160810.0,17:04:41.844,L,152.3,LL,363.3,218.8
1XNJCXS3EY,160810.0,17:04:46.828,R,168.0,RR,394.5,320.3
1XNJCXS3EY,160810.0,17:04:47.027,R,85.9,RR,281.3,113.3
1XNJCXS3EY,160810.0,17:04:47.379,S,89.8,RS,347.7,261.7
1XNJCXS3EY,160810.0,17:04:47.730,R,82.0,SR,359.4,269.5
1XNJCXS3EY,160810.0,17:04:49.281,L,164.1,RL,312.5,214.8
1XNJCXS3EY,160810.0,17:04:50.184,R,105.5,SR,335.9,250.0
1XNJCXS3EY,160810.0,17:04:50.461,R,136.7,RR,246.1,140.6
1XNJCXS3EY,160810.0,17:04:50.703,R,78.1,RR,300.8,164.1
1XNJCXS3EY,160810.0,17:04:51.074,L,175.8,RL,273.4,195.3
1XNJCXS3EY,160810.0,17:04:51.359,R,82.0,LR,378.9,203.1
1XNJCXS3EY,160810.0,17:04:52.645,L,179.7,SL,320.3,203.1
1XNJCXS3EY,160810.0,17:04:52.867,R,97.7,LR,304.7,125.0
1XNJCXS3EY,160810.0,17:04:53.223,S,93.8,RS,359.4,261.7
1XNJCXS3EY,160810.0,17:04:53.516,R,105.5,SR,281.3,187.5
1XNJCXS3EY,160810.0,17:04:53.801,R,128.9,RR,261.7,156.3
1XNJCXS3EY,160810.0,17:04:54.070,L,144.5,RL,253.9,125.0
1XNJCXS3EY,160810.0,17:04:55.770,L,203.1,SL,324.2,250.0
1XNJCXS3EY,160810.0,17:04:56.004,L,203.1,LL,234.4,31.3
1XNJCXS3EY,160810.0,17:04:56.477,L,347.7,LL,328.1,125.0
1XNJCXS3EY,160810.0,17:04:56.848,R,93.8,RR,277.3,187.5
1XNJCXS3EY,160810.0,17:04:57.504,L,328.1,RL,421.9,328.1
1XNJCXS3EY,160810.0,17:05:15.270,R,125.0,SR,449.2,367.2
1XNJCXS3EY,160810.0,17:05:17.090,R,93.8,RR,257.8,171.9
1XNJCXS3EY,160810.0,17:05:17.477,R,109.4,RR,371.1,277.3
1XNJCXS3EY,160810.0,17:05:17.805,L,140.6,RL,296.9,187.5
1XNJCXS3EY,160810.0,17:05:18.297,L,273.4,LL,359.4,218.8
1XNJCXS3EY,160810.0,17:05:18.562,S,93.8,LS,445.3,171.9
1XNJCXS3EY,160810.0,17:05:18.938,L,187.5,SL,281.3,187.5
1XNJCXS3EY,160810.0,17:05:19.090,R,105.5,LR,234.4,46.9
1XNJCXS3EY,160810.0,17:05:19.398,S,89.8,RS,324.2,218.8
1XNJCXS3EY,160810.0,17:05:19.898,L,168.0,SL,421.9,332.0
1XNJCXS3EY,160810.0,17:05:20.262,R,97.7,LR,433.6,265.6
1XNJCXS3EY,160810.0,17:05:20.613,L,195.3,RL,253.9,156.3
1XNJCXS3EY,160810.0,17:05:21.008,L,160.2,LL,429.7,234.4
1XNJCXS3EY,160810.0,17:05:21.301,R,89.8,LR,363.3,203.1
1XNJCXS3EY,160810.0,17:05:21.559,R,85.9,RR,261.7,171.9
1XNJCXS3EY,160810.0,17:05:21.852,L,214.8,RL,164.1,78.1
1XNJCXS3EY,160810.0,17:05:22.004,L,105.5,LL,261.7,46.9
1XNJCXS3EY,160810.0,17:05:26.230,S,85.9,RS,390.6,293.0
1XNJCXS3EY,160810.0,17:05:26.492,S,105.5,SS,242.2,156.3
1XNJCXS3EY,160810.0,17:05:37.574,R,97.7,LR,261.7,46.9
1XNJCXS3EY,160810.0,17:05:37.801,R,101.6,RR,222.7,125.0
1XNJCXS3EY,160810.0,17:05:38.023,L,113.3,RL,210.9,109.4
1XNJCXS3EY,160810.0,17:05:42.160,L,289.1,SL,386.7,328.1
1XNJCXS3EY,160810.0,17:05:42.344,R,121.1,LR,351.6,62.5
1XNJCXS3EY,160810.0,17:05:42.598,L,136.7,RL,238.3,117.2
1XNJCXS3EY,160810.0,17:05:42.758,S,82.0,LS,214.8,78.1
1XNJCXS3EY,160810.0,17:05:43.051,R,105.5,SR,269.5,187.5
1XNJCXS3EY,160810.0,17:05:43.336,R,113.3,RR,277.3,171.9
1XNJCXS3EY,160810.0,17:05:43.570,L,140.6,RL,207.0,93.8
1XNJCXS3EY,160810.0,17:05:43.750,S,85.9,LS,234.4,93.8
1XNJCXS3EY,160810.0,17:05:45.145,L,226.6,LL,351.6,218.8
1XNJCXS3EY,160810.0,17:05:45.426,L,109.4,LL,398.4,171.9
1XNJCXS3EY,160810.0,17:05:45.707,S,109.4,LS,281.3,171.9
1XNJCXS3EY,160810.0,17:05:45.961,L,54.7,SL,39.1,199.2
1XNJCXS3EY,160810.0,17:05:46.102,L,195.3,LL,39.1,199.2
1XNJCXS3EY,160810.0,17:05:46.469,S,74.2,LS,488.3,293.0
1XNJCXS3EY,160810.0,17:05:46.809,L,168.0,SL,246.1,171.9
1XNJCXS3EY,160810.0,17:05:46.996,L,140.6,LL,214.8,46.9
1XNJCXS3EY,160810.0,17:05:47.375,L,175.8,LL,343.8,203.1
1XNJCXS3EY,160810.0,17:05:47.711,R,101.6,LR,410.2,234.4
1XNJCXS3EY,160810.0,17:05:48.012,R,82.0,RR,320.3,218.8
1XNJCXS3EY,160810.0,17:05:48.332,R,101.6,RR,300.8,218.8
1XNJCXS3EY,160810.0,17:05:49.367,L,101.6,LL,402.3,269.5
1XNJCXS3EY,160810.0,17:05:49.688,S,70.3,LS,351.6,250.0
1XNJCXS3EY,160810.0,17:05:50.039,L,144.5,SL,277.3,207.0
1XNJCXS3EY,160810.0,17:05:51.078,R,89.8,RR,460.9,328.1
1XNJCXS3EY,160810.0,17:05:51.406,S,93.8,RS,324.2,234.4
1XNJCXS3EY,160810.0,17:05:53.113,S,105.5,RS,464.8,382.8
1XNJCXS3EY,160810.0,17:05:53.859,R,93.8,LR,179.7,46.9
1XNJCXS3EY,160810.0,17:05:54.137,L,160.2,RL,210.9,117.2
1XNJCXS3EY,160810.0,17:05:54.539,L,199.2,LL,363.3,203.1
1XNJCXS3EY,160810.0,17:05:54.910,R,136.7,LR,433.6,234.4
1XNJCXS3EY,160810.0,17:06:21.586,L,144.5,LL,312.5,125.0
1XNJCXS3EY,160810.0,17:06:22.473,R,97.7,RR,351.6,234.4
1XNJCXS3EY,160810.0,17:06:24.230,L,136.7,LL,382.8,230.5
1XNJCXS3EY,160810.0,17:06:24.543,S,78.1,LS,371.1,234.4
1XNJCXS3EY,160810.0,17:06:24.859,L,175.8,SL,218.8,140.6
1XNJCXS3EY,160810.0,17:06:25.160,L,160.2,LL,316.4,140.6
1XNJCXS3EY,160810.0,17:06:25.270,R,93.8,LR,175.8,15.6
1XNJCXS3EY,160810.0,17:06:25.488,R,93.8,RR,218.8,125.0
1XNJCXS3EY,160810.0,17:06:25.797,S,136.7,RS,265.6,171.9
1XNJCXS3EY,160810.0,17:06:27.168,R,93.8,RR,324.2,203.1
1XNJCXS3EY,160810.0,17:06:27.562,S,78.1,RS,410.2,316.4
1XNJCXS3EY,160810.0,17:06:27.914,L,164.1,SL,265.6,187.5
1XNJCXS3EY,160810.0,17:06:28.102,R,93.8,LR,257.8,93.8
1XNJCXS3EY,160810.0,17:06:28.355,L,175.8,RL,171.9,78.1
1XNJCXS3EY,160810.0,17:06:29.270,L,148.4,LL,386.7,203.1
1XNJCXS3EY,160810.0,17:06:29.473,S,62.5,LS,289.1,140.6
1XNJCXS3EY,160810.0,17:06:33.207,R,93.8,LR,480.5,355.5
1XNJCXS3EY,160810.0,17:07:12.691,S,121.1,RS,371.1,273.4
1XNJCXS3EY,160810.0,17:07:15.055,L,160.2,SL,300.8,203.1
1XNJCXS3EY,160810.0,17:07:15.371,L,113.3,LL,363.3,203.1
1XNJCXS3EY,160810.0,17:07:15.727,L,152.3,LL,316.4,203.1
1XNJCXS3EY,160810.0,17:07:16.016,R,101.6,LR,339.8,187.5
1XNJCXS3EY,160810.0,17:07:16.332,R,82.0,RR,335.9,234.4
1XNJCXS3EY,160810.0,17:07:16.617,S,82.0,RS,285.2,203.1
1XNJCXS3EY,160810.0,17:07:17.203,R,117.2,SR,210.9,468.8
1XNJCXS3EY,160810.0,17:07:18.441,R,105.5,LR,277.3,93.8
1XNJCXS3EY,160810.0,17:07:18.828,R,117.2,RR,375.0,269.5
1XNJCXS3EY,160810.0,17:07:19.047,R,97.7,RR,238.3,121.1
1XNJCXS3EY,160810.0,17:07:19.387,S,89.8,RS,347.7,250.0
1XNJCXS3EY,160810.0,17:07:19.707,R,85.9,SR,324.2,234.4
1XNJCXS3EY,160810.0,17:07:20.008,R,113.3,RR,273.4,187.5
1XNJCXS3EY,160810.0,17:07:20.371,L,144.5,RL,332.0,218.8
1XNJCXS3EY,160810.0,17:07:20.551,S,101.6,LS,222.7,78.1
1XNJCXS3EY,160810.0,17:07:21.520,L,257.8,LL,289.1,203.1
1XNJCXS3EY,160810.0,17:07:21.848,L,140.6,LL,445.3,187.5
1XNJCXS3EY,160810.0,17:07:22.406,R,117.2,SR,296.9,238.3
1XNJCXS3EY,160810.0,17:07:22.660,R,93.8,RR,277.3,160.2
1XNJCXS3EY,160810.0,17:07:23.016,L,46.9,RL,31.3,308.6
1XNJCXS3EY,160810.0,17:07:23.016,L,46.9,LL,31.3,308.6
1XNJCXS3EY,160810.0,17:07:59.223,L,144.5,SL,289.1,187.5
1XNJCXS3EY,160810.0,17:07:59.539,L,140.6,LL,320.3,175.8
1XNJCXS3EY,160810.0,17:07:59.887,R,109.4,LR,378.9,238.3
1XNJCXS3EY,160810.0,17:08:00.156,R,97.7,RR,281.3,171.9
1XNJCXS3EY,160810.0,17:08:00.445,S,125.0,RS,261.7,164.1
1XNJCXS3EY,160810.0,17:08:00.793,L,35.2,SL,171.9,312.5
1XNJCXS3EY,160810.0,17:08:00.871,R,113.3,LR,171.9,312.5
1XNJCXS3EY,160810.0,17:08:01.934,L,140.6,RL,285.2,187.5
1XNJCXS3EY,160810.0,17:08:02.219,S,82.0,LS,343.8,203.1
1XNJCXS3EY,160810.0,17:08:05.500,R,105.5,LR,398.4,273.4
1XNJCXS3EY,160810.0,17:08:05.891,R,93.8,RR,402.3,296.9
1XNJCXS3EY,160810.0,17:08:09.688,R,101.6,RR,226.6,140.6
1XNJCXS3EY,160810.0,18:22:44.562,R,93.8,LR,492.2,312.5
1XNJCXS3EY,160810.0,18:22:47.062,R,109.4,LR,328.1,62.5
1XNJCXS3EY,160810.0,18:22:47.508,S,117.2,RS,437.5,328.1
1XNJCXS3EY,160810.0,18:22:47.867,R,109.4,SR,367.2,250.0
1XNJCXS3EY,160810.0,18:22:48.117,R,93.8,RR,265.6,156.3
1XNJCXS3EY,160810.0,18:30:39.992,R,78.1,RR,328.1,218.8
1XNJCXS3EY,160810.0,18:30:40.289,R,109.4,RR,265.6,187.5
1XNJCXS3EY,160810.0,18:30:40.586,R,93.8,RR,312.5,203.1
1XNJCXS3EY,160810.0,18:30:41.039,L,250.0,RL,296.9,203.1
1XNJCXS3EY,160810.0,18:30:41.211,S,93.8,LS,328.1,78.1
1XNJCXS3EY,160810.0,18:30:41.508,L,171.9,SL,218.8,125.0
1XNJCXS3EY,160810.0,18:30:41.648,R,93.8,LR,218.8,46.9
1XNJCXS3EY,160810.0,18:30:42.133,S,265.6,RS,312.5,218.8
1XNJCXS3EY,160810.0,18:30:42.352,L,203.1,SL,281.3,15.6
1XNJCXS3EY,160810.0,18:30:42.586,R,125.0,LR,312.5,109.4
1XNJCXS3EY,160810.0,18:30:44.156,L,218.8,SL,453.1,359.4
1XNJCXS3EY,160810.0,18:30:45.297,L,156.3,LL,453.1,296.9
1XNJCXS3EY,160810.0,21:04:13.969,L,234.4,RL,171.9,93.8
1XNJCXS3EY,160810.0,21:04:17.336,L,156.3,RL,257.8,125.0
1XNJCXS3EY,160810.0,21:04:21.062,L,109.4,LL,359.4,234.4
1XNJCXS3EY,160811.0,02:05:31.093,L,171.9,RL,350.1,245.1
1XNJCXS3EY,160811.0,02:05:34.100,R,125.0,RR,406.3,313.0
1XNJCXS3EY,160811.0,02:05:34.412,R,108.9,RR,328.1,203.1
1XNJCXS3EY,160811.0,08:18:51.445,R,113.3,LR,287.1,15.6
1XNJCXS3EY,160811.0,08:18:55.557,L,193.4,RL,238.3,15.6
1XNJCXS3EY,160811.0,08:18:55.812,R,160.2,LR,289.1,95.7
1XNJCXS3EY,160811.0,08:18:59.061,R,127.0,RR,353.5,226.6
1XNJCXS3EY,160811.0,08:19:00.309,L,31.3,LL,95.7,271.5
1XNJCXS3EY,160811.0,08:19:00.355,S,78.1,LS,95.7,271.5
1XNJCXS3EY,160811.0,13:22:47.066,L,125.0,RL,371.1,257.8
1XNJCXS3EY,160811.0,13:24:28.621,R,113.3,RR,273.4,175.8
1XNJCXS3EY,160811.0,13:24:28.906,R,93.8,RR,304.7,191.4
1XNJCXS3EY,160811.0,13:24:29.965,S,113.3,LS,320.3,191.4
1XNJCXS3EY,160811.0,13:24:30.363,L,144.5,SL,367.2,253.9
1XNJCXS3EY,160811.0,13:24:30.859,L,257.8,LL,382.8,238.3
1XNJCXS3EY,160811.0,13:24:31.164,R,82.0,LR,480.5,222.7
1XNJCXS3EY,160811.0,13:24:31.484,R,82.0,RR,320.3,238.3
1XNJCXS3EY,160811.0,13:24:32.395,R,93.8,LR,367.2,226.6
1XNJCXS3EY,160811.0,13:24:33.820,R,82.0,LR,175.8,62.5
1XNJCXS3EY,160811.0,13:25:01.898,L,191.4,LL,304.7,175.8
1XNJCXS3EY,160811.0,13:25:02.270,R,82.0,LR,480.5,289.1
1XNJCXS3EY,160811.0,13:25:02.492,R,113.3,RR,191.4,109.4
1XNJCXS3EY,160811.0,13:25:02.988,R,128.9,RR,480.5,367.2
1XNJCXS3EY,160811.0,13:25:04.715,R,78.1,SR,371.1,242.2
1XNJCXS3EY,160811.0,13:25:05.164,L,113.3,RL,414.1,335.9
1XNJCXS3EY,160811.0,13:25:06.059,L,144.5,LL,300.8,156.3
1XNJCXS3EY,160811.0,13:25:06.477,R,97.7,LR,464.8,320.3
1XNJCXS3EY,160811.0,13:25:07.578,R,93.8,RR,320.3,222.7
1XNJCXS3EY,160811.0,13:31:19.738,L,160.2,RL,320.3,238.3
1XNJCXS3EY,160811.0,13:31:20.059,L,128.9,LL,351.6,191.4
1XNJCXS3EY,160811.0,13:31:21.691,L,128.9,LL,304.7,128.9
1XNJCXS3EY,160811.0,13:50:30.730,L,191.4,LL,210.9,113.3
1XNJCXS3EY,160811.0,13:50:31.113,L,109.4,LL,464.8,273.4
1XNJCXS3EY,160811.0,13:50:33.402,R,97.7,RR,320.3,191.4
1XNJCXS3EY,160811.0,13:50:33.848,L,93.8,RL,449.2,351.6
1XNJCXS3EY,160811.0,22:12:00.281,R,148.4,LR,437.5,257.8
1XNJCXS3EY,160811.0,22:12:05.844,L,93.8,LL,296.9,171.9
1XNJCXS3EY,160811.0,22:12:35.047,S,78.1,SS,312.5,187.5
1XNJCXS3EY,160811.0,22:12:37.336,L,148.4,LL,343.8,156.3
1XNJCXS3EY,160811.0,22:12:37.781,S,156.3,LS,437.5,289.1
1XNJCXS3EY,160811.0,22:12:39.078,R,343.8,LR,390.6,250.0
1XNJCXS3EY,160811.0,22:12:40.266,S,31.3,SS,265.6,187.5
1XNJCXS3EY,160811.0,22:12:40.672,L,78.1,SL,359.4,328.1
1XNJCXS3EY,160811.0,22:12:41.828,R,78.1,LR,281.3,109.4
1XNJCXS3EY,160811.0,22:12:42.266,R,109.4,RR,406.3,328.1
1XNJCXS3EY,160811.0,22:12:42.578,R,109.4,RR,312.5,203.1
1XNJCXS3EY,160811.0,22:12:43.047,L,109.4,RL,468.8,359.4
1XNJCXS3EY,160811.0,22:12:43.414,S,78.1,LS,398.4,289.1
1XNJCXS3EY,160811.0,22:12:44.586,S,93.8,LS,335.9,226.6
1XNJCXS3EY,160811.0,22:12:44.906,R,70.3,SR,343.8,250.0
1XNJCXS3EY,160811.0,22:12:46.695,L,187.5,LL,140.6,31.3
1XNJCXS3EY,160811.0,22:12:46.805,R,93.8,LR,203.1,15.6
1XNJCXS3EY,160811.0,22:12:49.133,R,78.1,RR,218.8,125.0
1XNJCXS3EY,160812.0,08:26:41.268,R,80.1,RR,255.9,160.2
1XNJCXS3EY,160812.0,08:26:41.748,S,128.9,RS,431.6,351.6
1XNJCXS3EY,160812.0,08:26:42.068,R,80.1,SR,369.1,240.2
1XNJCXS3EY,160812.0,08:26:43.955,L,207.0,LL,367.2,191.4
1XNJCXS3EY,160812.0,08:26:44.115,S,111.3,LS,255.9,48.8
1XNJCXS3EY,160812.0,08:26:44.564,R,144.5,SR,416.0,304.7
1XNJCXS3EY,160812.0,08:26:46.084,R,111.3,RR,322.3,144.5
1XNJCXS3EY,160812.0,08:26:46.451,S,95.7,RS,382.8,271.5
1XNJCXS3EY,160812.0,08:26:47.012,L,207.0,SL,449.2,353.5
1XNJCXS3EY,160812.0,08:26:47.316,L,209.0,LL,302.7,95.7
1XNJCXS3EY,160812.0,08:26:47.988,R,80.1,LR,271.5,240.2
1XNJCXS3EY,160812.0,08:26:49.316,L,113.3,RL,447.3,335.9
1XNJCXS3EY,160812.0,08:26:49.797,L,113.3,LL,480.5,367.2
1XNJCXS3EY,160812.0,08:26:50.100,L,95.7,LL,320.3,207.0
1XNJCXS3EY,160812.0,08:26:51.652,L,113.3,SL,478.5,382.8
1XNJCXS3EY,160812.0,08:26:52.004,L,127.0,LL,337.9,224.6
1XNJCXS3EY,160812.0,08:26:52.469,L,97.7,LL,494.1,367.2
1XNJCXS3EY,160812.0,08:26:52.867,L,175.8,LL,320.3,222.7
1XNJCXS3EY,160812.0,08:26:53.045,L,113.3,LL,240.2,64.5
1XNJCXS3EY,160812.0,08:26:53.523,L,175.8,LL,416.0,302.7
1XNJCXS3EY,160812.0,08:26:53.844,L,31.3,LL,80.1,289.1
1XNJCXS3EY,160812.0,08:26:53.844,R,31.3,LR,80.1,289.1
1XNJCXS3EY,160812.0,08:26:54.260,S,127.0,RS,320.3,289.1
1XNJCXS3EY,160812.0,08:26:54.611,R,111.3,SR,367.2,240.2
1XNJCXS3EY,160812.0,08:26:55.012,L,160.2,RL,351.6,240.2
1XNJCXS3EY,160812.0,08:26:55.236,S,95.7,LS,289.1,128.9
1XNJCXS3EY,160812.0,08:26:55.461,L,33.2,SL,287.1,191.4
1XNJCXS3EY,160812.0,08:26:55.732,R,95.7,LR,209.0,175.8
1XNJCXS3EY,160812.0,08:26:56.084,R,95.7,RR,351.6,255.9
1XNJCXS3EY,160812.0,08:27:01.188,R,111.3,RR,400.4,320.3
1XNJCXS3EY,160812.0,08:28:07.732,S,48.8,SS,302.7,207.0
1XNJCXS3EY,160812.0,15:10:02.723,L,144.5,LL,367.2,238.3
1XNJCXS3EY,160812.0,15:10:05.891,R,93.8,RR,226.6,144.5
1XNJCXS3EY,160812.0,15:22:26.977,R,93.8,RR,480.5,402.3
1XNJCXS3EY,160812.0,15:53:53.121,L,175.8,LL,242.2,140.6
1XNJCXS3EY,160812.0,15:53:53.535,L,125.0,LL,464.8,289.1
1XNJCXS3EY,160812.0,15:53:53.922,L,191.4,LL,320.3,195.3
1XNJCXS3EY,160812.0,15:53:54.910,R,93.8,LR,433.6,304.7
1XNJCXS3EY,160812.0,15:53:55.137,R,97.7,RR,222.7,128.9
1XNJCXS3EY,160812.0,15:53:55.586,R,97.7,RR,449.2,351.6
1XNJCXS3EY,160812.0,15:54:02.594,L,128.9,RL,449.2,367.2
1XNJCXS3EY,160812.0,15:54:04.273,R,97.7,RR,304.7,191.4
1XNJCXS3EY,160813.0,00:08:21.256,L,176.0,RL,289.0,160.0
1XNJCXS3EY,160813.0,00:08:23.112,R,144.0,LR,288.0,1.0
1XNJCXS3EY,160813.0,00:08:23.479,L,175.0,RL,336.0,192.0
1XNJCXS3EY,160813.0,00:08:24.232,L,144.0,RL,192.0,96.0
1XNJCXS3EY,160813.0,00:08:24.376,R,112.0,LR,176.0,32.0
1XNJCXS3EY,160813.0,00:08:24.728,L,48.0,RL,192.0,304.0
1XNJCXS3EY,160813.0,00:08:24.776,R,96.0,LR,192.0,304.0
1XNJCXS3EY,160813.0,00:11:42.872,L,112.0,RL,416.0,288.0
1XNJCXS3EY,160813.0,00:11:44.280,L,144.0,RL,432.0,304.0
1XNJCXS3EY,160813.0,00:22:53.304,L,224.0,RL,335.9,240.0
1XNJCXS3EY,160813.0,14:51:10.551,R,113.3,RR,304.7,160.2
1XNJCXS3EY,160813.0,14:51:11.926,R,113.3,LR,414.1,269.5
1XNJCXS3EY,160814.0,02:09:04.250,R,128.9,RR,384.3,240.2
1XNJCXS3EY,160814.0,02:22:58.585,S,63.5,SS,464.8,416.0
1XNJCXS3EY,160814.0,22:55:50.117,R,171.9,RR,367.2,195.3
1XNJCXS3EY,160815.0,08:49:59.545,R,111.3,RR,384.8,273.4
1XNJCXS3EY,160815.0,08:50:11.432,L,111.3,RL,462.9,351.6
1XNJCXS3EY,160815.0,09:21:00.566,R,93.8,LR,289.1,82.0
1XNJCXS3EY,160815.0,09:21:00.809,R,97.7,RR,238.3,144.5
1XNJCXS3EY,160815.0,09:21:01.258,L,179.7,RL,367.2,269.5
1XNJCXS3EY,160815.0,09:21:01.672,S,144.5,LS,449.2,269.5
1XNJCXS3EY,160815.0,09:21:01.945,L,160.2,SL,257.8,113.3
1XNJCXS3EY,160815.0,09:21:04.777,L,304.7,LL,480.5,371.1
1XNJCXS3EY,160815.0,09:21:05.574,R,125.0,RR,386.7,242.2
1XNJCXS3EY,160815.0,09:21:06.070,L,125.0,RL,496.1,371.1
1XNJCXS3EY,160815.0,14:06:48.961,S,160.2,RS,464.8,320.3
1XNJCXS3EY,160815.0,14:06:49.375,R,144.5,SR,429.7,269.5
1XNJCXS3EY,160815.0,14:06:52.609,L,97.7,LL,414.1,289.1
1XNJCXS3EY,160815.0,14:10:17.090,R,128.9,RR,386.7,273.4
1XNJCXS3EY,160815.0,14:10:20.078,L,140.6,RL,449.2,273.4
1XNJCXS3EY,160815.0,14:11:03.453,L,125.0,RL,351.6,242.2
1XNJCXS3EY,160816.0,04:41:47.262,L,191.4,LL,224.6,113.3
1XNJCXS3EY,160816.0,04:41:49.869,S,128.9,SS,255.9,142.6
1XNJCXS3EY,160816.0,05:00:58.045,L,255.9,RL,351.6,209.0
1XNJCXS3EY,160816.0,05:00:58.908,L,80.1,RL,222.7,398.4
1XNJCXS3EY,160816.0,05:00:58.941,R,113.3,LR,222.7,398.4
1XNJCXS3EY,160816.0,05:00:59.404,L,111.3,RL,464.8,351.6
1XNJCXS3EY,160816.0,05:01:13.613,R,160.2,RR,289.1,191.4
1XNJCXS3EY,160818.0,04:02:34.301,L,208.0,LL,448.2,288.1
1XNJCXS3EY,160818.0,04:02:35.229,R,127.9,RR,255.9,143.6
1XNJCXS3EY,160818.0,04:02:37.853,R,95.7,LR,382.8,240.2
1XNJCXS3EY,160818.0,04:02:38.990,R,113.3,LR,335.0,192.4
1XNJCXS3EY,160818.0,04:02:46.589,R,127.9,LR,431.6,223.6
1XNJCXS3EY,160818.0,04:02:48.093,R,111.3,LR,208.0,16.6
1XNJCXS3EY,160818.0,04:02:48.573,R,127.9,RR,463.9,352.5
1XNJCXS3EY,160818.0,04:02:52.989,R,127.9,LR,287.1,96.7
1XNJCXS3EY,160819.0,08:25:19.896,L,207.0,LL,369.1,255.9
1XNJCXS3EY,160819.0,08:25:22.297,R,127.0,RR,369.1,224.6
1XNJCXS3EY,160819.0,08:25:22.713,L,175.8,RL,367.2,240.2
1XNJCXS3EY,160820.0,13:51:54.410,L,175.8,LL,320.3,175.8
1XNJCXS3EY,160820.0,13:52:02.762,R,125.0,LR,320.3,113.3
1XNJCXS3EY,160820.0,13:52:03.051,L,191.4,RL,222.7,97.7
1XNJCXS3EY,160820.0,18:18:05.328,L,226.6,RL,257.8,140.6
1XNJCXS3EY,160820.0,18:18:07.508,L,164.1,RL,335.9,226.6
1XNJCXS3EY,160820.0,18:18:07.953,S,179.7,LS,429.7,265.6
1XNJCXS3EY,160820.0,18:18:09.789,R,109.4,RR,335.9,210.9
1XNJCXS3EY,160820.0,18:18:10.094,S,93.8,RS,320.3,210.9
1XNJCXS3EY,160820.0,18:18:12.719,R,93.8,RR,226.6,117.2
1XNJCXS3EY,160821.0,05:56:04.387,R,80.1,RR,302.7,160.2
1XNJCXS3EY,160821.0,05:56:04.803,L,113.3,RL,382.8,302.7
1XNJCXS3EY,160821.0,05:56:06.033,R,80.1,LR,271.5,80.1
1XNJCXS3EY,160821.0,05:56:06.562,L,175.8,RL,433.6,353.5
1XNJCXS3EY,160821.0,05:56:06.947,R,113.3,LR,447.3,271.5
1XNJCXS3EY,160821.0,05:56:08.178,R,109.4,RR,353.5,226.6
1XNJCXS3EY,160821.0,05:56:08.658,L,191.4,RL,398.4,289.1
1XNJCXS3EY,160821.0,06:08:19.346,R,111.3,LR,498.0,322.3
1XNJCXS3EY,160821.0,06:08:19.555,R,97.7,RR,222.7,111.3
1XNJCXS3EY,160821.0,06:08:20.051,L,144.5,RL,449.2,351.6
1XNJCXS3EY,160821.0,06:08:20.465,S,111.3,LS,447.3,302.7
1XNJCXS3EY,160821.0,06:08:25.537,R,127.0,RR,304.7,209.0
1XNJCXS3EY,160821.0,06:08:26.033,L,175.8,RL,447.3,320.3
1XNJCXS3EY,160822.0,13:42:36.922,L,218.8,LL,265.6,156.3
1XNJCXS3EY,160822.0,13:42:37.574,R,93.8,RR,187.5,109.4
1XNJCXS3EY,160822.0,13:42:38.043,R,78.1,RR,484.4,390.6
1XNJCXS3EY,160822.0,13:42:39.695,R,109.4,LR,421.9,265.6
1XNJCXS3EY,160822.0,13:42:40.617,R,78.1,LR,281.3,156.3
1XNJCXS3EY,160822.0,13:42:58.590,R,109.4,LR,351.6,203.1
1XNJCXS3EY,160822.0,13:42:59.809,L,187.5,LL,468.8,328.1
1XNJCXS3EY,160822.0,13:43:00.121,R,109.4,LR,390.6,203.1
1XNJCXS3EY,160822.0,13:43:01.574,L,78.1,LL,171.9,46.9
1XNJCXS3EY,160822.0,13:43:48.930,R,113.3,LR,429.7,281.3
1XNJCXS3EY,160822.0,13:43:50.273,R,97.7,LR,335.9,207.0
1XNJCXS3EY,160822.0,13:43:50.656,R,93.8,RR,386.7,289.1
1XNJCXS3EY,160822.0,13:44:14.066,L,191.4,LL,289.1,160.2
1XNJCXS3EY,160822.0,13:44:14.754,R,97.7,RR,207.0,125.0
1XNJCXS3EY,160822.0,13:44:16.676,R,97.7,LR,289.1,160.2
1XNJCXS3EY,160822.0,13:44:26.496,R,109.4,LR,433.6,289.1
1XNJCXS3EY,160822.0,13:44:27.824,R,93.8,LR,257.8,144.5
1XNJCXS3EY,160822.0,13:44:28.160,R,109.4,RR,320.3,226.6
1XNJCXS3EY,160822.0,13:44:30.852,L,160.2,RL,289.1,195.3
1XNJCXS3EY,160822.0,13:44:31.027,R,128.9,LR,207.0,46.9
1XNJCXS3EY,160822.0,13:44:31.297,R,97.7,RR,300.8,171.9
1XNJCXS3EY,160822.0,13:48:29.105,L,128.9,LL,253.9,160.2
1XNJCXS3EY,160822.0,13:48:29.441,L,128.9,LL,335.9,207.0
1XNJCXS3EY,160822.0,13:54:37.137,S,78.1,RS,418.0,320.3
1XNJCXS3EY,160822.0,13:54:37.426,R,97.7,SR,269.5,191.4
1XNJCXS3EY,160822.0,13:54:38.703,L,109.4,RL,449.2,367.2
1XNJCXS3EY,160822.0,13:56:06.160,L,222.7,RL,253.9,160.2
1XNJCXS3EY,160822.0,13:56:07.023,L,93.8,LL,464.8,320.3
1XNJCXS3EY,160822.0,13:56:08.402,R,113.3,LR,335.9,160.2
1XNJCXS3EY,160822.0,13:56:08.723,R,113.3,RR,320.3,207.0
1XNJCXS3EY,160822.0,13:56:08.977,R,93.8,RR,273.4,160.2
1XNJCXS3EY,160822.0,13:56:09.297,L,160.2,RL,253.9,160.2
1XNJCXS3EY,160822.0,14:01:09.152,R,93.8,LR,242.2,66.4
1XNJCXS3EY,160822.0,14:01:11.059,R,144.5,LR,386.7,257.8
1XNJCXS3EY,160822.0,14:01:20.320,R,93.8,LR,355.5,97.7
1XNJCXS3EY,160822.0,14:02:29.711,R,109.4,LR,320.3,160.2
1XNJCXS3EY,160822.0,14:02:31.090,R,113.3,LR,480.5,367.2
1XNJCXS3EY,160822.0,14:02:41.746,R,97.7,LR,175.8,15.6
1XNJCXS3EY,160822.0,14:02:42.145,R,144.5,RR,351.6,253.9
1XNJCXS3EY,160822.0,14:02:44.320,R,113.3,LR,222.7,78.1
1XNJCXS3EY,160822.0,14:02:44.641,R,93.8,RR,339.8,226.6
1XNJCXS3EY,160822.0,14:03:15.441,R,113.3,LR,289.1,113.3
1XNJCXS3EY,160822.0,14:03:16.832,R,93.8,LR,371.1,210.9
1XNJCXS3EY,160822.0,14:03:20.785,R,97.7,LR,429.7,253.9
1XNJCXS3EY,160822.0,14:03:22.000,R,97.7,LR,207.0,78.1
1XNJCXS3EY,160822.0,14:03:22.352,R,109.4,RR,339.8,242.2
1XNJCXS3EY,160822.0,14:03:24.320,R,128.9,LR,160.2,31.3
1XNJCXS3EY,160822.0,14:03:24.609,R,97.7,RR,320.3,191.4
1XNJCXS3EY,160822.0,14:03:36.914,R,78.1,LR,269.5,128.9
1XNJCXS3EY,160822.0,14:03:39.891,R,97.7,LR,304.7,191.4
1XNJCXS3EY,160822.0,14:03:45.891,R,97.7,LR,273.4,160.2
1XNJCXS3EY,160822.0,14:03:46.238,R,78.1,RR,367.2,269.5
1XNJCXS3EY,160822.0,14:04:01.359,R,93.8,LR,226.6,82.0
1XNJCXS3EY,160822.0,14:04:02.754,R,97.7,LR,304.7,160.2
1XNJCXS3EY,160822.0,14:04:06.945,R,113.3,LR,418.0,253.9
1XNJCXS3EY,160822.0,14:04:08.129,R,97.7,LR,207.0,62.5
1XNJCXS3EY,160822.0,14:12:37.711,R,125.0,RR,304.7,195.3
1XNJCXS3EY,160822.0,14:12:38.016,S,93.8,RS,335.9,210.9
1XNJCXS3EY,160822.0,14:12:41.727,R,62.5,RR,207.0,128.9
1XNJCXS3EY,160822.0,14:46:26.480,R,113.3,RR,449.2,320.3
1XNJCXS3EY,160822.0,14:46:31.969,L,113.3,SL,402.3,320.3
1XNJCXS3EY,160822.0,14:46:33.789,L,78.1,LL,382.8,273.4
1XNJCXS3EY,160822.0,15:14:39.883,R,125.0,LR,296.9,144.5
1XNJCXS3EY,160822.0,15:14:40.379,L,125.0,RL,496.1,371.1
1XNJCXS3EY,160822.0,15:14:40.812,L,128.9,LL,429.7,304.7
1XNJCXS3EY,160822.0,15:14:41.117,L,128.9,LL,304.7,175.8
1XNJCXS3EY,160822.0,15:14:41.453,L,113.3,LL,351.6,222.7
1XNJCXS3EY,160822.0,15:15:17.621,R,93.8,LR,281.3,31.3
1XNJCXS3EY,160822.0,15:15:19.168,R,109.4,LR,406.3,203.1
1XNJCXS3EY,160822.0,15:15:23.473,R,125.0,LR,359.4,171.9
1XNJCXS3EY,160822.0,15:15:24.707,R,93.8,LR,187.5,78.1
1XNJCXS3EY,160822.0,15:15:25.066,R,109.4,RR,343.8,250.0
1XNJCXS3EY,160822.0,15:25:42.797,R,128.9,LR,386.7,207.0
1XNJCXS3EY,160822.0,15:25:43.293,S,128.9,RS,496.1,367.2
1XNJCXS3EY,160822.0,15:25:44.332,L,144.5,RL,433.6,335.9
1XNJCXS3EY,160822.0,15:25:46.859,S,93.8,RS,418.0,320.3
1XNJCXS3EY,160822.0,15:25:47.820,L,144.5,RL,382.8,289.1
1XNJCXS3EY,160822.0,15:25:48.156,L,128.9,LL,351.6,207.0
1XNJCXS3EY,160822.0,15:25:49.004,L,160.2,RL,226.6,128.9
1XNJCXS3EY,160822.0,15:25:49.469,L,226.6,LL,398.4,238.3
1XNJCXS3EY,160822.0,15:25:50.363,R,128.9,LR,464.8,289.1
1XNJCXS3EY,160822.0,15:25:50.668,R,175.8,RR,257.8,128.9
1XNJCXS3EY,160822.0,15:25:51.004,R,128.9,RR,382.8,207.0
1XNJCXS3EY,160823.0,03:21:07.572,L,175.8,RL,288.1,192.4
1XNJCXS3EY,160823.0,03:21:08.020,L,158.2,LL,463.9,288.1
1XNJCXS3EY,160823.0,03:21:11.764,L,208.0,SL,319.3,191.4
1XNJCXS3EY,160823.0,03:21:12.148,R,97.7,LR,495.1,287.1
1XNJCXS3EY,160823.0,03:21:14.596,L,127.9,LL,319.3,191.4
1XNJCXS3EY,160823.0,03:23:22.004,L,113.3,RL,415.0,288.1
1XNJCXS3EY,160823.0,03:23:22.467,L,127.9,LL,448.2,335.0
1XNJCXS3EY,160823.0,03:23:29.076,L,160.2,LL,320.3,175.8
1XNJCXS3EY,160823.0,03:23:29.555,L,174.8,LL,463.9,303.7
1XNJCXS3EY,160823.0,03:53:56.226,L,143.6,RL,240.2,127.9
1XNJCXS3EY,160823.0,03:53:56.642,L,159.2,LL,400.4,256.8
1XNJCXS3EY,160823.0,03:55:32.178,R,127.9,LR,288.1,111.3
1XNJCXS3EY,160823.0,03:55:43.106,R,112.3,LR,192.4,32.2
1XNJCXS3EY,160823.0,03:55:43.474,R,111.3,RR,368.2,255.9
1XNJCXS3EY,160823.0,03:58:11.794,R,112.3,RR,367.2,175.8
1XNJCXS3EY,160823.0,03:58:12.114,S,112.3,RS,320.3,208.0
1XNJCXS3EY,160823.0,03:58:13.106,R,128.9,LR,335.9,127.9
1XNJCXS3EY,160823.0,03:58:14.226,R,111.3,RR,240.2,144.5
1XNJCXS3EY,160823.0,06:28:06.006,R,128.9,RR,464.8,351.6
1XNJCXS3EY,160823.0,06:28:11.156,S,142.6,RS,480.5,353.5
1XNJCXS3EY,160823.0,06:28:13.812,L,127.0,LL,384.8,240.2
1XNJCXS3EY,160823.0,06:28:51.492,R,95.7,LR,351.6,175.8
1XNJCXS3EY,160823.0,06:28:52.707,R,127.0,LR,447.3,287.1
1XNJCXS3EY,160823.0,06:28:57.094,R,97.7,LR,462.9,320.3
1XNJCXS3EY,160823.0,06:28:58.404,R,95.7,LR,191.4,31.3
1XNJCXS3EY,160823.0,06:28:58.789,R,144.5,RR,335.9,240.2
1XNJCXS3EY,160823.0,06:30:37.908,R,111.3,LR,287.1,111.3
1XNJCXS3EY,160823.0,06:30:39.717,R,113.3,LR,302.7,142.6
1XNJCXS3EY,160823.0,06:30:40.213,R,111.3,RR,498.0,384.8
1XNJCXS3EY,160823.0,06:30:45.076,R,111.3,LR,335.9,175.8
1XNJCXS3EY,160823.0,06:30:46.773,R,128.9,RR,287.1,207.0
1XNJCXS3EY,160823.0,07:32:01.121,L,111.3,LL,351.6,240.2
1XNJCXS3EY,160823.0,07:37:19.906,R,111.3,RR,384.8,240.2
1XNJCXS3EY,160823.0,07:37:20.467,S,193.4,RS,478.5,367.2
1XNJCXS3EY,160823.0,07:37:21.490,R,111.3,LR,433.6,273.4
1XNJCXS3EY,160823.0,07:37:21.906,L,80.1,RL,447.3,335.9
1XNJCXS3EY,160823.0,07:43:36.320,R,80.1,RR,238.3,127.0
1XNJCXS3EY,160823.0,07:43:36.801,L,158.2,RL,402.3,322.3
1XNJCXS3EY,160823.0,07:43:37.648,L,191.4,SL,255.9,128.9
1XNJCXS3EY,160823.0,07:43:38.082,L,80.1,LL,31.3,353.5
1XNJCXS3EY,160823.0,07:43:38.098,L,95.7,LL,31.3,353.5
1XNJCXS3EY,160823.0,07:43:40.609,R,95.7,RR,255.9,144.5
1XNJCXS3EY,160823.0,07:43:40.945,L,144.5,RL,287.1,191.4
1XNJCXS3EY,160823.0,17:18:46.086,R,93.8,RR,480.5,335.9
1XNJCXS3EY,160823.0,17:18:52.137,S,128.9,RS,402.3,273.4
1XNJCXS3EY,160823.0,17:18:52.598,L,93.8,SL,496.1,367.2
1XNJCXS3EY,160823.0,17:18:55.047,L,97.7,LL,382.8,269.5
1XNJCXS3EY,160823.0,17:18:55.414,L,113.3,LL,351.6,253.9
1XNJCXS3EY,160823.0,17:19:38.375,R,97.7,LR,382.8,238.3
1XNJCXS3EY,160823.0,17:19:40.102,R,125.0,LR,210.9,50.8
1XNJCXS3EY,160823.0,17:19:45.367,R,82.0,LR,398.4,238.3
1XNJCXS3EY,160823.0,17:19:46.918,R,93.8,LR,191.4,35.2
1XNJCXS3EY,160823.0,17:20:21.320,R,97.7,LR,304.7,113.3
1XNJCXS3EY,160823.0,17:20:23.367,R,144.5,LR,304.7,144.5
1XNJCXS3EY,160823.0,17:20:30.934,R,109.4,LR,160.2,35.2
1XNJCXS3EY,160823.0,17:20:31.305,R,113.3,RR,367.2,257.8
1XNJCXS3EY,160824.0,08:16:35.367,L,128.9,RL,462.9,335.9
1XNJCXS3EY,160824.0,08:16:37.848,R,128.9,LR,462.9,304.7
1XNJCXS3EY,160824.0,08:16:38.295,S,95.7,RS,480.5,351.6
1XNJCXS3EY,160824.0,08:16:38.664,L,158.2,SL,304.7,209.0
1XNJCXS3EY,160824.0,08:16:38.951,R,111.3,LR,335.9,177.7
1XNJCXS3EY,160824.0,08:16:39.336,L,160.2,RL,335.9,224.6
1XNJCXS3EY,160824.0,08:16:39.703,L,128.9,LL,398.4,238.3
1XNJCXS3EY,160824.0,08:16:40.104,L,128.9,LL,400.4,271.5
1XNJCXS3EY,160824.0,08:17:14.230,R,95.7,LR,335.9,144.5
1XNJCXS3EY,160824.0,08:17:15.975,R,127.0,LR,353.5,209.0
1XNJCXS3EY,160824.0,08:17:21.848,R,113.3,LR,207.0,80.1
1XNJCXS3EY,160824.0,08:25:41.109,R,93.8,LR,209.0,48.8
1XNJCXS3EY,160824.0,08:25:43.207,R,128.9,LR,335.9,207.0
1XNJCXS3EY,160824.0,08:25:47.879,R,144.5,LR,287.1,111.3
1XNJCXS3EY,160824.0,08:25:49.016,R,95.7,LR,273.4,144.5
1XNJCXS3EY,160824.0,08:31:25.014,R,144.5,RR,351.6,207.0
1XNJCXS3EY,160824.0,08:31:46.406,R,95.7,LR,431.6,255.9
1XNJCXS3EY,160824.0,08:31:46.646,R,95.7,RR,240.2,144.5
1XNJCXS3EY,160824.0,08:31:47.014,L,111.3,RL,351.6,255.9
1XNJCXS3EY,160824.0,08:31:51.031,R,128.9,RR,271.5,160.2
1XNJCXS3EY,160824.0,17:39:49.527,L,128.9,LL,382.8,269.5
1XNJCXS3EY,160824.0,17:40:29.512,R,113.3,LR,269.5,93.8
1XNJCXS3EY,160824.0,17:40:31.207,R,128.9,LR,285.2,140.6
1XNJCXS3EY,160824.0,17:40:37.465,R,97.7,LR,289.1,160.2
1XNJCXS3EY,160824.0,17:50:29.160,R,144.5,RR,304.7,207.0
1XNJCXS3EY,160824.0,17:50:29.574,L,175.8,RL,382.8,238.3
1XNJCXS3EY,160825.0,02:13:41.423,L,215.8,RL,481.9,388.2
1XNJCXS3EY,160825.0,02:13:44.637,R,117.2,LR,485.8,315.9
1XNJCXS3EY,160825.0,02:13:45.024,R,173.8,RR,330.1,212.9
1XNJCXS3EY,160825.0,02:14:42.914,R,141.1,LR,483.9,280.8
1XNJCXS3EY,160825.0,02:14:44.429,R,125.0,LR,375.0,234.4
1XNJCXS3EY,160825.0,03:21:58.875,L,175.8,RL,368.2,288.1
1XNJCXS3EY,160825.0,03:21:59.291,L,127.9,LL,463.9,288.1
1XNJCXS3EY,160825.0,03:22:00.939,R,112.3,LR,383.8,240.2
1XNJCXS3EY,160825.0,03:22:01.403,S,112.3,RS,463.9,351.6
1XNJCXS3EY,160825.0,03:22:02.491,R,64.5,LR,319.3,63.5
1XNJCXS3EY,160825.0,03:22:03.963,L,142.6,LL,401.4,241.2
1XNJCXS3EY,160825.0,03:22:04.364,L,161.1,LL,382.8,240.2
1XNJCXS3EY,160825.0,03:22:36.235,R,144.5,LR,479.5,335.9
1XNJCXS3EY,160825.0,03:22:42.139,L,127.9,RL,303.7,143.6
1XNJCXS3EY,160825.0,03:22:42.555,R,80.1,LR,463.9,335.9
1XNJCXS3EY,160825.0,03:24:45.820,R,97.7,RR,431.6,303.7
1XNJCXS3EY,160825.0,03:24:47.323,R,80.1,LR,208.0,79.1
1XNJCXS3EY,160825.0,12:21:43.398,R,82.0,LR,320.3,125.0
1XNJCXS3EY,160825.0,12:21:43.621,R,93.8,RR,210.9,128.9
1XNJCXS3EY,160825.0,12:21:44.023,L,195.3,RL,300.8,207.0
1XNJCXS3EY,160825.0,12:21:44.855,L,113.3,SL,398.4,304.7
1XNJCXS3EY,160825.0,12:21:45.285,L,144.5,LL,398.4,285.2
1XNJCXS3EY,160825.0,12:21:46.359,L,195.3,LL,429.7,285.2
1XNJCXS3EY,160825.0,12:21:46.695,R,113.3,LR,418.0,222.7
1XNJCXS3EY,160825.0,12:21:46.949,R,109.4,RR,257.8,144.5
1XNJCXS3EY,160825.0,12:21:47.238,L,160.2,RL,238.3,128.9
1XNJCXS3EY,160825.0,12:25:36.520,R,179.7,RR,269.5,125.0
1XNJCXS3EY,160825.0,12:25:37.672,L,97.7,SL,480.5,304.7
1XNJCXS3EY,160825.0,12:25:38.840,L,144.5,RL,433.6,304.7
1XNJCXS3EY,160825.0,13:15:41.699,L,93.8,SL,449.2,335.9
1XNJCXS3EY,160825.0,13:15:43.410,L,93.8,LL,335.9,222.7
1XNJCXS3EY,160825.0,13:15:43.812,L,113.3,LL,382.8,289.1
1XNJCXS3EY,160825.0,13:16:10.402,R,93.8,LR,242.2,82.0
1XNJCXS3EY,160825.0,13:16:16.004,R,97.7,RR,316.4,238.3
1XNJCXS3EY,160826.0,10:16:15.148,R,175.8,RR,367.2,257.8
1XNJCXS3EY,160826.0,10:16:16.012,L,144.5,LL,367.2,222.7
1XNJCXS3EY,160826.0,10:16:17.578,R,125.0,LR,257.8,128.9
1XNJCXS3EY,160826.0,10:16:22.605,L,242.2,SL,367.2,222.7
1XNJCXS3EY,160826.0,10:16:22.715,L,93.8,LL,257.8,15.6
1XNJCXS3EY,160826.0,10:16:24.430,L,128.9,LL,449.2,320.3
1XNJCXS3EY,160826.0,10:17:11.996,R,113.3,RR,382.8,285.2
1XNJCXS3EY,160826.0,10:17:14.203,L,160.2,RL,320.3,207.0
1XNJCXS3EY,160826.0,10:17:16.156,R,97.7,LR,238.3,93.8
1XNJCXS3EY,160826.0,10:17:16.652,S,97.7,RS,496.1,398.4
1XNJCXS3EY,160826.0,10:17:16.859,S,78.1,SS,226.6,128.9
1XNJCXS3EY,160826.0,10:17:17.852,R,93.8,LR,418.0,242.2
1XNJCXS3EY,160826.0,10:17:19.645,L,97.7,LL,367.2,238.3
1XNJCXS3EY,160826.0,10:17:20.043,L,144.5,LL,351.6,253.9
1XNJCXS3EY,160826.0,10:17:54.973,R,97.7,LR,269.5,109.4
1XNJCXS3EY,160826.0,10:18:02.941,L,160.2,RL,320.3,210.9
1XNJCXS3EY,160826.0,10:18:03.355,R,93.8,LR,480.5,320.3
1XNJCXS3EY,160826.0,10:18:03.789,R,113.3,RR,414.1,320.3
1XNJCXS3EY,160826.0,10:18:45.309,R,82.0,LR,160.2,31.3
1XNJCXS3EY,160826.0,10:18:45.805,R,144.5,RR,433.6,351.6
1XNJCXS3EY,160826.0,10:19:54.762,R,109.4,RR,449.2,335.9
1XNJCXS3EY,160826.0,10:19:56.652,L,113.3,LL,445.3,351.6
1XNJCXS3EY,160826.0,10:19:58.219,R,97.7,LR,300.8,191.4
1XNJCXS3EY,160826.0,10:19:58.973,S,66.4,SS,207.0,125.0
1XNJCXS3EY,160826.0,10:19:59.469,L,242.2,SL,320.3,253.9
1XNJCXS3EY,160826.0,10:19:59.676,R,97.7,LR,351.6,109.4
1XNJCXS3EY,160826.0,10:20:00.109,L,164.1,RL,367.2,269.5
1XNJCXS3EY,160826.0,10:20:00.477,L,113.3,LL,418.0,253.9
1XNJCXS3EY,160826.0,10:20:00.844,L,128.9,LL,351.6,238.3
1XNJCXS3EY,160826.0,10:20:23.676,R,97.7,LR,253.9,78.1
1XNJCXS3EY,160826.0,10:20:24.746,R,128.9,LR,363.3,207.0
1XNJCXS3EY,160826.0,10:20:29.914,R,128.9,RR,300.8,222.7
1XNJCXS3EY,160826.0,10:25:02.926,R,97.7,LR,222.7,50.8
1XNJCXS3EY,160826.0,10:25:11.660,R,113.3,RR,320.3,222.7
1XNJCXS3EY,160826.0,10:38:42.156,R,93.8,LR,238.3,31.3
1XNJCXS3EY,160826.0,10:38:50.027,R,113.3,RR,351.6,253.9
1XNJCXS3EY,160826.0,10:39:22.219,R,128.9,LR,253.9,93.8
1XNJCXS3EY,160826.0,10:39:27.004,R,128.9,RR,304.7,222.7
1XNJCXS3EY,160826.0,10:40:41.930,R,109.4,RR,480.5,386.7
1XNJCXS3EY,160826.0,10:40:42.316,R,113.3,RR,382.8,273.4
1XNJCXS3EY,160826.0,10:40:44.812,L,175.8,LL,418.0,273.4
1XNJCXS3EY,160826.0,10:40:46.828,R,113.3,LR,335.9,78.1
1XNJCXS3EY,160826.0,10:40:47.289,S,78.1,RS,496.1,382.8
1XNJCXS3EY,160826.0,10:40:47.500,S,66.4,SS,222.7,144.5
1XNJCXS3EY,160826.0,10:40:47.996,L,273.4,SL,289.1,222.7
1XNJCXS3EY,160826.0,10:40:49.738,L,93.8,LL,335.9,210.9
1XNJCXS3EY,160826.0,10:40:50.105,L,125.0,LL,335.9,242.2
1XNJCXS3EY,160826.0,10:41:31.707,R,113.3,LR,285.2,144.5
1XNJCXS3EY,160826.0,10:41:32.043,S,62.5,RS,386.7,273.4
1XNJCXS3EY,160826.0,10:41:32.266,S,78.1,SS,207.0,144.5
1XNJCXS3EY,160826.0,10:41:32.652,L,210.9,SL,253.9,175.8
1XNJCXS3EY,160826.0,10:41:39.996,L,113.3,LL,320.3,207.0
1XNJCXS3EY,160826.0,10:41:40.395,L,160.2,LL,351.6,238.3
1XNJCXS3EY,160826.0,10:42:13.082,R,109.4,LR,339.8,97.7
1XNJCXS3EY,160826.0,10:42:17.820,R,113.3,LR,496.1,367.2
1XNJCXS3EY,160826.0,10:42:18.828,R,97.7,LR,335.9,93.8
1XNJCXS3EY,160826.0,10:42:19.195,R,113.3,RR,351.6,253.9
1XNJCXS3EY,160826.0,10:45:47.309,R,97.7,LR,257.8,31.3
1XNJCXS3EY,160826.0,10:45:48.539,R,97.7,LR,414.1,238.3
1XNJCXS3EY,160826.0,10:48:44.332,L,210.9,RL,335.9,238.3
1XNJCXS3EY,160827.0,06:32:22.184,L,144.5,RL,271.5,207.0
1XNJCXS3EY,160827.0,06:32:26.408,R,144.5,LR,464.8,289.1
1XNJCXS3EY,160827.0,06:32:27.912,L,144.5,LL,382.8,271.5
1XNJCXS3EY,160827.0,06:32:28.408,L,144.5,LL,496.1,351.6
1XNJCXS3EY,160827.0,06:32:57.016,R,127.0,LR,369.1,128.9
1XNJCXS3EY,160827.0,06:33:03.641,R,128.9,LR,464.8,320.3
1XNJCXS3EY,160827.0,06:33:05.145,R,97.7,LR,302.7,144.5
1XNJCXS3EY,160827.0,06:33:05.623,R,111.3,RR,464.8,367.2
1XNJCXS3EY,160827.0,06:33:40.137,L,224.6,RL,335.9,240.2
1XNJCXS3EY,160827.0,06:33:42.312,L,209.0,LL,480.5,320.3
1XNJCXS3EY,160827.0,06:33:43.129,R,97.7,RR,335.9,238.3
1XNJCXS3EY,160827.0,06:33:43.480,R,144.5,RR,304.7,207.0
1XNJCXS3EY,160827.0,06:33:43.961,L,209.0,RL,416.0,271.5
1XNJCXS3EY,160827.0,06:33:56.760,R,128.9,LR,318.4,127.0
1XNJCXS3EY,160827.0,06:34:09.129,R,113.3,LR,255.9,144.5
1XNJCXS3EY,160827.0,06:36:40.680,R,113.3,LR,478.5,238.3
1XNJCXS3EY,160827.0,06:36:41.992,R,128.9,LR,271.5,142.6
1XNJCXS3EY,160827.0,06:36:49.576,R,95.7,LR,335.9,175.8
1XNJCXS3EY,160828.0,07:52:28.768,R,33.2,RR,367.2,240.2
1XNJCXS3EY,160828.0,07:53:19.535,R,128.9,LR,449.2,304.7
1XNJCXS3EY,160828.0,07:53:36.910,R,31.3,RR,384.8,255.9
