User_ID,Date,Timestamp,Hand,Hold_Time,Direction,Latency_Time,Flight_Time
6VH7AFDQ32,170210.0,16:52:30.676,L,168.0,LL,668.0,527.3
6VH7AFDQ32,170210.0,16:52:31.180,L,144.5,LL,531.3,363.3
6VH7AFDQ32,170210.0,16:52:31.449,R,128.9,LR,285.2,140.6
6VH7AFDQ32,170210.0,16:52:31.945,L,152.3,RL,472.7,343.8
6VH7AFDQ32,170210.0,16:52:32.105,R,113.3,LR,199.2,46.9
6VH7AFDQ32,170210.0,16:52:32.508,L,218.8,RL,296.9,183.6
6VH7AFDQ32,170210.0,16:52:34.113,L,222.7,RL,488.3,351.6
6VH7AFDQ32,170210.0,16:52:34.723,L,234.4,LL,597.7,375.0
6VH7AFDQ32,170210.0,16:52:35.531,L,152.3,RL,656.3,539.1
6VH7AFDQ32,170210.0,16:52:36.012,L,187.5,LL,445.3,293.0
6VH7AFDQ32,170210.0,16:52:36.539,L,210.9,LL,503.9,316.4
6VH7AFDQ32,170210.0,16:52:36.984,L,117.2,LL,539.1,328.1
6VH7AFDQ32,170210.0,16:52:37.699,L,156.3,LL,671.9,554.7
6VH7AFDQ32,170210.0,16:52:40.242,L,191.4,RL,433.6,265.6
6VH7AFDQ32,170210.0,16:52:40.480,R,140.6,LR,289.1,97.7
6VH7AFDQ32,170210.0,16:52:40.875,R,152.3,RR,382.8,242.2
6VH7AFDQ32,170210.0,16:52:41.266,R,140.6,RR,402.3,250.0
6VH7AFDQ32,170210.0,16:52:41.922,R,121.1,RR,675.8,535.2
6VH7AFDQ32,170210.0,16:52:42.434,L,175.8,RL,457.0,335.9
6VH7AFDQ32,170210.0,16:52:42.586,R,128.9,LR,199.2,23.4
6VH7AFDQ32,170210.0,16:52:43.195,R,105.5,RR,632.8,503.9
6VH7AFDQ32,170210.0,16:59:51.441,L,199.2,LL,671.9,480.5
6VH7AFDQ32,170210.0,16:59:52.137,L,175.8,LL,718.8,519.5
6VH7AFDQ32,170210.0,16:59:59.922,R,160.2,RR,609.4,457.0
6VH7AFDQ32,170210.0,17:00:00.348,L,187.5,RL,398.4,238.3
6VH7AFDQ32,170210.0,17:00:00.625,R,175.8,LR,289.1,101.6
6VH7AFDQ32,170210.0,17:00:01.227,L,152.3,RL,625.0,449.2
6VH7AFDQ32,170210.0,17:00:17.586,R,121.1,LR,789.1,574.2
6VH7AFDQ32,170210.0,17:00:18.273,R,113.3,RR,695.3,574.2
6VH7AFDQ32,170210.0,17:00:18.730,R,128.9,RR,441.4,328.1
6VH7AFDQ32,170210.0,17:00:19.227,L,183.6,RL,441.4,312.5
6VH7AFDQ32,170210.0,17:00:19.867,L,191.4,LL,632.8,449.2
6VH7AFDQ32,170210.0,17:00:21.488,R,148.4,LR,265.6,50.8
6VH7AFDQ32,170210.0,17:00:21.961,R,222.7,RR,398.4,250.0
6VH7AFDQ32,170210.0,17:00:22.434,L,191.4,RL,503.9,281.3
6VH7AFDQ32,170210.0,17:00:39.203,L,15.6,LL,175.8,691.4
6VH7AFDQ32,170210.0,17:00:39.234,L,46.9,LL,175.8,691.4
6VH7AFDQ32,170210.0,17:00:43.371,L,179.7,RL,371.1,242.2
6VH7AFDQ32,170210.0,17:00:43.586,R,144.5,LR,253.9,74.2
6VH7AFDQ32,170210.0,17:00:43.938,L,168.0,RL,328.1,183.6
6VH7AFDQ32,170210.0,17:00:45.418,L,214.8,RL,617.2,496.1
6VH7AFDQ32,170210.0,17:00:45.883,L,144.5,LL,535.2,320.3
6VH7AFDQ32,170210.0,17:00:46.051,R,136.7,LR,175.8,31.3
6VH7AFDQ32,170210.0,17:00:46.555,L,121.1,RL,519.5,382.8
6VH7AFDQ32,170210.0,17:00:47.066,L,144.5,LL,488.3,367.2
6VH7AFDQ32,170210.0,17:00:47.625,L,144.5,LL,558.6,414.1
6VH7AFDQ32,170210.0,17:00:48.227,L,128.9,LL,617.2,472.7
6VH7AFDQ32,170210.0,17:00:49.027,L,191.4,LL,738.3,609.4
6VH7AFDQ32,170210.0,17:00:52.648,L,199.2,RL,359.4,199.2
6VH7AFDQ32,170210.0,17:00:52.977,R,183.6,LR,343.8,144.5
6VH7AFDQ32,170210.0,17:00:53.402,R,168.0,RR,441.4,257.8
6VH7AFDQ32,170210.0,17:00:53.754,R,128.9,RR,390.6,222.7
6VH7AFDQ32,170210.0,17:00:54.449,R,121.1,RR,703.1,574.2
6VH7AFDQ32,170210.0,17:00:55.012,L,187.5,RL,496.1,375.0
6VH7AFDQ32,170210.0,17:00:55.707,R,121.1,LR,761.7,574.2
6VH7AFDQ32,170210.0,17:00:56.449,R,128.9,RR,734.4,613.3
6VH7AFDQ32,170210.0,17:01:26.312,R,93.8,RR,527.3,351.6
6VH7AFDQ32,170210.0,17:01:26.824,R,117.2,RR,488.3,394.5
6VH7AFDQ32,170210.0,17:01:27.395,R,152.3,RR,535.2,418.0
6VH7AFDQ32,170210.0,17:01:27.852,R,168.0,RR,441.4,289.1
6VH7AFDQ32,170210.0,17:01:28.273,R,144.5,RR,445.3,277.3
6VH7AFDQ32,170210.0,17:01:28.883,R,121.1,RR,632.8,488.3
6VH7AFDQ32,170210.0,17:01:40.969,R,117.2,RR,539.1,394.5
6VH7AFDQ32,170210.0,17:01:41.465,R,144.5,RR,468.8,351.6
6VH7AFDQ32,170210.0,17:01:42.012,R,140.6,RR,550.8,406.3
6VH7AFDQ32,170210.0,17:01:42.395,R,105.5,RR,418.0,277.3
6VH7AFDQ32,170210.0,17:01:42.777,R,113.3,RR,375.0,269.5
6VH7AFDQ32,170210.0,17:01:43.355,R,105.5,RR,585.9,472.7
6VH7AFDQ32,170210.0,17:02:33.348,R,136.7,RR,511.7,386.7
6VH7AFDQ32,170210.0,17:02:33.984,R,199.2,RR,574.2,437.5
6VH7AFDQ32,170210.0,17:02:41.723,R,152.3,RR,519.5,402.3
6VH7AFDQ32,170210.0,17:03:24.020,R,117.2,RR,578.1,425.8
6VH7AFDQ32,170210.0,17:03:24.648,R,132.8,RR,617.2,500.0
6VH7AFDQ32,170210.0,17:03:25.266,R,136.7,RR,613.3,480.5
6VH7AFDQ32,170210.0,17:03:25.867,R,175.8,RR,562.5,425.8
6VH7AFDQ32,170210.0,17:03:26.355,R,132.8,RR,527.3,351.6
6VH7AFDQ32,170210.0,17:03:26.992,R,140.6,RR,632.8,500.0
6VH7AFDQ32,170210.0,17:03:33.273,R,144.5,RR,535.2,406.3
6VH7AFDQ32,170210.0,17:03:33.867,R,128.9,RR,609.4,464.8
6VH7AFDQ32,170210.0,17:03:34.473,R,152.3,RR,582.0,453.1
6VH7AFDQ32,170210.0,17:03:34.984,R,175.8,RR,488.3,335.9
6VH7AFDQ32,170210.0,17:03:35.465,R,183.6,RR,472.7,296.9
6VH7AFDQ32,170210.0,17:03:36.090,R,152.3,RR,656.3,472.7
6VH7AFDQ32,170210.0,17:03:42.730,R,175.8,LR,335.9,121.1
6VH7AFDQ32,170210.0,17:03:43.172,L,187.5,RL,429.7,253.9
6VH7AFDQ32,170210.0,17:03:43.434,R,168.0,LR,281.3,93.8
6VH7AFDQ32,170210.0,17:03:43.875,R,183.6,RR,425.8,257.8
6VH7AFDQ32,170210.0,17:03:44.312,L,214.8,RL,406.3,222.7
6VH7AFDQ32,170210.0,17:03:44.676,R,136.7,LR,441.4,226.6
6VH7AFDQ32,170210.0,17:04:03.516,L,242.2,LL,625.0,437.5
6VH7AFDQ32,170210.0,17:04:04.145,R,152.3,LR,718.8,476.6
6VH7AFDQ32,170210.0,17:04:04.859,L,226.6,RL,640.6,488.3
6VH7AFDQ32,170210.0,17:04:08.305,L,246.1,LL,503.9,351.6
6VH7AFDQ32,170210.0,17:04:08.777,R,152.3,LR,566.4,320.3
6VH7AFDQ32,170210.0,17:04:16.906,L,168.0,LL,687.5,535.2
6VH7AFDQ32,170210.0,17:04:17.340,R,136.7,LR,464.8,296.9
6VH7AFDQ32,170210.0,17:04:18.875,L,210.9,RL,621.1,484.4
6VH7AFDQ32,170210.0,18:52:20.180,R,125.0,LR,265.6,85.9
6VH7AFDQ32,170210.0,18:52:20.539,R,117.2,RR,367.2,242.2
6VH7AFDQ32,170210.0,18:52:21.062,R,117.2,RR,523.4,406.3
6VH7AFDQ32,170210.0,18:52:21.492,S,140.6,RS,406.3,289.1
6VH7AFDQ32,170210.0,18:52:22.086,L,148.4,SL,585.9,445.3
6VH7AFDQ32,170210.0,18:52:22.750,R,140.6,LR,671.9,523.4
6VH7AFDQ32,170210.0,18:52:23.586,L,195.3,RL,781.3,640.6
6VH7AFDQ32,170210.0,18:52:24.094,L,109.4,LL,585.9,390.6
6VH7AFDQ32,170210.0,18:52:24.836,R,164.1,LR,695.3,585.9
6VH7AFDQ32,170210.0,18:52:25.469,L,125.0,RL,671.9,507.8
6VH7AFDQ32,170210.0,18:52:26.141,L,195.3,LL,601.6,476.6
6VH7AFDQ32,170210.0,18:52:26.578,R,101.6,LR,531.3,335.9
6VH7AFDQ32,170210.0,19:00:22.242,R,148.4,LR,687.5,468.8
6VH7AFDQ32,170210.0,19:00:22.836,L,203.1,RL,539.1,390.6
6VH7AFDQ32,170210.0,19:00:23.250,L,156.3,LL,460.9,257.8
6VH7AFDQ32,170210.0,19:00:23.547,R,179.7,LR,273.4,117.2
6VH7AFDQ32,170210.0,19:00:24.188,S,187.5,RS,632.8,453.1
6VH7AFDQ32,170210.0,19:00:27.094,R,218.8,LR,734.4,492.2
6VH7AFDQ32,170210.0,19:00:27.852,L,265.6,RL,710.9,492.2
6VH7AFDQ32,170210.0,19:00:28.547,S,257.8,LS,703.1,437.5
6VH7AFDQ32,170210.0,19:00:29.695,R,132.8,LR,351.6,93.8
6VH7AFDQ32,170210.0,19:00:30.156,R,187.5,RR,406.3,273.4
6VH7AFDQ32,170210.0,19:00:31.523,S,179.7,LS,289.1,117.2
6VH7AFDQ32,170210.0,19:00:32.602,R,125.0,LR,320.3,109.4
6VH7AFDQ32,170210.0,19:00:33.039,L,171.9,RL,390.6,265.6
6VH7AFDQ32,170210.0,19:00:33.570,L,226.6,LL,476.6,304.7
6VH7AFDQ32,170210.0,19:00:34.016,L,117.2,LL,554.7,328.1
6VH7AFDQ32,170210.0,19:00:34.594,L,148.4,LL,546.9,429.7
6VH7AFDQ32,170210.0,19:00:34.938,S,171.9,LS,320.3,171.9
6VH7AFDQ32,170210.0,19:00:35.305,R,132.8,SR,406.3,234.4
6VH7AFDQ32,170210.0,19:00:35.711,L,140.6,RL,398.4,265.6
6VH7AFDQ32,170210.0,19:00:36.172,L,156.3,LL,445.3,304.7
6VH7AFDQ32,170210.0,19:00:36.469,S,171.9,LS,281.3,125.0
6VH7AFDQ32,170210.0,19:00:49.664,L,242.2,SL,796.9,539.1
6VH7AFDQ32,170210.0,19:00:49.977,R,156.3,LR,398.4,156.3
6VH7AFDQ32,170210.0,19:00:50.352,L,140.6,RL,390.6,234.4
6VH7AFDQ32,170210.0,19:00:50.734,S,187.5,LS,335.9,195.3
6VH7AFDQ32,170210.0,19:00:51.195,L,148.4,SL,500.0,312.5
6VH7AFDQ32,170210.0,19:00:51.648,L,148.4,LL,453.1,304.7
6VH7AFDQ32,170210.0,19:00:52.148,R,226.6,LR,421.9,273.4
6VH7AFDQ32,170210.0,19:00:52.516,R,148.4,RR,445.3,218.8
6VH7AFDQ32,170210.0,19:00:52.844,S,171.9,RS,304.7,156.3
6VH7AFDQ32,170210.0,19:00:53.219,R,156.3,SR,390.6,218.8
6VH7AFDQ32,170210.0,19:00:53.625,L,125.0,RL,437.5,281.3
6VH7AFDQ32,170210.0,19:00:54.078,L,15.6,LL,171.9,437.5
6VH7AFDQ32,170210.0,19:00:54.211,S,148.4,LS,171.9,437.5
6VH7AFDQ32,170210.0,19:00:54.539,R,179.7,SR,296.9,148.4
6VH7AFDQ32,170210.0,19:00:54.797,R,156.3,RR,281.3,101.6
6VH7AFDQ32,170210.0,19:00:55.062,L,125.0,RL,296.9,140.6
6VH7AFDQ32,170210.0,19:00:55.328,S,179.7,LS,210.9,85.9
6VH7AFDQ32,170210.0,19:00:55.617,L,156.3,SL,312.5,132.8
6VH7AFDQ32,170210.0,19:00:55.875,R,140.6,LR,273.4,117.2
6VH7AFDQ32,170210.0,19:00:56.391,S,187.5,RS,468.8,328.1
6VH7AFDQ32,170210.0,19:00:56.891,L,187.5,SL,500.0,312.5
6VH7AFDQ32,170210.0,19:00:57.328,L,156.3,LL,468.8,281.3
6VH7AFDQ32,170210.0,19:00:57.625,R,171.9,LR,281.3,125.0
6VH7AFDQ32,170210.0,19:00:57.898,L,187.5,RL,257.8,85.9
6VH7AFDQ32,170210.0,19:00:58.367,L,132.8,LL,523.4,335.9
6VH7AFDQ32,170210.0,19:00:58.836,S,210.9,LS,390.6,257.8
6VH7AFDQ32,170210.0,19:01:00.141,R,156.3,LR,281.3,101.6
6VH7AFDQ32,170210.0,19:01:00.492,R,156.3,RR,351.6,195.3
6VH7AFDQ32,170210.0,19:01:00.828,S,156.3,RS,335.9,179.7
6VH7AFDQ32,170210.0,19:01:01.133,L,148.4,SL,312.5,156.3
6VH7AFDQ32,170210.0,19:01:01.281,R,125.0,LR,171.9,23.4
6VH7AFDQ32,170210.0,19:01:01.664,L,218.8,RL,289.1,164.1
6VH7AFDQ32,170210.0,19:01:02.039,L,171.9,LL,421.9,203.1
6VH7AFDQ32,170210.0,19:01:02.258,S,148.4,LS,242.2,70.3
6VH7AFDQ32,170210.0,19:01:02.953,L,171.9,SL,671.9,523.4
6VH7AFDQ32,170210.0,19:01:03.164,R,140.6,LR,242.2,70.3
6VH7AFDQ32,170210.0,19:01:03.664,L,171.9,RL,468.8,328.1
6VH7AFDQ32,170210.0,19:01:03.828,S,132.8,LS,203.1,31.3
6VH7AFDQ32,170210.0,19:01:04.289,L,140.6,SL,453.1,320.3
6VH7AFDQ32,170210.0,19:01:04.555,R,156.3,LR,250.0,109.4
6VH7AFDQ32,170210.0,19:01:04.914,L,117.2,RL,398.4,242.2
6VH7AFDQ32,170210.0,19:01:05.219,S,179.7,LS,242.2,125.0
6VH7AFDQ32,170210.0,19:01:05.648,L,156.3,SL,453.1,273.4
6VH7AFDQ32,170210.0,19:01:05.898,R,140.6,LR,265.6,109.4
6VH7AFDQ32,170210.0,19:01:06.320,L,117.2,RL,445.3,304.7
6VH7AFDQ32,170210.0,19:01:06.844,S,187.5,LS,453.1,335.9
6VH7AFDQ32,170210.0,19:01:07.250,R,125.0,SR,468.8,281.3
6VH7AFDQ32,170210.0,19:01:07.680,L,132.8,RL,421.9,296.9
6VH7AFDQ32,170210.0,19:01:08.016,S,187.5,LS,281.3,148.4
6VH7AFDQ32,170210.0,19:01:08.492,R,140.6,SR,523.4,335.9
6VH7AFDQ32,170210.0,19:01:12.219,R,203.1,LR,609.4,421.9
6VH7AFDQ32,170210.0,19:01:13.969,S,187.5,RS,742.2,585.9
6VH7AFDQ32,170210.0,19:01:16.664,L,265.6,LL,781.3,562.5
6VH7AFDQ32,170210.0,19:01:40.102,S,179.7,SS,335.9,148.4
6VH7AFDQ32,170210.0,19:01:43.078,R,234.4,LR,781.3,609.4
6VH7AFDQ32,170210.0,19:01:43.516,L,226.6,RL,445.3,210.9
6VH7AFDQ32,170210.0,19:01:43.852,S,265.6,LS,296.9,70.3
6VH7AFDQ32,170210.0,19:01:44.445,L,101.6,SL,757.8,492.2
6VH7AFDQ32,170210.0,19:01:47.680,L,203.1,RL,289.1,156.3
6VH7AFDQ32,170210.0,19:01:48.195,L,156.3,LL,562.5,359.4
6VH7AFDQ32,170210.0,19:01:48.828,L,171.9,LL,617.2,460.9
6VH7AFDQ32,170210.0,19:01:49.133,S,187.5,LS,289.1,117.2
6VH7AFDQ32,170210.0,19:01:49.609,L,15.6,SL,156.3,460.9
6VH7AFDQ32,170210.0,19:01:49.727,R,132.8,LR,156.3,460.9
6VH7AFDQ32,170210.0,19:01:49.961,S,117.2,RS,250.0,117.2
6VH7AFDQ32,170210.0,19:01:50.555,R,148.4,SR,562.5,445.3
6VH7AFDQ32,170210.0,19:01:50.906,L,203.1,RL,296.9,148.4
6VH7AFDQ32,170210.0,19:01:51.305,L,226.6,LL,375.0,171.9
6VH7AFDQ32,170210.0,19:01:51.562,R,195.3,LR,289.1,62.5
6VH7AFDQ32,170210.0,19:01:51.898,S,132.8,RS,398.4,203.1
6VH7AFDQ32,170210.0,19:01:52.305,L,132.8,SL,406.3,273.4
6VH7AFDQ32,170210.0,19:01:52.555,S,109.4,LS,273.4,140.6
6VH7AFDQ32,170210.0,19:01:52.914,R,132.8,SR,335.9,226.6
6VH7AFDQ32,170210.0,19:01:53.133,L,187.5,RL,164.1,31.3
6VH7AFDQ32,170210.0,19:01:53.422,R,179.7,LR,296.9,109.4
6VH7AFDQ32,170210.0,19:01:53.836,L,187.5,RL,406.3,226.6
6VH7AFDQ32,170210.0,19:01:53.984,R,117.2,LR,218.8,31.3
6VH7AFDQ32,170210.0,19:01:54.367,L,132.8,RL,367.2,250.0
6VH7AFDQ32,170210.0,19:01:54.820,S,179.7,LS,406.3,273.4
6VH7AFDQ32,170210.0,19:01:55.133,R,125.0,SR,367.2,187.5
6VH7AFDQ32,170210.0,19:01:55.477,R,125.0,RR,343.8,218.8
6VH7AFDQ32,170210.0,19:01:55.938,S,132.8,RS,453.1,328.1
6VH7AFDQ32,170210.0,19:01:56.609,R,140.6,SR,664.1,531.3
6VH7AFDQ32,170210.0,19:01:57.000,L,132.8,RL,398.4,257.8
6VH7AFDQ32,170210.0,19:01:57.422,L,140.6,LL,414.1,281.3
6VH7AFDQ32,170210.0,19:01:57.703,S,140.6,LS,281.3,140.6
6VH7AFDQ32,170210.0,19:01:58.156,L,117.2,SL,476.6,335.9
6VH7AFDQ32,170210.0,19:01:58.602,L,109.4,LL,453.1,335.9
6VH7AFDQ32,170210.0,19:02:00.469,L,179.7,LL,656.3,460.9
6VH7AFDQ32,170210.0,19:02:00.797,R,148.4,LR,359.4,179.7
6VH7AFDQ32,170210.0,19:02:01.211,L,164.1,RL,398.4,250.0
6VH7AFDQ32,170210.0,19:02:01.938,L,164.1,LL,726.6,562.5
6VH7AFDQ32,170210.0,19:02:02.305,S,132.8,LS,398.4,234.4
6VH7AFDQ32,170210.0,19:02:02.695,L,171.9,SL,351.6,218.8
6VH7AFDQ32,170210.0,19:02:02.922,R,164.1,LR,234.4,62.5
6VH7AFDQ32,170210.0,19:02:03.289,L,156.3,RL,375.0,210.9
6VH7AFDQ32,170210.0,19:02:03.508,S,164.1,LS,210.9,54.7
6VH7AFDQ32,170210.0,19:02:03.773,R,195.3,SR,234.4,70.3
6VH7AFDQ32,170210.0,19:02:04.141,R,210.9,RR,351.6,156.3
6VH7AFDQ32,170210.0,19:02:04.383,L,125.0,RL,328.1,117.2
6VH7AFDQ32,170210.0,19:02:04.844,L,218.8,LL,367.2,242.2
6VH7AFDQ32,170210.0,19:02:05.469,L,195.3,LL,648.4,429.7
6VH7AFDQ32,170210.0,19:02:05.906,S,148.4,LS,484.4,289.1
6VH7AFDQ32,170210.0,19:02:06.305,R,148.4,SR,398.4,250.0
6VH7AFDQ32,170210.0,19:02:06.680,R,203.1,RR,320.3,171.9
6VH7AFDQ32,170210.0,19:02:06.992,R,179.7,RR,335.9,132.8
6VH7AFDQ32,170210.0,19:02:07.266,S,132.8,RS,320.3,140.6
6VH7AFDQ32,170210.0,19:02:07.641,L,148.4,SL,359.4,226.6
6VH7AFDQ32,170210.0,19:02:07.820,R,117.2,LR,210.9,62.5
6VH7AFDQ32,170210.0,19:02:08.227,S,187.5,RS,335.9,218.8
6VH7AFDQ32,170210.0,19:02:08.641,R,109.4,SR,492.2,304.7
6VH7AFDQ32,170210.0,19:02:09.047,R,140.6,RR,375.0,265.6
6VH7AFDQ32,170210.0,19:02:09.555,L,210.9,RL,437.5,296.9
6VH7AFDQ32,170210.0,19:02:09.703,R,125.0,LR,234.4,23.4
6VH7AFDQ32,170210.0,19:02:10.352,R,101.6,RR,671.9,546.9
6VH7AFDQ32,170210.0,19:02:10.828,S,132.8,RS,445.3,343.8
6VH7AFDQ32,170210.0,19:02:11.258,S,132.8,SS,429.7,296.9
6VH7AFDQ32,170210.0,19:02:15.664,S,148.4,RS,648.4,500.0
6VH7AFDQ32,170210.0,19:02:22.930,R,132.8,LR,429.7,179.7
6VH7AFDQ32,170210.0,19:02:23.289,R,125.0,RR,367.2,234.4
6VH7AFDQ32,170210.0,19:02:23.766,R,148.4,RR,453.1,328.1
6VH7AFDQ32,170210.0,19:02:24.227,L,203.1,RL,406.3,257.8
6VH7AFDQ32,170210.0,19:02:24.484,S,179.7,LS,281.3,78.1
6VH7AFDQ32,170210.0,19:02:24.953,L,179.7,SL,468.8,289.1
6VH7AFDQ32,170210.0,19:02:25.555,L,257.8,LL,523.4,343.8
6VH7AFDQ32,170210.0,19:02:25.734,R,125.0,LR,312.5,54.7
6VH7AFDQ32,170210.0,19:02:26.352,L,148.4,RL,593.8,468.8
6VH7AFDQ32,170210.0,19:02:27.062,L,187.5,LL,671.9,523.4
6VH7AFDQ32,170210.0,19:02:27.320,R,140.6,LR,304.7,117.2
6VH7AFDQ32,170210.0,19:02:27.797,S,171.9,RS,445.3,304.7
6VH7AFDQ32,170210.0,19:02:28.445,R,148.4,SR,671.9,500.0
6VH7AFDQ32,170210.0,19:02:28.875,L,148.4,RL,429.7,281.3
6VH7AFDQ32,170210.0,19:02:29.281,S,164.1,LS,390.6,242.2
6VH7AFDQ32,170210.0,19:02:31.531,R,164.1,LR,242.2,117.2
6VH7AFDQ32,170210.0,19:02:32.055,L,179.7,RL,507.8,343.8
6VH7AFDQ32,170210.0,19:02:32.242,S,179.7,LS,187.5,7.8
6VH7AFDQ32,170210.0,19:02:32.812,R,140.6,SR,171.9,429.7
6VH7AFDQ32,170210.0,19:02:34.742,S,179.7,RS,398.4,226.6
6VH7AFDQ32,170210.0,19:02:35.156,R,15.6,SR,578.1,398.4
6VH7AFDQ32,170210.0,19:02:36.570,L,54.7,RL,132.8,398.4
6VH7AFDQ32,170210.0,19:02:36.719,S,203.1,LS,132.8,398.4
6VH7AFDQ32,170210.0,19:02:37.070,L,171.9,SL,382.8,179.7
6VH7AFDQ32,170210.0,19:02:37.242,R,132.8,LR,210.9,39.1
6VH7AFDQ32,170210.0,19:02:37.633,L,140.6,RL,382.8,250.0
6VH7AFDQ32,170210.0,19:02:38.102,L,164.1,LL,445.3,304.7
6VH7AFDQ32,170210.0,19:02:38.320,S,156.3,LS,226.6,62.5
6VH7AFDQ32,170210.0,19:02:38.719,R,179.7,SR,375.0,218.8
6VH7AFDQ32,170210.0,19:02:40.109,L,234.4,RL,445.3,304.7
6VH7AFDQ32,170210.0,19:02:40.469,S,195.3,LS,398.4,164.1
6VH7AFDQ32,170210.0,19:02:41.016,L,226.6,SL,515.6,320.3
6VH7AFDQ32,170210.0,19:02:41.180,R,125.0,LR,265.6,39.1
6VH7AFDQ32,170210.0,19:02:41.758,S,171.9,RS,531.3,406.3
6VH7AFDQ32,170210.0,19:02:46.867,L,140.6,LL,664.1,523.4
6VH7AFDQ32,170210.0,19:02:47.133,R,140.6,LR,265.6,125.0
6VH7AFDQ32,170210.0,19:02:47.672,L,109.4,RL,570.3,429.7
6VH7AFDQ32,170210.0,19:02:48.297,L,117.2,LL,617.2,507.8
6VH7AFDQ32,170210.0,19:02:48.789,R,132.8,LR,476.6,359.4
6VH7AFDQ32,170210.0,19:02:49.195,S,179.7,RS,359.4,226.6
6VH7AFDQ32,170210.0,19:02:49.523,L,148.4,SL,359.4,179.7
6VH7AFDQ32,170210.0,19:02:49.766,S,148.4,LS,234.4,85.9
6VH7AFDQ32,170210.0,19:02:50.141,R,148.4,SR,382.8,234.4
6VH7AFDQ32,170210.0,19:02:50.461,L,171.9,RL,296.9,148.4
6VH7AFDQ32,170210.0,19:02:50.836,L,164.1,LL,382.8,210.9
6VH7AFDQ32,170210.0,19:02:51.227,L,242.2,LL,312.5,148.4
6VH7AFDQ32,170210.0,19:02:51.648,L,218.8,LL,445.3,203.1
6VH7AFDQ32,170210.0,19:02:52.148,L,140.6,LL,578.1,359.4
6VH7AFDQ32,170210.0,19:02:53.031,L,234.4,LL,789.1,648.4
6VH7AFDQ32,170210.0,19:02:53.320,R,132.8,LR,390.6,156.3
6VH7AFDQ32,170210.0,19:02:53.812,S,187.5,RS,437.5,304.7
6VH7AFDQ32,170210.0,19:02:54.156,S,171.9,SS,359.4,171.9
6VH7AFDQ32,170211.0,09:01:42.738,R,89.8,RR,302.7,158.2
6VH7AFDQ32,170211.0,09:01:42.979,R,121.1,RR,209.0,119.1
6VH7AFDQ32,170211.0,09:01:43.211,R,127.0,RR,226.6,105.5
6VH7AFDQ32,170211.0,09:01:43.643,S,72.3,RS,486.3,359.4
6VH7AFDQ32,170211.0,09:01:44.219,L,121.1,SL,527.3,455.1
6VH7AFDQ32,170211.0,09:01:44.498,L,144.5,LL,255.9,134.8
6VH7AFDQ32,170211.0,09:01:45.201,R,85.9,LR,2.0,617.2
6VH7AFDQ32,170211.0,09:01:45.201,R,85.9,RR,2.0,617.2
6VH7AFDQ32,170211.0,09:01:45.396,L,123.0,RL,158.2,72.3
6VH7AFDQ32,170211.0,09:01:45.818,S,72.3,LS,472.7,349.6
6VH7AFDQ32,170211.0,09:01:46.266,L,23.4,SL,136.7,423.8
6VH7AFDQ32,170211.0,09:01:46.330,R,87.9,LR,136.7,423.8
6VH7AFDQ32,170211.0,09:01:46.475,R,105.5,RR,127.0,39.1
6VH7AFDQ32,170211.0,09:01:46.762,L,127.0,RL,265.6,160.2
6VH7AFDQ32,170211.0,09:01:46.842,S,39.1,LS,168.0,41.0
6VH7AFDQ32,170211.0,09:01:47.033,S,95.7,SS,134.8,95.7
6VH7AFDQ32,170211.0,09:01:47.361,R,80.1,SR,101.6,248.0
6VH7AFDQ32,170211.0,09:01:47.402,L,121.1,RL,101.6,248.0
6VH7AFDQ32,170211.0,09:01:47.547,L,113.3,LL,152.3,31.3
6VH7AFDQ32,170211.0,09:01:47.674,R,87.9,LR,152.3,39.1
6VH7AFDQ32,170211.0,09:01:47.857,S,80.1,RS,191.4,103.5
6VH7AFDQ32,170211.0,09:01:48.266,R,144.5,SR,343.8,263.7
6VH7AFDQ32,170211.0,09:01:48.537,R,23.4,RR,144.5,248.0
6VH7AFDQ32,170211.0,09:01:48.586,R,72.3,RR,144.5,248.0
6VH7AFDQ32,170211.0,09:01:49.234,L,95.7,RL,625.0,552.7
6VH7AFDQ32,170211.0,09:01:49.898,S,64.5,LS,695.3,599.6
6VH7AFDQ32,170211.0,09:01:51.467,L,144.5,LL,273.4,136.7
6VH7AFDQ32,170211.0,09:01:51.643,L,121.1,LL,199.2,54.7
6VH7AFDQ32,170211.0,09:01:52.066,S,64.5,LS,480.5,359.4
6VH7AFDQ32,170211.0,09:01:52.643,R,87.9,SR,552.7,488.3
6VH7AFDQ32,170211.0,09:01:52.777,R,103.5,RR,119.1,31.3
6VH7AFDQ32,170211.0,09:01:52.904,S,70.3,RS,160.2,56.6
6VH7AFDQ32,170211.0,09:01:55.475,S,168.0,SS,175.8,95.7
6VH7AFDQ32,170211.0,09:01:55.658,L,160.2,SL,191.4,23.4
6VH7AFDQ32,170211.0,09:01:55.930,L,134.8,RL,136.7,72.3
6VH7AFDQ32,170211.0,09:01:56.281,L,111.3,SL,240.2,160.2
6VH7AFDQ32,170211.0,09:01:56.514,L,160.2,LL,183.6,72.3
6VH7AFDQ32,170211.0,09:01:56.602,R,85.9,LR,162.1,2.0
6VH7AFDQ32,170211.0,09:01:56.818,L,128.9,RL,173.8,87.9
6VH7AFDQ32,170211.0,09:01:57.430,L,156.3,LL,584.0,455.1
6VH7AFDQ32,170211.0,09:01:57.754,L,168.0,LL,312.5,156.3
6VH7AFDQ32,170211.0,09:01:57.971,R,97.7,LR,287.1,119.1
6VH7AFDQ32,170211.0,09:01:58.234,R,95.7,RR,265.6,168.0
6VH7AFDQ32,170211.0,09:01:58.361,S,95.7,RS,127.0,31.3
6VH7AFDQ32,170211.0,09:01:58.570,L,33.2,SL,127.0,175.8
6VH7AFDQ32,170211.0,09:01:58.643,R,105.5,LR,127.0,175.8
6VH7AFDQ32,170211.0,09:01:58.795,R,97.7,RR,160.2,54.7
6VH7AFDQ32,170211.0,09:01:59.170,L,23.4,LL,128.9,240.2
6VH7AFDQ32,170211.0,09:01:59.211,S,64.5,LS,128.9,240.2
6VH7AFDQ32,170211.0,09:01:59.434,R,103.5,SR,183.6,119.1
6VH7AFDQ32,170211.0,09:01:59.617,L,150.4,RL,136.7,33.2
6VH7AFDQ32,170211.0,09:01:59.898,R,113.3,SR,168.0,103.5
6VH7AFDQ32,170211.0,09:02:00.330,R,95.7,SR,175.8,95.7
6VH7AFDQ32,170211.0,09:02:00.514,R,23.4,RR,87.9,160.2
6VH7AFDQ32,170211.0,09:02:00.609,L,119.1,RL,87.9,160.2
6VH7AFDQ32,170211.0,09:02:00.723,S,80.1,LS,152.3,33.2
6VH7AFDQ32,170211.0,09:02:01.266,L,15.6,SL,136.7,527.3
6VH7AFDQ32,170211.0,09:02:01.354,R,103.5,LR,136.7,527.3
6VH7AFDQ32,170211.0,09:02:01.521,R,87.9,RR,183.6,80.1
6VH7AFDQ32,170211.0,09:02:01.666,R,80.1,RR,152.3,64.5
6VH7AFDQ32,170211.0,09:02:01.842,R,64.5,RR,191.4,111.3
6VH7AFDQ32,170211.0,09:02:01.971,L,23.4,RL,2.0,105.5
6VH7AFDQ32,170211.0,09:02:02.025,L,78.1,LL,2.0,105.5
6VH7AFDQ32,170211.0,09:02:02.273,L,142.6,LL,183.6,105.5
6VH7AFDQ32,170211.0,09:02:02.529,L,119.1,LL,279.3,136.7
6VH7AFDQ32,170211.0,09:02:03.963,R,72.3,RR,433.6,304.7
6VH7AFDQ32,170211.0,09:02:04.201,S,80.1,RS,230.5,158.2
6VH7AFDQ32,170211.0,09:02:04.395,R,87.9,SR,185.5,105.5
6VH7AFDQ32,170211.0,09:02:04.842,R,72.3,RR,462.9,375.0
6VH7AFDQ32,170211.0,09:02:05.051,R,72.3,RR,209.0,136.7
6VH7AFDQ32,170211.0,09:02:05.275,L,25.4,RL,144.5,199.2
6VH7AFDQ32,170211.0,09:02:05.410,L,160.2,LL,144.5,199.2
6VH7AFDQ32,170211.0,09:02:05.705,L,119.1,LL,335.9,175.8
6VH7AFDQ32,170211.0,09:02:06.098,S,72.3,LS,439.5,320.3
6VH7AFDQ32,170211.0,09:02:07.467,R,87.9,LR,168.0,25.4
6VH7AFDQ32,170211.0,09:02:07.682,L,152.3,RL,150.4,62.5
6VH7AFDQ32,170211.0,09:02:07.754,S,70.3,LS,154.3,2.0
6VH7AFDQ32,170211.0,09:02:08.449,R,87.9,SR,677.7,607.4
6VH7AFDQ32,170211.0,09:02:08.715,R,41.0,RR,136.7,224.6
6VH7AFDQ32,170211.0,09:02:08.738,R,64.5,RR,136.7,224.6
6VH7AFDQ32,170211.0,09:02:09.025,S,80.1,RS,271.5,207.0
6VH7AFDQ32,170211.0,09:02:09.266,R,103.5,SR,216.8,136.7
6VH7AFDQ32,170211.0,09:02:09.457,L,134.8,RL,160.2,56.6
6VH7AFDQ32,170211.0,09:02:09.746,S,87.9,RS,201.2,128.9
6VH7AFDQ32,170211.0,09:02:09.971,L,121.1,SL,191.4,103.5
6VH7AFDQ32,170211.0,09:02:10.242,L,136.7,LL,255.9,134.8
6VH7AFDQ32,170211.0,09:02:10.457,L,134.8,LL,216.8,80.1
6VH7AFDQ32,170211.0,09:02:10.537,S,78.1,LS,136.7,2.0
6VH7AFDQ32,170211.0,09:02:10.697,S,72.3,SS,166.0,87.9
6VH7AFDQ32,170211.0,09:02:10.865,L,142.6,SL,97.7,25.4
6VH7AFDQ32,170211.0,09:02:11.105,L,134.8,LL,248.0,105.5
6VH7AFDQ32,170211.0,09:02:11.227,R,87.9,LR,168.0,33.2
6VH7AFDQ32,170211.0,09:02:11.467,L,33.2,RL,111.3,207.0
6VH7AFDQ32,170211.0,09:02:11.521,R,87.9,LR,111.3,207.0
6VH7AFDQ32,170211.0,09:46:14.617,R,136.7,RR,214.8,750.0
6VH7AFDQ32,170211.0,09:46:15.801,S,199.2,RS,609.4,503.9
6VH7AFDQ32,170211.0,09:46:17.867,R,144.5,RR,503.9,328.1
6VH7AFDQ32,170211.0,09:46:18.227,L,105.5,RL,398.4,253.9
6VH7AFDQ32,170211.0,09:46:18.852,L,113.3,LL,617.2,511.7
6VH7AFDQ32,170211.0,09:46:19.137,S,214.8,LS,183.6,70.3
6VH7AFDQ32,170211.0,09:46:19.508,L,128.9,SL,457.0,242.2
6VH7AFDQ32,170211.0,09:46:19.945,L,101.6,LL,464.8,335.9
6VH7AFDQ32,170211.0,09:46:21.273,L,121.1,RL,453.1,308.6
6VH7AFDQ32,170211.0,09:46:21.770,L,70.3,LL,546.9,425.8
6VH7AFDQ32,170211.0,09:46:21.922,L,31.3,LL,191.4,121.1
6VH7AFDQ32,170211.0,09:46:26.449,R,136.7,LR,214.8,85.9
6VH7AFDQ32,170211.0,09:46:26.793,L,152.3,RL,328.1,191.4
6VH7AFDQ32,170211.0,09:46:26.945,R,121.1,LR,183.6,31.3
6VH7AFDQ32,170211.0,09:46:28.051,S,214.8,LS,234.4,82.0
6VH7AFDQ32,170211.0,09:46:28.250,L,128.9,SL,285.2,70.3
6VH7AFDQ32,170211.0,09:46:28.656,L,238.3,LL,296.9,168.0
6VH7AFDQ32,170211.0,09:46:28.844,R,113.3,LR,312.5,74.2
6VH7AFDQ32,170211.0,09:46:29.219,L,144.5,RL,343.8,230.5
6VH7AFDQ32,170211.0,09:46:29.402,S,136.7,LS,191.4,46.9
6VH7AFDQ32,170211.0,09:46:29.723,R,128.9,SR,328.1,191.4
6VH7AFDQ32,170211.0,09:46:30.195,L,105.5,RL,496.1,367.2
6VH7AFDQ32,170211.0,09:46:30.738,L,121.1,LL,527.3,421.9
6VH7AFDQ32,170211.0,09:46:31.129,S,175.8,LS,335.9,214.8
6VH7AFDQ32,170211.0,09:46:31.434,L,105.5,SL,375.0,199.2
6VH7AFDQ32,170211.0,09:46:31.707,R,128.9,LR,250.0,144.5
6VH7AFDQ32,170211.0,09:46:32.051,S,144.5,RS,328.1,199.2
6VH7AFDQ32,170211.0,09:46:32.363,L,113.3,SL,343.8,199.2
6VH7AFDQ32,170211.0,09:46:33.066,L,183.6,LL,632.8,519.5
6VH7AFDQ32,170211.0,09:46:33.523,S,175.8,LS,464.8,281.3
6VH7AFDQ32,170211.0,09:46:37.145,R,175.8,SR,574.2,320.3
6VH7AFDQ32,170211.0,09:46:37.570,L,136.7,RL,464.8,289.1
6VH7AFDQ32,170211.0,09:46:38.098,L,214.8,LL,449.2,312.5
6VH7AFDQ32,170211.0,09:46:38.723,L,121.1,LL,718.8,503.9
6VH7AFDQ32,170211.0,09:46:39.105,S,160.2,LS,343.8,222.7
6VH7AFDQ32,170211.0,09:46:39.770,R,85.9,LR,242.2,105.5
6VH7AFDQ32,170211.0,09:46:44.305,L,175.8,RL,398.4,261.7
6VH7AFDQ32,170211.0,09:46:44.602,S,152.3,LS,320.3,144.5
6VH7AFDQ32,170211.0,09:46:45.090,R,144.5,SR,496.1,343.8
6VH7AFDQ32,170211.0,09:46:45.473,L,183.6,RL,343.8,199.2
6VH7AFDQ32,170211.0,09:46:45.793,S,160.2,LS,343.8,160.2
6VH7AFDQ32,170211.0,09:46:46.129,L,168.0,SL,328.1,168.0
6VH7AFDQ32,170211.0,09:46:46.441,R,160.2,LR,320.3,152.3
6VH7AFDQ32,170211.0,09:46:46.891,L,144.5,RL,464.8,304.7
6VH7AFDQ32,170211.0,09:46:47.320,S,148.4,LS,425.8,281.3
6VH7AFDQ32,170211.0,09:46:48.531,L,203.1,LL,351.6,175.8
6VH7AFDQ32,170211.0,09:46:48.836,R,168.0,LR,335.9,132.8
6VH7AFDQ32,170211.0,09:46:49.180,L,136.7,RL,378.9,210.9
6VH7AFDQ32,170211.0,09:46:49.676,L,222.7,LL,406.3,269.5
6VH7AFDQ32,170211.0,09:46:49.930,S,160.2,LS,320.3,97.7
6VH7AFDQ32,170211.0,09:46:50.172,L,105.5,SL,296.9,136.7
6VH7AFDQ32,170211.0,09:46:50.402,R,113.3,LR,222.7,117.2
6VH7AFDQ32,170211.0,09:46:50.699,S,144.5,RS,265.6,152.3
6VH7AFDQ32,170211.0,09:46:51.074,L,144.5,SL,375.0,230.5
6VH7AFDQ32,170211.0,09:46:51.578,L,168.0,LL,480.5,335.9
6VH7AFDQ32,170211.0,09:46:52.098,R,128.9,LR,558.6,390.6
6VH7AFDQ32,170211.0,09:46:52.348,L,97.7,RL,281.3,152.3
6VH7AFDQ32,170211.0,09:46:52.922,L,128.9,LL,543.0,449.2
6VH7AFDQ32,170211.0,09:46:53.363,S,175.8,LS,394.5,265.6
6VH7AFDQ32,170211.0,09:47:00.242,R,105.5,RR,390.6,253.9
6VH7AFDQ32,170211.0,09:47:00.617,S,160.2,RS,320.3,214.8
6VH7AFDQ32,170211.0,09:47:00.945,R,101.6,SR,386.7,226.6
6VH7AFDQ32,170211.0,09:47:01.555,L,183.6,RL,527.3,425.8
6VH7AFDQ32,170211.0,09:47:02.074,L,136.7,LL,566.4,382.8
6VH7AFDQ32,170211.0,09:47:02.609,R,128.9,SR,406.3,222.7
6VH7AFDQ32,170211.0,09:47:02.945,L,136.7,RL,328.1,199.2
6VH7AFDQ32,170211.0,09:47:03.449,L,191.4,LL,449.2,312.5
6VH7AFDQ32,170211.0,09:47:03.801,R,152.3,LR,390.6,199.2
6VH7AFDQ32,170211.0,09:47:04.410,S,128.9,RS,632.8,480.5
6VH7AFDQ32,170211.0,09:47:04.703,S,125.0,SS,296.9,168.0
6VH7AFDQ32,170211.0,09:47:05.242,R,105.5,SR,160.2,433.6
6VH7AFDQ32,170211.0,09:47:06.480,L,93.8,RL,593.8,578.1
6VH7AFDQ32,170211.0,09:47:07.035,L,113.3,LL,535.2,441.4
6VH7AFDQ32,170211.0,09:47:07.754,S,175.8,LS,656.3,543.0
6VH7AFDQ32,170211.0,09:47:15.363,R,121.1,SR,238.3,793.0
6VH7AFDQ32,170211.0,09:47:16.098,R,89.8,SR,414.1,269.5
6VH7AFDQ32,170211.0,09:47:16.496,R,93.8,RR,394.5,304.7
6VH7AFDQ32,170211.0,09:47:16.824,L,128.9,RL,293.0,199.2
6VH7AFDQ32,170211.0,09:47:17.465,L,93.8,LL,675.8,546.9
6VH7AFDQ32,170211.0,09:47:17.852,S,175.8,LS,304.7,210.9
6VH7AFDQ32,170211.0,09:47:18.508,L,152.3,SL,210.9,503.9
6VH7AFDQ32,170211.0,09:47:19.488,L,175.8,LL,468.8,328.1
6VH7AFDQ32,170211.0,09:47:19.852,L,152.3,LL,386.7,210.9
6VH7AFDQ32,170211.0,09:47:20.074,R,97.7,LR,277.3,125.0
6VH7AFDQ32,170211.0,09:47:20.387,S,144.5,RS,265.6,168.0
6VH7AFDQ32,170211.0,09:47:20.684,L,113.3,SL,328.1,183.6
6VH7AFDQ32,170211.0,09:47:20.945,R,109.4,LR,265.6,152.3
6VH7AFDQ32,170211.0,09:47:21.266,R,78.1,RR,351.6,242.2
6VH7AFDQ32,170211.0,09:47:21.578,S,160.2,RS,230.5,152.3
6VH7AFDQ32,170211.0,09:47:21.867,L,128.9,SL,320.3,160.2
6VH7AFDQ32,170211.0,09:47:22.152,R,101.6,LR,312.5,183.6
6VH7AFDQ32,170211.0,09:47:22.496,L,101.6,RL,343.8,242.2
6VH7AFDQ32,170211.0,09:47:22.969,S,175.8,LS,398.4,296.9
6VH7AFDQ32,170211.0,09:47:23.371,R,152.3,SR,425.8,250.0
6VH7AFDQ32,170211.0,09:47:23.691,L,152.3,RL,320.3,168.0
6VH7AFDQ32,170211.0,09:47:23.898,S,136.7,LS,222.7,70.3
6VH7AFDQ32,170211.0,09:47:24.145,L,125.0,SL,257.8,121.1
6VH7AFDQ32,170211.0,09:47:24.328,R,148.4,LR,160.2,35.2
6VH7AFDQ32,170211.0,09:47:24.664,L,70.3,RL,414.1,265.6
6VH7AFDQ32,170211.0,09:47:25.059,S,168.0,LS,296.9,226.6
6VH7AFDQ32,170211.0,09:47:25.297,R,101.6,SR,304.7,136.7
6VH7AFDQ32,170211.0,09:47:25.602,R,121.1,RR,285.2,183.6
6VH7AFDQ32,170211.0,09:47:25.867,R,105.5,RR,281.3,160.2
6VH7AFDQ32,170211.0,09:47:26.281,R,152.3,RR,367.2,261.7
6VH7AFDQ32,170211.0,09:47:26.555,S,160.2,RS,265.6,113.3
6VH7AFDQ32,170211.0,09:47:26.754,R,97.7,SR,261.7,101.6
6VH7AFDQ32,170211.0,09:47:27.145,R,109.4,RR,378.9,281.3
6VH7AFDQ32,170211.0,09:47:27.578,L,191.4,RL,351.6,242.2
6VH7AFDQ32,170211.0,09:47:27.844,S,152.3,LS,304.7,113.3
6VH7AFDQ32,170211.0,09:47:30.348,R,128.9,LR,168.0,58.6
6VH7AFDQ32,170211.0,09:47:30.648,L,175.8,RL,253.9,125.0
6VH7AFDQ32,170211.0,09:47:31.051,L,23.4,LL,105.5,378.9
6VH7AFDQ32,170211.0,09:47:31.211,S,183.6,LS,105.5,378.9
6VH7AFDQ32,170211.0,09:47:31.730,R,97.7,SR,214.8,421.9
6VH7AFDQ32,170211.0,09:47:32.418,L,113.3,SL,367.2,222.7
6VH7AFDQ32,170211.0,09:47:32.891,L,226.6,LL,359.4,246.1
6VH7AFDQ32,170211.0,09:47:33.090,R,128.9,LR,296.9,70.3
6VH7AFDQ32,170211.0,09:47:33.465,L,136.7,RL,367.2,238.3
6VH7AFDQ32,170211.0,09:47:34.160,L,109.4,LL,722.7,585.9
6VH7AFDQ32,170211.0,09:47:34.730,L,113.3,LL,566.4,457.0
6VH7AFDQ32,170211.0,09:47:35.113,S,152.3,LS,343.8,230.5
6VH7AFDQ32,170211.0,09:47:35.531,L,121.1,SL,449.2,296.9
6VH7AFDQ32,170211.0,09:47:35.684,R,121.1,LR,152.3,31.3
6VH7AFDQ32,170211.0,09:47:35.961,S,136.7,RS,261.7,140.6
6VH7AFDQ32,170211.0,09:47:36.387,L,191.4,SL,371.1,234.4
6VH7AFDQ32,170211.0,09:47:36.762,L,136.7,LL,429.7,238.3
6VH7AFDQ32,170211.0,09:47:37.250,L,183.6,LL,441.4,304.7
6VH7AFDQ32,170211.0,09:47:37.523,R,105.5,LR,351.6,168.0
6VH7AFDQ32,170211.0,09:47:38.059,S,168.0,RS,472.7,367.2
6VH7AFDQ32,170211.0,09:47:38.496,L,175.8,SL,429.7,261.7
6VH7AFDQ32,170211.0,09:47:38.867,R,113.3,LR,433.6,257.8
6VH7AFDQ32,170211.0,09:47:39.227,L,128.9,RL,343.8,230.5
6VH7AFDQ32,170211.0,09:47:39.465,R,117.2,LR,250.0,121.1
6VH7AFDQ32,170211.0,09:47:39.852,S,152.3,RS,351.6,234.4
6VH7AFDQ32,170211.0,09:47:40.379,R,121.1,SR,558.6,406.3
6VH7AFDQ32,170211.0,09:47:40.836,L,179.7,RL,398.4,277.3
6VH7AFDQ32,170211.0,09:47:47.578,S,144.5,RS,480.5,390.6
6VH7AFDQ32,170211.0,09:47:47.883,S,152.3,SS,296.9,152.3
6VH7AFDQ32,170211.0,09:47:48.746,R,121.1,SR,246.1,742.2
6VH7AFDQ32,170211.0,09:47:49.457,R,109.4,SR,363.3,257.8
6VH7AFDQ32,170211.0,09:47:49.906,R,105.5,RR,453.1,343.8
6VH7AFDQ32,170211.0,09:47:50.188,L,125.0,RL,257.8,152.3
6VH7AFDQ32,170211.0,09:47:50.762,L,183.6,LL,519.5,394.5
6VH7AFDQ32,170211.0,09:47:51.137,S,152.3,LS,406.3,222.7
6VH7AFDQ32,170211.0,09:47:51.562,R,121.1,SR,457.0,304.7
6VH7AFDQ32,170211.0,09:47:51.953,R,93.8,RR,418.0,296.9
6VH7AFDQ32,170211.0,09:47:52.516,R,93.8,RR,558.6,464.8
6VH7AFDQ32,170211.0,09:47:56.914,R,113.3,RR,628.9,519.5
6VH7AFDQ32,170211.0,09:47:57.281,S,144.5,RS,335.9,222.7
6VH7AFDQ32,170211.0,09:47:57.547,L,121.1,SL,289.1,144.5
6VH7AFDQ32,170211.0,09:47:58.066,L,128.9,LL,511.7,390.6
6VH7AFDQ32,170211.0,09:47:58.547,L,218.8,LL,390.6,261.7
6VH7AFDQ32,170211.0,09:47:58.816,R,152.3,LR,335.9,117.2
6VH7AFDQ32,170211.0,09:47:59.137,L,117.2,RL,355.5,203.1
6VH7AFDQ32,170211.0,09:47:59.402,R,113.3,LR,269.5,152.3
6VH7AFDQ32,170211.0,09:47:59.801,L,168.0,RL,343.8,230.5
6VH7AFDQ32,170211.0,09:47:59.969,R,117.2,LR,218.8,50.8
