User_ID,Date,Timestamp,Hand,Hold_Time,Direction,Latency_Time,Flight_Time
6YXFEMHYZI,170304.0,15:37:00.039,R,140.6,LR,253.9,105.5
6YXFEMHYZI,170304.0,15:37:00.234,L,144.5,RL,191.4,50.8
6YXFEMHYZI,170304.0,15:40:57.242,R,144.5,LR,269.5,121.1
6YXFEMHYZI,170304.0,15:40:57.602,R,144.5,RR,359.4,214.8
6YXFEMHYZI,170304.0,15:40:57.941,R,144.5,RR,339.8,195.3
6YXFEMHYZI,170304.0,15:40:58.258,L,148.4,RL,312.5,168.0
