User_ID,Date,Timestamp,Hand,Hold_Time,Direction,Latency_Time,Flight_Time
9ALACHPPUR,170205.0,19:17:21.461,R,109.4,RR,664.1,539.1
9ALACHPPUR,170205.0,19:17:22.062,L,93.8,RL,617.2,507.8
9ALACHPPUR,170205.0,19:17:22.688,S,101.6,LS,617.2,523.4
9ALACHPPUR,170205.0,19:17:23.219,L,85.9,SL,546.9,445.3
9ALACHPPUR,170205.0,19:17:23.766,L,109.4,LL,523.4,437.5
9ALACHPPUR,170205.0,19:17:24.086,L,93.8,LL,335.9,226.6
9ALACHPPUR,170205.0,19:17:24.727,S,101.6,LS,632.8,539.1
9ALACHPPUR,170205.0,19:17:25.219,R,93.8,SR,500.0,398.4
9ALACHPPUR,170205.0,19:17:25.742,R,93.8,RR,523.4,429.7
9ALACHPPUR,170205.0,19:17:26.117,R,93.8,RR,375.0,281.3
9ALACHPPUR,170205.0,19:18:00.867,R,93.8,RR,679.7,554.7
9ALACHPPUR,170205.0,19:18:01.430,L,101.6,RL,554.7,460.9
9ALACHPPUR,170205.0,19:18:02.031,S,101.6,LS,601.6,500.0
9ALACHPPUR,170205.0,19:18:02.555,L,101.6,SL,523.4,421.9
9ALACHPPUR,170205.0,19:18:03.070,L,109.4,LL,507.8,406.3
9ALACHPPUR,170205.0,19:18:03.383,L,93.8,LL,328.1,218.8
9ALACHPPUR,170205.0,19:18:04.055,S,125.0,LS,640.6,546.9
9ALACHPPUR,170205.0,19:18:04.555,R,101.6,SR,523.4,398.4
9ALACHPPUR,170205.0,19:18:05.164,R,93.8,RR,617.2,515.6
9ALACHPPUR,170205.0,19:18:05.555,R,101.6,RR,382.8,289.1
9ALACHPPUR,170205.0,19:37:39.953,L,93.8,LL,351.6,250.0
9ALACHPPUR,170205.0,19:37:41.500,L,78.1,RL,570.3,460.9
9ALACHPPUR,170205.0,19:37:42.211,S,109.4,LS,679.7,601.6
9ALACHPPUR,170205.0,19:37:42.781,R,101.6,SR,578.1,468.8
9ALACHPPUR,170205.0,19:37:43.164,R,93.8,RR,390.6,289.1
9ALACHPPUR,170205.0,19:37:43.797,L,93.8,RL,632.8,539.1
9ALACHPPUR,170205.0,19:37:45.836,L,78.1,SL,601.6,523.4
9ALACHPPUR,170205.0,19:37:46.164,L,78.1,LL,328.1,250.0
9ALACHPPUR,170205.0,19:37:47.594,L,78.1,RL,539.1,460.9
9ALACHPPUR,170205.0,19:37:48.344,S,78.1,LS,750.0,671.9
9ALACHPPUR,170205.0,19:37:48.977,R,85.9,SR,625.0,546.9
9ALACHPPUR,170205.0,19:37:49.352,R,70.3,RR,390.6,304.7
9ALACHPPUR,170205.0,19:37:53.148,S,93.8,RS,484.4,406.3
9ALACHPPUR,170205.0,19:37:53.625,R,78.1,SR,492.2,398.4
9ALACHPPUR,170205.0,19:37:54.391,R,93.8,RR,750.0,671.9
9ALACHPPUR,170205.0,19:37:55.039,L,93.8,RL,648.4,554.7
9ALACHPPUR,170205.0,19:37:57.578,S,93.8,LS,671.9,593.8
9ALACHPPUR,170205.0,19:37:58.156,R,62.5,SR,609.4,515.6
9ALACHPPUR,170205.0,19:37:58.906,R,70.3,RR,742.2,679.7
9ALACHPPUR,170205.0,19:37:59.359,R,85.9,RR,437.5,367.2
9ALACHPPUR,170205.0,19:37:59.836,L,78.1,RL,484.4,398.4
9ALACHPPUR,170205.0,19:38:00.477,S,78.1,LS,640.6,562.5
9ALACHPPUR,170205.0,19:38:01.055,L,78.1,SL,578.1,500.0
9ALACHPPUR,170205.0,19:38:01.414,L,85.9,LL,351.6,273.4
9ALACHPPUR,170205.0,19:38:03.016,L,70.3,RL,656.3,578.1
9ALACHPPUR,170205.0,19:38:03.750,L,70.3,LL,734.4,664.1
9ALACHPPUR,170205.0,19:38:04.508,R,70.3,LR,757.8,687.5
9ALACHPPUR,170205.0,19:38:06.211,L,78.1,LL,437.5,351.6
9ALACHPPUR,170205.0,19:38:06.734,S,78.1,LS,523.4,445.3
9ALACHPPUR,170205.0,19:38:07.273,L,54.7,SL,562.5,484.4
9ALACHPPUR,170205.0,19:38:08.781,L,78.1,RL,460.9,375.0
9ALACHPPUR,170205.0,19:38:09.211,R,85.9,LR,421.9,343.8
9ALACHPPUR,170205.0,19:38:09.680,S,93.8,RS,460.9,375.0
9ALACHPPUR,170205.0,19:38:10.125,L,62.5,SL,476.6,382.8
9ALACHPPUR,170205.0,19:38:10.516,R,85.9,LR,367.2,304.7
9ALACHPPUR,170205.0,19:38:10.945,L,70.3,RL,445.3,359.4
9ALACHPPUR,170205.0,19:38:11.523,S,93.8,LS,554.7,484.4
9ALACHPPUR,170205.0,19:38:13.086,L,78.1,LL,476.6,390.6
9ALACHPPUR,170205.0,19:38:14.703,R,70.3,LR,757.8,664.1
9ALACHPPUR,170205.0,19:38:15.484,R,78.1,RR,773.4,703.1
9ALACHPPUR,170205.0,19:38:15.914,S,101.6,RS,406.3,328.1
9ALACHPPUR,170205.0,19:38:16.406,L,78.1,SL,515.6,414.1
9ALACHPPUR,170205.0,19:38:17.141,R,78.1,LR,734.4,656.3
9ALACHPPUR,170205.0,19:38:17.789,R,78.1,RR,648.4,570.3
9ALACHPPUR,170205.0,19:38:18.305,R,70.3,RR,523.4,445.3
9ALACHPPUR,170205.0,19:44:03.586,L,70.3,RL,789.1,664.1
9ALACHPPUR,170205.0,19:44:03.891,L,78.1,LL,296.9,226.6
9ALACHPPUR,170205.0,19:44:04.570,R,78.1,LR,679.7,601.6
9ALACHPPUR,170205.0,19:44:05.242,S,62.5,RS,687.5,609.4
9ALACHPPUR,170205.0,19:44:05.805,L,62.5,SL,562.5,500.0
9ALACHPPUR,170205.0,19:44:06.578,R,70.3,LR,765.6,703.1
9ALACHPPUR,170205.0,19:44:07.133,S,70.3,RS,554.7,484.4
9ALACHPPUR,170205.0,19:44:07.594,R,70.3,SR,460.9,390.6
9ALACHPPUR,170205.0,19:44:08.102,L,70.3,RL,507.8,437.5
9ALACHPPUR,170205.0,19:44:08.500,L,70.3,LL,398.4,328.1
9ALACHPPUR,170205.0,19:44:09.156,L,78.1,LL,648.4,578.1
9ALACHPPUR,170205.0,19:50:03.992,R,93.8,LR,656.3,562.5
9ALACHPPUR,170205.0,19:50:04.492,L,70.3,RL,523.4,429.7
9ALACHPPUR,170205.0,19:50:06.117,S,78.1,RS,578.1,507.8
9ALACHPPUR,170205.0,19:50:06.695,L,85.9,SL,570.3,492.2
9ALACHPPUR,170205.0,19:50:07.250,L,62.5,LL,578.1,492.2
9ALACHPPUR,170205.0,19:50:07.602,L,78.1,LL,335.9,273.4
9ALACHPPUR,170205.0,19:50:08.398,S,85.9,LS,789.1,710.9
9ALACHPPUR,170205.0,19:50:08.961,R,78.1,SR,570.3,484.4
9ALACHPPUR,170205.0,19:50:09.273,R,78.1,RR,312.5,234.4
9ALACHPPUR,170205.0,19:50:09.914,L,78.1,RL,640.6,562.5
9ALACHPPUR,170205.0,19:50:56.266,S,109.4,RS,429.7,312.5
9ALACHPPUR,170205.0,19:50:57.844,R,78.1,LR,453.1,382.8
9ALACHPPUR,170205.0,19:50:58.320,L,70.3,RL,484.4,406.3
9ALACHPPUR,170205.0,19:50:58.836,S,78.1,LS,507.8,437.5
9ALACHPPUR,170205.0,19:50:59.406,L,85.9,SL,562.5,484.4
9ALACHPPUR,170205.0,19:50:59.773,L,70.3,LL,382.8,296.9
9ALACHPPUR,170205.0,19:51:01.695,L,62.5,RL,664.1,609.4
9ALACHPPUR,170205.0,19:51:06.359,L,54.7,LL,710.9,640.6
9ALACHPPUR,170205.0,19:51:06.984,L,70.3,LL,609.4,554.7
9ALACHPPUR,170205.0,19:51:07.414,L,54.7,LL,445.3,375.0
9ALACHPPUR,170205.0,19:51:09.133,L,54.7,RL,648.4,585.9
9ALACHPPUR,170205.0,19:51:09.844,S,70.3,LS,695.3,640.6
9ALACHPPUR,170205.0,19:51:10.391,R,54.7,SR,562.5,492.2
9ALACHPPUR,170205.0,19:51:12.898,L,70.3,LL,468.8,398.4
9ALACHPPUR,170205.0,19:51:13.539,S,70.3,LS,640.6,570.3
9ALACHPPUR,170205.0,19:51:14.070,L,70.3,SL,531.3,460.9
9ALACHPPUR,170205.0,19:51:14.867,R,70.3,LR,796.9,726.6
9ALACHPPUR,170205.0,19:51:15.469,R,70.3,RR,601.6,531.3
9ALACHPPUR,170205.0,19:51:16.016,L,78.1,RL,539.1,468.8
9ALACHPPUR,170205.0,19:51:17.227,R,70.3,RR,312.5,250.0
9ALACHPPUR,170205.0,19:51:17.703,R,78.1,RR,468.8,398.4
9ALACHPPUR,170205.0,19:51:18.312,S,70.3,RS,617.2,539.1
9ALACHPPUR,170205.0,19:51:18.977,L,62.5,SL,671.9,601.6
9ALACHPPUR,170205.0,19:51:19.359,L,70.3,LL,375.0,312.5
9ALACHPPUR,170205.0,19:51:19.906,L,62.5,LL,554.7,484.4
9ALACHPPUR,170205.0,19:51:22.078,L,70.3,LL,328.1,257.8
9ALACHPPUR,170205.0,19:51:22.391,L,70.3,LL,312.5,242.2
9ALACHPPUR,170205.0,19:51:23.133,S,70.3,LS,742.2,671.9
9ALACHPPUR,170205.0,19:51:23.633,L,62.5,SL,507.8,437.5
9ALACHPPUR,170205.0,19:51:24.375,R,70.3,LR,734.4,671.9
9ALACHPPUR,170205.0,19:51:24.945,S,62.5,RS,578.1,507.8
9ALACHPPUR,170205.0,19:51:27.047,L,62.5,LL,289.1,226.6
9ALACHPPUR,170205.0,19:51:27.414,L,46.9,LL,382.8,320.3
9ALACHPPUR,170205.0,19:51:29.180,L,62.5,RL,554.7,507.8
9ALACHPPUR,170205.0,19:51:29.875,S,62.5,LS,695.3,632.8
9ALACHPPUR,170205.0,19:51:30.367,L,62.5,SL,492.2,429.7
9ALACHPPUR,170205.0,19:51:30.844,R,70.3,LR,468.8,406.3
9ALACHPPUR,170205.0,19:51:31.273,L,70.3,RL,429.7,359.4
9ALACHPPUR,170205.0,19:51:31.812,S,62.5,LS,546.9,476.6
9ALACHPPUR,170205.0,19:51:32.445,R,62.5,SR,632.8,570.3
9ALACHPPUR,170205.0,19:51:32.953,R,62.5,RR,507.8,445.3
9ALACHPPUR,170205.0,19:51:33.266,R,78.1,RR,296.9,234.4
9ALACHPPUR,170205.0,19:51:41.258,R,62.5,SR,664.1,593.8
9ALACHPPUR,170205.0,19:51:42.938,S,78.1,RS,351.6,250.0
9ALACHPPUR,170205.0,19:51:43.406,R,78.1,SR,468.8,390.6
9ALACHPPUR,170205.0,19:51:43.828,R,70.3,RR,429.7,351.6
9ALACHPPUR,170205.0,19:51:44.234,S,85.9,RS,390.6,320.3
9ALACHPPUR,170205.0,19:51:48.586,L,78.1,RL,468.8,390.6
9ALACHPPUR,170205.0,19:51:49.148,S,70.3,LS,570.3,492.2
9ALACHPPUR,170205.0,19:51:49.664,R,70.3,SR,515.6,445.3
9ALACHPPUR,170205.0,19:51:50.398,R,70.3,RR,734.4,664.1
9ALACHPPUR,170205.0,19:51:51.062,L,62.5,RL,671.9,601.6
9ALACHPPUR,170205.0,19:51:54.820,R,85.9,SR,593.8,500.0
9ALACHPPUR,170205.0,19:51:56.883,S,109.4,RS,382.8,281.3
9ALACHPPUR,170205.0,19:51:57.523,L,70.3,SL,679.7,570.3
9ALACHPPUR,170205.0,19:52:00.375,R,78.1,RR,343.8,265.6
9ALACHPPUR,170205.0,19:52:01.039,R,78.1,RR,664.1,585.9
9ALACHPPUR,170205.0,19:52:01.531,L,78.1,RL,492.2,414.1
9ALACHPPUR,170205.0,19:52:02.000,R,78.1,SR,617.2,539.1
9ALACHPPUR,170205.0,19:52:03.391,R,78.1,RR,390.6,312.5
9ALACHPPUR,170205.0,19:52:03.758,S,101.6,RS,343.8,265.6
9ALACHPPUR,170205.0,19:52:04.203,L,93.8,SL,453.1,351.6
9ALACHPPUR,170205.0,19:52:04.633,S,78.1,LS,445.3,351.6
9ALACHPPUR,170205.0,19:52:05.227,R,70.3,SR,601.6,523.4
9ALACHPPUR,170205.0,19:52:05.562,R,85.9,RR,320.3,250.0
9ALACHPPUR,170205.0,19:52:05.977,R,85.9,RR,414.1,328.1
9ALACHPPUR,170205.0,19:52:06.320,L,70.3,RL,359.4,273.4
9ALACHPPUR,170205.0,19:52:07.836,S,62.5,RS,414.1,351.6
9ALACHPPUR,170205.0,19:52:08.406,L,78.1,SL,554.7,492.2
9ALACHPPUR,170205.0,19:52:09.133,R,78.1,LR,726.6,648.4
9ALACHPPUR,170205.0,19:52:09.586,R,70.3,RR,460.9,382.8
9ALACHPPUR,170205.0,19:52:11.719,S,93.8,LS,445.3,375.0
9ALACHPPUR,170205.0,19:52:12.367,L,85.9,SL,656.3,562.5
9ALACHPPUR,170205.0,19:52:12.734,L,62.5,LL,390.6,304.7
9ALACHPPUR,170205.0,19:52:13.008,L,70.3,LL,265.6,203.1
9ALACHPPUR,170205.0,19:52:14.344,S,70.3,RS,406.3,328.1
9ALACHPPUR,170205.0,19:52:14.797,R,85.9,SR,437.5,367.2
9ALACHPPUR,170205.0,19:52:15.102,R,62.5,RR,328.1,242.2
9ALACHPPUR,170205.0,19:52:15.461,R,70.3,RR,351.6,289.1
9ALACHPPUR,170205.0,19:52:21.852,R,85.9,LR,796.9,718.8
9ALACHPPUR,170205.0,19:52:22.180,R,93.8,RR,320.3,234.4
9ALACHPPUR,170205.0,19:52:22.570,R,85.9,RR,398.4,304.7
9ALACHPPUR,170205.0,19:52:22.977,L,109.4,RL,382.8,296.9
9ALACHPPUR,170205.0,19:52:23.367,S,78.1,LS,421.9,312.5
9ALACHPPUR,170205.0,19:52:24.078,L,62.5,SL,726.6,648.4
9ALACHPPUR,170205.0,19:52:26.484,L,54.7,RL,421.9,351.6
9ALACHPPUR,170205.0,19:52:31.734,S,93.8,RS,460.9,367.2
9ALACHPPUR,170205.0,19:52:35.078,L,62.5,RL,531.3,460.9
9ALACHPPUR,170205.0,19:52:35.477,R,62.5,LR,398.4,335.9
9ALACHPPUR,170205.0,19:52:36.203,R,78.1,RR,710.9,648.4
9ALACHPPUR,170205.0,19:52:36.711,R,85.9,RR,500.0,421.9
9ALACHPPUR,170205.0,19:52:37.086,L,70.3,RL,390.6,304.7
9ALACHPPUR,170205.0,19:52:37.570,S,70.3,LS,484.4,414.1
9ALACHPPUR,170205.0,19:52:39.203,L,54.7,RL,554.7,484.4
9ALACHPPUR,170205.0,19:52:41.289,L,85.9,RL,648.4,578.1
9ALACHPPUR,170205.0,19:52:41.625,L,78.1,LL,343.8,257.8
9ALACHPPUR,170205.0,19:52:42.336,S,78.1,LS,710.9,632.8
9ALACHPPUR,170205.0,19:52:42.750,R,78.1,SR,414.1,335.9
9ALACHPPUR,170205.0,19:52:43.312,L,62.5,RL,578.1,500.0
9ALACHPPUR,170205.0,19:52:43.875,S,109.4,LS,515.6,453.1
9ALACHPPUR,170205.0,19:52:44.312,R,85.9,SR,460.9,351.6
9ALACHPPUR,170205.0,19:52:44.797,L,78.1,RL,492.2,406.3
9ALACHPPUR,170205.0,19:52:45.000,R,62.5,RR,335.9,257.8
9ALACHPPUR,170205.0,19:52:46.594,R,78.1,RR,578.1,515.6
9ALACHPPUR,170205.0,19:52:49.828,S,78.1,RS,414.1,343.8
9ALACHPPUR,170205.0,19:52:50.453,R,85.9,SR,617.2,539.1
9ALACHPPUR,170205.0,19:52:50.945,S,101.6,RS,476.6,390.6
9ALACHPPUR,170205.0,19:52:51.375,R,101.6,SR,429.7,328.1
9ALACHPPUR,170205.0,19:52:51.828,L,85.9,RL,468.8,367.2
9ALACHPPUR,170205.0,19:52:52.477,L,101.6,LL,632.8,546.9
9ALACHPPUR,170205.0,19:52:52.875,L,78.1,LL,421.9,320.3
9ALACHPPUR,170205.0,19:52:53.414,S,70.3,LS,546.9,468.8
9ALACHPPUR,170205.0,19:52:53.898,L,85.9,SL,468.8,398.4
9ALACHPPUR,170205.0,19:52:54.609,R,85.9,LR,710.9,625.0
9ALACHPPUR,170205.0,19:52:55.102,S,78.1,RS,500.0,414.1
9ALACHPPUR,170205.0,19:52:55.617,L,85.9,SL,507.8,429.7
9ALACHPPUR,170205.0,19:52:56.250,L,85.9,LL,632.8,546.9
9ALACHPPUR,170205.0,19:52:56.719,L,70.3,LL,484.4,398.4
9ALACHPPUR,170205.0,19:52:57.375,L,70.3,LL,656.3,585.9
9ALACHPPUR,170205.0,19:52:57.820,L,78.1,LL,437.5,367.2
9ALACHPPUR,170205.0,19:52:58.516,S,93.8,LS,679.7,601.6
9ALACHPPUR,170205.0,19:52:59.094,L,93.8,SL,578.1,484.4
9ALACHPPUR,170205.0,19:52:59.875,R,93.8,LR,781.3,687.5
9ALACHPPUR,170205.0,19:53:00.281,R,78.1,RR,421.9,328.1
9ALACHPPUR,170205.0,19:53:00.867,R,85.9,RR,578.1,500.0
9ALACHPPUR,170205.0,19:53:01.383,L,70.3,RL,531.3,445.3
9ALACHPPUR,170205.0,19:53:01.781,L,62.5,LL,406.3,335.9
9ALACHPPUR,170205.0,19:53:02.586,R,78.1,LR,789.1,726.6
9ALACHPPUR,170205.0,19:53:02.984,R,70.3,RR,406.3,328.1
9ALACHPPUR,170205.0,19:53:03.461,R,78.1,RR,468.8,398.4
9ALACHPPUR,170205.0,19:53:03.891,L,70.3,RL,437.5,359.4
9ALACHPPUR,170205.0,19:53:05.352,L,78.1,SL,570.3,500.0
9ALACHPPUR,170205.0,19:53:06.125,L,85.9,LL,765.6,687.5
9ALACHPPUR,170205.0,19:53:08.195,L,78.1,LL,460.9,382.8
9ALACHPPUR,170205.0,19:53:08.828,R,70.3,LR,640.6,562.5
9ALACHPPUR,170205.0,19:53:09.438,S,93.8,RS,585.9,515.6
9ALACHPPUR,170205.0,19:53:12.039,L,93.8,LL,367.2,273.4
9ALACHPPUR,170205.0,19:53:12.367,L,85.9,LL,335.9,242.2
9ALACHPPUR,170205.0,19:53:14.383,L,78.1,RL,625.0,546.9
9ALACHPPUR,170208.0,10:20:52.668,L,85.9,RL,566.4,468.8
9ALACHPPUR,170208.0,10:20:53.055,L,78.1,LL,394.5,308.6
9ALACHPPUR,170208.0,10:20:53.371,L,78.1,LL,316.4,238.3
9ALACHPPUR,170208.0,10:20:54.062,S,93.8,LS,675.8,597.7
9ALACHPPUR,170208.0,10:20:54.617,L,70.3,SL,578.1,484.4
9ALACHPPUR,170208.0,10:20:55.258,R,78.1,LR,632.8,562.5
9ALACHPPUR,170208.0,10:20:55.742,S,74.2,RS,488.3,410.2
9ALACHPPUR,170208.0,10:20:56.227,R,66.4,SR,492.2,418.0
9ALACHPPUR,170208.0,10:20:56.840,R,58.6,RR,621.1,554.7
9ALACHPPUR,170208.0,10:20:57.242,R,66.4,RR,394.5,335.9
9ALACHPPUR,170208.0,10:20:57.816,S,66.4,RS,574.2,507.8
9ALACHPPUR,170208.0,10:20:58.457,L,70.3,SL,636.7,570.3
9ALACHPPUR,170208.0,10:20:58.793,L,78.1,LL,328.1,257.8
9ALACHPPUR,170208.0,10:20:59.148,L,66.4,LL,367.2,289.1
9ALACHPPUR,170208.0,10:20:59.734,L,74.2,LL,578.1,511.7
9ALACHPPUR,170208.0,10:21:03.332,L,62.5,LL,476.6,378.9
9ALACHPPUR,170208.0,10:21:05.133,R,78.1,RR,785.2,703.1
9ALACHPPUR,170208.0,10:21:06.895,L,82.0,LL,605.5,535.2
9ALACHPPUR,170208.0,10:21:07.316,L,62.5,LL,441.4,359.4
9ALACHPPUR,170211.0,11:03:46.195,L,66.4,LL,769.5,683.6
9ALACHPPUR,170211.0,11:03:49.746,R,70.3,RR,472.7,398.4
9ALACHPPUR,170211.0,11:03:50.105,L,66.4,RL,363.3,293.0
9ALACHPPUR,170211.0,11:03:50.672,S,70.3,LS,562.5,496.1
9ALACHPPUR,170211.0,11:03:52.980,L,74.2,LL,433.6,351.6
9ALACHPPUR,170211.0,11:04:07.473,R,85.9,RR,605.5,519.5
9ALACHPPUR,170211.0,11:04:07.879,L,82.0,RL,410.2,324.2
9ALACHPPUR,170211.0,11:04:08.664,S,74.2,LS,793.0,710.9
9ALACHPPUR,170211.0,11:04:12.816,L,97.7,RL,785.2,707.0
9ALACHPPUR,170211.0,11:04:24.367,L,82.0,LL,543.0,437.5
9ALACHPPUR,170211.0,11:04:26.031,L,97.7,RL,648.4,558.6
9ALACHPPUR,170211.0,11:04:26.430,L,89.8,LL,406.3,308.6
9ALACHPPUR,170211.0,11:04:27.156,L,78.1,LL,738.3,648.4
9ALACHPPUR,170211.0,11:12:45.715,L,82.0,LL,558.6,468.8
9ALACHPPUR,170211.0,11:12:49.125,R,78.1,RR,492.2,398.4
9ALACHPPUR,170211.0,11:12:49.609,L,74.2,RL,488.3,410.2
9ALACHPPUR,170211.0,11:12:50.355,S,82.0,LS,738.3,664.1
9ALACHPPUR,170211.0,11:12:51.109,R,85.9,SR,750.0,668.0
9ALACHPPUR,170211.0,11:12:51.801,L,89.8,RL,687.5,601.6
9ALACHPPUR,170211.0,11:12:52.273,L,70.3,LL,492.2,402.3
9ALACHPPUR,170211.0,11:12:53.723,L,82.0,RL,507.8,425.8
9ALACHPPUR,170211.0,11:12:54.102,L,78.1,LL,382.8,300.8
9ALACHPPUR,170211.0,11:12:54.531,L,62.5,LL,445.3,367.2
9ALACHPPUR,170211.0,11:13:02.031,L,97.7,RL,484.4,418.0
9ALACHPPUR,170211.0,11:13:03.238,R,66.4,SR,418.0,355.5
9ALACHPPUR,170211.0,11:13:03.695,R,66.4,RR,457.0,390.6
9ALACHPPUR,170211.0,11:13:04.020,R,62.5,RR,328.1,261.7
9ALACHPPUR,170211.0,11:13:08.332,L,50.8,RL,460.9,394.5
9ALACHPPUR,170211.0,11:13:08.812,S,66.4,LS,464.8,414.1
9ALACHPPUR,170211.0,11:13:09.246,L,58.6,SL,441.4,375.0
9ALACHPPUR,170211.0,11:13:09.656,L,54.7,LL,414.1,355.5
9ALACHPPUR,170211.0,11:13:11.074,R,54.7,RR,371.1,308.6
9ALACHPPUR,170211.0,11:13:11.484,R,70.3,RR,394.5,339.8
9ALACHPPUR,170211.0,11:13:12.059,R,66.4,RR,578.1,507.8
9ALACHPPUR,170211.0,11:14:38.848,R,74.2,RR,390.6,300.8
9ALACHPPUR,170211.0,11:14:39.219,R,93.8,RR,351.6,277.3
9ALACHPPUR,170211.0,11:14:39.594,R,82.0,RR,386.7,293.0
9ALACHPPUR,170211.0,11:14:39.957,R,85.9,RR,359.4,277.3
9ALACHPPUR,170211.0,11:14:41.465,L,70.3,RL,355.5,285.2
9ALACHPPUR,170211.0,11:14:41.957,S,70.3,LS,492.2,421.9
9ALACHPPUR,170211.0,11:14:42.547,L,62.5,SL,597.7,527.3
9ALACHPPUR,170211.0,11:14:43.684,R,62.5,RR,218.8,160.2
9ALACHPPUR,170211.0,11:14:44.422,L,70.3,RL,730.5,668.0
9ALACHPPUR,170211.0,11:35:42.777,L,85.9,RL,531.3,418.0
9ALACHPPUR,170211.0,11:35:46.586,S,82.0,LS,753.9,675.8
9ALACHPPUR,170211.0,11:35:47.293,R,82.0,SR,707.0,625.0
9ALACHPPUR,170211.0,11:35:48.016,R,66.4,RR,738.3,656.3
9ALACHPPUR,170211.0,11:37:05.211,L,97.7,RL,527.3,410.2
9ALACHPPUR,170211.0,11:37:05.902,L,85.9,LL,703.1,605.5
9ALACHPPUR,170211.0,11:37:08.383,S,66.4,LS,687.5,613.3
9ALACHPPUR,170211.0,11:37:08.941,R,62.5,SR,562.5,496.1
9ALACHPPUR,170211.0,11:37:09.578,R,70.3,RR,628.9,566.4
9ALACHPPUR,170211.0,11:37:11.242,R,62.5,SR,511.7,453.1
9ALACHPPUR,170211.0,11:37:11.629,R,66.4,RR,382.8,320.3
9ALACHPPUR,170211.0,11:37:11.926,R,74.2,RR,289.1,222.7
9ALACHPPUR,170211.0,11:37:12.602,L,70.3,RL,679.7,605.5
9ALACHPPUR,170211.0,11:37:15.039,R,66.4,SR,707.0,652.3
9ALACHPPUR,170211.0,11:37:15.473,L,62.5,RL,437.5,371.1
9ALACHPPUR,170211.0,11:37:16.195,L,78.1,LL,707.0,644.5
9ALACHPPUR,170211.0,11:37:16.594,L,66.4,LL,410.2,332.0
9ALACHPPUR,170211.0,11:37:17.387,R,70.3,LR,789.1,722.7
9ALACHPPUR,170211.0,11:37:19.887,S,74.2,LS,628.9,546.9
9ALACHPPUR,170211.0,11:37:20.465,L,66.4,SL,585.9,511.7
9ALACHPPUR,170211.0,11:37:20.855,L,70.3,LL,386.7,320.3
9ALACHPPUR,170211.0,11:37:21.176,L,70.3,LL,320.3,250.0
9ALACHPPUR,170211.0,11:37:22.641,S,74.2,RS,402.3,320.3
9ALACHPPUR,170211.0,11:37:23.172,R,58.6,SR,546.9,472.7
9ALACHPPUR,170211.0,11:37:23.770,R,74.2,RR,582.0,523.4
9ALACHPPUR,170211.0,11:37:24.156,R,78.1,RR,382.8,308.6
9ALACHPPUR,170211.0,11:37:24.734,S,66.4,RS,589.8,511.7
9ALACHPPUR,170211.0,11:37:25.262,R,70.3,SR,523.4,457.0
9ALACHPPUR,170211.0,11:37:25.684,R,78.1,RR,414.1,343.8
9ALACHPPUR,170211.0,11:37:26.031,S,85.9,RS,339.8,261.7
9ALACHPPUR,170211.0,11:37:26.539,L,58.6,SL,535.2,449.2
9ALACHPPUR,170211.0,11:37:27.148,S,62.5,LS,605.5,546.9
9ALACHPPUR,170211.0,11:37:27.684,L,62.5,SL,535.2,472.7
9ALACHPPUR,170211.0,11:37:29.406,R,62.5,RR,691.4,625.0
9ALACHPPUR,170211.0,11:37:31.113,L,62.5,RL,585.9,523.4
9ALACHPPUR,170211.0,11:46:20.645,R,93.8,RR,293.0,203.1
9ALACHPPUR,170211.0,11:46:21.309,R,78.1,RR,679.7,585.9
9ALACHPPUR,170211.0,11:46:21.699,L,85.9,RL,382.8,304.7
9ALACHPPUR,170211.0,11:46:22.160,S,78.1,LS,468.8,382.8
9ALACHPPUR,170211.0,11:46:22.652,L,78.1,SL,492.2,414.1
9ALACHPPUR,170211.0,11:46:23.961,R,85.9,RR,171.9,97.7
9ALACHPPUR,170211.0,11:46:24.480,L,82.0,RL,523.4,437.5
9ALACHPPUR,170211.0,11:46:37.090,R,62.5,RR,578.1,488.3
9ALACHPPUR,170211.0,11:46:37.703,L,74.2,RL,601.6,539.1
9ALACHPPUR,170211.0,11:46:38.230,S,46.9,LS,554.7,480.5
9ALACHPPUR,170211.0,11:46:38.688,L,70.3,SL,433.6,386.7
9ALACHPPUR,170211.0,11:46:39.383,R,74.2,LR,691.4,621.1
9ALACHPPUR,170211.0,11:46:39.824,S,70.3,RS,445.3,371.1
9ALACHPPUR,170211.0,11:46:40.293,L,74.2,SL,464.8,394.5
9ALACHPPUR,170211.0,11:46:40.645,R,66.4,LR,359.4,285.2
9ALACHPPUR,170211.0,11:46:41.055,L,66.4,RL,410.2,343.8
9ALACHPPUR,170211.0,11:46:41.684,S,78.1,LS,617.2,550.8
9ALACHPPUR,170211.0,11:46:48.129,L,62.5,RL,726.6,648.4
9ALACHPPUR,170211.0,11:46:48.406,L,62.5,LL,277.3,214.8
9ALACHPPUR,170211.0,11:46:49.156,L,78.1,LL,734.4,671.9
9ALACHPPUR,170211.0,11:46:49.836,R,74.2,LR,683.6,605.5
9ALACHPPUR,170211.0,11:46:50.457,R,70.3,RR,625.0,550.8
9ALACHPPUR,170211.0,11:46:50.844,L,78.1,RL,378.9,308.6
9ALACHPPUR,170211.0,11:46:51.254,S,66.4,LS,421.9,343.8
9ALACHPPUR,170211.0,11:46:51.691,L,74.2,SL,429.7,363.3
9ALACHPPUR,170211.0,11:46:52.332,R,78.1,LR,636.7,562.5
9ALACHPPUR,170211.0,11:46:52.934,R,70.3,RR,609.4,531.3
9ALACHPPUR,170211.0,11:46:57.555,L,78.1,LL,250.0,175.8
9ALACHPPUR,170211.0,11:46:59.020,L,70.3,RL,601.6,535.2
9ALACHPPUR,170211.0,11:46:59.625,S,85.9,LS,589.8,519.5
9ALACHPPUR,170211.0,11:47:00.176,L,70.3,SL,566.4,480.5
9ALACHPPUR,170211.0,11:47:01.480,S,70.3,RS,468.8,398.4
9ALACHPPUR,170211.0,11:47:01.906,R,74.2,SR,421.9,351.6
9ALACHPPUR,170211.0,11:47:02.324,S,101.6,RS,390.6,316.4
9ALACHPPUR,170211.0,11:47:03.496,L,58.6,LL,406.3,324.2
9ALACHPPUR,170211.0,11:47:04.246,R,70.3,LR,738.3,679.7
9ALACHPPUR,170211.0,11:47:04.656,S,74.2,RS,406.3,335.9
9ALACHPPUR,170211.0,11:47:05.219,L,62.5,SL,574.2,500.0
9ALACHPPUR,170211.0,11:47:05.562,L,70.3,LL,335.9,273.4
9ALACHPPUR,170211.0,11:47:05.793,L,74.2,LL,226.6,156.3
9ALACHPPUR,170211.0,11:47:06.418,S,74.2,LS,625.0,550.8
9ALACHPPUR,170211.0,11:47:06.863,R,66.4,SR,453.1,378.9
9ALACHPPUR,170211.0,11:47:07.418,R,62.5,RR,558.6,492.2
9ALACHPPUR,170211.0,11:47:07.805,R,58.6,RR,390.6,328.1
9ALACHPPUR,170211.0,11:47:11.664,S,105.5,RS,507.8,425.8
9ALACHPPUR,170211.0,11:47:14.754,L,89.8,LL,722.7,632.8
9ALACHPPUR,170211.0,11:47:15.484,S,85.9,LS,734.4,644.5
9ALACHPPUR,170211.0,11:47:27.113,L,89.8,LL,371.1,273.4
9ALACHPPUR,170211.0,11:47:27.598,S,82.0,LS,492.2,402.3
9ALACHPPUR,170211.0,11:47:29.086,L,70.3,RL,472.7,394.5
9ALACHPPUR,170211.0,11:47:29.551,S,66.4,LS,468.8,398.4
9ALACHPPUR,170211.0,11:47:30.000,L,66.4,SL,449.2,382.8
9ALACHPPUR,170211.0,11:47:31.172,R,66.4,RR,300.8,238.3
9ALACHPPUR,170211.0,11:47:31.711,R,66.4,RR,539.1,472.7
9ALACHPPUR,170211.0,11:47:32.078,L,58.6,RL,375.0,308.6
9ALACHPPUR,170211.0,11:47:32.469,S,70.3,LS,378.9,320.3
9ALACHPPUR,170211.0,11:47:34.984,R,66.4,LR,761.7,691.4
9ALACHPPUR,170211.0,11:47:35.211,R,70.3,RR,222.7,156.3
9ALACHPPUR,170211.0,11:47:35.734,L,74.2,RL,519.5,449.2
9ALACHPPUR,170211.0,11:47:39.105,S,54.7,RS,312.5,242.2
9ALACHPPUR,170211.0,11:47:39.707,R,74.2,SR,582.0,527.3
9ALACHPPUR,170211.0,11:47:40.172,L,74.2,RL,464.8,390.6
9ALACHPPUR,170211.0,11:47:42.750,S,62.5,LS,640.6,570.3
9ALACHPPUR,170211.0,11:47:43.258,L,78.1,SL,492.2,429.7
9ALACHPPUR,170211.0,11:47:43.664,L,58.6,LL,425.8,347.7
9ALACHPPUR,170211.0,11:47:45.312,R,66.4,RR,320.3,250.0
9ALACHPPUR,170211.0,11:47:45.688,R,66.4,RR,375.0,308.6
9ALACHPPUR,170211.0,11:47:46.008,L,66.4,RL,320.3,253.9
9ALACHPPUR,170211.0,11:47:46.379,S,66.4,LS,371.1,304.7
9ALACHPPUR,170211.0,11:47:46.758,R,66.4,SR,378.9,312.5
9ALACHPPUR,170211.0,11:47:48.543,L,50.8,RL,472.7,410.2
9ALACHPPUR,170211.0,11:47:49.090,S,66.4,LS,527.3,476.6
9ALACHPPUR,170211.0,11:47:49.562,L,78.1,SL,464.8,398.4
9ALACHPPUR,170211.0,11:47:49.875,L,54.7,LL,335.9,257.8
9ALACHPPUR,170211.0,11:47:50.340,L,70.3,LL,449.2,394.5
9ALACHPPUR,170211.0,11:47:52.426,S,58.6,LS,488.3,414.1
9ALACHPPUR,170211.0,11:47:52.891,L,58.6,SL,464.8,406.3
9ALACHPPUR,170211.0,11:47:53.180,L,62.5,LL,285.2,226.6
9ALACHPPUR,170211.0,11:47:53.480,L,54.7,LL,308.6,246.1
9ALACHPPUR,170211.0,11:47:54.262,L,70.3,LL,765.6,710.9
9ALACHPPUR,170211.0,11:47:54.719,R,74.2,LR,453.1,382.8
9ALACHPPUR,170211.0,11:47:55.508,S,70.3,RS,793.0,718.8
9ALACHPPUR,170211.0,11:47:57.730,L,89.8,RL,605.5,546.9
9ALACHPPUR,170211.0,11:47:58.020,L,70.3,LL,308.6,218.8
9ALACHPPUR,170211.0,11:47:59.418,L,74.2,LL,230.5,152.3
9ALACHPPUR,170211.0,11:47:59.863,R,89.8,LR,429.7,355.5
9ALACHPPUR,170211.0,11:48:00.438,S,93.8,RS,570.3,480.5
9ALACHPPUR,170211.0,11:48:00.961,L,82.0,SL,535.2,441.4
9ALACHPPUR,170211.0,11:48:01.379,L,74.2,LL,425.8,343.8
9ALACHPPUR,170211.0,11:48:02.652,R,82.0,RR,253.9,187.5
9ALACHPPUR,170211.0,11:52:46.812,R,89.8,RR,406.3,316.4
9ALACHPPUR,170211.0,11:52:49.922,L,70.3,LL,398.4,316.4
9ALACHPPUR,170211.0,11:52:50.691,L,82.0,LL,757.8,687.5
9ALACHPPUR,170211.0,11:52:51.211,L,78.1,LL,523.4,441.4
9ALACHPPUR,170211.0,12:01:50.980,R,78.1,RR,675.8,597.7
9ALACHPPUR,170211.0,12:01:51.539,S,58.6,RS,578.1,500.0
9ALACHPPUR,170211.0,12:01:52.207,R,74.2,SR,652.3,593.8
9ALACHPPUR,170211.0,12:01:52.539,R,58.6,RR,347.7,273.4
9ALACHPPUR,170211.0,12:01:53.211,L,82.0,RL,648.4,589.8
9ALACHPPUR,170211.0,12:01:53.520,L,70.3,LL,320.3,238.3
9ALACHPPUR,170211.0,12:01:55.320,S,62.5,RS,394.5,335.9
9ALACHPPUR,170211.0,12:01:56.520,L,74.2,LL,375.0,304.7
9ALACHPPUR,170211.0,12:01:56.879,L,70.3,LL,363.3,289.1
9ALACHPPUR,170211.0,12:01:57.145,L,82.0,LL,253.9,183.6
9ALACHPPUR,170211.0,12:01:57.500,L,70.3,LL,367.2,285.2
9ALACHPPUR,170211.0,12:01:58.230,S,89.8,LS,710.9,640.6
9ALACHPPUR,170211.0,12:01:58.809,L,66.4,SL,601.6,511.7
9ALACHPPUR,170211.0,12:01:59.117,L,70.3,LL,304.7,238.3
9ALACHPPUR,170211.0,12:02:00.438,L,58.6,RL,453.1,386.7
9ALACHPPUR,170211.0,12:02:02.570,R,66.4,SR,429.7,371.1
9ALACHPPUR,170211.0,12:02:03.156,L,66.4,RL,585.9,519.5
9ALACHPPUR,170211.0,12:02:03.688,S,58.6,LS,539.1,472.7
9ALACHPPUR,170211.0,12:02:04.129,L,58.6,SL,441.4,382.8
9ALACHPPUR,170211.0,12:02:04.668,R,66.4,LR,531.3,472.7
9ALACHPPUR,170211.0,12:02:05.129,S,62.5,RS,464.8,398.4
9ALACHPPUR,170211.0,12:02:05.637,L,62.5,SL,507.8,445.3
9ALACHPPUR,170211.0,12:02:06.160,L,62.5,LL,523.4,460.9
9ALACHPPUR,170211.0,12:02:06.578,L,66.4,LL,414.1,351.6
9ALACHPPUR,170211.0,12:02:07.078,S,62.5,LS,503.9,437.5
9ALACHPPUR,170211.0,12:02:07.582,L,62.5,SL,503.9,441.4
9ALACHPPUR,170211.0,12:02:08.891,R,78.1,RR,437.5,367.2
9ALACHPPUR,170211.0,12:02:09.410,L,66.4,RL,531.3,453.1
9ALACHPPUR,170211.0,12:02:09.898,S,70.3,LS,484.4,418.0
9ALACHPPUR,170211.0,12:02:11.020,L,70.3,LL,316.4,246.1
9ALACHPPUR,170211.0,12:02:19.395,R,66.4,RR,507.8,425.8
9ALACHPPUR,170211.0,12:02:20.059,L,70.3,RL,660.2,593.8
9ALACHPPUR,170211.0,12:02:21.629,R,62.5,RR,523.4,457.0
9ALACHPPUR,170211.0,12:02:22.230,L,58.6,RL,605.5,543.0
9ALACHPPUR,170211.0,12:02:22.773,S,58.6,LS,543.0,484.4
9ALACHPPUR,170211.0,12:02:23.281,L,58.6,SL,507.8,449.2
9ALACHPPUR,170211.0,12:02:23.809,L,62.5,LL,523.4,464.8
9ALACHPPUR,170211.0,12:02:24.508,R,62.5,LR,699.2,636.7
9ALACHPPUR,170211.0,12:02:25.230,R,74.2,RR,710.9,648.4
9ALACHPPUR,170211.0,12:02:25.656,R,85.9,RR,414.1,339.8
9ALACHPPUR,170211.0,12:02:26.379,S,85.9,RS,722.7,636.7
9ALACHPPUR,170211.0,12:02:31.965,S,78.1,RS,425.8,339.8
9ALACHPPUR,170211.0,12:02:32.715,L,66.4,SL,761.7,683.6
9ALACHPPUR,170211.0,12:02:33.945,S,66.4,RS,421.9,347.7
9ALACHPPUR,170211.0,12:02:34.637,R,66.4,SR,691.4,625.0
9ALACHPPUR,170211.0,12:02:35.176,R,66.4,RR,539.1,472.7
9ALACHPPUR,170211.0,12:02:35.520,R,66.4,RR,339.8,273.4
9ALACHPPUR,170211.0,12:02:36.031,S,66.4,RS,515.6,449.2
9ALACHPPUR,170211.0,12:02:36.492,R,66.4,SR,460.9,394.5
9ALACHPPUR,170211.0,12:02:36.914,R,66.4,RR,421.9,355.5
9ALACHPPUR,170211.0,12:02:37.539,R,66.4,RR,625.0,558.6
9ALACHPPUR,170211.0,12:02:38.172,L,74.2,RL,625.0,558.6
9ALACHPPUR,170211.0,12:02:43.645,L,70.3,RL,527.3,437.5
9ALACHPPUR,170211.0,12:02:44.383,L,66.4,LL,742.2,671.9
9ALACHPPUR,170211.0,12:02:44.898,S,66.4,LS,515.6,449.2
9ALACHPPUR,170211.0,12:02:45.410,L,70.3,SL,507.8,441.4
9ALACHPPUR,170211.0,12:02:47.012,L,62.5,RL,433.6,371.1
9ALACHPPUR,170211.0,12:02:47.660,S,66.4,LS,644.5,582.0
9ALACHPPUR,170211.0,12:02:48.188,R,78.1,SR,515.6,449.2
9ALACHPPUR,170211.0,12:02:48.688,L,74.2,RL,503.9,425.8
9ALACHPPUR,170211.0,12:02:49.203,S,89.8,LS,500.0,425.8
9ALACHPPUR,170211.0,12:02:49.672,L,70.3,SL,488.3,398.4
9ALACHPPUR,170211.0,12:02:50.113,L,54.7,LL,457.0,386.7
9ALACHPPUR,170211.0,12:02:51.738,R,62.5,RR,296.9,230.5
9ALACHPPUR,170211.0,12:02:52.020,R,62.5,RR,281.3,218.8
9ALACHPPUR,170211.0,12:02:52.430,R,62.5,RR,410.2,347.7
9ALACHPPUR,170211.0,12:02:52.801,L,66.4,RL,367.2,304.7
9ALACHPPUR,170211.0,12:02:53.227,S,66.4,LS,425.8,359.4
9ALACHPPUR,170211.0,12:02:53.762,L,58.6,SL,543.0,476.6
9ALACHPPUR,170211.0,12:02:56.008,R,58.6,RR,367.2,300.8
9ALACHPPUR,170211.0,12:02:56.449,L,58.6,RL,441.4,382.8
9ALACHPPUR,170211.0,12:07:42.680,R,78.1,RR,507.8,441.4
9ALACHPPUR,170211.0,12:07:43.340,L,62.5,RL,675.8,597.7
9ALACHPPUR,170211.0,12:07:44.062,S,43.0,LS,742.2,679.7
9ALACHPPUR,170211.0,12:07:49.898,L,62.5,SL,460.9,390.6
9ALACHPPUR,170211.0,12:07:51.164,R,66.4,RR,445.3,375.0
9ALACHPPUR,170211.0,12:07:51.680,L,70.3,RL,511.7,445.3
9ALACHPPUR,170211.0,12:07:52.230,S,74.2,LS,546.9,476.6
9ALACHPPUR,170211.0,12:07:52.941,R,78.1,SR,707.0,632.8
9ALACHPPUR,170211.0,12:07:53.363,R,62.5,RR,437.5,359.4
9ALACHPPUR,170211.0,12:08:14.422,L,58.6,RL,460.9,386.7
9ALACHPPUR,170211.0,12:08:16.855,R,58.6,SR,425.8,367.2
9ALACHPPUR,170211.0,12:08:17.543,R,70.3,RR,675.8,617.2
9ALACHPPUR,170211.0,12:08:20.203,R,62.5,SR,449.2,375.0
9ALACHPPUR,170211.0,12:08:20.812,R,66.4,RR,605.5,543.0
9ALACHPPUR,170211.0,12:08:21.289,L,62.5,RL,480.5,414.1
9ALACHPPUR,170211.0,12:08:21.770,S,66.4,LS,476.6,414.1
9ALACHPPUR,170211.0,12:08:22.105,L,54.7,SL,347.7,281.3
9ALACHPPUR,170211.0,12:08:22.812,R,62.5,LR,699.2,644.5
9ALACHPPUR,170211.0,12:08:23.203,S,54.7,RS,398.4,335.9
9ALACHPPUR,170211.0,12:08:23.574,R,62.5,SR,363.3,308.6
9ALACHPPUR,170211.0,12:08:24.023,R,58.6,RR,453.1,390.6
9ALACHPPUR,170211.0,12:08:24.387,R,58.6,RR,363.3,304.7
9ALACHPPUR,170211.0,12:08:24.797,S,62.5,RS,406.3,347.7
9ALACHPPUR,170211.0,12:08:25.465,R,54.7,SR,675.8,613.3
9ALACHPPUR,170211.0,12:08:25.773,R,54.7,RR,308.6,253.9
9ALACHPPUR,170211.0,12:08:26.340,R,58.6,RR,562.5,507.8
9ALACHPPUR,170211.0,12:08:27.133,L,58.6,RL,793.0,734.4
9ALACHPPUR,170211.0,12:08:27.688,S,58.6,LS,554.7,496.1
9ALACHPPUR,170211.0,12:08:28.133,L,58.6,SL,445.3,386.7
9ALACHPPUR,170211.0,12:08:28.863,R,62.5,LR,726.6,668.0
9ALACHPPUR,170211.0,12:08:29.305,L,66.4,RL,437.5,375.0
9ALACHPPUR,170211.0,12:08:29.699,S,62.5,LS,398.4,332.0
9ALACHPPUR,170211.0,12:08:30.117,L,50.8,SL,429.7,367.2
9ALACHPPUR,170211.0,12:08:33.129,L,70.3,RL,539.1,472.7
9ALACHPPUR,170211.0,12:08:33.539,L,62.5,LL,418.0,347.7
9ALACHPPUR,170211.0,12:08:34.023,S,74.2,LS,472.7,410.2
9ALACHPPUR,170211.0,12:08:34.395,L,62.5,SL,382.8,308.6
9ALACHPPUR,170211.0,12:08:35.020,R,58.6,LR,628.9,566.4
9ALACHPPUR,170211.0,12:08:35.395,S,58.6,RS,375.0,316.4
9ALACHPPUR,170211.0,12:08:35.969,L,62.5,SL,570.3,511.7
9ALACHPPUR,170211.0,12:08:37.535,L,66.4,RL,597.7,543.0
9ALACHPPUR,170211.0,12:08:38.078,L,54.7,LL,554.7,488.3
9ALACHPPUR,170211.0,12:08:39.723,S,62.5,RS,351.6,281.3
9ALACHPPUR,170211.0,12:08:40.457,L,70.3,SL,726.6,664.1
9ALACHPPUR,170211.0,12:08:41.891,L,58.6,RL,402.3,335.9
9ALACHPPUR,170211.0,12:08:42.312,R,66.4,LR,414.1,355.5
9ALACHPPUR,170211.0,12:08:42.684,S,66.4,RS,371.1,304.7
9ALACHPPUR,170211.0,12:08:43.027,R,66.4,SR,343.8,277.3
9ALACHPPUR,170211.0,12:08:43.414,L,62.5,RL,390.6,324.2
9ALACHPPUR,170211.0,12:08:43.715,L,62.5,LL,300.8,238.3
9ALACHPPUR,170211.0,12:08:49.633,L,66.4,RL,410.2,343.8
9ALACHPPUR,170211.0,12:08:53.336,R,62.5,RR,269.5,195.3
9ALACHPPUR,170211.0,12:08:54.035,L,58.6,RL,703.1,640.6
9ALACHPPUR,170211.0,12:08:54.695,L,70.3,LL,648.4,589.8
9ALACHPPUR,170211.0,12:08:55.379,S,62.5,LS,691.4,621.1
9ALACHPPUR,170211.0,12:08:55.898,L,82.0,SL,500.0,437.5
9ALACHPPUR,170211.0,12:08:56.227,L,70.3,LL,339.8,257.8
9ALACHPPUR,170211.0,12:08:56.582,L,70.3,LL,355.5,285.2
9ALACHPPUR,170211.0,12:08:56.977,L,66.4,LL,398.4,328.1
9ALACHPPUR,170211.0,12:09:36.824,L,66.4,LL,410.2,335.9
9ALACHPPUR,170211.0,12:09:38.895,R,58.6,LR,785.2,714.8
9ALACHPPUR,170211.0,12:12:23.062,R,74.2,RR,488.3,418.0
9ALACHPPUR,170211.0,12:12:23.668,S,78.1,RS,601.6,527.3
9ALACHPPUR,170211.0,12:12:24.320,L,74.2,SL,656.3,578.1
9ALACHPPUR,170211.0,12:12:25.016,L,70.3,LL,699.2,625.0
9ALACHPPUR,170211.0,12:12:25.344,L,74.2,LL,324.2,253.9
9ALACHPPUR,170211.0,12:12:28.359,R,62.5,RR,519.5,445.3
9ALACHPPUR,170211.0,12:12:29.664,L,58.6,LL,332.0,261.7
9ALACHPPUR,170211.0,12:12:31.281,R,70.3,RR,480.5,406.3
9ALACHPPUR,170211.0,12:12:31.664,L,62.5,RL,390.6,320.3
9ALACHPPUR,170211.0,12:12:32.258,S,70.3,LS,585.9,523.4
9ALACHPPUR,170211.0,12:12:32.750,R,62.5,SR,500.0,429.7
9ALACHPPUR,170211.0,12:12:33.410,L,54.7,RL,668.0,605.5
9ALACHPPUR,170211.0,12:12:40.316,L,62.5,SL,543.0,480.5
9ALACHPPUR,170211.0,12:12:41.680,L,66.4,RL,441.4,371.1
9ALACHPPUR,170211.0,12:12:42.270,S,78.1,LS,578.1,511.7
9ALACHPPUR,170211.0,12:12:42.809,L,74.2,SL,543.0,464.8
9ALACHPPUR,170211.0,12:12:43.195,L,54.7,LL,406.3,332.0
9ALACHPPUR,170211.0,12:12:52.250,S,78.1,LS,753.9,679.7
9ALACHPPUR,170211.0,12:12:52.938,L,74.2,SL,691.4,613.3
9ALACHPPUR,170211.0,12:12:54.992,L,66.4,LL,433.6,347.7
9ALACHPPUR,170211.0,12:12:58.430,S,70.3,LS,468.8,406.3
9ALACHPPUR,170211.0,12:12:58.898,L,46.9,SL,492.2,421.9
9ALACHPPUR,170211.0,12:12:59.254,R,62.5,LR,339.8,293.0
9ALACHPPUR,170211.0,12:12:59.652,L,62.5,RL,398.4,335.9
9ALACHPPUR,170211.0,12:13:00.145,S,70.3,LS,484.4,421.9
9ALACHPPUR,170211.0,12:13:00.633,L,62.5,SL,496.1,425.8
9ALACHPPUR,170211.0,12:13:01.004,L,54.7,LL,375.0,312.5
9ALACHPPUR,170211.0,12:13:01.656,L,66.4,LL,644.5,589.8
9ALACHPPUR,170211.0,12:13:03.211,S,62.5,LS,566.4,511.7
9ALACHPPUR,170211.0,12:13:03.688,L,58.6,SL,480.5,418.0
9ALACHPPUR,170211.0,12:13:04.074,R,70.3,LR,375.0,316.4
9ALACHPPUR,170211.0,12:13:04.590,L,66.4,RL,519.5,449.2
9ALACHPPUR,170211.0,12:13:06.141,S,54.7,LS,457.0,394.5
9ALACHPPUR,170211.0,12:13:06.645,L,50.8,SL,507.8,453.1
9ALACHPPUR,170211.0,12:13:06.977,L,58.6,LL,324.2,273.4
9ALACHPPUR,170211.0,12:13:07.469,S,70.3,LS,480.5,421.9
9ALACHPPUR,170211.0,12:13:07.906,L,62.5,SL,445.3,375.0
9ALACHPPUR,170211.0,12:13:08.465,L,62.5,LL,558.6,496.1
9ALACHPPUR,170211.0,12:13:08.766,L,62.5,LL,300.8,238.3
9ALACHPPUR,170211.0,12:13:09.488,S,54.7,LS,730.5,668.0
9ALACHPPUR,170211.0,12:13:09.941,L,58.6,SL,449.2,394.5
9ALACHPPUR,170211.0,12:13:10.227,L,54.7,LL,289.1,230.5
9ALACHPPUR,170211.0,12:13:11.996,L,50.8,RL,793.0,730.5
9ALACHPPUR,170211.0,12:13:13.711,L,50.8,RL,683.6,625.0
9ALACHPPUR,170211.0,12:13:14.031,L,50.8,LL,320.3,269.5
9ALACHPPUR,170211.0,12:13:14.828,S,54.7,LS,793.0,742.2
9ALACHPPUR,170211.0,12:13:15.344,L,62.5,SL,507.8,453.1
9ALACHPPUR,170211.0,12:13:17.148,L,54.7,RL,476.6,410.2
9ALACHPPUR,170211.0,12:13:17.605,S,50.8,LS,460.9,406.3
9ALACHPPUR,170211.0,12:13:18.352,R,50.8,SR,746.1,695.3
9ALACHPPUR,170211.0,12:13:18.844,L,43.0,RL,500.0,449.2
9ALACHPPUR,170211.0,12:13:21.375,R,58.6,RR,375.0,308.6
9ALACHPPUR,170211.0,12:13:21.801,S,66.4,RS,418.0,359.4
9ALACHPPUR,170211.0,12:13:24.469,L,66.4,LL,738.3,671.9
9ALACHPPUR,170211.0,12:13:24.766,L,74.2,LL,289.1,222.7
9ALACHPPUR,170211.0,12:13:25.504,S,70.3,LS,742.2,668.0
9ALACHPPUR,170211.0,12:13:25.996,R,62.5,SR,500.0,429.7
9ALACHPPUR,170211.0,12:13:26.711,R,78.1,RR,699.2,636.7
9ALACHPPUR,170211.0,12:17:09.551,R,74.2,RR,418.0,324.2
9ALACHPPUR,170211.0,12:17:10.242,R,105.5,RR,660.2,585.9
9ALACHPPUR,170211.0,12:17:10.832,L,105.5,RL,589.8,484.4
9ALACHPPUR,170211.0,12:17:11.148,L,78.1,LL,343.8,238.3
9ALACHPPUR,170211.0,12:17:11.844,S,82.0,LS,691.4,613.3
9ALACHPPUR,170211.0,12:17:12.316,L,66.4,SL,488.3,406.3
9ALACHPPUR,170211.0,12:17:13.395,R,58.6,RR,242.2,179.7
9ALACHPPUR,170211.0,12:17:13.973,L,58.6,RL,578.1,519.5
9ALACHPPUR,170212.0,11:33:51.348,R,89.8,LR,609.4,574.2
9ALACHPPUR,170212.0,11:33:51.895,R,636.7,RR,609.4,574.2
9ALACHPPUR,170212.0,11:33:53.047,S,101.6,LS,562.5,468.8
9ALACHPPUR,170212.0,11:33:53.520,R,89.8,SR,484.4,382.8
9ALACHPPUR,170212.0,11:33:53.910,R,89.8,RR,390.6,300.8
9ALACHPPUR,170212.0,11:33:54.285,S,109.4,RS,355.5,265.6
9ALACHPPUR,170212.0,11:33:56.461,R,82.0,RR,386.7,285.2
9ALACHPPUR,170212.0,11:33:56.938,L,70.3,RL,488.3,406.3
9ALACHPPUR,170212.0,11:33:57.453,S,62.5,LS,523.4,453.1
9ALACHPPUR,170212.0,11:33:58.148,R,74.2,SR,683.6,621.1
9ALACHPPUR,170212.0,11:33:58.566,R,74.2,RR,418.0,343.8
9ALACHPPUR,170212.0,11:41:38.059,L,78.1,RL,636.7,550.8
9ALACHPPUR,170212.0,11:41:39.426,S,66.4,RS,543.0,480.5
9ALACHPPUR,170212.0,11:41:39.930,L,74.2,SL,496.1,429.7
9ALACHPPUR,170212.0,11:41:40.281,R,70.3,LR,355.5,281.3
9ALACHPPUR,170212.0,11:41:40.691,L,66.4,RL,414.1,343.8
9ALACHPPUR,170212.0,11:41:41.051,L,54.7,LL,371.1,304.7
9ALACHPPUR,170212.0,11:41:41.352,L,66.4,LL,289.1,234.4
9ALACHPPUR,170212.0,11:41:41.934,S,66.4,LS,582.0,515.6
9ALACHPPUR,170212.0,11:41:42.609,L,62.5,SL,679.7,613.3
9ALACHPPUR,170212.0,11:41:43.344,L,54.7,LL,742.2,679.7
9ALACHPPUR,170212.0,11:41:43.648,L,78.1,LL,281.3,226.6
9ALACHPPUR,170212.0,11:41:44.090,S,74.2,LS,445.3,367.2
9ALACHPPUR,170212.0,11:41:44.520,R,58.6,SR,445.3,371.1
9ALACHPPUR,170212.0,11:41:45.133,R,82.0,RR,589.8,531.3
9ALACHPPUR,170212.0,11:41:45.465,R,62.5,RR,351.6,269.5
9ALACHPPUR,170212.0,11:41:45.883,S,66.4,RS,414.1,351.6
9ALACHPPUR,170212.0,11:41:46.594,L,66.4,SL,710.9,644.5
9ALACHPPUR,170212.0,11:41:46.949,R,58.6,LR,363.3,296.9
9ALACHPPUR,170212.0,11:41:47.309,L,66.4,RL,351.6,293.0
9ALACHPPUR,170212.0,11:41:47.562,L,66.4,LL,253.9,187.5
9ALACHPPUR,170212.0,11:41:47.793,L,74.2,LL,222.7,156.3
9ALACHPPUR,170212.0,15:46:12.609,S,105.5,RS,585.9,488.3
9ALACHPPUR,170212.0,15:46:13.109,R,85.9,SR,519.5,414.1
9ALACHPPUR,170212.0,15:46:13.480,R,82.0,RR,375.0,289.1
9ALACHPPUR,170212.0,15:46:13.930,L,66.4,RL,464.8,382.8
9ALACHPPUR,170212.0,15:46:14.613,L,78.1,LL,671.9,605.5
9ALACHPPUR,170212.0,15:46:15.109,S,54.7,LS,519.5,441.4
9ALACHPPUR,170212.0,15:46:15.574,L,62.5,SL,457.0,402.3
9ALACHPPUR,170212.0,15:46:16.008,L,62.5,LL,433.6,371.1
9ALACHPPUR,170212.0,15:46:16.617,L,58.6,LL,613.3,550.8
9ALACHPPUR,170212.0,15:46:17.980,L,66.4,LL,410.2,355.5
9ALACHPPUR,170212.0,15:46:18.328,L,54.7,LL,359.4,293.0
9ALACHPPUR,170212.0,15:46:19.742,R,62.5,SR,605.5,550.8
9ALACHPPUR,170212.0,15:46:20.090,R,58.6,RR,351.6,289.1
9ALACHPPUR,170212.0,15:46:24.504,L,66.4,RL,742.2,671.9
9ALACHPPUR,170212.0,15:46:25.152,R,70.3,LR,644.5,578.1
9ALACHPPUR,170212.0,15:46:25.531,L,54.7,RL,394.5,324.2
9ALACHPPUR,170212.0,15:46:26.164,S,58.6,LS,628.9,574.2
9ALACHPPUR,170212.0,15:46:26.656,R,70.3,SR,480.5,421.9
9ALACHPPUR,170212.0,15:46:27.129,S,66.4,RS,476.6,406.3
9ALACHPPUR,170212.0,15:46:27.523,R,70.3,SR,390.6,324.2
9ALACHPPUR,170212.0,15:46:28.129,L,101.6,RL,574.2,503.9
9ALACHPPUR,170212.0,15:46:28.309,L,66.4,LL,214.8,113.3
9ALACHPPUR,170212.0,15:46:28.852,L,74.2,LL,535.2,468.8
9ALACHPPUR,170212.0,15:46:30.668,R,66.4,SR,535.2,476.6
9ALACHPPUR,170212.0,15:46:31.121,L,62.5,RL,457.0,390.6
9ALACHPPUR,170212.0,15:46:32.707,R,54.7,RR,238.3,187.5
9ALACHPPUR,170212.0,15:46:33.051,S,62.5,RS,335.9,281.3
9ALACHPPUR,170212.0,15:46:33.516,L,54.7,SL,472.7,410.2
9ALACHPPUR,170212.0,15:46:34.152,R,62.5,LR,628.9,574.2
9ALACHPPUR,170212.0,15:46:34.555,S,50.8,RS,414.1,351.6
9ALACHPPUR,170212.0,15:46:35.277,L,54.7,SL,718.8,668.0
9ALACHPPUR,170212.0,15:46:35.875,R,54.7,LR,597.7,543.0
9ALACHPPUR,170212.0,15:46:36.273,R,46.9,RR,406.3,351.6
9ALACHPPUR,170212.0,15:46:36.773,L,54.7,RL,492.2,445.3
9ALACHPPUR,170212.0,15:46:38.055,L,62.5,SL,449.2,398.4
9ALACHPPUR,170212.0,15:46:38.402,L,50.8,LL,359.4,296.9
9ALACHPPUR,170212.0,15:46:40.016,R,62.5,RR,601.6,543.0
9ALACHPPUR,170212.0,15:46:40.645,S,85.9,RS,605.5,543.0
9ALACHPPUR,170212.0,15:46:42.145,R,62.5,RR,324.2,257.8
9ALACHPPUR,170212.0,15:46:42.551,L,62.5,RL,406.3,343.8
9ALACHPPUR,170212.0,15:46:49.555,R,85.9,SR,437.5,359.4
9ALACHPPUR,170212.0,15:46:49.938,L,74.2,RL,394.5,308.6
9ALACHPPUR,170212.0,15:46:50.230,L,62.5,LL,304.7,230.5
9ALACHPPUR,170212.0,15:46:50.480,L,70.3,LL,242.2,179.7
9ALACHPPUR,170212.0,15:46:53.754,R,66.4,SR,546.9,484.4
9ALACHPPUR,170212.0,15:46:54.254,L,58.6,RL,507.8,441.4
9ALACHPPUR,170212.0,15:47:07.723,L,66.4,SL,574.2,515.6
9ALACHPPUR,170212.0,15:47:08.324,R,78.1,LR,589.8,523.4
9ALACHPPUR,170212.0,15:47:08.699,S,58.6,RS,394.5,316.4
9ALACHPPUR,170212.0,15:47:10.836,L,62.5,RL,500.0,429.7
9ALACHPPUR,170212.0,15:47:11.020,L,54.7,LL,191.4,128.9
9ALACHPPUR,170212.0,15:47:12.535,S,58.6,RS,402.3,339.8
9ALACHPPUR,170212.0,15:47:12.965,L,58.6,SL,429.7,371.1
9ALACHPPUR,170212.0,15:47:14.191,S,62.5,RS,367.2,308.6
9ALACHPPUR,170212.0,15:47:14.738,L,46.9,SL,562.5,500.0
9ALACHPPUR,170212.0,15:47:15.391,R,62.5,LR,636.7,589.8
9ALACHPPUR,170212.0,15:47:15.758,L,62.5,RL,367.2,304.7
9ALACHPPUR,170212.0,15:47:16.324,S,62.5,LS,566.4,503.9
9ALACHPPUR,170212.0,15:47:16.930,R,74.2,SR,593.8,531.3
9ALACHPPUR,170212.0,15:47:17.566,R,74.2,RR,632.8,558.6
9ALACHPPUR,170212.0,15:47:17.891,S,62.5,RS,339.8,265.6
9ALACHPPUR,170212.0,15:47:18.320,L,62.5,SL,429.7,367.2
9ALACHPPUR,170212.0,15:47:18.637,R,62.5,LR,316.4,253.9
9ALACHPPUR,170212.0,15:47:18.980,L,58.6,RL,347.7,285.2
9ALACHPPUR,170212.0,15:47:19.414,S,54.7,LS,437.5,378.9
9ALACHPPUR,170212.0,15:47:23.047,L,62.5,RL,730.5,671.9
9ALACHPPUR,170212.0,15:47:23.785,L,54.7,LL,746.1,683.6
9ALACHPPUR,170212.0,15:47:32.906,R,70.3,RR,324.2,253.9
9ALACHPPUR,170212.0,15:47:33.363,L,58.6,RL,468.8,398.4
9ALACHPPUR,170212.0,15:47:33.930,L,70.3,LL,554.7,496.1
9ALACHPPUR,170212.0,15:47:34.469,S,66.4,LS,543.0,472.7
9ALACHPPUR,170212.0,15:47:36.102,L,54.7,LL,351.6,289.1
9ALACHPPUR,170212.0,15:47:36.691,L,62.5,LL,582.0,527.3
9ALACHPPUR,170212.0,15:47:38.086,S,50.8,LS,468.8,410.2
9ALACHPPUR,170212.0,15:47:38.461,L,58.6,SL,367.2,316.4
9ALACHPPUR,170212.0,15:47:38.754,R,50.8,LR,300.8,242.2
9ALACHPPUR,170212.0,15:47:39.078,L,50.8,RL,324.2,273.4
9ALACHPPUR,170212.0,15:47:39.840,R,62.5,LR,750.0,699.2
9ALACHPPUR,170212.0,15:47:40.125,S,54.7,RS,293.0,230.5
9ALACHPPUR,170212.0,15:47:40.480,R,62.5,SR,347.7,293.0
9ALACHPPUR,170212.0,15:47:41.770,S,62.5,LS,367.2,308.6
9ALACHPPUR,170212.0,15:47:42.156,R,58.6,SR,390.6,328.1
9ALACHPPUR,170212.0,15:47:42.621,R,58.6,RR,460.9,402.3
9ALACHPPUR,170212.0,15:47:42.938,R,58.6,RR,320.3,261.7
9ALACHPPUR,170212.0,15:47:43.305,S,62.5,RS,363.3,304.7
9ALACHPPUR,170212.0,15:47:43.637,R,58.6,SR,335.9,273.4
9ALACHPPUR,170212.0,15:47:44.012,L,54.7,RL,378.9,320.3
9ALACHPPUR,170212.0,15:47:44.598,L,62.5,LL,578.1,523.4
9ALACHPPUR,170212.0,15:47:44.926,L,54.7,LL,335.9,273.4
9ALACHPPUR,170212.0,15:47:45.328,S,58.6,LS,398.4,343.8
9ALACHPPUR,170212.0,15:47:45.707,L,58.6,SL,378.9,320.3
9ALACHPPUR,170212.0,15:47:46.277,R,62.5,LR,566.4,507.8
9ALACHPPUR,170212.0,15:47:46.707,S,50.8,RS,441.4,378.9
9ALACHPPUR,170212.0,15:47:47.102,L,50.8,SL,394.5,343.8
9ALACHPPUR,170212.0,15:47:47.664,R,54.7,LR,558.6,507.8
9ALACHPPUR,170212.0,15:47:48.027,S,50.8,RS,367.2,312.5
9ALACHPPUR,170212.0,15:47:48.535,L,58.6,SL,500.0,449.2
9ALACHPPUR,170212.0,15:47:49.078,R,58.6,LR,543.0,484.4
9ALACHPPUR,170212.0,15:47:49.453,S,46.9,RS,386.7,328.1
9ALACHPPUR,170212.0,15:47:50.023,L,58.6,SL,558.6,511.7
9ALACHPPUR,170212.0,15:47:51.512,L,62.5,RL,597.7,535.2
9ALACHPPUR,170212.0,15:47:52.262,R,62.5,LR,750.0,687.5
9ALACHPPUR,170212.0,15:47:52.621,S,50.8,RS,371.1,308.6
9ALACHPPUR,170212.0,15:47:53.070,R,74.2,SR,425.8,375.0
9ALACHPPUR,170212.0,15:47:53.824,L,58.6,RL,769.5,695.3
9ALACHPPUR,170212.0,15:47:54.254,S,58.6,LS,429.7,371.1
9ALACHPPUR,170212.0,15:47:54.723,L,62.5,SL,464.8,406.3
9ALACHPPUR,170212.0,15:47:55.512,R,74.2,LR,777.3,714.8
9ALACHPPUR,170212.0,15:47:55.941,S,54.7,RS,449.2,375.0
9ALACHPPUR,170212.0,15:47:57.445,R,62.5,RR,675.8,613.3
9ALACHPPUR,170212.0,15:47:57.867,L,50.8,RL,433.6,371.1
9ALACHPPUR,170212.0,15:47:59.316,S,62.5,RS,367.2,300.8
9ALACHPPUR,170212.0,15:47:59.906,R,78.1,SR,574.2,511.7
9ALACHPPUR,170212.0,15:48:01.578,R,74.2,RR,398.4,328.1
9ALACHPPUR,170212.0,15:48:03.535,R,78.1,SR,773.4,714.8
9ALACHPPUR,170212.0,15:48:04.070,L,58.6,RL,554.7,476.6
9ALACHPPUR,170212.0,15:48:05.371,S,70.3,RS,402.3,339.8
9ALACHPPUR,170212.0,15:48:06.070,R,74.2,SR,695.3,625.0
9ALACHPPUR,170212.0,15:48:06.633,R,66.4,RR,570.3,496.1
9ALACHPPUR,170212.0,15:48:06.992,R,70.3,RR,355.5,289.1
9ALACHPPUR,170212.0,15:48:07.664,S,74.2,RS,668.0,597.7
9ALACHPPUR,170212.0,15:49:17.113,R,78.1,LR,382.8,281.3
9ALACHPPUR,170212.0,15:49:17.609,L,78.1,RL,496.1,418.0
9ALACHPPUR,170212.0,15:49:19.176,R,62.5,RR,687.5,625.0
9ALACHPPUR,170212.0,15:49:19.512,S,58.6,RS,339.8,277.3
9ALACHPPUR,170212.0,15:49:19.875,R,58.6,SR,363.3,304.7
9ALACHPPUR,170212.0,15:49:20.336,R,89.8,RR,429.7,371.1
9ALACHPPUR,170212.0,15:49:20.676,R,62.5,RR,367.2,277.3
9ALACHPPUR,170212.0,15:49:21.066,S,62.5,RS,390.6,328.1
9ALACHPPUR,170212.0,15:49:21.805,L,66.4,SL,734.4,671.9
9ALACHPPUR,170212.0,15:49:22.543,R,62.5,LR,742.2,675.8
9ALACHPPUR,170212.0,15:49:22.961,S,58.6,RS,421.9,359.4
9ALACHPPUR,170212.0,15:49:23.352,R,66.4,SR,382.8,324.2
9ALACHPPUR,170212.0,15:49:23.723,R,62.5,RR,375.0,308.6
9ALACHPPUR,170212.0,15:49:26.922,S,62.5,RS,390.6,324.2
9ALACHPPUR,170212.0,15:49:28.957,R,70.3,RR,601.6,539.1
9ALACHPPUR,170212.0,15:49:29.301,R,62.5,RR,351.6,281.3
9ALACHPPUR,170212.0,15:49:29.703,S,74.2,RS,390.6,328.1
9ALACHPPUR,170212.0,15:49:30.230,L,70.3,SL,531.3,457.0
9ALACHPPUR,170212.0,15:49:31.684,R,70.3,RR,554.7,480.5
9ALACHPPUR,170212.0,15:49:34.031,S,43.0,LS,558.6,492.2
9ALACHPPUR,170212.0,15:49:34.797,R,70.3,SR,738.3,695.3
9ALACHPPUR,170212.0,15:49:35.105,R,50.8,RR,328.1,257.8
9ALACHPPUR,170212.0,15:49:35.566,R,62.5,RR,449.2,398.4
9ALACHPPUR,170212.0,15:49:36.141,L,74.2,RL,562.5,500.0
9ALACHPPUR,170212.0,15:49:36.828,S,54.7,LS,707.0,632.8
9ALACHPPUR,170212.0,15:49:37.434,R,46.9,SR,613.3,558.6
9ALACHPPUR,170212.0,15:49:38.066,R,62.5,RR,617.2,570.3
9ALACHPPUR,170212.0,15:49:38.543,L,62.5,RL,476.6,414.1
9ALACHPPUR,170212.0,15:49:39.145,S,50.8,LS,613.3,550.8
9ALACHPPUR,170212.0,15:49:39.570,R,66.4,SR,410.2,359.4
9ALACHPPUR,170212.0,15:49:40.008,R,74.2,RR,429.7,363.3
9ALACHPPUR,170212.0,15:49:42.797,S,74.2,RS,710.9,652.3
9ALACHPPUR,170212.0,15:49:43.297,L,74.2,SL,500.0,425.8
9ALACHPPUR,170212.0,15:49:43.641,L,78.1,LL,339.8,265.6
9ALACHPPUR,170212.0,15:49:44.117,S,89.8,LS,464.8,386.7
9ALACHPPUR,170212.0,15:49:44.609,L,78.1,SL,503.9,414.1
9ALACHPPUR,170212.0,15:49:45.867,R,66.4,RR,335.9,269.5
9ALACHPPUR,170212.0,15:49:46.395,R,58.6,RR,535.2,468.8
9ALACHPPUR,170212.0,15:49:47.027,L,62.5,RL,628.9,570.3
9ALACHPPUR,170212.0,15:49:47.512,S,62.5,LS,484.4,421.9
9ALACHPPUR,170212.0,15:49:47.980,L,54.7,SL,476.6,414.1
9ALACHPPUR,170212.0,15:49:49.258,R,62.5,RR,316.4,250.0
9ALACHPPUR,170212.0,15:49:49.762,L,62.5,RL,503.9,441.4
9ALACHPPUR,170212.0,15:50:08.379,R,85.9,LR,793.0,703.1
9ALACHPPUR,170212.0,15:50:28.352,R,85.9,SR,796.9,695.3
9ALACHPPUR,170212.0,15:50:28.715,L,54.7,RL,394.5,308.6
9ALACHPPUR,170212.0,15:50:29.180,S,54.7,LS,460.9,406.3
9ALACHPPUR,170212.0,15:50:29.844,R,58.6,SR,664.1,609.4
9ALACHPPUR,170212.0,15:50:30.250,S,66.4,RS,398.4,339.8
9ALACHPPUR,170212.0,15:50:30.637,R,62.5,SR,390.6,324.2
9ALACHPPUR,170212.0,15:50:30.992,S,70.3,RS,347.7,285.2
9ALACHPPUR,170212.0,15:50:31.371,R,70.3,SR,378.9,308.6
9ALACHPPUR,170212.0,15:50:31.672,R,62.5,RR,308.6,238.3
9ALACHPPUR,170212.0,15:50:32.125,R,66.4,RR,449.2,386.7
9ALACHPPUR,170212.0,15:50:32.758,L,66.4,RL,632.8,566.4
9ALACHPPUR,170212.0,15:50:33.262,S,50.8,LS,519.5,453.1
9ALACHPPUR,170212.0,15:50:33.887,R,46.9,SR,628.9,578.1
9ALACHPPUR,170212.0,15:50:35.098,R,54.7,RR,386.7,324.2
9ALACHPPUR,170212.0,15:50:35.578,S,54.7,RS,480.5,425.8
9ALACHPPUR,170212.0,15:50:35.969,R,54.7,SR,390.6,335.9
9ALACHPPUR,170212.0,15:50:36.367,L,50.8,RL,402.3,347.7
9ALACHPPUR,170212.0,15:50:37.082,L,54.7,LL,710.9,660.2
9ALACHPPUR,170212.0,15:50:37.438,L,58.6,LL,351.6,296.9
9ALACHPPUR,170212.0,15:50:37.891,S,66.4,LS,445.3,386.7
9ALACHPPUR,170212.0,15:50:38.293,L,43.0,SL,425.8,359.4
9ALACHPPUR,170212.0,15:50:38.906,R,54.7,LR,601.6,558.6
9ALACHPPUR,170212.0,15:50:39.312,S,46.9,RS,414.1,359.4
9ALACHPPUR,170212.0,15:50:40.953,R,50.8,LR,742.2,691.4
9ALACHPPUR,170212.0,15:50:41.426,L,62.5,RL,460.9,410.2
9ALACHPPUR,170212.0,15:50:42.176,L,58.6,LL,753.9,691.4
9ALACHPPUR,170212.0,15:50:43.402,S,58.6,RS,355.5,293.0
9ALACHPPUR,170212.0,15:50:43.910,L,58.6,SL,507.8,449.2
9ALACHPPUR,170212.0,15:50:45.445,L,58.6,RL,585.9,511.7
9ALACHPPUR,170212.0,15:50:45.805,R,54.7,LR,363.3,304.7
9ALACHPPUR,170212.0,15:50:46.211,S,62.5,RS,398.4,343.8
9ALACHPPUR,170212.0,15:50:46.605,R,58.6,SR,398.4,335.9
9ALACHPPUR,170212.0,15:50:46.906,R,54.7,RR,304.7,246.1
9ALACHPPUR,170212.0,15:50:47.633,L,66.4,RL,714.8,660.2
9ALACHPPUR,170212.0,15:50:48.016,S,62.5,LS,386.7,320.3
9ALACHPPUR,170212.0,15:50:48.539,L,62.5,SL,523.4,460.9
9ALACHPPUR,170212.0,15:50:49.242,R,62.5,LR,703.1,640.6
9ALACHPPUR,170212.0,15:50:49.867,L,54.7,RL,632.8,570.3
9ALACHPPUR,170212.0,15:50:52.070,L,54.7,LL,687.5,636.7
9ALACHPPUR,170212.0,15:51:42.336,R,105.5,LR,410.2,312.5
9ALACHPPUR,170212.0,15:51:42.801,L,85.9,RL,484.4,378.9
9ALACHPPUR,170212.0,15:51:43.438,L,74.2,LL,648.4,562.5
9ALACHPPUR,170212.0,15:51:45.531,S,66.4,LS,562.5,492.2
9ALACHPPUR,170212.0,15:51:45.988,L,66.4,SL,457.0,390.6
9ALACHPPUR,170212.0,15:51:46.336,L,66.4,LL,347.7,281.3
9ALACHPPUR,170212.0,15:51:46.648,L,74.2,LL,304.7,238.3
9ALACHPPUR,170212.0,15:51:46.980,L,70.3,LL,335.9,261.7
9ALACHPPUR,170212.0,15:51:47.730,L,74.2,LL,746.1,675.8
9ALACHPPUR,170212.0,15:51:55.613,S,109.4,RS,511.7,398.4
9ALACHPPUR,170212.0,15:51:56.168,R,74.2,SR,589.8,480.5
9ALACHPPUR,170212.0,15:51:56.809,R,70.3,RR,644.5,570.3
9ALACHPPUR,170212.0,15:51:57.152,R,74.2,RR,339.8,269.5
9ALACHPPUR,170212.0,15:51:57.609,S,74.2,RS,457.0,382.8
9ALACHPPUR,170212.0,15:51:58.375,L,70.3,SL,769.5,695.3
9ALACHPPUR,170212.0,15:51:59.812,R,58.6,RR,402.3,328.1
9ALACHPPUR,170212.0,15:52:01.547,S,70.3,LS,484.4,418.0
9ALACHPPUR,170212.0,15:52:01.891,R,62.5,SR,351.6,281.3
9ALACHPPUR,170212.0,15:52:02.305,L,62.5,RL,414.1,351.6
9ALACHPPUR,170212.0,15:52:02.824,L,62.5,LL,519.5,457.0
9ALACHPPUR,170212.0,15:52:03.199,L,58.6,LL,378.9,316.4
9ALACHPPUR,170212.0,15:52:03.598,S,74.2,LS,382.8,324.2
9ALACHPPUR,170212.0,15:52:03.949,L,58.6,SL,367.2,293.0
9ALACHPPUR,170212.0,15:52:04.605,R,70.3,LR,644.5,585.9
9ALACHPPUR,170212.0,15:52:04.980,S,54.7,RS,390.6,320.3
9ALACHPPUR,170212.0,15:52:05.652,L,66.4,SL,660.2,605.5
9ALACHPPUR,170212.0,15:52:06.254,R,58.6,LR,609.4,543.0
9ALACHPPUR,170212.0,15:52:06.660,L,58.6,RL,406.3,347.7
9ALACHPPUR,170212.0,15:52:08.297,L,66.4,RL,757.8,699.2
9ALACHPPUR,170212.0,15:52:08.652,L,66.4,LL,355.5,289.1
9ALACHPPUR,170212.0,15:52:09.113,S,62.5,LS,464.8,398.4
9ALACHPPUR,170212.0,15:52:09.820,R,58.6,SR,710.9,648.4
9ALACHPPUR,170212.0,15:52:10.445,R,58.6,RR,625.0,566.4
9ALACHPPUR,170212.0,15:52:10.836,R,62.5,RR,386.7,328.1
9ALACHPPUR,170212.0,15:52:11.273,L,54.7,RL,445.3,382.8
9ALACHPPUR,170212.0,15:52:12.016,S,58.6,LS,738.3,683.6
9ALACHPPUR,170212.0,15:52:12.637,R,58.6,SR,621.1,562.5
9ALACHPPUR,170212.0,15:52:12.930,R,66.4,RR,285.2,226.6
9ALACHPPUR,170212.0,15:52:13.684,L,66.4,RL,753.9,687.5
9ALACHPPUR,170212.0,15:52:14.082,L,70.3,LL,394.5,328.1
9ALACHPPUR,170212.0,15:52:15.750,S,50.8,RS,308.6,246.1
9ALACHPPUR,170212.0,15:52:16.137,R,62.5,SR,375.0,324.2
9ALACHPPUR,170212.0,15:52:17.348,S,62.5,LS,394.5,335.9
9ALACHPPUR,170212.0,15:52:17.750,R,66.4,SR,398.4,335.9
9ALACHPPUR,170212.0,15:52:18.254,R,58.6,RR,511.7,445.3
9ALACHPPUR,170212.0,15:52:18.570,R,58.6,RR,316.4,257.8
9ALACHPPUR,170212.0,15:52:19.086,S,62.5,RS,511.7,453.1
9ALACHPPUR,170212.0,15:52:19.688,L,74.2,SL,589.8,527.3
9ALACHPPUR,170212.0,15:52:19.953,L,54.7,LL,285.2,210.9
9ALACHPPUR,170212.0,15:52:21.426,L,54.7,RL,347.7,281.3
9ALACHPPUR,170212.0,15:52:21.812,S,74.2,LS,367.2,312.5
9ALACHPPUR,170212.0,15:52:22.156,L,62.5,SL,355.5,281.3
9ALACHPPUR,170212.0,15:52:22.680,R,66.4,LR,519.5,457.0
9ALACHPPUR,170212.0,15:52:23.066,S,58.6,RS,394.5,328.1
9ALACHPPUR,170212.0,15:52:23.426,L,58.6,SL,359.4,300.8
9ALACHPPUR,170212.0,15:52:23.906,R,62.5,LR,476.6,418.0
9ALACHPPUR,170212.0,15:52:24.266,S,66.4,RS,355.5,293.0
9ALACHPPUR,170212.0,15:52:24.848,R,70.3,SR,578.1,511.7
9ALACHPPUR,170212.0,15:52:25.156,R,66.4,RR,312.5,242.2
9ALACHPPUR,170212.0,15:52:25.539,L,58.6,RL,390.6,324.2
9ALACHPPUR,170212.0,15:52:27.234,S,54.7,RS,316.4,257.8
9ALACHPPUR,170212.0,15:52:27.617,R,62.5,SR,375.0,320.3
9ALACHPPUR,170212.0,15:52:27.945,R,70.3,RR,320.3,257.8
9ALACHPPUR,170212.0,15:52:29.426,L,70.3,LL,652.3,582.0
9ALACHPPUR,170212.0,15:52:30.148,S,70.3,LS,722.7,652.3
9ALACHPPUR,170212.0,15:52:31.281,L,54.7,LL,332.0,265.6
9ALACHPPUR,170212.0,15:52:31.852,L,54.7,LL,570.3,515.6
9ALACHPPUR,170212.0,15:52:32.188,L,62.5,LL,328.1,273.4
9ALACHPPUR,170212.0,15:52:32.590,S,58.6,LS,406.3,343.8
9ALACHPPUR,170212.0,15:52:32.973,L,62.5,SL,378.9,320.3
9ALACHPPUR,170212.0,15:52:33.258,R,54.7,LR,293.0,230.5
9ALACHPPUR,170212.0,15:52:33.594,L,62.5,RL,328.1,273.4
9ALACHPPUR,170212.0,15:52:34.324,R,66.4,LR,726.6,664.1
9ALACHPPUR,170212.0,15:52:34.965,R,62.5,RR,644.5,578.1
9ALACHPPUR,170212.0,15:52:35.277,S,54.7,RS,320.3,257.8
9ALACHPPUR,170212.0,15:52:35.793,L,58.6,SL,511.7,457.0
9ALACHPPUR,170212.0,15:52:36.074,L,74.2,LL,265.6,207.0
9ALACHPPUR,170212.0,15:52:36.738,S,62.5,LS,675.8,601.6
9ALACHPPUR,170212.0,15:52:37.402,R,58.6,SR,668.0,605.5
9ALACHPPUR,170212.0,15:52:37.699,R,66.4,RR,289.1,230.5
9ALACHPPUR,170212.0,15:52:38.172,L,58.6,RL,480.5,414.1
9ALACHPPUR,170212.0,15:52:38.734,L,62.5,LL,558.6,500.0
9ALACHPPUR,170212.0,15:52:39.391,S,62.5,LS,656.3,593.8
9ALACHPPUR,170212.0,15:52:39.707,R,58.6,SR,320.3,257.8
9ALACHPPUR,170212.0,15:52:40.254,L,66.4,RL,539.1,480.5
9ALACHPPUR,170212.0,15:52:40.469,L,66.4,LL,214.8,148.4
9ALACHPPUR,170212.0,15:52:40.801,L,82.0,LL,316.4,250.0
9ALACHPPUR,170212.0,15:52:41.504,S,62.5,LS,722.7,640.6
9ALACHPPUR,170212.0,15:52:42.059,L,70.3,SL,546.9,484.4
9ALACHPPUR,170212.0,15:52:42.789,R,58.6,LR,742.2,671.9
9ALACHPPUR,170212.0,15:52:43.375,R,62.5,RR,582.0,523.4
9ALACHPPUR,170212.0,15:52:43.875,L,58.6,RL,503.9,441.4
9ALACHPPUR,170212.0,15:52:45.414,R,66.4,RR,636.7,570.3
9ALACHPPUR,170212.0,15:52:46.012,L,54.7,RL,609.4,543.0
9ALACHPPUR,170212.0,15:52:51.473,L,66.4,SL,550.8,484.4
9ALACHPPUR,170212.0,15:52:56.520,L,70.3,SL,550.8,484.4
9ALACHPPUR,170212.0,15:52:56.883,L,62.5,LL,371.1,300.8
9ALACHPPUR,170212.0,15:52:57.086,L,62.5,LL,203.1,140.6
9ALACHPPUR,170212.0,15:52:57.363,L,74.2,LL,265.6,203.1
9ALACHPPUR,170212.0,15:52:57.828,S,62.5,LS,476.6,402.3
9ALACHPPUR,170212.0,15:52:58.285,L,62.5,SL,457.0,394.5
9ALACHPPUR,170212.0,15:52:58.578,R,58.6,LR,296.9,234.4
9ALACHPPUR,170212.0,15:52:58.902,L,62.5,RL,320.3,261.7
9ALACHPPUR,170212.0,15:53:00.840,S,66.4,RS,328.1,261.7
9ALACHPPUR,170212.0,15:53:01.469,L,70.3,SL,625.0,558.6
9ALACHPPUR,170212.0,15:53:03.000,L,43.0,RL,437.5,367.2
9ALACHPPUR,170212.0,15:53:27.797,L,82.0,RL,769.5,695.3
9ALACHPPUR,170212.0,15:53:28.141,L,78.1,LL,347.7,265.6
9ALACHPPUR,170212.0,15:53:28.562,S,70.3,LS,429.7,351.6
9ALACHPPUR,170212.0,15:53:28.922,L,70.3,SL,359.4,289.1
9ALACHPPUR,170212.0,15:53:29.230,R,74.2,LR,304.7,234.4
9ALACHPPUR,170212.0,15:53:29.555,L,66.4,RL,332.0,257.8
9ALACHPPUR,170212.0,15:53:30.973,S,74.2,RS,562.5,492.2
9ALACHPPUR,170212.0,15:53:31.512,R,66.4,SR,546.9,472.7
9ALACHPPUR,170212.0,15:53:31.895,R,62.5,RR,386.7,320.3
9ALACHPPUR,170212.0,15:53:32.383,L,70.3,RL,480.5,418.0
9ALACHPPUR,170212.0,15:53:33.059,L,66.4,LL,679.7,609.4
9ALACHPPUR,170212.0,15:53:35.133,L,58.6,RL,632.8,558.6
9ALACHPPUR,170212.0,15:53:35.445,L,62.5,LL,308.6,250.0
9ALACHPPUR,170212.0,15:53:46.020,L,70.3,LL,285.2,207.0
9ALACHPPUR,170212.0,15:53:46.570,S,70.3,LS,550.8,480.5
9ALACHPPUR,170212.0,15:53:47.012,L,70.3,SL,441.4,371.1
9ALACHPPUR,170212.0,15:53:47.574,L,78.1,LL,554.7,484.4
9ALACHPPUR,170212.0,15:53:47.828,L,66.4,LL,265.6,187.5
9ALACHPPUR,170212.0,15:53:48.281,S,66.4,LS,453.1,386.7
9ALACHPPUR,170212.0,15:53:48.797,L,62.5,SL,519.5,453.1
9ALACHPPUR,170212.0,15:53:49.410,R,58.6,LR,617.2,554.7
9ALACHPPUR,170212.0,15:53:49.664,R,54.7,RR,257.8,199.2
9ALACHPPUR,170212.0,15:53:50.043,R,58.6,RR,375.0,320.3
9ALACHPPUR,170212.0,15:53:50.488,L,58.6,RL,445.3,386.7
9ALACHPPUR,170212.0,15:53:50.836,S,54.7,LS,351.6,293.0
9ALACHPPUR,170212.0,15:53:51.172,L,62.5,SL,328.1,273.4
9ALACHPPUR,170212.0,15:53:51.766,R,62.5,LR,593.8,531.3
9ALACHPPUR,170212.0,15:53:52.125,S,58.6,RS,363.3,300.8
9ALACHPPUR,170212.0,15:53:52.605,L,74.2,SL,464.8,406.3
9ALACHPPUR,170212.0,15:53:52.879,R,54.7,LR,293.0,218.8
9ALACHPPUR,170212.0,15:53:53.207,L,58.6,RL,324.2,269.5
9ALACHPPUR,170212.0,15:53:53.602,S,62.5,LS,390.6,332.0
9ALACHPPUR,170212.0,15:53:54.312,R,58.6,SR,714.8,652.3
9ALACHPPUR,170212.0,15:53:54.656,R,70.3,RR,332.0,273.4
9ALACHPPUR,170212.0,15:53:55.156,R,70.3,RR,500.0,429.7
9ALACHPPUR,170212.0,15:53:56.523,L,62.5,RL,468.8,394.5
9ALACHPPUR,170212.0,15:53:56.941,L,62.5,LL,418.0,355.5
9ALACHPPUR,170212.0,15:53:58.133,R,66.4,RR,382.8,312.5
9ALACHPPUR,170212.0,15:53:58.637,L,66.4,RL,503.9,437.5
9ALACHPPUR,170212.0,15:53:59.215,S,54.7,LS,589.8,523.4
9ALACHPPUR,170212.0,15:53:59.637,L,62.5,SL,414.1,359.4
9ALACHPPUR,170212.0,15:54:00.250,R,62.5,LR,613.3,550.8
9ALACHPPUR,170212.0,15:54:00.699,L,62.5,RL,449.2,386.7
9ALACHPPUR,170212.0,15:54:01.090,S,62.5,LS,390.6,328.1
9ALACHPPUR,170212.0,15:54:01.469,L,58.6,SL,382.8,320.3
9ALACHPPUR,170212.0,15:54:02.117,R,62.5,LR,644.5,585.9
9ALACHPPUR,170212.0,15:54:02.430,S,66.4,RS,308.6,246.1
9ALACHPPUR,170212.0,15:54:02.871,L,58.6,SL,449.2,382.8
9ALACHPPUR,170212.0,15:54:03.105,L,66.4,LL,226.6,168.0
9ALACHPPUR,170212.0,15:54:03.871,S,113.3,LS,718.8,652.3
9ALACHPPUR,170212.0,15:54:04.965,L,70.3,LL,234.4,168.0
9ALACHPPUR,170212.0,15:54:05.719,L,66.4,LL,757.8,687.5
9ALACHPPUR,170212.0,15:54:06.016,L,66.4,LL,296.9,230.5
9ALACHPPUR,170212.0,15:54:06.258,L,66.4,LL,242.2,175.8
9ALACHPPUR,170212.0,15:54:06.629,L,58.6,LL,378.9,312.5
9ALACHPPUR,170212.0,15:54:12.219,L,74.2,RL,418.0,335.9
9ALACHPPUR,170212.0,15:54:15.992,R,58.6,RR,339.8,277.3
9ALACHPPUR,170212.0,15:54:16.574,R,62.5,RR,578.1,519.5
9ALACHPPUR,170212.0,15:54:17.176,L,66.4,RL,597.7,535.2
9ALACHPPUR,170212.0,15:54:17.750,S,58.6,LS,582.0,515.6
9ALACHPPUR,170212.0,15:54:19.883,L,58.6,LL,531.3,472.7
9ALACHPPUR,170212.0,15:54:26.652,R,62.5,LR,582.0,523.4
9ALACHPPUR,170212.0,15:54:28.188,L,70.3,RL,625.0,543.0
9ALACHPPUR,170212.0,15:54:28.582,L,58.6,LL,406.3,335.9
9ALACHPPUR,170212.0,15:54:29.039,L,62.5,LL,453.1,394.5
9ALACHPPUR,170212.0,15:54:29.402,L,58.6,LL,367.2,304.7
9ALACHPPUR,170212.0,15:54:44.578,L,70.3,LL,464.8,378.9
9ALACHPPUR,170212.0,15:54:44.895,L,66.4,LL,320.3,250.0
9ALACHPPUR,170212.0,15:54:45.160,L,74.2,LL,257.8,191.4
9ALACHPPUR,170212.0,15:54:45.895,R,70.3,LR,738.3,664.1
9ALACHPPUR,170212.0,15:54:46.586,R,62.5,RR,699.2,628.9
9ALACHPPUR,170212.0,15:54:46.773,R,66.4,RR,183.6,121.1
9ALACHPPUR,170212.0,15:54:47.184,R,62.5,RR,414.1,347.7
9ALACHPPUR,170212.0,15:54:47.484,S,62.5,RS,300.8,238.3
9ALACHPPUR,170212.0,15:54:47.930,L,58.6,SL,449.2,386.7
9ALACHPPUR,170212.0,15:54:48.641,R,58.6,LR,710.9,652.3
9ALACHPPUR,170212.0,15:54:49.070,L,54.7,RL,433.6,375.0
9ALACHPPUR,170212.0,15:54:49.535,S,46.9,LS,472.7,418.0
9ALACHPPUR,170212.0,15:54:50.066,L,54.7,SL,523.4,476.6
9ALACHPPUR,170212.0,15:54:50.719,L,58.6,LL,648.4,593.8
9ALACHPPUR,170212.0,15:54:51.121,L,54.7,LL,406.3,347.7
9ALACHPPUR,170212.0,15:54:51.895,R,66.4,LR,761.7,707.0
9ALACHPPUR,170212.0,15:54:52.406,R,62.5,RR,515.6,449.2
9ALACHPPUR,170212.0,15:54:52.836,R,54.7,RR,437.5,375.0
9ALACHPPUR,170212.0,15:54:53.207,L,50.8,RL,375.0,320.3
9ALACHPPUR,170212.0,15:55:05.355,L,66.4,LL,566.4,507.8
9ALACHPPUR,170212.0,15:55:07.602,L,54.7,LL,347.7,281.3
9ALACHPPUR,170212.0,15:55:11.582,S,54.7,RS,441.4,378.9
9ALACHPPUR,170212.0,15:55:12.281,L,62.5,SL,691.4,636.7
9ALACHPPUR,170212.0,15:55:12.547,L,62.5,LL,265.6,203.1
9ALACHPPUR,170212.0,15:55:16.461,S,46.9,RS,531.3,480.5
9ALACHPPUR,170212.0,15:55:19.750,R,58.6,LR,773.4,710.9
9ALACHPPUR,170212.0,15:55:20.180,L,58.6,RL,429.7,371.1
9ALACHPPUR,170212.0,15:55:20.594,S,50.8,LS,421.9,363.3
9ALACHPPUR,170212.0,15:55:21.039,L,54.7,SL,441.4,390.6
9ALACHPPUR,170212.0,15:55:27.277,L,62.5,RL,484.4,418.0
9ALACHPPUR,170212.0,15:55:27.746,L,62.5,LL,468.8,406.3
9ALACHPPUR,170212.0,15:55:32.855,R,70.3,LR,710.9,652.3
9ALACHPPUR,170212.0,15:55:33.246,R,70.3,RR,390.6,320.3
9ALACHPPUR,170212.0,15:55:33.629,S,58.6,RS,394.5,324.2
9ALACHPPUR,170212.0,15:55:34.199,L,78.1,SL,550.8,492.2
9ALACHPPUR,170212.0,15:55:34.488,L,66.4,LL,300.8,222.7
9ALACHPPUR,170212.0,15:55:34.996,S,66.4,LS,507.8,441.4
9ALACHPPUR,170212.0,15:55:36.238,L,54.7,LL,359.4,293.0
9ALACHPPUR,170212.0,15:55:36.770,L,62.5,LL,523.4,468.8
9ALACHPPUR,170212.0,15:55:37.406,S,62.5,LS,636.7,574.2
9ALACHPPUR,170212.0,15:55:37.984,R,54.7,SR,585.9,523.4
9ALACHPPUR,170212.0,15:55:38.754,R,62.5,RR,761.7,707.0
9ALACHPPUR,170212.0,15:55:39.289,R,54.7,RR,543.0,480.5
9ALACHPPUR,170212.0,15:55:39.812,L,58.6,RL,519.5,464.8
9ALACHPPUR,170212.0,15:55:43.867,L,54.7,SL,406.3,351.6
9ALACHPPUR,170212.0,15:55:44.617,R,54.7,LR,750.0,695.3
9ALACHPPUR,170212.0,15:55:47.277,R,62.5,LR,695.3,640.6
9ALACHPPUR,170212.0,15:55:47.703,S,62.5,RS,425.8,363.3
9ALACHPPUR,170212.0,15:55:48.277,L,58.6,SL,578.1,515.6
9ALACHPPUR,170212.0,15:55:49.406,R,58.6,RR,320.3,261.7
9ALACHPPUR,170212.0,15:55:49.883,R,58.6,RR,476.6,418.0
9ALACHPPUR,170212.0,15:55:50.633,L,66.4,RL,742.2,683.6
9ALACHPPUR,170212.0,15:55:51.074,S,58.6,LS,449.2,382.8
9ALACHPPUR,170212.0,15:55:51.480,L,58.6,SL,406.3,347.7
9ALACHPPUR,170212.0,15:55:51.887,L,62.5,LL,402.3,343.8
9ALACHPPUR,170212.0,15:55:52.301,S,66.4,LS,410.2,347.7
9ALACHPPUR,170212.0,15:55:52.691,L,62.5,SL,394.5,328.1
9ALACHPPUR,170212.0,15:55:53.047,L,58.6,LL,359.4,296.9
9ALACHPPUR,170212.0,15:55:54.680,L,58.6,RL,414.1,351.6
9ALACHPPUR,170212.0,15:55:55.984,R,58.6,RR,500.0,429.7
9ALACHPPUR,170212.0,15:55:56.621,S,66.4,RS,628.9,570.3
9ALACHPPUR,170212.0,15:55:58.129,L,62.5,LL,343.8,281.3
9ALACHPPUR,170212.0,15:55:58.766,L,54.7,LL,644.5,582.0
9ALACHPPUR,170212.0,15:56:00.129,R,54.7,RR,500.0,437.5
9ALACHPPUR,170212.0,15:56:53.926,R,82.0,LR,496.1,394.5
9ALACHPPUR,170212.0,15:56:54.422,L,66.4,RL,511.7,429.7
9ALACHPPUR,170212.0,15:56:55.988,R,66.4,RR,699.2,632.8
9ALACHPPUR,170212.0,15:56:57.355,R,58.6,SR,406.3,335.9
9ALACHPPUR,170212.0,15:56:58.176,R,82.0,RR,796.9,738.3
9ALACHPPUR,170212.0,15:56:58.543,R,74.2,RR,375.0,293.0
9ALACHPPUR,170212.0,16:12:08.734,R,105.5,RR,781.3,691.4
9ALACHPPUR,170213.0,11:10:43.387,L,66.4,LL,316.4,242.2
9ALACHPPUR,170213.0,11:10:44.129,S,89.8,LS,718.8,652.3
9ALACHPPUR,170213.0,11:10:44.715,R,70.3,SR,605.5,515.6
9ALACHPPUR,170213.0,11:10:45.395,R,78.1,RR,671.9,601.6
9ALACHPPUR,170213.0,11:10:45.777,R,70.3,RR,390.6,312.5
9ALACHPPUR,170213.0,11:10:46.367,S,66.4,RS,593.8,523.4
9ALACHPPUR,170213.0,11:10:46.977,L,74.2,SL,601.6,535.2
9ALACHPPUR,170213.0,11:10:50.023,R,82.0,RR,273.4,222.7
9ALACHPPUR,170213.0,11:10:50.391,R,74.2,RR,375.0,293.0
9ALACHPPUR,170213.0,11:10:51.668,L,62.5,LL,382.8,316.4
9ALACHPPUR,170213.0,11:10:52.027,L,70.3,LL,351.6,289.1
9ALACHPPUR,170213.0,11:10:53.621,L,50.8,SL,621.1,554.7
9ALACHPPUR,170213.0,11:10:54.301,R,74.2,LR,656.3,605.5
9ALACHPPUR,170213.0,11:10:54.789,S,66.4,RS,496.1,421.9
9ALACHPPUR,170213.0,11:10:55.523,L,74.2,SL,726.6,660.2
9ALACHPPUR,170213.0,11:10:55.871,L,70.3,LL,351.6,277.3
9ALACHPPUR,170213.0,11:10:56.539,L,74.2,LL,664.1,593.8
9ALACHPPUR,170213.0,11:10:57.055,S,74.2,LS,515.6,441.4
9ALACHPPUR,170213.0,11:10:57.500,L,62.5,SL,457.0,382.8
9ALACHPPUR,170213.0,11:10:57.879,R,74.2,LR,367.2,304.7
9ALACHPPUR,170213.0,11:10:58.336,L,70.3,RL,460.9,386.7
9ALACHPPUR,170213.0,11:10:59.055,L,74.2,LL,714.8,644.5
9ALACHPPUR,170213.0,11:11:10.656,R,66.4,RR,414.1,328.1
9ALACHPPUR,170213.0,11:11:11.977,R,74.2,SR,511.7,453.1
9ALACHPPUR,170213.0,11:11:12.477,R,62.5,RR,511.7,437.5
9ALACHPPUR,170213.0,11:11:13.051,L,58.6,RL,578.1,515.6
9ALACHPPUR,170213.0,11:11:13.734,L,70.3,LL,671.9,613.3
9ALACHPPUR,170213.0,11:11:16.547,L,62.5,LL,453.1,378.9
9ALACHPPUR,170213.0,11:11:17.250,S,62.5,LS,703.1,640.6
9ALACHPPUR,170213.0,11:11:17.793,L,74.2,SL,531.3,468.8
9ALACHPPUR,170213.0,11:11:18.113,L,78.1,LL,316.4,242.2
9ALACHPPUR,170213.0,11:11:18.430,L,78.1,LL,316.4,238.3
9ALACHPPUR,170213.0,11:11:18.738,L,62.5,LL,324.2,246.1
9ALACHPPUR,170213.0,11:11:20.664,R,62.5,LR,640.6,574.2
9ALACHPPUR,170213.0,11:11:21.191,R,62.5,RR,527.3,464.8
9ALACHPPUR,170213.0,11:11:21.570,L,58.6,RL,382.8,320.3
9ALACHPPUR,170213.0,11:11:22.008,S,62.5,LS,433.6,375.0
9ALACHPPUR,170213.0,11:11:22.574,R,62.5,SR,566.4,503.9
9ALACHPPUR,170213.0,11:11:23.262,R,70.3,RR,679.7,617.2
9ALACHPPUR,170213.0,11:11:23.629,R,66.4,RR,371.1,300.8
9ALACHPPUR,170213.0,11:11:24.105,L,66.4,RL,476.6,410.2
9ALACHPPUR,170213.0,11:11:24.652,L,58.6,LL,554.7,488.3
9ALACHPPUR,170213.0,11:11:28.172,S,70.3,LS,468.8,410.2
9ALACHPPUR,170213.0,11:11:28.605,L,58.6,SL,445.3,375.0
9ALACHPPUR,170213.0,11:11:30.156,L,74.2,RL,683.6,601.6
9ALACHPPUR,170213.0,11:11:30.887,S,66.4,LS,738.3,664.1
9ALACHPPUR,170213.0,11:11:31.336,R,58.6,SR,457.0,390.6
9ALACHPPUR,170213.0,11:11:32.055,R,62.5,RR,714.8,656.3
9ALACHPPUR,170213.0,11:11:32.645,L,101.6,RL,550.8,488.3
9ALACHPPUR,170213.0,11:11:33.125,S,66.4,LS,515.6,414.1
9ALACHPPUR,170213.0,11:11:33.664,L,58.6,SL,546.9,480.5
9ALACHPPUR,170213.0,11:11:34.043,L,58.6,LL,378.9,320.3
9ALACHPPUR,170213.0,11:11:36.195,R,78.1,RR,671.9,609.4
9ALACHPPUR,170213.0,11:11:36.750,S,70.3,RS,562.5,484.4
9ALACHPPUR,170213.0,11:11:37.289,R,58.6,SR,550.8,480.5
9ALACHPPUR,170213.0,11:11:38.059,R,66.4,RR,761.7,703.1
9ALACHPPUR,170213.0,11:11:38.492,R,62.5,RR,437.5,371.1
9ALACHPPUR,170213.0,11:11:40.742,L,62.5,LL,449.2,382.8
9ALACHPPUR,170213.0,11:11:42.039,L,62.5,SL,472.7,414.1
9ALACHPPUR,170213.0,11:11:43.535,R,70.3,RR,621.1,562.5
9ALACHPPUR,170213.0,11:11:44.203,L,66.4,RL,671.9,601.6
9ALACHPPUR,170213.0,11:11:49.180,S,58.6,RS,449.2,394.5
9ALACHPPUR,170213.0,11:11:49.820,L,66.4,SL,632.8,574.2
9ALACHPPUR,170213.0,11:11:50.215,R,58.6,LR,402.3,335.9
9ALACHPPUR,170213.0,11:11:50.680,L,62.5,RL,460.9,402.3
9ALACHPPUR,170213.0,11:11:55.180,R,62.5,SR,609.4,546.9
9ALACHPPUR,170213.0,11:11:55.906,R,70.3,RR,718.8,656.3
9ALACHPPUR,170213.0,11:12:00.758,S,70.3,RS,675.8,609.4
9ALACHPPUR,170213.0,11:12:01.184,R,70.3,SR,425.8,355.5
9ALACHPPUR,170213.0,11:12:01.762,R,58.6,RR,589.8,519.5
9ALACHPPUR,170213.0,11:12:02.137,R,58.6,RR,375.0,316.4
9ALACHPPUR,170213.0,11:12:02.777,S,66.4,RS,632.8,574.2
9ALACHPPUR,170213.0,11:12:03.355,L,70.3,SL,574.2,507.8
9ALACHPPUR,170213.0,11:12:03.676,L,62.5,LL,328.1,257.8
9ALACHPPUR,170213.0,11:12:03.988,L,74.2,LL,300.8,238.3
9ALACHPPUR,170213.0,11:12:05.469,L,70.3,LL,296.9,230.5
9ALACHPPUR,170213.0,11:12:06.148,L,70.3,LL,679.7,609.4
9ALACHPPUR,170213.0,11:12:06.520,L,70.3,LL,371.1,300.8
9ALACHPPUR,170213.0,11:12:07.238,S,58.6,LS,730.5,660.2
9ALACHPPUR,170213.0,11:12:07.938,R,74.2,SR,683.6,625.0
9ALACHPPUR,170213.0,11:12:08.430,L,66.4,RL,500.0,425.8
9ALACHPPUR,170213.0,11:12:10.770,S,62.5,RS,386.7,328.1
9ALACHPPUR,170213.0,11:12:12.586,R,70.3,RR,363.3,300.8
9ALACHPPUR,170213.0,11:12:12.902,R,66.4,RR,320.3,250.0
9ALACHPPUR,170213.0,11:12:13.246,R,70.3,RR,339.8,273.4
9ALACHPPUR,170213.0,11:12:13.852,L,66.4,RL,609.4,539.1
9ALACHPPUR,170213.0,11:12:14.645,S,66.4,LS,793.0,726.6
9ALACHPPUR,170213.0,11:12:15.113,L,58.6,SL,476.6,410.2
9ALACHPPUR,170213.0,11:12:15.859,R,66.4,LR,738.3,679.7
9ALACHPPUR,170213.0,11:12:16.129,R,58.6,RR,277.3,210.9
9ALACHPPUR,170213.0,11:12:16.684,L,58.6,RL,554.7,496.1
9ALACHPPUR,170213.0,11:12:17.367,S,66.4,LS,675.8,617.2
9ALACHPPUR,170213.0,11:12:17.902,L,54.7,SL,546.9,480.5
9ALACHPPUR,170213.0,11:12:18.473,R,62.5,LR,562.5,507.8
9ALACHPPUR,170213.0,11:12:19.020,S,58.6,RS,550.8,488.3
9ALACHPPUR,170213.0,11:12:19.582,R,70.3,SR,550.8,492.2
9ALACHPPUR,170213.0,11:12:20.297,L,74.2,RL,710.9,640.6
