User_ID,Date,Timestamp,Hand,Hold_Time,Direction,Latency_Time,Flight_Time
9IA0YLPHU2,160905.0,10:59:06.785,L,218.8,LL,312.5,156.3
9IA0YLPHU2,160905.0,10:59:07.145,L,125.0,LL,453.1,234.4
9IA0YLPHU2,160905.0,10:59:11.293,R,93.8,LR,390.6,281.3
9IA0YLPHU2,160905.0,10:59:11.496,R,62.5,RR,234.4,140.6
9IA0YLPHU2,160905.0,11:15:02.270,L,109.4,RL,375.0,218.8
9IA0YLPHU2,160905.0,11:15:02.738,L,140.6,LL,437.5,328.1
9IA0YLPHU2,160905.0,11:15:03.020,L,78.1,LL,343.8,203.1
9IA0YLPHU2,160905.0,11:15:03.270,R,140.6,LR,187.5,109.4
9IA0YLPHU2,160905.0,11:15:03.531,R,125.0,RR,277.3,136.7
9IA0YLPHU2,160905.0,11:15:04.000,R,109.4,RR,484.4,359.4
9IA0YLPHU2,160905.0,11:15:04.281,R,109.4,RR,281.3,171.9
9IA0YLPHU2,160905.0,11:15:04.453,L,109.4,RL,171.9,62.5
9IA0YLPHU2,160905.0,11:15:10.336,L,125.0,RL,296.9,171.9
9IA0YLPHU2,160905.0,11:15:10.645,L,121.1,LL,312.5,187.5
9IA0YLPHU2,160905.0,11:15:10.895,R,136.7,LR,234.4,113.3
9IA0YLPHU2,160905.0,11:15:11.316,L,125.0,RL,433.6,296.9
9IA0YLPHU2,160905.0,11:15:11.473,R,93.8,LR,187.5,62.5
9IA0YLPHU2,160905.0,11:15:11.879,R,46.9,RR,453.1,359.4
9IA0YLPHU2,160905.0,11:17:04.629,S,93.8,LS,296.9,183.6
9IA0YLPHU2,160905.0,11:17:07.938,R,156.3,SR,109.4,375.0
9IA0YLPHU2,160905.0,11:23:45.844,L,89.8,LL,382.8,238.3
9IA0YLPHU2,160905.0,11:23:48.352,R,140.6,RR,293.0,89.8
9IA0YLPHU2,160905.0,11:23:48.641,R,148.4,RR,281.3,140.6
