User_ID,Date,Timestamp,Hand,Hold_Time,Direction,Latency_Time,Flight_Time
ACSKCOJC06,170210.0,09:09:37.672,L,179.7,LL,250.0,179.7
ACSKCOJC06,170210.0,09:09:37.852,R,70.3,LR,289.1,109.4
ACSKCOJC06,170210.0,09:09:38.441,R,70.3,RR,589.8,519.5
ACSKCOJC06,170210.0,09:09:38.934,S,89.8,RS,472.7,402.3
ACSKCOJC06,170210.0,09:09:52.344,R,85.9,LR,351.6,253.9
ACSKCOJC06,170210.0,09:09:52.676,L,89.8,RL,328.1,242.2
ACSKCOJC06,170210.0,09:09:53.160,L,97.7,LL,476.6,386.7
ACSKCOJC06,170210.0,09:09:53.645,L,97.7,LL,484.4,386.7
ACSKCOJC06,170210.0,09:09:53.961,L,113.3,LL,300.8,203.1
ACSKCOJC06,170210.0,09:09:54.289,R,97.7,LR,343.8,230.5
ACSKCOJC06,170210.0,09:09:54.746,L,136.7,RL,418.0,320.3
ACSKCOJC06,170210.0,09:09:55.062,R,85.9,LR,367.2,230.5
ACSKCOJC06,170210.0,09:09:55.492,L,144.5,RL,371.1,285.2
ACSKCOJC06,170210.0,09:16:10.719,L,70.3,LL,265.6,168.0
ACSKCOJC06,170210.0,09:32:25.438,L,101.6,LL,500.0,418.0
ACSKCOJC06,170210.0,09:32:25.688,R,19.5,LR,31.3,230.5
ACSKCOJC06,170210.0,09:32:25.797,L,128.9,RL,31.3,230.5
ACSKCOJC06,170210.0,09:32:26.117,R,82.0,LR,367.2,238.3
ACSKCOJC06,170210.0,09:32:26.379,R,113.3,RR,230.5,148.4
ACSKCOJC06,170210.0,09:32:26.727,L,199.2,RL,261.7,148.4
ACSKCOJC06,170210.0,09:32:29.328,L,82.0,RL,679.7,605.5
ACSKCOJC06,170210.0,09:32:29.617,L,82.0,LL,289.1,207.0
ACSKCOJC06,170210.0,09:32:29.797,L,89.8,LL,171.9,89.8
ACSKCOJC06,170210.0,09:32:29.996,R,70.3,LR,218.8,128.9
ACSKCOJC06,170210.0,09:32:30.277,S,82.0,RS,269.5,199.2
ACSKCOJC06,170210.0,09:32:30.867,R,70.3,SR,601.6,519.5
ACSKCOJC06,170210.0,09:32:31.129,R,62.5,RR,269.5,199.2
ACSKCOJC06,170210.0,09:32:31.398,R,89.8,RR,242.2,179.7
ACSKCOJC06,170210.0,09:32:31.734,L,148.4,RL,277.3,187.5
ACSKCOJC06,170210.0,09:32:32.059,S,82.0,LS,390.6,242.2
ACSKCOJC06,170210.0,09:32:37.082,L,148.4,SL,410.2,320.3
ACSKCOJC06,170210.0,09:32:37.332,R,78.1,LR,320.3,171.9
ACSKCOJC06,170210.0,09:32:37.633,R,58.6,RR,320.3,242.2
ACSKCOJC06,170210.0,09:32:37.773,R,39.1,RR,160.2,101.6
ACSKCOJC06,170210.0,09:32:38.023,R,89.8,RR,199.2,160.2
ACSKCOJC06,170210.0,09:32:38.266,R,50.8,RR,281.3,191.4
ACSKCOJC06,170210.0,09:32:38.504,S,70.3,RS,218.8,168.0
ACSKCOJC06,170210.0,09:32:38.895,L,121.1,SL,339.8,269.5
ACSKCOJC06,170210.0,09:32:39.223,L,128.9,LL,320.3,199.2
ACSKCOJC06,170210.0,09:32:39.402,S,89.8,LS,218.8,89.8
ACSKCOJC06,170210.0,09:32:39.914,L,160.2,SL,441.4,351.6
ACSKCOJC06,170210.0,09:32:40.055,R,89.8,LR,210.9,50.8
ACSKCOJC06,170210.0,09:32:40.574,L,109.4,RL,500.0,410.2
ACSKCOJC06,170210.0,09:32:40.871,R,117.2,LR,289.1,179.7
ACSKCOJC06,170210.0,09:32:41.281,L,27.3,RL,281.3,382.8
ACSKCOJC06,170210.0,09:32:41.414,L,160.2,LL,281.3,382.8
ACSKCOJC06,170210.0,09:32:41.625,S,97.7,LS,269.5,109.4
ACSKCOJC06,170210.0,09:32:43.414,L,152.3,RL,148.4,70.3
ACSKCOJC06,170210.0,09:32:43.652,S,78.1,LS,312.5,160.2
ACSKCOJC06,170210.0,09:49:25.773,L,101.6,RL,269.5,132.8
ACSKCOJC06,170210.0,09:49:26.094,R,62.5,LR,359.4,257.8
ACSKCOJC06,170210.0,09:49:26.594,R,121.1,RR,441.4,378.9
ACSKCOJC06,170211.0,07:54:23.383,R,80.1,LR,419.9,281.3
ACSKCOJC06,170211.0,07:54:24.004,R,93.8,RR,607.4,527.3
ACSKCOJC06,170211.0,07:54:24.500,R,60.5,RR,529.3,435.5
ACSKCOJC06,170211.0,07:54:25.152,R,58.6,RR,654.3,593.8
ACSKCOJC06,170211.0,07:54:25.402,R,72.3,RR,236.3,177.7
ACSKCOJC06,170211.0,07:54:25.793,R,82.0,RR,380.9,308.6
ACSKCOJC06,170211.0,07:54:26.311,L,138.7,RL,460.9,378.9
ACSKCOJC06,170211.0,07:54:26.760,S,39.1,LS,548.8,410.2
ACSKCOJC06,170211.0,07:54:28.631,L,160.2,RL,550.8,459.0
ACSKCOJC06,170211.0,07:54:29.045,S,121.1,LS,453.1,293.0
ACSKCOJC06,170211.0,07:54:33.086,S,132.8,RS,625.0,445.3
ACSKCOJC06,170211.0,07:54:35.174,L,136.7,LL,543.0,455.1
ACSKCOJC06,170211.0,07:54:35.717,R,72.3,LR,607.4,470.7
ACSKCOJC06,170211.0,07:54:36.105,L,99.6,RL,361.3,289.1
ACSKCOJC06,170211.0,07:54:36.467,R,80.1,LR,380.9,281.3
ACSKCOJC06,170211.0,07:54:36.814,L,68.4,RL,359.4,279.3
ACSKCOJC06,170211.0,07:54:37.184,L,148.4,LL,289.1,220.7
ACSKCOJC06,170211.0,07:54:37.527,S,130.9,LS,361.3,212.9
ACSKCOJC06,170211.0,07:54:38.967,R,91.8,RR,369.1,289.1
ACSKCOJC06,170211.0,07:54:39.256,S,91.8,RS,289.1,197.3
ACSKCOJC06,170211.0,07:54:43.193,R,46.9,LR,281.3,121.1
ACSKCOJC06,170211.0,07:54:43.758,L,154.3,RL,457.0,410.2
ACSKCOJC06,170211.0,07:54:43.977,S,99.6,LS,273.4,119.1
ACSKCOJC06,170211.0,07:54:52.027,L,87.9,LL,482.4,380.9
ACSKCOJC06,170211.0,07:54:52.316,L,54.7,LL,322.3,234.4
ACSKCOJC06,170211.0,07:54:52.840,L,111.3,LL,466.8,412.1
ACSKCOJC06,170211.0,07:54:53.209,R,68.4,LR,412.1,300.8
ACSKCOJC06,170211.0,07:54:53.639,R,58.6,RR,439.5,371.1
ACSKCOJC06,170211.0,07:54:56.312,S,87.9,RS,279.3,218.8
ACSKCOJC06,170211.0,07:54:58.062,L,154.3,RL,375.0,306.6
ACSKCOJC06,170211.0,07:55:08.543,R,64.5,LR,507.8,359.4
ACSKCOJC06,170211.0,07:55:08.713,R,31.3,RR,201.2,136.7
ACSKCOJC06,170211.0,07:55:09.109,L,87.9,RL,341.8,310.5
ACSKCOJC06,170211.0,07:55:09.871,S,101.6,LS,748.0,660.2
ACSKCOJC06,170211.0,07:55:11.150,L,50.8,LL,357.4,300.8
ACSKCOJC06,170211.0,07:55:11.682,L,123.0,LL,459.0,408.2
ACSKCOJC06,170211.0,07:55:12.260,S,87.9,LS,613.3,490.2
ACSKCOJC06,170211.0,07:55:13.820,R,68.4,RR,679.7,599.6
ACSKCOJC06,170211.0,07:55:14.340,S,80.1,RS,507.8,439.5
ACSKCOJC06,170211.0,07:55:16.988,L,107.4,LL,720.7,611.3
ACSKCOJC06,170211.0,07:55:19.996,L,111.3,RL,709.0,587.9
ACSKCOJC06,170211.0,07:55:20.518,L,113.3,LL,519.5,408.2
ACSKCOJC06,170211.0,07:55:22.193,L,99.6,LL,345.7,277.3
ACSKCOJC06,170211.0,07:55:22.758,R,70.3,LR,593.8,494.1
ACSKCOJC06,170211.0,07:55:23.445,S,101.6,RS,656.3,585.9
ACSKCOJC06,170211.0,07:55:26.695,R,80.1,RR,388.7,291.0
ACSKCOJC06,170211.0,07:55:27.115,L,150.4,RL,349.6,269.5
ACSKCOJC06,170211.0,07:55:27.404,S,117.2,LS,322.3,171.9
ACSKCOJC06,170211.0,07:55:29.127,L,87.9,RL,273.4,179.7
ACSKCOJC06,170211.0,07:55:29.799,L,169.9,LL,589.8,502.0
ACSKCOJC06,170211.0,07:55:30.246,L,140.6,LL,476.6,306.6
ACSKCOJC06,170211.0,08:00:36.783,L,144.5,LL,293.0,127.0
ACSKCOJC06,170211.0,08:05:34.068,R,99.6,RR,234.4,156.3
ACSKCOJC06,170211.0,08:05:35.271,L,164.1,RL,324.2,230.5
ACSKCOJC06,170211.0,08:05:35.484,S,91.8,LS,285.2,121.1
ACSKCOJC06,170211.0,08:05:36.771,L,84.0,LL,232.4,164.1
ACSKCOJC06,170211.0,08:05:37.080,R,46.9,LR,345.7,261.7
ACSKCOJC06,170211.0,08:05:37.346,R,74.2,RR,238.3,191.4
ACSKCOJC06,170211.0,08:05:37.805,L,193.4,RL,339.8,265.6
ACSKCOJC06,170211.0,08:05:38.023,S,89.8,LS,322.3,128.9
ACSKCOJC06,170211.0,08:05:40.498,R,60.5,RR,337.9,246.1
ACSKCOJC06,170211.0,08:05:41.033,R,48.8,RR,546.9,486.3
ACSKCOJC06,170211.0,08:05:41.656,L,154.3,RL,517.6,468.8
ACSKCOJC06,170211.0,08:05:42.176,R,136.7,LR,537.1,382.8
ACSKCOJC06,170211.0,08:05:42.516,R,91.8,RR,384.8,248.0
ACSKCOJC06,170211.0,08:05:42.768,L,144.5,RL,199.2,107.4
ACSKCOJC06,170211.0,08:12:20.525,L,187.5,LL,48.8,41.0
ACSKCOJC06,170211.0,08:12:20.578,L,41.0,LL,199.2,11.7
ACSKCOJC06,170211.0,08:12:21.297,L,29.3,LL,33.2,689.5
ACSKCOJC06,170211.0,08:19:50.850,L,115.2,LL,513.7,380.9
ACSKCOJC06,170211.0,08:19:51.518,R,132.8,LR,650.4,535.2
ACSKCOJC06,170211.0,08:19:54.977,R,68.4,LR,371.1,218.8
ACSKCOJC06,170211.0,08:19:55.521,L,113.3,RL,500.0,431.6
ACSKCOJC06,170211.0,08:19:55.979,S,99.6,LS,470.7,357.4
ACSKCOJC06,170211.0,08:20:00.912,R,99.6,LR,380.9,232.4
ACSKCOJC06,170211.0,08:20:01.338,R,93.8,RR,431.6,332.0
ACSKCOJC06,170211.0,08:20:01.639,S,56.6,RS,337.9,244.1
ACSKCOJC06,170211.0,08:20:08.545,R,60.5,RR,285.2,216.8
ACSKCOJC06,170211.0,08:20:09.002,L,123.0,RL,394.5,334.0
ACSKCOJC06,170211.0,08:23:03.348,L,101.6,LL,546.9,466.8
ACSKCOJC06,170211.0,08:23:03.600,R,101.6,LR,252.0,150.4
ACSKCOJC06,170211.0,08:23:03.852,R,121.1,RR,232.4,130.9
ACSKCOJC06,170211.0,08:23:04.100,S,68.4,RS,300.8,179.7
ACSKCOJC06,170211.0,08:23:04.518,R,101.6,SR,384.8,316.4
ACSKCOJC06,170211.0,08:23:04.811,L,130.9,RL,263.7,162.1
ACSKCOJC06,170211.0,08:23:05.457,S,99.6,LS,677.7,546.9
ACSKCOJC06,170211.0,08:23:19.102,L,123.0,RL,443.4,298.8
ACSKCOJC06,170211.0,08:23:19.732,L,146.5,LL,607.4,484.4
ACSKCOJC06,170211.0,08:23:20.348,L,150.4,LL,611.3,464.8
ACSKCOJC06,170211.0,08:23:20.850,L,164.1,LL,488.3,337.9
ACSKCOJC06,170211.0,08:23:21.279,R,140.6,LR,453.1,289.1
ACSKCOJC06,170211.0,08:23:21.738,L,181.6,RL,418.0,277.3
ACSKCOJC06,170211.0,08:23:22.305,R,148.4,LR,599.6,418.0
ACSKCOJC06,170211.0,08:23:22.789,L,169.9,RL,462.9,314.5
ACSKCOJC06,170211.0,09:01:33.451,R,56.6,RR,363.3,261.7
ACSKCOJC06,170211.0,09:01:33.812,L,119.1,RL,298.8,242.2
ACSKCOJC06,170211.0,09:01:38.711,L,11.7,LL,187.5,289.1
ACSKCOJC06,170211.0,09:01:38.760,R,60.5,LR,187.5,289.1
ACSKCOJC06,170211.0,09:01:38.959,R,99.6,RR,160.2,99.6
ACSKCOJC06,170211.0,09:01:39.309,S,87.9,RS,361.3,261.7
ACSKCOJC06,170211.0,09:02:07.385,R,72.3,LR,394.5,263.7
ACSKCOJC06,170211.0,09:02:07.732,L,136.7,RL,283.2,210.9
ACSKCOJC06,170211.0,09:02:08.332,L,150.4,LL,585.9,449.2
ACSKCOJC06,170211.0,09:02:08.885,L,115.2,LL,587.9,437.5
ACSKCOJC06,170211.0,09:02:09.248,L,130.9,LL,347.7,232.4
ACSKCOJC06,170211.0,09:02:09.701,R,105.5,LR,478.5,347.7
ACSKCOJC06,170211.0,09:02:10.418,L,121.1,RL,701.2,595.7
ACSKCOJC06,170211.0,09:02:11.000,R,80.1,LR,623.0,502.0
ACSKCOJC06,170211.0,09:02:11.420,L,138.7,RL,361.3,281.3
ACSKCOJC06,170211.0,09:08:43.156,R,19.5,LR,421.9,351.6
ACSKCOJC06,170211.0,09:08:43.438,L,93.8,RL,207.0,187.5
ACSKCOJC06,170211.0,09:08:43.746,L,70.3,LL,332.0,238.3
ACSKCOJC06,170211.0,09:08:44.113,L,148.4,LL,289.1,218.8
ACSKCOJC06,170211.0,09:08:44.406,S,70.3,LS,371.1,222.7
ACSKCOJC06,170211.0,09:08:45.191,L,136.7,SL,718.8,648.4
ACSKCOJC06,170211.0,09:08:45.312,R,109.4,LR,148.4,11.7
ACSKCOJC06,170211.0,09:08:45.594,S,82.0,RS,308.6,199.2
ACSKCOJC06,170211.0,09:08:47.637,R,50.8,LR,300.8,136.7
ACSKCOJC06,170211.0,09:08:47.895,R,70.3,RR,238.3,187.5
ACSKCOJC06,170211.0,09:09:00.539,R,62.5,LR,261.7,144.5
ACSKCOJC06,170211.0,09:09:00.820,R,58.6,RR,285.2,222.7
ACSKCOJC06,170211.0,09:09:01.352,S,70.3,RS,519.5,460.9
ACSKCOJC06,170211.0,09:09:05.906,S,82.0,LS,199.2,82.0
ACSKCOJC06,170211.0,09:09:06.637,L,78.1,SL,734.4,652.3
ACSKCOJC06,170211.0,09:09:06.977,L,85.9,LL,332.0,253.9
ACSKCOJC06,170211.0,09:09:07.430,L,136.7,LL,402.3,316.4
ACSKCOJC06,170211.0,09:09:07.645,R,70.3,LR,281.3,144.5
ACSKCOJC06,170211.0,09:09:08.027,R,62.5,RR,390.6,320.3
ACSKCOJC06,170211.0,09:09:08.812,S,101.6,RS,746.1,683.6
ACSKCOJC06,170211.0,09:09:10.203,L,46.9,LL,359.4,281.3
ACSKCOJC06,170211.0,09:09:10.395,L,62.5,LL,175.8,128.9
ACSKCOJC06,170211.0,09:09:10.766,L,117.2,LL,316.4,253.9
ACSKCOJC06,170211.0,09:09:11.133,R,101.6,LR,382.8,265.6
ACSKCOJC06,170211.0,09:09:11.734,L,128.9,RL,574.2,472.7
ACSKCOJC06,170211.0,09:09:12.074,R,97.7,LR,371.1,242.2
ACSKCOJC06,170211.0,09:09:12.555,L,121.1,RL,457.0,359.4
ACSKCOJC06,170211.0,09:09:12.855,S,109.4,LS,308.6,187.5
ACSKCOJC06,170211.0,09:09:14.062,R,109.4,LR,199.2,43.0
ACSKCOJC06,170211.0,09:09:14.336,L,132.8,RL,250.0,140.6
ACSKCOJC06,170211.0,09:09:14.566,S,93.8,LS,269.5,136.7
ACSKCOJC06,170211.0,09:09:14.992,L,183.6,SL,335.9,242.2
ACSKCOJC06,170211.0,09:09:15.102,S,46.9,LS,246.1,62.5
ACSKCOJC06,170211.0,09:09:15.887,L,117.2,SL,714.8,668.0
ACSKCOJC06,170211.0,09:09:16.227,L,62.5,LL,23.4,277.3
ACSKCOJC06,170211.0,09:09:16.234,L,70.3,LL,23.4,277.3
ACSKCOJC06,170211.0,09:09:16.453,L,113.3,LL,175.8,105.5
ACSKCOJC06,170211.0,09:09:16.738,R,82.0,LR,316.4,203.1
ACSKCOJC06,170211.0,09:09:18.676,R,70.3,LR,164.1,11.7
ACSKCOJC06,170211.0,09:09:20.551,R,58.6,LR,449.2,289.1
ACSKCOJC06,170211.0,09:09:21.215,L,132.8,RL,589.8,531.3
ACSKCOJC06,170211.0,09:16:18.852,L,97.7,LL,285.2,199.2
ACSKCOJC06,170211.0,09:16:19.574,L,183.6,LL,636.7,539.1
ACSKCOJC06,170211.0,09:16:20.012,R,140.6,LR,480.5,296.9
ACSKCOJC06,170211.0,09:16:20.320,R,50.8,RR,398.4,257.8
ACSKCOJC06,170211.0,09:16:20.684,S,74.2,RS,339.8,289.1
ACSKCOJC06,170211.0,09:16:22.426,L,66.4,LL,363.3,234.4
ACSKCOJC06,170211.0,09:16:22.645,L,74.2,LL,210.9,144.5
ACSKCOJC06,170211.0,09:16:23.023,L,152.3,LL,300.8,226.6
ACSKCOJC06,170211.0,09:16:23.734,R,113.3,LR,750.0,597.7
ACSKCOJC06,170211.0,09:16:24.391,L,148.4,RL,621.1,507.8
ACSKCOJC06,170211.0,09:16:24.770,R,113.3,LR,414.1,265.6
ACSKCOJC06,170211.0,09:16:25.109,L,117.2,RL,335.9,222.7
ACSKCOJC06,170211.0,09:16:25.383,S,97.7,LS,289.1,171.9
ACSKCOJC06,170211.0,09:16:28.203,R,62.5,LR,199.2,82.0
ACSKCOJC06,170211.0,09:16:28.398,L,179.7,RL,78.1,15.6
ACSKCOJC06,170211.0,09:16:28.594,S,82.0,LS,293.0,113.3
ACSKCOJC06,170211.0,09:16:29.422,L,179.7,SL,730.5,648.4
ACSKCOJC06,170211.0,09:16:29.578,S,66.4,LS,269.5,89.8
ACSKCOJC06,170211.0,09:16:31.832,R,121.1,RR,351.6,269.5
ACSKCOJC06,170211.0,09:16:32.371,L,109.4,RL,550.8,429.7
ACSKCOJC06,170211.0,09:16:32.852,L,109.4,LL,480.5,371.1
ACSKCOJC06,170211.0,09:19:43.742,S,66.4,LS,269.5,125.0
ACSKCOJC06,170211.0,09:19:44.082,R,82.0,SR,324.2,257.8
ACSKCOJC06,170211.0,09:19:44.398,L,117.2,RL,281.3,199.2
ACSKCOJC06,170211.0,09:19:44.746,L,148.4,LL,316.4,199.2
ACSKCOJC06,170211.0,09:19:45.039,S,78.1,LS,363.3,214.8
ACSKCOJC06,170211.0,09:19:48.023,R,125.0,RR,316.4,226.6
ACSKCOJC06,170211.0,09:19:48.352,L,171.9,RL,281.3,156.3
ACSKCOJC06,170211.0,09:19:48.621,L,191.4,LL,250.0,78.1
ACSKCOJC06,170211.0,09:19:55.234,R,128.9,RR,339.8,257.8
ACSKCOJC06,170211.0,09:19:55.535,L,144.5,RL,285.2,156.3
ACSKCOJC06,170211.0,09:19:55.828,L,148.4,LL,289.1,144.5
ACSKCOJC06,170211.0,09:20:01.312,R,136.7,RR,585.9,421.9
ACSKCOJC06,170211.0,09:20:02.797,L,203.1,RL,402.3,281.3
ACSKCOJC06,170211.0,09:22:15.109,R,97.7,RR,199.2,160.2
ACSKCOJC06,170211.0,09:22:15.426,L,160.2,RL,253.9,156.3
ACSKCOJC06,170211.0,09:22:15.680,L,113.3,LL,300.8,140.6
ACSKCOJC06,170211.0,09:22:16.070,L,179.7,LL,324.2,210.9
ACSKCOJC06,170211.0,09:22:16.270,R,50.8,LR,328.1,148.4
ACSKCOJC06,170211.0,09:22:16.434,R,19.5,RR,195.3,144.5
ACSKCOJC06,170211.0,09:22:16.703,R,89.8,RR,199.2,179.7
ACSKCOJC06,170211.0,09:22:16.969,R,97.7,RR,257.8,168.0
ACSKCOJC06,170211.0,09:22:17.270,L,121.1,RL,277.3,179.7
ACSKCOJC06,170211.0,09:22:17.477,S,93.8,LS,234.4,113.3
ACSKCOJC06,170211.0,09:22:20.195,S,89.8,LS,351.6,160.2
ACSKCOJC06,170211.0,09:22:21.855,L,183.6,RL,195.3,101.6
ACSKCOJC06,170211.0,09:22:22.191,S,66.4,LS,269.5,89.8
ACSKCOJC06,170211.0,09:22:25.414,R,164.1,RR,421.9,316.4
ACSKCOJC06,170211.0,09:22:25.734,L,168.0,RL,316.4,152.3
ACSKCOJC06,170211.0,09:22:26.035,L,160.2,LL,308.6,140.6
ACSKCOJC06,170211.0,09:22:26.812,S,148.4,LS,789.1,628.9
ACSKCOJC06,170211.0,09:22:29.992,R,97.7,RR,339.8,226.6
ACSKCOJC06,170211.0,09:22:30.227,S,66.4,RS,265.6,168.0
ACSKCOJC06,170211.0,09:22:30.578,L,199.2,SL,218.8,152.3
ACSKCOJC06,170211.0,09:22:30.676,S,85.9,LS,210.9,11.7
ACSKCOJC06,170211.0,09:22:31.172,L,210.9,SL,371.1,285.2
ACSKCOJC06,170211.0,09:22:31.477,L,195.3,LL,320.3,109.4
ACSKCOJC06,170211.0,09:22:33.227,L,214.8,RL,164.1,85.9
ACSKCOJC06,170211.0,09:22:33.629,S,109.4,LS,293.0,140.6
ACSKCOJC06,170211.0,09:22:34.840,L,179.7,LL,250.0,148.4
ACSKCOJC06,170211.0,09:22:35.258,L,27.3,LL,132.8,390.6
ACSKCOJC06,170211.0,09:22:35.328,R,97.7,LR,132.8,390.6
ACSKCOJC06,170211.0,09:22:35.602,L,171.9,RL,199.2,101.6
ACSKCOJC06,170211.0,09:22:35.879,R,35.2,LR,414.1,242.2
ACSKCOJC06,170211.0,09:22:36.027,R,27.3,RR,156.3,121.1
ACSKCOJC06,170211.0,09:22:36.469,R,89.8,RR,378.9,351.6
ACSKCOJC06,170211.0,10:34:06.137,L,74.2,LL,238.3,156.3
ACSKCOJC06,170211.0,10:34:06.551,L,39.1,LL,449.2,375.0
ACSKCOJC06,170211.0,10:34:06.789,L,85.9,LL,191.4,152.3
ACSKCOJC06,170211.0,10:34:09.449,R,19.5,SR,621.1,535.2
ACSKCOJC06,170211.0,10:34:09.715,L,27.3,RL,257.8,238.3
ACSKCOJC06,170211.0,10:34:09.969,L,101.6,LL,179.7,152.3
ACSKCOJC06,170211.0,10:34:10.188,R,58.6,LR,261.7,160.2
ACSKCOJC06,170211.0,10:34:10.535,L,93.8,RL,312.5,253.9
ACSKCOJC06,170211.0,10:34:11.129,L,140.6,LL,546.9,453.1
ACSKCOJC06,170211.0,10:34:11.668,L,101.6,LL,578.1,437.5
ACSKCOJC06,170211.0,10:34:11.789,R,62.5,LR,160.2,58.6
ACSKCOJC06,170211.0,10:34:12.281,R,62.5,RR,488.3,425.8
ACSKCOJC06,170211.0,10:34:12.617,S,70.3,RS,332.0,269.5
ACSKCOJC06,170211.0,10:34:17.504,R,39.1,LR,222.7,132.8
ACSKCOJC06,170211.0,10:34:17.762,R,66.4,RR,230.5,191.4
ACSKCOJC06,170211.0,10:34:18.137,R,82.0,RR,359.4,293.0
ACSKCOJC06,170211.0,10:34:18.484,L,113.3,RL,316.4,234.4
ACSKCOJC06,170211.0,10:34:18.805,L,195.3,LL,238.3,125.0
ACSKCOJC06,170213.0,07:43:44.480,R,76.2,RR,652.3,552.7
ACSKCOJC06,170213.0,07:43:44.779,R,54.7,RR,320.3,244.1
ACSKCOJC06,170213.0,07:43:45.232,L,97.7,RL,410.2,355.5
ACSKCOJC06,170213.0,07:43:45.668,L,146.5,LL,386.7,289.1
ACSKCOJC06,170213.0,07:43:45.949,L,68.4,LL,359.4,212.9
ACSKCOJC06,170215.0,11:00:42.816,R,132.8,RR,347.7,250.0
ACSKCOJC06,170215.0,11:00:45.695,R,58.6,RR,636.7,554.7
ACSKCOJC06,170215.0,11:00:46.047,R,78.1,RR,332.0,273.4
ACSKCOJC06,170215.0,11:00:46.316,L,62.5,RL,285.2,207.0
ACSKCOJC06,170215.0,11:00:52.363,R,15.6,RR,511.7,425.8
ACSKCOJC06,170215.0,11:00:59.047,L,93.8,RL,312.5,218.8
ACSKCOJC06,170215.0,11:00:59.297,R,43.0,LR,300.8,207.0
ACSKCOJC06,170215.0,11:00:59.766,R,39.1,RR,472.7,429.7
ACSKCOJC06,170215.0,11:00:59.906,R,62.5,RR,117.2,78.1
ACSKCOJC06,170215.0,11:01:00.453,R,58.6,RR,550.8,488.3
ACSKCOJC06,170215.0,11:01:00.855,L,113.3,RL,347.7,289.1
ACSKCOJC06,170215.0,11:01:01.055,R,43.0,LR,269.5,156.3
ACSKCOJC06,170215.0,11:01:01.387,R,66.4,RR,308.6,265.6
ACSKCOJC06,170215.0,11:01:27.492,R,46.9,RR,410.2,351.6
ACSKCOJC06,170215.0,11:01:27.812,R,66.4,RR,300.8,253.9
ACSKCOJC06,170215.0,11:01:28.223,L,78.1,RL,398.4,332.0
ACSKCOJC06,170215.0,11:01:34.738,L,140.6,RL,261.7,164.1
ACSKCOJC06,170215.0,11:01:34.984,R,58.6,LR,328.1,187.5
ACSKCOJC06,170215.0,11:01:35.582,R,46.9,RR,609.4,550.8
ACSKCOJC06,170215.0,11:01:35.730,R,46.9,RR,148.4,101.6
ACSKCOJC06,170215.0,11:01:37.004,L,140.6,RL,328.1,261.7
ACSKCOJC06,170215.0,11:01:37.215,R,74.2,LR,277.3,136.7
ACSKCOJC06,170215.0,11:01:37.633,R,101.6,RR,390.6,316.4
ACSKCOJC06,170215.0,11:01:46.824,L,125.0,LL,406.3,285.2
ACSKCOJC06,170215.0,11:01:47.152,R,70.3,LR,382.8,257.8
ACSKCOJC06,170215.0,11:01:47.488,L,62.5,RL,343.8,273.4
ACSKCOJC06,170215.0,11:01:47.832,L,109.4,LL,296.9,234.4
ACSKCOJC06,170215.0,11:01:48.125,L,140.6,LL,261.7,152.3
ACSKCOJC06,170215.0,14:34:12.445,L,148.4,LL,218.8,117.2
ACSKCOJC06,170215.0,14:34:12.871,R,82.0,LR,492.2,343.8
ACSKCOJC06,170215.0,14:34:13.406,R,101.6,RR,515.6,433.6
ACSKCOJC06,170215.0,14:34:30.004,L,125.0,LL,320.3,238.3
ACSKCOJC06,170215.0,14:34:30.328,R,82.0,LR,367.2,242.2
ACSKCOJC06,170215.0,14:34:30.602,R,125.0,RR,230.5,148.4
ACSKCOJC06,170215.0,14:34:44.469,R,85.9,LR,593.8,441.4
ACSKCOJC06,170215.0,14:34:44.898,L,97.7,RL,418.0,332.0
ACSKCOJC06,170215.0,14:34:45.605,L,117.2,LL,687.5,589.8
ACSKCOJC06,170215.0,14:34:46.344,L,101.6,LL,753.9,636.7
ACSKCOJC06,170215.0,14:34:46.793,L,148.4,LL,402.3,300.8
ACSKCOJC06,170215.0,14:34:47.262,R,101.6,LR,515.6,367.2
ACSKCOJC06,170215.0,14:34:47.742,L,128.9,RL,453.1,351.6
ACSKCOJC06,170215.0,14:34:48.430,R,85.9,LR,730.5,601.6
ACSKCOJC06,170215.0,14:34:48.809,L,148.4,RL,316.4,230.5
ACSKCOJC06,170216.0,11:32:06.246,L,82.0,LL,597.7,519.5
ACSKCOJC06,170216.0,11:32:06.664,L,117.2,LL,382.8,300.8
ACSKCOJC06,170216.0,11:32:11.758,L,113.3,LL,582.0,441.4
ACSKCOJC06,170216.0,11:32:12.086,L,128.9,LL,312.5,199.2
ACSKCOJC06,170216.0,11:32:12.855,R,121.1,LR,777.3,648.4
ACSKCOJC06,170216.0,11:32:14.746,R,89.8,RR,679.7,589.8
ACSKCOJC06,170216.0,11:32:15.184,R,89.8,RR,437.5,347.7
ACSKCOJC06,170216.0,11:32:15.676,R,101.6,RR,480.5,390.6
ACSKCOJC06,170216.0,11:32:16.035,L,121.1,RL,339.8,238.3
ACSKCOJC06,170216.0,11:33:05.148,L,121.1,LL,617.2,519.5
ACSKCOJC06,170216.0,11:33:05.801,L,152.3,LL,621.1,500.0
ACSKCOJC06,170216.0,11:33:10.047,L,70.3,LL,656.3,539.1
ACSKCOJC06,170216.0,11:33:10.707,L,93.8,LL,636.7,566.4
ACSKCOJC06,170216.0,11:33:11.375,L,121.1,LL,640.6,546.9
ACSKCOJC06,170216.0,11:33:22.207,R,128.9,RR,730.5,640.6
ACSKCOJC06,170216.0,11:33:22.707,R,105.5,RR,523.4,394.5
ACSKCOJC06,170216.0,11:33:23.359,L,132.8,RL,625.0,519.5
ACSKCOJC06,170216.0,11:33:47.020,L,78.1,LL,351.6,269.5
ACSKCOJC06,170216.0,11:33:47.531,L,121.1,LL,468.8,390.6
ACSKCOJC06,170216.0,11:33:48.078,R,78.1,LR,589.8,468.8
ACSKCOJC06,170216.0,11:33:48.691,L,113.3,RL,578.1,500.0
ACSKCOJC06,170216.0,11:33:49.262,L,82.0,LL,601.6,488.3
ACSKCOJC06,170216.0,11:33:49.633,L,93.8,LL,359.4,277.3
ACSKCOJC06,170216.0,11:33:50.359,L,128.9,LL,691.4,597.7
ACSKCOJC06,170216.0,11:34:03.660,L,66.4,LL,402.3,320.3
ACSKCOJC06,170216.0,11:34:04.289,L,85.9,LL,609.4,543.0
ACSKCOJC06,170216.0,11:34:04.754,R,93.8,LR,457.0,371.1
ACSKCOJC06,170216.0,11:34:06.461,L,89.8,LL,640.6,550.8
ACSKCOJC06,170216.0,11:34:07.031,L,121.1,LL,539.1,449.2
ACSKCOJC06,170216.0,11:34:28.602,R,109.4,RR,656.3,566.4
ACSKCOJC06,170216.0,11:34:29.012,R,78.1,RR,441.4,332.0
ACSKCOJC06,170216.0,11:34:29.371,R,78.1,RR,359.4,281.3
ACSKCOJC06,170216.0,11:34:29.828,L,117.2,RL,418.0,339.8
ACSKCOJC06,170216.0,11:34:35.730,R,58.6,RR,378.9,335.9
ACSKCOJC06,170216.0,11:34:36.211,L,101.6,RL,437.5,378.9
ACSKCOJC06,170216.0,11:34:38.441,L,183.6,LL,230.5,66.4
ACSKCOJC06,170216.0,11:34:58.594,R,70.3,RR,386.7,285.2
ACSKCOJC06,170216.0,11:34:58.953,R,82.0,RR,347.7,277.3
ACSKCOJC06,170216.0,11:34:59.324,L,101.6,RL,351.6,269.5
ACSKCOJC06,170216.0,11:35:01.312,L,85.9,LL,382.8,257.8
ACSKCOJC06,170216.0,11:35:07.258,R,97.7,RR,593.8,503.9
ACSKCOJC06,170216.0,11:35:16.410,R,117.2,RR,652.3,566.4
ACSKCOJC06,170216.0,11:35:16.895,R,89.8,RR,511.7,394.5
ACSKCOJC06,170216.0,11:35:17.402,L,128.9,RL,468.8,378.9
ACSKCOJC06,170216.0,11:35:28.980,R,85.9,RR,343.8,277.3
ACSKCOJC06,170216.0,11:35:29.367,R,85.9,RR,386.7,300.8
ACSKCOJC06,170216.0,11:35:29.816,L,136.7,RL,398.4,312.5
ACSKCOJC06,170216.0,11:35:42.727,R,85.9,RR,597.7,550.8
ACSKCOJC06,170216.0,11:35:43.074,R,70.3,RR,363.3,277.3
ACSKCOJC06,170216.0,11:35:43.574,L,113.3,RL,457.0,386.7
ACSKCOJC06,170216.0,11:35:49.910,R,62.5,RR,402.3,316.4
ACSKCOJC06,170216.0,11:35:50.309,R,78.1,RR,382.8,320.3
ACSKCOJC06,170216.0,11:35:50.863,L,132.8,RL,500.0,421.9
ACSKCOJC06,170216.0,11:35:54.191,L,78.1,LL,390.6,253.9
ACSKCOJC06,170216.0,11:38:08.918,R,66.4,RR,449.2,363.3
ACSKCOJC06,170216.0,11:38:09.387,R,66.4,RR,468.8,402.3
ACSKCOJC06,170216.0,11:38:09.883,L,148.4,RL,414.1,347.7
ACSKCOJC06,170216.0,11:39:38.449,L,74.2,LL,484.4,351.6
ACSKCOJC06,170216.0,11:39:38.691,L,117.2,LL,199.2,125.0
ACSKCOJC06,170216.0,11:39:39.293,R,105.5,LR,613.3,496.1
ACSKCOJC06,170216.0,11:39:44.121,L,78.1,LL,378.9,300.8
ACSKCOJC06,170216.0,11:39:44.324,L,66.4,LL,214.8,136.7
ACSKCOJC06,170216.0,11:39:44.539,R,78.1,LR,203.1,136.7
ACSKCOJC06,170216.0,11:39:45.648,S,19.5,SS,199.2,105.5
ACSKCOJC06,170216.0,11:39:50.191,R,78.1,RR,332.0,246.1
ACSKCOJC06,170216.0,11:39:50.668,L,136.7,RL,418.0,339.8
ACSKCOJC06,170216.0,11:46:10.504,R,62.5,RR,418.0,347.7
ACSKCOJC06,170216.0,11:46:10.852,R,82.0,RR,328.1,265.6
ACSKCOJC06,170216.0,11:46:11.336,L,113.3,RL,453.1,371.1
ACSKCOJC06,170216.0,11:49:59.590,R,62.5,LR,378.9,218.8
ACSKCOJC06,170216.0,11:49:59.930,R,82.0,RR,320.3,257.8
ACSKCOJC06,170216.0,11:50:00.215,R,66.4,RR,300.8,218.8
ACSKCOJC06,170216.0,11:50:00.695,L,117.2,RL,429.7,363.3
ACSKCOJC06,170216.0,11:50:00.898,S,105.5,LS,214.8,97.7
ACSKCOJC06,170216.0,11:50:02.219,L,70.3,LL,316.4,210.9
ACSKCOJC06,170216.0,11:50:02.418,L,101.6,LL,168.0,97.7
ACSKCOJC06,170216.0,11:50:02.707,R,89.8,LR,300.8,199.2
ACSKCOJC06,170216.0,11:50:03.039,S,82.0,RS,339.8,250.0
ACSKCOJC06,170216.0,11:50:06.438,R,58.6,RR,195.3,140.6
ACSKCOJC06,170216.0,11:50:07.277,S,105.5,RS,793.0,734.4
ACSKCOJC06,170216.0,11:50:11.488,L,128.9,RL,402.3,324.2
ACSKCOJC06,170216.0,11:50:11.859,L,101.6,LL,398.4,269.5
ACSKCOJC06,170216.0,11:50:12.199,L,136.7,LL,304.7,203.1
ACSKCOJC06,170216.0,11:50:12.355,S,93.8,LS,199.2,62.5
ACSKCOJC06,170216.0,11:50:12.711,L,218.8,SL,230.5,136.7
ACSKCOJC06,170216.0,11:50:12.805,S,70.3,LS,242.2,23.4
ACSKCOJC06,170216.0,11:50:13.039,L,82.0,SL,222.7,152.3
ACSKCOJC06,170216.0,11:50:13.562,L,117.2,LL,488.3,406.3
ACSKCOJC06,170216.0,11:50:16.387,L,117.2,LL,347.7,222.7
ACSKCOJC06,170216.0,11:50:16.758,L,164.1,LL,324.2,207.0
ACSKCOJC06,170216.0,11:50:17.016,S,82.0,LS,339.8,175.8
ACSKCOJC06,170216.0,11:50:18.527,L,187.5,LL,222.7,117.2
ACSKCOJC06,170216.0,11:50:18.656,R,50.8,LR,265.6,78.1
ACSKCOJC06,170216.0,11:50:18.957,R,121.1,RR,230.5,179.7
ACSKCOJC06,170216.0,11:50:19.508,S,82.0,RS,589.8,468.8
ACSKCOJC06,170216.0,11:50:26.043,L,97.7,LL,664.1,562.5
ACSKCOJC06,170216.0,11:50:26.242,L,93.8,LL,203.1,105.5
ACSKCOJC06,170216.0,11:50:26.434,R,78.1,LR,207.0,113.3
ACSKCOJC06,170216.0,12:19:01.160,R,105.5,LR,339.8,257.8
ACSKCOJC06,170216.0,12:19:01.461,L,62.5,RL,343.8,238.3
ACSKCOJC06,170216.0,12:19:01.758,L,136.7,LL,222.7,160.2
ACSKCOJC06,170216.0,12:19:01.969,S,101.6,LS,246.1,109.4
ACSKCOJC06,170216.0,12:19:03.738,L,78.1,LL,679.7,585.9
ACSKCOJC06,170216.0,12:19:03.930,L,78.1,LL,191.4,113.3
ACSKCOJC06,170216.0,12:19:04.273,L,93.8,LL,328.1,250.0
ACSKCOJC06,170216.0,12:19:04.668,L,89.8,LL,398.4,304.7
ACSKCOJC06,170216.0,12:19:05.035,L,105.5,LL,351.6,261.7
ACSKCOJC06,170216.0,12:19:06.512,S,148.4,LS,367.2,253.9
ACSKCOJC06,170216.0,12:19:13.848,L,89.8,RL,492.2,398.4
ACSKCOJC06,170216.0,12:19:14.137,S,132.8,LS,246.1,156.3
ACSKCOJC06,170216.0,12:19:24.457,L,70.3,RL,750.0,668.0
ACSKCOJC06,170216.0,12:19:25.176,L,89.8,LL,699.2,628.9
ACSKCOJC06,170216.0,12:19:32.863,L,62.5,LL,156.3,117.2
ACSKCOJC06,170216.0,12:19:37.254,L,105.5,RL,710.9,628.9
ACSKCOJC06,170216.0,15:33:04.594,R,97.7,RR,418.0,296.9
ACSKCOJC06,170216.0,15:33:05.059,L,164.1,RL,398.4,300.8
ACSKCOJC06,170216.0,15:33:29.711,R,58.6,LR,519.5,410.2
ACSKCOJC06,170216.0,15:33:30.117,L,97.7,RL,367.2,308.6
ACSKCOJC06,170216.0,15:33:30.719,L,105.5,LL,593.8,496.1
ACSKCOJC06,170216.0,15:33:31.297,L,70.3,LL,613.3,507.8
ACSKCOJC06,170216.0,15:33:31.742,L,70.3,LL,445.3,375.0
ACSKCOJC06,170216.0,15:33:32.273,R,85.9,LR,515.6,445.3
ACSKCOJC06,170216.0,15:33:32.734,L,128.9,RL,418.0,332.0
ACSKCOJC06,170216.0,15:33:33.148,R,58.6,LR,484.4,355.5
ACSKCOJC06,170216.0,15:33:33.574,L,136.7,RL,347.7,289.1
ACSKCOJC06,170216.0,15:52:17.520,L,78.1,LL,339.8,285.2
ACSKCOJC06,170216.0,15:52:17.879,R,93.8,LR,343.8,265.6
ACSKCOJC06,170216.0,15:52:26.582,L,82.0,RL,500.0,429.7
ACSKCOJC06,170216.0,15:52:27.883,L,82.0,LL,179.7,109.4
ACSKCOJC06,170216.0,15:52:28.637,R,97.7,LR,738.3,656.3
ACSKCOJC06,170216.0,16:53:54.688,R,58.6,RR,210.9,199.2
ACSKCOJC06,170218.0,06:58:52.088,R,80.1,RR,494.1,380.9
ACSKCOJC06,170218.0,06:58:52.596,L,169.9,RL,418.0,337.9
ACSKCOJC06,170218.0,06:59:17.885,R,78.1,LR,699.2,562.5
ACSKCOJC06,170218.0,06:59:18.430,L,121.1,RL,502.0,423.8
ACSKCOJC06,170218.0,06:59:19.141,L,132.8,LL,699.2,578.1
ACSKCOJC06,170218.0,06:59:19.824,L,115.2,LL,701.2,568.4
ACSKCOJC06,170218.0,06:59:33.162,L,146.5,LL,699.2,599.6
ACSKCOJC06,170218.0,06:59:34.596,L,162.1,LL,601.6,468.8
ACSKCOJC06,170218.0,06:59:35.232,R,117.2,LR,681.6,519.5
ACSKCOJC06,170218.0,06:59:35.832,L,99.6,RL,617.2,500.0
ACSKCOJC06,170218.0,06:59:37.150,L,168.0,RL,416.0,277.3
ACSKCOJC06,170222.0,12:13:27.316,L,70.3,LL,410.2,269.5
ACSKCOJC06,170222.0,12:13:27.594,L,39.1,LL,308.6,238.3
ACSKCOJC06,170222.0,12:13:27.879,L,132.8,LL,191.4,152.3
ACSKCOJC06,170222.0,12:13:28.297,S,101.6,LS,449.2,316.4
ACSKCOJC06,170222.0,12:13:32.434,L,101.6,LL,531.3,453.1
ACSKCOJC06,170222.0,12:13:32.754,S,125.0,LS,296.9,195.3
ACSKCOJC06,170222.0,12:13:34.211,L,117.2,LL,261.7,171.9
ACSKCOJC06,170222.0,12:13:34.480,L,121.1,LL,265.6,148.4
ACSKCOJC06,170222.0,12:13:34.602,R,62.5,LR,179.7,58.6
ACSKCOJC06,170222.0,12:13:34.844,L,164.1,RL,140.6,78.1
ACSKCOJC06,170222.0,12:13:34.953,R,97.7,LR,175.8,11.7
ACSKCOJC06,170223.0,10:07:01.699,L,152.3,LL,660.2,601.6
ACSKCOJC06,170223.0,10:07:07.285,L,11.7,RL,168.0,476.6
ACSKCOJC06,170223.0,10:07:07.344,S,70.3,LS,168.0,476.6
ACSKCOJC06,170223.0,10:07:08.941,R,70.3,LR,414.1,261.7
ACSKCOJC06,170223.0,10:07:09.273,L,101.6,RL,300.8,230.5
ACSKCOJC06,170223.0,10:07:09.496,L,109.4,LL,214.8,113.3
ACSKCOJC06,170223.0,10:07:09.961,R,89.8,LR,484.4,375.0
ACSKCOJC06,170223.0,10:07:10.324,L,66.4,RL,386.7,296.9
ACSKCOJC06,170223.0,10:07:10.676,L,152.3,LL,265.6,199.2
ACSKCOJC06,170223.0,10:07:15.578,R,101.6,RR,285.2,199.2
ACSKCOJC06,170223.0,10:07:15.828,R,82.0,RR,269.5,168.0
ACSKCOJC06,170223.0,10:07:17.008,R,132.8,RR,140.6,78.1
ACSKCOJC06,170223.0,10:07:17.219,L,152.3,RL,191.4,58.6
ACSKCOJC06,170223.0,10:07:17.445,S,54.7,LS,324.2,171.9
ACSKCOJC06,170223.0,10:07:17.992,L,156.3,SL,445.3,390.6
ACSKCOJC06,170223.0,10:07:22.449,R,70.3,RR,242.2,160.2
ACSKCOJC06,170223.0,10:07:22.766,R,78.1,RR,308.6,238.3
ACSKCOJC06,170223.0,10:07:24.281,S,109.4,LS,613.3,496.1
ACSKCOJC06,170223.0,10:07:25.426,R,144.5,LR,156.3,43.0
ACSKCOJC06,170223.0,10:07:25.746,L,128.9,RL,335.9,191.4
ACSKCOJC06,170223.0,10:07:26.777,S,46.9,RS,238.3,164.1
ACSKCOJC06,170223.0,10:07:27.074,R,89.8,SR,253.9,207.0
ACSKCOJC06,170223.0,10:07:27.328,R,93.8,RR,250.0,160.2
ACSKCOJC06,170223.0,10:07:29.586,R,89.8,RR,250.0,160.2
ACSKCOJC06,170223.0,10:07:45.629,R,82.0,LR,574.2,429.7
ACSKCOJC06,170223.0,10:07:45.922,L,54.7,RL,320.3,238.3
ACSKCOJC06,170223.0,10:07:46.324,L,140.6,LL,316.4,261.7
ACSKCOJC06,170223.0,10:07:46.766,L,39.1,LL,543.0,402.3
ACSKCOJC06,170223.0,10:07:47.371,L,117.2,LL,527.3,488.3
ACSKCOJC06,170223.0,10:07:47.871,R,113.3,LR,503.9,386.7
ACSKCOJC06,170223.0,10:07:48.324,L,152.3,RL,414.1,300.8
ACSKCOJC06,170223.0,10:07:48.809,R,97.7,LR,539.1,386.7
ACSKCOJC06,170223.0,10:07:49.188,L,144.5,RL,332.0,234.4
ACSKCOJC06,170223.0,10:49:43.633,R,156.3,LR,402.3,289.1
ACSKCOJC06,170223.0,10:49:59.113,R,39.1,LR,582.0,511.7
ACSKCOJC06,170223.0,10:50:02.332,R,46.9,RR,269.5,238.3
ACSKCOJC06,170223.0,10:50:02.816,L,101.6,RL,429.7,382.8
ACSKCOJC06,170223.0,10:51:32.027,R,97.7,LR,433.6,328.1
ACSKCOJC06,170223.0,10:51:32.340,L,117.2,RL,293.0,195.3
ACSKCOJC06,170223.0,10:51:32.637,R,66.4,LR,347.7,230.5
ACSKCOJC06,170223.0,10:51:32.973,R,93.8,RR,308.6,242.2
ACSKCOJC06,170223.0,10:51:33.250,R,109.4,RR,261.7,168.0
ACSKCOJC06,170223.0,10:51:33.520,L,128.9,RL,250.0,140.6
ACSKCOJC06,170223.0,10:51:33.609,S,39.1,LS,175.8,46.9
ACSKCOJC06,170223.0,10:51:33.000,L,121.1,SL,312.5,273.4
ACSKCOJC06,170223.0,10:51:34.539,L,58.6,RL,480.5,386.7
ACSKCOJC06,170223.0,10:51:37.520,R,109.4,RR,257.8,160.2
ACSKCOJC06,170223.0,10:51:37.746,R,58.6,RR,277.3,168.0
ACSKCOJC06,170223.0,10:51:38.441,L,132.8,RL,621.1,562.5
ACSKCOJC06,170223.0,10:51:38.633,S,70.3,LS,253.9,121.1
ACSKCOJC06,170223.0,10:51:42.039,R,89.8,SR,453.1,378.9
ACSKCOJC06,170223.0,10:51:42.340,R,70.3,RR,320.3,230.5
ACSKCOJC06,170223.0,10:51:42.590,R,62.5,RR,257.8,187.5
ACSKCOJC06,170223.0,10:51:42.941,L,97.7,RL,316.4,253.9
ACSKCOJC06,170223.0,10:51:43.707,S,109.4,LS,753.9,656.3
ACSKCOJC06,170223.0,10:53:18.141,R,74.2,RR,316.4,226.6
ACSKCOJC06,170223.0,10:53:18.559,R,89.8,RR,402.3,328.1
ACSKCOJC06,170223.0,10:53:18.891,L,101.6,RL,320.3,230.5
ACSKCOJC06,170223.0,10:53:19.258,L,89.8,LL,378.9,277.3
ACSKCOJC06,170223.0,10:53:19.926,L,85.9,LL,671.9,582.0
ACSKCOJC06,170223.0,10:53:24.945,R,54.7,RR,300.8,242.2
ACSKCOJC06,170223.0,10:53:25.320,R,62.5,RR,367.2,312.5
ACSKCOJC06,170223.0,10:53:25.629,L,39.1,RL,332.0,269.5
ACSKCOJC06,170223.0,10:53:25.910,L,82.0,LL,238.3,199.2
ACSKCOJC06,170223.0,10:53:26.262,L,101.6,LL,332.0,250.0
ACSKCOJC06,170223.0,10:53:36.336,R,66.4,RR,449.2,332.0
ACSKCOJC06,170223.0,10:53:36.664,R,58.6,RR,335.9,269.5
ACSKCOJC06,170223.0,10:53:36.980,L,109.4,RL,265.6,207.0
ACSKCOJC06,170223.0,10:53:37.320,L,136.7,LL,312.5,203.1
ACSKCOJC06,170223.0,10:53:37.840,L,93.8,LL,562.5,425.8
ACSKCOJC06,170223.0,10:54:51.562,R,97.7,LR,281.3,164.1
ACSKCOJC06,170223.0,10:54:51.902,L,136.7,RL,300.8,203.1
ACSKCOJC06,170223.0,10:54:52.215,R,70.3,LR,378.9,242.2
ACSKCOJC06,170223.0,10:54:52.465,R,121.1,RR,199.2,128.9
ACSKCOJC06,170223.0,10:54:52.684,R,70.3,RR,269.5,148.4
ACSKCOJC06,170223.0,10:54:52.957,L,125.0,RL,218.8,148.4
ACSKCOJC06,170223.0,10:54:53.066,S,62.5,LS,171.9,46.9
ACSKCOJC06,170223.0,10:54:53.883,L,35.2,SL,93.8,781.3
ACSKCOJC06,170223.0,10:54:54.004,R,156.3,LR,93.8,781.3
ACSKCOJC06,170223.0,10:54:54.273,L,148.4,RL,277.3,121.1
ACSKCOJC06,170223.0,10:54:54.527,S,93.8,LS,308.6,160.2
ACSKCOJC06,170223.0,10:54:56.062,R,66.4,RR,218.8,121.1
ACSKCOJC06,170223.0,10:54:56.301,R,74.2,RR,230.5,164.1
ACSKCOJC06,170223.0,10:54:56.484,L,78.1,RL,179.7,105.5
ACSKCOJC06,170223.0,10:54:57.004,S,78.1,LS,519.5,441.4
ACSKCOJC06,170223.0,10:54:57.562,R,97.7,SR,539.1,460.9
ACSKCOJC06,170223.0,10:54:57.797,R,105.5,RR,226.6,128.9
ACSKCOJC06,170223.0,10:54:58.172,L,11.7,RL,179.7,363.3
ACSKCOJC06,170223.0,10:54:58.293,R,132.8,LR,179.7,363.3
ACSKCOJC06,170223.0,10:54:58.590,S,62.5,RS,367.2,234.4
ACSKCOJC06,170223.0,10:54:58.973,L,58.6,SL,121.1,324.2
ACSKCOJC06,170223.0,10:54:59.047,R,132.8,LR,121.1,324.2
ACSKCOJC06,170223.0,10:54:59.301,S,105.5,RS,281.3,148.4
ACSKCOJC06,170223.0,10:55:02.090,R,39.1,LR,402.3,253.9
ACSKCOJC06,170223.0,10:55:02.254,R,54.7,RR,148.4,109.4
ACSKCOJC06,170223.0,10:55:02.668,R,101.6,RR,367.2,312.5
ACSKCOJC06,170223.0,10:57:22.480,R,70.3,RR,320.3,261.7
ACSKCOJC06,170223.0,10:57:22.828,R,82.0,RR,335.9,265.6
ACSKCOJC06,170223.0,10:57:23.180,L,117.2,RL,316.4,234.4
ACSKCOJC06,170223.0,10:57:23.512,L,132.8,LL,316.4,199.2
ACSKCOJC06,170223.0,10:57:23.766,L,85.9,LL,300.8,168.0
ACSKCOJC06,170223.0,10:59:06.512,R,97.7,RR,359.4,242.2
ACSKCOJC06,170223.0,10:59:11.930,L,85.9,RL,273.4,199.2
ACSKCOJC06,170223.0,10:59:22.484,L,50.8,RL,312.5,230.5
ACSKCOJC06,170223.0,10:59:22.801,R,46.9,LR,320.3,269.5
ACSKCOJC06,170223.0,10:59:23.371,R,58.6,RR,558.6,511.7
ACSKCOJC06,170223.0,10:59:23.512,R,39.1,RR,160.2,101.6
ACSKCOJC06,170223.0,10:59:24.254,R,62.5,RR,718.8,679.7
ACSKCOJC06,170223.0,10:59:24.613,L,160.2,RL,261.7,199.2
ACSKCOJC06,170223.0,10:59:24.781,R,58.6,LR,269.5,109.4
ACSKCOJC06,170223.0,10:59:25.145,R,74.2,RR,347.7,289.1
ACSKCOJC06,170223.0,11:01:01.277,L,109.4,LL,441.4,308.6
ACSKCOJC06,170223.0,11:01:01.691,L,156.3,LL,363.3,253.9
ACSKCOJC06,170223.0,11:01:03.949,R,89.8,RR,468.8,382.8
ACSKCOJC06,170223.0,11:01:04.250,L,160.2,RL,230.5,140.6
ACSKCOJC06,170223.0,11:01:04.367,R,97.7,LR,179.7,19.5
ACSKCOJC06,170223.0,11:01:49.418,S,58.6,RS,363.3,289.1
ACSKCOJC06,170223.0,11:01:51.039,L,140.6,RL,558.6,437.5
ACSKCOJC06,170223.0,11:01:51.238,R,82.0,LR,257.8,117.2
ACSKCOJC06,170223.0,11:01:51.586,L,125.0,RL,304.7,222.7
ACSKCOJC06,170223.0,11:01:52.047,L,160.2,LL,425.8,300.8
ACSKCOJC06,170223.0,11:01:52.418,R,140.6,LR,390.6,230.5
ACSKCOJC06,170223.0,11:01:52.750,R,109.4,RR,363.3,222.7
ACSKCOJC06,170223.0,11:01:53.223,L,156.3,RL,425.8,316.4
ACSKCOJC06,170223.0,11:01:53.598,S,109.4,LS,421.9,265.6
ACSKCOJC06,170223.0,11:01:56.188,L,171.9,LL,414.1,296.9
ACSKCOJC06,170223.0,11:01:56.789,R,121.1,LR,652.3,480.5
ACSKCOJC06,170223.0,11:02:06.402,R,89.8,LR,468.8,300.8
ACSKCOJC06,170223.0,11:02:06.730,L,121.1,RL,296.9,207.0
ACSKCOJC06,170223.0,11:04:12.258,L,43.0,LL,429.7,347.7
ACSKCOJC06,170223.0,11:04:12.426,L,66.4,LL,144.5,101.6
ACSKCOJC06,170223.0,11:04:12.770,R,125.0,LR,285.2,218.8
ACSKCOJC06,170223.0,11:04:16.148,R,62.5,RR,410.2,300.8
ACSKCOJC06,170223.0,11:04:16.516,R,58.6,RR,371.1,308.6
ACSKCOJC06,170223.0,11:04:16.906,L,82.0,RL,367.2,308.6
ACSKCOJC06,170223.0,11:05:02.648,R,74.2,RR,316.4,253.9
ACSKCOJC06,170223.0,11:05:02.977,R,82.0,RR,320.3,246.1
ACSKCOJC06,170223.0,11:05:03.270,L,101.6,RL,273.4,191.4
ACSKCOJC06,170223.0,11:06:29.387,L,78.1,LL,355.5,293.0
ACSKCOJC06,170223.0,11:06:29.559,L,93.8,LL,156.3,78.1
ACSKCOJC06,170223.0,11:06:29.848,R,113.3,LR,269.5,175.8
ACSKCOJC06,170223.0,11:08:09.035,L,43.0,LL,320.3,238.3
ACSKCOJC06,170223.0,11:08:09.273,L,101.6,LL,179.7,136.7
ACSKCOJC06,170223.0,11:08:09.480,R,109.4,LR,199.2,97.7
ACSKCOJC06,170223.0,11:08:28.574,L,132.8,RL,308.6,210.9
ACSKCOJC06,170223.0,11:08:29.023,R,62.5,LR,519.5,386.7
ACSKCOJC06,170223.0,11:08:29.312,R,70.3,RR,281.3,218.8
ACSKCOJC06,170223.0,11:08:29.594,L,89.8,RL,261.7,191.4
ACSKCOJC06,170223.0,11:08:29.859,S,105.5,LS,250.0,160.2
ACSKCOJC06,170223.0,11:09:49.234,L,117.2,LL,390.6,312.5
ACSKCOJC06,170223.0,11:09:49.547,R,101.6,LR,328.1,210.9
ACSKCOJC06,170223.0,11:09:49.855,L,101.6,RL,308.6,207.0
ACSKCOJC06,170223.0,11:09:50.188,L,121.1,LL,312.5,210.9
ACSKCOJC06,170223.0,11:09:50.477,L,121.1,LL,289.1,168.0
ACSKCOJC06,170223.0,11:09:50.785,S,128.9,LS,300.8,179.7
ACSKCOJC06,170223.0,11:09:56.008,L,113.3,SL,492.2,335.9
ACSKCOJC06,170223.0,11:09:56.535,L,97.7,LL,543.0,429.7
ACSKCOJC06,170223.0,11:09:57.105,R,82.0,LR,585.9,488.3
ACSKCOJC06,170223.0,11:09:57.523,L,121.1,RL,378.9,296.9
ACSKCOJC06,170223.0,11:09:57.895,L,148.4,LL,343.8,222.7
ACSKCOJC06,170223.0,11:09:58.164,L,128.9,LL,289.1,140.6
ACSKCOJC06,170223.0,11:10:13.016,R,62.5,LR,300.8,144.5
ACSKCOJC06,170223.0,11:10:13.363,R,70.3,RR,339.8,277.3
ACSKCOJC06,170223.0,11:10:13.777,L,113.3,RL,367.2,296.9
ACSKCOJC06,170223.0,11:10:14.375,L,109.4,LL,605.5,492.2
ACSKCOJC06,170223.0,11:10:14.734,L,97.7,LL,371.1,261.7
ACSKCOJC06,170223.0,11:10:15.023,L,78.1,LL,308.6,210.9
ACSKCOJC06,170223.0,11:10:15.340,L,113.3,LL,281.3,203.1
ACSKCOJC06,170223.0,11:10:15.656,L,128.9,LL,300.8,187.5
ACSKCOJC06,170223.0,11:10:15.867,S,93.8,LS,246.1,117.2
ACSKCOJC06,170223.0,11:10:19.785,L,97.7,SL,433.6,339.8
ACSKCOJC06,170223.0,11:10:20.164,L,109.4,LL,367.2,269.5
ACSKCOJC06,170223.0,11:10:20.426,L,70.3,LL,300.8,191.4
ACSKCOJC06,170223.0,11:10:20.785,L,128.9,LL,300.8,230.5
ACSKCOJC06,170223.0,11:10:21.047,L,121.1,LL,269.5,140.6
ACSKCOJC06,170223.0,11:10:24.035,R,66.4,LR,293.0,125.0
ACSKCOJC06,170223.0,11:10:24.453,R,109.4,RR,375.0,308.6
ACSKCOJC06,170223.0,11:10:24.855,L,140.6,RL,371.1,261.7
ACSKCOJC06,170223.0,11:12:26.004,L,70.3,RL,339.8,257.8
ACSKCOJC06,170223.0,11:12:26.516,R,82.0,LR,500.0,429.7
ACSKCOJC06,170223.0,11:12:26.766,R,54.7,RR,277.3,195.3
ACSKCOJC06,170223.0,11:12:27.133,L,109.4,RL,312.5,257.8
ACSKCOJC06,170223.0,11:12:27.422,S,117.2,LS,281.3,171.9
ACSKCOJC06,170223.0,11:23:39.219,S,121.1,SS,402.3,27.3
ACSKCOJC06,170223.0,11:23:39.398,S,62.5,SS,238.3,117.2
ACSKCOJC06,170224.0,11:45:05.453,L,97.7,RL,418.0,351.6
ACSKCOJC06,170224.0,11:45:08.086,L,113.3,LL,738.3,679.7
ACSKCOJC06,170224.0,11:45:08.434,L,66.4,LL,394.5,281.3
ACSKCOJC06,170224.0,11:45:08.773,R,97.7,LR,308.6,242.2
ACSKCOJC06,170224.0,11:45:09.227,L,140.6,RL,410.2,312.5
ACSKCOJC06,170224.0,11:45:09.586,S,93.8,LS,406.3,265.6
ACSKCOJC06,170224.0,11:45:19.840,L,101.6,RL,468.8,347.7
ACSKCOJC06,170224.0,11:45:20.258,L,117.2,LL,402.3,300.8
ACSKCOJC06,170224.0,11:45:20.621,R,113.3,LR,367.2,250.0
ACSKCOJC06,170224.0,11:48:29.750,R,39.1,RR,218.8,160.2
ACSKCOJC06,170224.0,11:48:30.484,L,43.0,RL,730.5,691.4
ACSKCOJC06,170224.0,11:48:30.840,L,74.2,LL,324.2,281.3
ACSKCOJC06,170224.0,11:48:31.180,L,128.9,LL,285.2,210.9
ACSKCOJC06,170224.0,11:48:31.562,S,101.6,LS,410.2,281.3
ACSKCOJC06,170224.0,11:48:33.312,L,93.8,RL,789.1,695.3
ACSKCOJC06,170224.0,11:48:33.742,L,93.8,LL,429.7,335.9
ACSKCOJC06,170224.0,11:48:34.410,L,121.1,LL,640.6,546.9
ACSKCOJC06,170224.0,11:48:34.672,R,89.8,LR,293.0,171.9
ACSKCOJC06,170224.0,11:48:35.359,R,66.4,RR,710.9,621.1
ACSKCOJC06,170224.0,11:48:35.754,L,140.6,RL,320.3,253.9
ACSKCOJC06,170224.0,11:48:36.062,S,109.4,LS,339.8,199.2
ACSKCOJC06,170224.0,11:48:36.820,R,78.1,SR,789.1,679.7
ACSKCOJC06,170224.0,11:48:37.180,L,128.9,RL,308.6,230.5
ACSKCOJC06,170224.0,11:48:37.562,L,148.4,LL,363.3,234.4
ACSKCOJC06,170224.0,11:48:37.828,R,66.4,LR,347.7,199.2
ACSKCOJC06,170224.0,11:48:38.141,S,70.3,RS,308.6,242.2
ACSKCOJC06,170224.0,11:48:39.738,L,78.1,LL,347.7,242.2
ACSKCOJC06,170224.0,11:48:40.328,L,62.5,LL,605.5,527.3
ACSKCOJC06,170224.0,11:48:41.117,L,125.0,LL,726.6,664.1
ACSKCOJC06,170224.0,11:48:41.465,L,121.1,LL,351.6,226.6
ACSKCOJC06,170224.0,11:48:41.699,R,66.4,LR,289.1,168.0
ACSKCOJC06,170224.0,11:48:42.148,L,128.9,RL,386.7,320.3
ACSKCOJC06,170224.0,11:48:42.340,R,66.4,LR,253.9,125.0
ACSKCOJC06,170224.0,11:48:42.699,L,128.9,RL,296.9,230.5
ACSKCOJC06,170224.0,11:48:54.836,L,113.3,LL,289.1,238.3
ACSKCOJC06,170224.0,11:48:57.746,L,50.8,LL,269.5,218.8
ACSKCOJC06,170224.0,11:48:58.188,L,101.6,LL,390.6,339.8
ACSKCOJC06,170224.0,11:48:58.766,L,140.6,LL,539.1,437.5
ACSKCOJC06,170224.0,11:48:59.172,L,105.5,LL,441.4,300.8
ACSKCOJC06,170224.0,11:48:59.590,R,82.0,LR,441.4,335.9
ACSKCOJC06,170224.0,11:48:59.969,L,89.8,RL,371.1,289.1
ACSKCOJC06,170224.0,11:49:00.215,R,46.9,LR,289.1,199.2
ACSKCOJC06,170224.0,11:49:00.586,L,117.2,RL,300.8,253.9
ACSKCOJC06,170224.0,11:52:17.438,L,50.8,LL,429.7,363.3
ACSKCOJC06,170224.0,11:52:18.145,L,97.7,LL,660.2,609.4
ACSKCOJC06,170224.0,11:52:18.496,R,78.1,LR,371.1,273.4
ACSKCOJC06,170224.0,11:52:19.137,R,82.0,RR,636.7,558.6
ACSKCOJC06,170224.0,11:52:19.566,L,136.7,RL,375.0,293.0
ACSKCOJC06,170224.0,11:52:20.035,S,117.2,LS,488.3,351.6
ACSKCOJC06,170224.0,11:52:25.734,L,113.3,RL,718.8,648.4
ACSKCOJC06,170224.0,11:52:26.215,L,89.8,LL,503.9,390.6
ACSKCOJC06,170224.0,11:52:26.602,R,58.6,LR,418.0,328.1
ACSKCOJC06,170224.0,11:52:26.953,S,78.1,RS,332.0,273.4
ACSKCOJC06,170224.0,11:52:28.832,L,66.4,LL,410.2,312.5
ACSKCOJC06,170224.0,11:52:29.215,L,101.6,LL,347.7,281.3
ACSKCOJC06,170224.0,11:52:29.633,L,156.3,LL,363.3,261.7
ACSKCOJC06,170224.0,11:52:30.031,L,136.7,LL,418.0,261.7
ACSKCOJC06,170224.0,11:52:30.312,R,78.1,LR,339.8,203.1
ACSKCOJC06,170224.0,11:52:30.840,L,160.2,RL,445.3,367.2
ACSKCOJC06,170224.0,11:52:31.074,R,62.5,LR,332.0,171.9
ACSKCOJC06,170224.0,11:52:31.445,L,144.5,RL,289.1,226.6
ACSKCOJC06,170224.0,11:52:31.812,S,121.1,LS,390.6,246.1
ACSKCOJC06,170224.0,11:52:33.977,R,82.0,RR,332.0,250.0
ACSKCOJC06,170224.0,11:52:37.066,R,58.6,LR,355.5,253.9
ACSKCOJC06,170224.0,11:52:37.352,R,78.1,RR,265.6,207.0
ACSKCOJC06,170224.0,11:52:37.664,L,97.7,RL,293.0,214.8
ACSKCOJC06,170224.0,11:52:37.871,S,70.3,LS,234.4,136.7
ACSKCOJC06,170224.0,11:52:39.184,R,70.3,RR,343.8,269.5
ACSKCOJC06,170224.0,11:52:39.402,S,89.8,RS,199.2,128.9
ACSKCOJC06,170224.0,11:52:39.715,R,66.4,SR,335.9,246.1
ACSKCOJC06,170224.0,11:52:40.180,R,70.3,RR,460.9,394.5
ACSKCOJC06,170224.0,11:52:40.574,S,101.6,RS,363.3,293.0
ACSKCOJC06,170224.0,11:52:41.348,L,136.7,SL,738.3,636.7
ACSKCOJC06,170224.0,11:52:41.781,L,175.8,LL,394.5,257.8
ACSKCOJC06,170224.0,11:52:42.051,L,140.6,LL,304.7,128.9
ACSKCOJC06,170224.0,11:52:42.336,L,183.6,LL,242.2,101.6
ACSKCOJC06,170224.0,11:53:11.395,R,117.2,RR,265.6,207.0
ACSKCOJC06,170224.0,11:53:11.781,R,35.2,RR,468.8,351.6
ACSKCOJC06,170224.0,11:53:12.258,L,46.9,RL,464.8,429.7
ACSKCOJC06,170224.0,11:53:12.492,L,62.5,LL,218.8,171.9
ACSKCOJC06,170224.0,11:53:13.020,L,101.6,LL,488.3,425.8
ACSKCOJC06,170224.0,11:53:13.477,S,82.0,LS,476.6,375.0
ACSKCOJC06,170224.0,11:53:38.871,R,58.6,RR,625.0,500.0
ACSKCOJC06,170224.0,11:53:39.320,L,132.8,RL,375.0,316.4
ACSKCOJC06,170224.0,11:53:39.590,L,70.3,LL,332.0,199.2
ACSKCOJC06,170224.0,11:53:40.039,L,117.2,LL,402.3,332.0
ACSKCOJC06,170224.0,11:53:40.422,S,70.3,LS,429.7,312.5
ACSKCOJC06,170224.0,11:58:56.586,L,74.2,LL,359.4,289.1
ACSKCOJC06,170224.0,11:58:57.062,R,97.7,LR,453.1,378.9
ACSKCOJC06,170224.0,11:59:00.188,S,101.6,RS,441.4,382.8
ACSKCOJC06,170224.0,11:59:01.492,R,62.5,RR,277.3,222.7
ACSKCOJC06,170224.0,11:59:01.754,L,164.1,RL,160.2,97.7
ACSKCOJC06,170224.0,11:59:02.102,L,144.5,LL,367.2,203.1
ACSKCOJC06,170224.0,11:59:02.320,S,66.4,LS,296.9,152.3
ACSKCOJC06,170224.0,11:59:02.770,R,97.7,SR,418.0,351.6
ACSKCOJC06,170224.0,11:59:03.203,L,300.8,RL,230.5,132.8
ACSKCOJC06,170224.0,11:59:03.355,L,93.8,LL,359.4,58.6
ACSKCOJC06,170224.0,11:59:03.641,L,136.7,LL,242.2,148.4
ACSKCOJC06,170224.0,11:59:04.492,R,82.0,SR,769.5,699.2
ACSKCOJC06,170224.0,11:59:04.777,L,74.2,RL,293.0,210.9
ACSKCOJC06,170224.0,11:59:05.109,L,74.2,LL,332.0,257.8
ACSKCOJC06,170224.0,11:59:05.504,L,183.6,LL,285.2,210.9
ACSKCOJC06,170224.0,11:59:05.676,R,70.3,LR,285.2,101.6
ACSKCOJC06,170224.0,11:59:05.957,R,85.9,RR,265.6,195.3
ACSKCOJC06,170224.0,11:59:06.355,L,136.7,RL,347.7,261.7
ACSKCOJC06,170224.0,11:59:06.656,S,121.1,LS,316.4,179.7
ACSKCOJC06,170224.0,11:59:09.906,L,144.5,LL,238.3,136.7
ACSKCOJC06,170224.0,11:59:10.125,L,132.8,LL,230.5,85.9
ACSKCOJC06,170224.0,11:59:10.414,L,210.9,LL,210.9,78.1
ACSKCOJC06,170224.0,11:59:10.594,L,117.2,LL,273.4,62.5
ACSKCOJC06,170224.0,11:59:10.941,R,78.1,LR,386.7,269.5
ACSKCOJC06,170224.0,11:59:11.293,L,132.8,RL,296.9,218.8
ACSKCOJC06,170224.0,11:59:11.430,R,54.7,LR,214.8,82.0
ACSKCOJC06,170224.0,11:59:11.793,L,152.3,RL,265.6,210.9
ACSKCOJC06,170224.0,11:59:12.062,S,97.7,LS,324.2,171.9
ACSKCOJC06,170224.0,11:59:13.668,R,152.3,LR,152.3,31.3
ACSKCOJC06,170224.0,11:59:13.965,L,136.7,RL,312.5,160.2
ACSKCOJC06,170224.0,11:59:14.301,S,85.9,LS,386.7,250.0
ACSKCOJC06,170224.0,11:59:15.727,L,93.8,LL,304.7,203.1
ACSKCOJC06,170224.0,11:59:15.914,L,82.0,LL,199.2,105.5
ACSKCOJC06,170224.0,11:59:16.297,L,62.5,LL,402.3,320.3
ACSKCOJC06,170224.0,11:59:16.688,L,183.6,LL,269.5,207.0
ACSKCOJC06,170224.0,11:59:16.941,S,93.8,LS,343.8,160.2
ACSKCOJC06,170224.0,11:59:18.672,R,70.3,LR,199.2,66.4
ACSKCOJC06,170224.0,11:59:18.891,L,27.3,RL,93.8,191.4
ACSKCOJC06,170224.0,11:59:18.965,S,101.6,LS,93.8,191.4
ACSKCOJC06,170224.0,11:59:19.465,R,62.5,SR,539.1,437.5
ACSKCOJC06,170224.0,11:59:19.633,L,128.9,RL,101.6,39.1
ACSKCOJC06,170224.0,11:59:19.941,R,113.3,LR,54.7,195.3
ACSKCOJC06,170224.0,11:59:19.973,L,144.5,RL,54.7,195.3
ACSKCOJC06,170224.0,11:59:22.383,R,62.5,LR,398.4,347.7
ACSKCOJC06,170224.0,11:59:22.820,L,144.5,RL,355.5,293.0
ACSKCOJC06,170224.0,11:59:23.312,R,70.3,LR,566.4,421.9
ACSKCOJC06,170224.0,11:59:23.609,R,54.7,RR,312.5,242.2
ACSKCOJC06,170224.0,11:59:24.074,S,85.9,RS,433.6,378.9
ACSKCOJC06,170224.0,11:59:26.723,L,132.8,LL,269.5,199.2
ACSKCOJC06,170224.0,11:59:27.051,R,74.2,LR,386.7,253.9
ACSKCOJC06,170224.0,11:59:27.492,S,101.6,RS,414.1,339.8
ACSKCOJC06,170224.0,13:43:16.281,R,89.8,RR,257.8,199.2
ACSKCOJC06,170224.0,13:43:16.602,L,148.4,RL,261.7,171.9
ACSKCOJC06,170224.0,13:43:16.902,S,70.3,LS,378.9,230.5
ACSKCOJC06,170224.0,13:43:19.395,R,70.3,LR,265.6,128.9
ACSKCOJC06,170224.0,13:43:19.777,S,89.8,RS,363.3,293.0
ACSKCOJC06,170224.0,13:43:21.965,L,85.9,RL,293.0,222.7
ACSKCOJC06,170224.0,13:43:22.324,L,168.0,LL,277.3,191.4
ACSKCOJC06,170224.0,13:43:22.566,S,70.3,LS,339.8,171.9
ACSKCOJC06,170224.0,13:43:23.398,L,171.9,SL,730.5,660.2
ACSKCOJC06,170224.0,13:43:25.863,L,128.9,SL,789.1,675.8
ACSKCOJC06,170224.0,13:43:26.074,R,58.6,LR,281.3,152.3
ACSKCOJC06,170224.0,13:43:26.406,L,171.9,RL,218.8,160.2
ACSKCOJC06,170224.0,13:43:26.766,L,140.6,LL,390.6,218.8
ACSKCOJC06,170224.0,13:43:27.215,R,97.7,LR,492.2,351.6
ACSKCOJC06,170224.0,13:43:31.238,R,97.7,LR,230.5,89.8
ACSKCOJC06,170224.0,13:43:31.590,L,128.9,RL,320.3,222.7
ACSKCOJC06,170224.0,13:43:31.930,L,191.4,LL,277.3,148.4
ACSKCOJC06,170224.0,13:43:32.328,S,117.2,LS,472.7,281.3
ACSKCOJC06,170224.0,13:43:42.344,R,121.1,LR,550.8,441.4
ACSKCOJC06,170224.0,13:43:42.922,L,140.6,RL,558.6,437.5
ACSKCOJC06,170224.0,13:43:43.102,R,70.3,LR,250.0,109.4
ACSKCOJC06,170224.0,13:43:43.742,L,113.3,RL,597.7,527.3
ACSKCOJC06,170224.0,13:43:43.973,S,109.4,LS,234.4,121.1
ACSKCOJC06,170224.0,13:43:50.582,R,74.2,RR,363.3,289.1
ACSKCOJC06,170224.0,13:43:50.855,S,82.0,RS,265.6,191.4
ACSKCOJC06,170224.0,13:43:53.547,R,70.3,LR,285.2,160.2
ACSKCOJC06,170224.0,13:43:53.770,R,50.8,RR,242.2,171.9
ACSKCOJC06,170224.0,13:43:53.949,R,58.6,RR,171.9,121.1
ACSKCOJC06,170224.0,13:43:54.180,L,74.2,RL,214.8,156.3
ACSKCOJC06,170224.0,13:43:54.496,L,117.2,LL,273.4,199.2
ACSKCOJC06,170224.0,13:43:54.758,S,93.8,LS,285.2,168.0
ACSKCOJC06,170224.0,13:43:56.207,R,89.8,LR,617.2,546.9
ACSKCOJC06,170224.0,13:43:56.871,L,89.8,RL,664.1,574.2
ACSKCOJC06,170224.0,13:43:57.191,R,70.3,LR,339.8,250.0
ACSKCOJC06,170224.0,13:43:57.453,R,43.0,RR,289.1,218.8
ACSKCOJC06,170224.0,13:43:57.816,R,164.1,RR,242.2,199.2
ACSKCOJC06,170224.0,13:44:05.867,R,15.6,LR,418.0,285.2
ACSKCOJC06,170224.0,13:44:06.246,L,50.8,RL,343.8,328.1
ACSKCOJC06,170224.0,13:44:06.801,R,132.8,LR,472.7,421.9
ACSKCOJC06,170224.0,13:44:07.074,R,46.9,RR,359.4,226.6
ACSKCOJC06,170224.0,13:44:07.434,L,78.1,RL,328.1,281.3
ACSKCOJC06,170224.0,15:14:50.352,L,93.8,RL,628.9,515.6
ACSKCOJC06,170224.0,15:14:50.793,L,121.1,LL,414.1,320.3
ACSKCOJC06,170224.0,15:14:51.312,S,183.6,LS,457.0,335.9
ACSKCOJC06,170224.0,15:14:56.133,R,54.7,RR,562.5,488.3
ACSKCOJC06,170224.0,15:14:56.473,R,125.0,RR,269.5,214.8
ACSKCOJC06,170224.0,15:14:56.758,R,78.1,RR,332.0,207.0
ACSKCOJC06,170224.0,15:14:57.102,R,97.7,RR,324.2,246.1
ACSKCOJC06,170224.0,15:14:57.680,L,101.6,RL,574.2,476.6
ACSKCOJC06,170224.0,15:15:04.102,S,93.8,RS,785.2,703.1
ACSKCOJC06,170224.0,15:15:05.270,L,164.1,LL,199.2,78.1
ACSKCOJC06,170224.0,15:15:08.238,L,128.9,RL,171.9,97.7
ACSKCOJC06,170224.0,15:15:08.730,L,74.2,LL,546.9,418.0
ACSKCOJC06,170224.0,15:15:09.430,L,164.1,LL,609.4,535.2
ACSKCOJC06,170224.0,15:15:09.840,S,113.3,LS,460.9,296.9
ACSKCOJC06,170224.0,15:15:14.789,R,50.8,LR,293.0,128.9
ACSKCOJC06,170224.0,15:15:15.047,R,58.6,RR,250.0,199.2
ACSKCOJC06,170224.0,15:15:15.219,R,58.6,RR,171.9,113.3
ACSKCOJC06,170224.0,15:15:15.441,L,93.8,RL,187.5,128.9
ACSKCOJC06,170224.0,15:15:15.746,L,128.9,LL,269.5,175.8
ACSKCOJC06,170224.0,15:15:15.988,S,97.7,LS,273.4,144.5
ACSKCOJC06,170224.0,15:15:16.629,R,58.6,SR,679.7,582.0
ACSKCOJC06,170224.0,15:15:16.863,L,113.3,RL,179.7,121.1
ACSKCOJC06,170224.0,15:15:17.148,L,183.6,LL,214.8,101.6
ACSKCOJC06,170224.0,15:15:17.363,L,136.7,LL,261.7,78.1
ACSKCOJC06,170224.0,15:15:21.422,R,54.7,LR,339.8,214.8
ACSKCOJC06,170224.0,15:15:21.688,R,50.8,RR,269.5,214.8
ACSKCOJC06,170224.0,15:15:22.090,L,70.3,RL,382.8,332.0
ACSKCOJC06,170224.0,15:15:22.277,S,89.8,LS,168.0,97.7
ACSKCOJC06,170224.0,15:15:26.688,L,89.8,RL,296.9,238.3
ACSKCOJC06,170224.0,15:15:26.801,S,74.2,LS,128.9,39.1
ACSKCOJC06,170224.0,15:15:27.590,R,101.6,SR,761.7,687.5
ACSKCOJC06,170224.0,15:15:27.969,R,93.8,RR,386.7,285.2
ACSKCOJC06,170224.0,15:15:28.457,R,97.7,RR,484.4,390.6
ACSKCOJC06,170224.0,15:15:28.891,L,168.0,RL,363.3,265.6
ACSKCOJC06,170226.0,08:15:20.713,L,189.5,LL,419.9,250.0
ACSKCOJC06,170226.0,08:15:20.953,R,109.4,LR,320.3,130.9
ACSKCOJC06,170226.0,08:15:26.096,R,150.4,LR,369.1,128.9
ACSKCOJC06,170226.0,08:15:27.586,L,169.9,RL,429.7,289.1
ACSKCOJC06,170226.0,08:15:27.826,R,189.5,LR,220.7,50.8
ACSKCOJC06,170226.0,08:15:33.121,L,109.4,LL,472.7,281.3
ACSKCOJC06,170226.0,08:15:34.900,R,127.0,LR,482.4,259.8
ACSKCOJC06,170226.0,08:15:36.668,R,136.7,LR,320.3,91.8
ACSKCOJC06,170226.0,08:15:37.988,L,179.7,LL,287.1,160.2
ACSKCOJC06,170226.0,08:15:38.209,R,187.5,LR,212.9,33.2
ACSKCOJC06,170226.0,08:16:16.828,L,121.1,LL,539.1,369.1
ACSKCOJC06,170226.0,08:16:18.049,R,91.8,LR,347.7,169.9
ACSKCOJC06,170226.0,08:16:18.748,L,150.4,RL,640.6,548.8
ACSKCOJC06,170226.0,08:16:20.686,L,179.7,RL,777.3,660.2
ACSKCOJC06,170226.0,08:16:21.086,L,179.7,LL,400.4,220.7
ACSKCOJC06,170226.0,08:16:21.277,R,130.9,LR,240.2,60.5
ACSKCOJC06,170226.0,08:16:21.807,S,121.1,RS,539.1,408.2
ACSKCOJC06,170226.0,08:16:48.174,R,156.3,LR,437.5,289.1
ACSKCOJC06,170226.0,08:16:52.689,R,84.0,LR,222.7,68.4
ACSKCOJC06,170226.0,08:16:58.695,R,99.6,LR,181.6,277.3
ACSKCOJC06,170226.0,08:18:31.441,R,58.6,LR,425.8,283.2
ACSKCOJC06,170226.0,08:18:31.783,R,85.9,RR,314.5,255.9
ACSKCOJC06,170227.0,19:47:47.461,R,54.7,RR,460.9,398.4
ACSKCOJC06,170227.0,19:47:48.156,L,62.5,RL,687.5,632.8
ACSKCOJC06,170227.0,19:47:48.594,L,109.4,LL,390.6,328.1
ACSKCOJC06,170227.0,19:47:49.430,L,164.1,LL,781.3,671.9
ACSKCOJC06,170227.0,19:47:49.773,R,62.5,LR,445.3,281.3
ACSKCOJC06,170227.0,19:47:49.922,R,39.1,RR,171.9,109.4
ACSKCOJC06,170227.0,19:47:50.188,R,93.8,RR,210.9,171.9
ACSKCOJC06,170227.0,19:47:50.453,R,101.6,RR,257.8,164.1
ACSKCOJC06,170227.0,19:47:52.211,S,109.4,LS,328.1,203.1
ACSKCOJC06,170227.0,19:47:53.453,S,101.6,LS,328.1,156.3
ACSKCOJC06,170227.0,19:47:57.609,R,93.8,LR,789.1,617.2
ACSKCOJC06,170227.0,19:47:57.875,R,125.0,RR,234.4,140.6
ACSKCOJC06,170227.0,19:47:59.242,L,148.4,LL,265.6,148.4
ACSKCOJC06,170227.0,19:47:59.562,L,164.1,LL,304.7,156.3
ACSKCOJC06,170227.0,19:59:40.492,L,140.6,LL,406.3,328.1
ACSKCOJC06,170227.0,19:59:40.820,L,85.9,LL,382.8,242.2
ACSKCOJC06,170227.0,19:59:41.273,L,93.8,LL,445.3,359.4
ACSKCOJC06,170227.0,20:12:35.492,L,93.8,LL,679.7,578.1
ACSKCOJC06,170227.0,20:12:36.969,R,125.0,LR,460.9,335.9
ACSKCOJC06,170227.0,20:12:37.711,S,125.0,RS,742.2,617.2
ACSKCOJC06,170227.0,20:12:38.922,R,132.8,RR,351.6,257.8
ACSKCOJC06,170227.0,20:12:39.359,R,78.1,RR,492.2,359.4
ACSKCOJC06,170227.0,20:12:39.812,L,140.6,RL,390.6,312.5
