User_ID,Date,Timestamp,Hand,Hold_Time,Direction,Latency_Time,Flight_Time
AJIGSB2YPW,170207.0,20:24:53.695,L,85.9,LL,171.9,93.8
AJIGSB2YPW,170207.0,20:24:53.875,L,93.8,LL,171.9,85.9
AJIGSB2YPW,170207.0,20:24:58.969,R,117.2,LR,703.1,632.8
AJIGSB2YPW,170207.0,20:24:59.445,R,117.2,RR,476.6,359.4
AJIGSB2YPW,170207.0,20:24:59.000,L,78.1,RL,593.8,476.6
AJIGSB2YPW,170207.0,20:25:00.219,L,46.9,LL,250.0,171.9
AJIGSB2YPW,170207.0,20:25:00.484,L,125.0,LL,187.5,140.6
AJIGSB2YPW,170207.0,20:25:04.281,L,109.4,LL,226.6,164.1
AJIGSB2YPW,170207.0,20:25:07.359,L,125.0,LL,515.6,375.0
AJIGSB2YPW,170207.0,20:31:45.672,L,367.2,LL,437.5,312.5
AJIGSB2YPW,170207.0,20:32:25.219,L,226.6,RL,546.9,351.6
AJIGSB2YPW,170207.0,20:32:27.586,R,171.9,LR,585.9,187.5
AJIGSB2YPW,170207.0,20:32:28.016,L,171.9,RL,429.7,257.8
AJIGSB2YPW,170207.0,20:32:36.289,S,257.8,LS,343.8,93.8
AJIGSB2YPW,170207.0,20:32:36.914,L,132.8,SL,742.2,484.4
AJIGSB2YPW,170207.0,20:32:37.516,L,171.9,LL,570.3,437.5
AJIGSB2YPW,170207.0,20:32:38.258,L,226.6,LL,687.5,515.6
AJIGSB2YPW,170207.0,20:32:38.719,S,226.6,LS,460.9,234.4
AJIGSB2YPW,170207.0,20:32:39.664,R,117.2,LR,187.5,23.4
AJIGSB2YPW,170207.0,20:32:41.281,R,148.4,RR,632.8,523.4
AJIGSB2YPW,170207.0,20:32:41.633,L,125.0,RL,375.0,226.6
AJIGSB2YPW,170207.0,20:32:42.992,S,242.2,LS,390.6,164.1
AJIGSB2YPW,170207.0,20:32:45.023,L,218.8,RL,523.4,367.2
AJIGSB2YPW,170207.0,20:32:45.477,L,140.6,LL,531.3,312.5
AJIGSB2YPW,170207.0,20:32:45.727,S,148.4,LS,242.2,101.6
AJIGSB2YPW,170207.0,20:32:46.375,R,148.4,SR,648.4,500.0
AJIGSB2YPW,170207.0,20:32:55.141,R,171.9,LR,460.9,179.7
AJIGSB2YPW,170207.0,20:32:55.469,R,109.4,RR,390.6,218.8
AJIGSB2YPW,170207.0,20:32:55.969,R,179.7,RR,429.7,320.3
AJIGSB2YPW,170207.0,20:32:57.789,S,179.7,LS,398.4,179.7
AJIGSB2YPW,170207.0,20:32:58.531,R,132.8,SR,789.1,609.4
AJIGSB2YPW,170207.0,20:32:58.945,R,109.4,RR,437.5,304.7
AJIGSB2YPW,170207.0,20:32:59.336,R,171.9,RR,328.1,218.8
AJIGSB2YPW,170207.0,20:32:59.844,L,218.8,RL,460.9,289.1
AJIGSB2YPW,170207.0,20:33:00.156,S,226.6,LS,304.7,85.9
AJIGSB2YPW,170207.0,20:33:00.680,L,226.6,SL,523.4,296.9
AJIGSB2YPW,170207.0,20:33:00.875,R,125.0,LR,296.9,70.3
AJIGSB2YPW,170207.0,20:34:37.758,R,156.3,LR,492.2,195.3
AJIGSB2YPW,170207.0,20:34:38.297,L,179.7,RL,515.6,359.4
AJIGSB2YPW,170207.0,20:35:12.758,R,109.4,LR,531.3,46.9
AJIGSB2YPW,170207.0,20:35:13.164,L,234.4,RL,281.3,171.9
AJIGSB2YPW,170207.0,20:35:14.727,R,164.1,LR,375.0,93.8
AJIGSB2YPW,170207.0,20:35:15.219,L,148.4,RL,507.8,343.8
AJIGSB2YPW,170207.0,20:35:15.609,L,226.6,LL,312.5,164.1
AJIGSB2YPW,170207.0,20:35:48.141,R,187.5,LR,296.9,31.3
AJIGSB2YPW,170207.0,20:35:48.547,L,140.6,RL,453.1,265.6
AJIGSB2YPW,170207.0,20:35:50.062,L,117.2,LL,609.4,296.9
AJIGSB2YPW,170207.0,20:35:50.703,S,257.8,LS,500.0,382.8
AJIGSB2YPW,170207.0,20:35:51.352,L,39.1,SL,179.7,609.4
AJIGSB2YPW,170207.0,20:35:51.617,R,304.7,LR,179.7,609.4
AJIGSB2YPW,170207.0,20:35:59.414,R,187.5,RR,570.3,445.3
AJIGSB2YPW,170207.0,20:36:10.938,L,226.6,RL,445.3,281.3
AJIGSB2YPW,170207.0,20:36:11.391,S,210.9,LS,468.8,242.2
AJIGSB2YPW,170207.0,20:36:12.820,R,140.6,LR,656.3,195.3
AJIGSB2YPW,170207.0,20:36:13.617,R,164.1,RR,773.4,632.8
AJIGSB2YPW,170207.0,20:36:14.000,R,125.0,RR,421.9,257.8
AJIGSB2YPW,170207.0,20:36:14.531,R,187.5,RR,468.8,343.8
AJIGSB2YPW,170207.0,20:36:20.250,L,257.8,LL,546.9,367.2
AJIGSB2YPW,170207.0,20:36:22.133,L,132.8,LL,382.8,125.0
AJIGSB2YPW,170207.0,20:36:23.961,L,281.3,LL,671.9,390.6
AJIGSB2YPW,170207.0,20:36:24.352,R,218.8,LR,453.1,171.9
AJIGSB2YPW,170207.0,20:38:43.070,S,218.8,RS,453.1,320.3
AJIGSB2YPW,170207.0,20:38:43.758,L,187.5,SL,718.8,500.0
AJIGSB2YPW,170207.0,20:38:43.922,R,140.6,LR,210.9,23.4
AJIGSB2YPW,170207.0,20:38:44.633,L,250.0,RL,601.6,460.9
AJIGSB2YPW,170207.0,20:38:54.422,R,117.2,LR,617.2,523.4
AJIGSB2YPW,170207.0,20:39:28.773,R,125.0,LR,312.5,250.0
AJIGSB2YPW,170207.0,20:40:58.242,S,218.8,RS,437.5,296.9
AJIGSB2YPW,170207.0,20:40:59.453,L,125.0,LL,242.2,140.6
AJIGSB2YPW,170207.0,20:41:00.008,S,164.1,LS,515.6,390.6
AJIGSB2YPW,170207.0,20:41:00.766,L,125.0,SL,796.9,632.8
AJIGSB2YPW,170207.0,20:41:01.500,R,156.3,LR,703.1,578.1
AJIGSB2YPW,170207.0,20:41:03.070,L,46.9,SL,742.2,554.7
AJIGSB2YPW,170207.0,20:41:04.820,S,164.1,RS,750.0,625.0
AJIGSB2YPW,170207.0,20:41:05.398,L,70.3,SL,671.9,507.8
AJIGSB2YPW,170207.0,20:41:05.734,R,125.0,LR,281.3,210.9
AJIGSB2YPW,170207.0,20:41:06.273,L,85.9,RL,578.1,453.1
AJIGSB2YPW,170207.0,20:41:06.953,S,179.7,LS,585.9,500.0
AJIGSB2YPW,170207.0,20:41:07.492,L,93.8,SL,625.0,445.3
AJIGSB2YPW,170207.0,20:41:08.000,R,85.9,LR,515.6,421.9
AJIGSB2YPW,170207.0,20:41:08.430,R,109.4,RR,406.3,320.3
AJIGSB2YPW,170207.0,20:41:08.953,R,93.8,RR,539.1,429.7
AJIGSB2YPW,170207.0,20:41:10.859,L,164.1,LL,390.6,242.2
AJIGSB2YPW,170207.0,20:41:11.305,L,250.0,LL,359.4,195.3
AJIGSB2YPW,170207.0,20:41:22.133,L,289.1,LL,359.4,203.1
AJIGSB2YPW,170207.0,20:41:22.445,L,70.3,LL,531.3,242.2
AJIGSB2YPW,170207.0,20:41:23.281,L,257.8,LL,648.4,578.1
AJIGSB2YPW,170207.0,20:41:23.633,R,164.1,LR,445.3,187.5
AJIGSB2YPW,170207.0,20:41:24.070,L,140.6,RL,460.9,296.9
AJIGSB2YPW,170207.0,20:44:58.875,S,218.8,RS,695.3,515.6
AJIGSB2YPW,170207.0,20:45:01.172,R,179.7,LR,585.9,93.8
AJIGSB2YPW,170207.0,20:45:02.688,R,171.9,RR,578.1,390.6
AJIGSB2YPW,170207.0,20:45:04.820,R,195.3,LR,695.3,359.4
AJIGSB2YPW,170207.0,20:45:05.430,L,250.0,RL,554.7,359.4
AJIGSB2YPW,170207.0,20:45:17.281,R,164.1,RR,617.2,484.4
AJIGSB2YPW,170207.0,20:45:20.508,R,218.8,LR,609.4,335.9
AJIGSB2YPW,170207.0,20:45:21.625,L,101.6,LL,93.8,31.3
AJIGSB2YPW,170207.0,20:45:53.039,R,132.8,LR,664.1,320.3
AJIGSB2YPW,170207.0,20:45:53.695,S,234.4,RS,554.7,421.9
AJIGSB2YPW,170207.0,20:45:55.594,R,226.6,RR,539.1,406.3
AJIGSB2YPW,170207.0,20:46:31.578,R,187.5,LR,515.6,203.1
AJIGSB2YPW,170207.0,20:47:54.172,R,226.6,LR,531.3,179.7
AJIGSB2YPW,170207.0,20:48:00.219,R,171.9,LR,335.9,70.3
AJIGSB2YPW,170207.0,20:48:00.836,L,257.8,RL,531.3,359.4
AJIGSB2YPW,170207.0,20:48:01.602,S,312.5,LS,710.9,453.1
AJIGSB2YPW,170207.0,20:48:04.180,S,132.8,LS,390.6,140.6
AJIGSB2YPW,170207.0,20:48:04.805,R,62.5,SR,695.3,562.5
AJIGSB2YPW,170207.0,20:48:05.125,R,117.2,RR,265.6,203.1
AJIGSB2YPW,170207.0,20:48:05.875,L,218.8,RL,648.4,531.3
AJIGSB2YPW,170207.0,20:48:07.297,L,242.2,LL,414.1,250.0
AJIGSB2YPW,170207.0,20:48:10.125,R,132.8,LR,351.6,54.7
AJIGSB2YPW,170207.0,20:48:10.781,S,187.5,RS,601.6,468.8
AJIGSB2YPW,170207.0,20:48:13.547,R,117.2,RR,515.6,375.0
AJIGSB2YPW,170207.0,20:48:13.820,R,164.1,RR,226.6,109.4
AJIGSB2YPW,170207.0,20:48:18.859,L,226.6,LL,710.9,523.4
AJIGSB2YPW,170207.0,20:48:54.695,L,164.1,LL,468.8,54.7
AJIGSB2YPW,170207.0,20:48:55.125,L,187.5,LL,406.3,242.2
AJIGSB2YPW,170207.0,20:49:03.977,L,218.8,LL,585.9,375.0
AJIGSB2YPW,170207.0,20:49:08.109,R,164.1,LR,320.3,62.5
AJIGSB2YPW,170207.0,20:50:40.000,R,109.4,RR,179.7,117.2
AJIGSB2YPW,170207.0,20:50:41.844,L,218.8,RL,734.4,625.0
AJIGSB2YPW,170207.0,20:50:41.992,L,85.9,LL,281.3,62.5
AJIGSB2YPW,170207.0,20:50:43.531,L,187.5,LL,515.6,359.4
AJIGSB2YPW,170207.0,20:50:47.953,L,140.6,LL,484.4,265.6
AJIGSB2YPW,170207.0,20:50:48.297,L,140.6,LL,343.8,203.1
AJIGSB2YPW,170207.0,20:50:48.859,L,195.3,LL,507.8,367.2
AJIGSB2YPW,170207.0,20:50:49.695,S,234.4,LS,796.9,601.6
AJIGSB2YPW,170207.0,20:50:54.469,S,226.6,LS,304.7,140.6
AJIGSB2YPW,170207.0,20:50:56.570,R,140.6,LR,406.3,156.3
AJIGSB2YPW,170207.0,20:50:56.984,L,140.6,RL,414.1,273.4
AJIGSB2YPW,170207.0,20:50:57.391,L,226.6,LL,320.3,179.7
AJIGSB2YPW,170207.0,20:51:09.430,L,132.8,LL,328.1,70.3
AJIGSB2YPW,170207.0,20:51:09.867,S,218.8,LS,351.6,218.8
AJIGSB2YPW,170207.0,20:51:14.836,L,179.7,RL,500.0,273.4
AJIGSB2YPW,170207.0,20:51:16.070,S,164.1,LS,421.9,203.1
AJIGSB2YPW,170207.0,20:51:16.812,R,187.5,SR,718.8,554.7
AJIGSB2YPW,170207.0,20:51:17.398,L,257.8,RL,515.6,328.1
AJIGSB2YPW,170207.0,20:51:17.945,L,148.4,LL,656.3,398.4
AJIGSB2YPW,170207.0,20:51:18.797,L,289.1,LL,710.9,562.5
AJIGSB2YPW,170207.0,20:51:19.156,R,164.1,LR,484.4,195.3
AJIGSB2YPW,170207.0,20:51:19.844,L,195.3,RL,656.3,492.2
AJIGSB2YPW,170207.0,20:51:21.102,S,218.8,LS,367.2,148.4
AJIGSB2YPW,170207.0,20:51:22.766,L,156.3,LL,695.3,390.6
AJIGSB2YPW,170207.0,20:51:23.297,S,226.6,LS,460.9,304.7
AJIGSB2YPW,170207.0,20:51:27.789,L,265.6,RL,734.4,625.0
AJIGSB2YPW,170207.0,20:51:30.062,L,234.4,LL,570.3,382.8
AJIGSB2YPW,170207.0,20:51:44.281,L,218.8,LL,468.8,250.0
AJIGSB2YPW,170207.0,20:51:44.555,S,171.9,LS,320.3,101.6
AJIGSB2YPW,170207.0,20:51:47.258,R,156.3,LR,515.6,187.5
AJIGSB2YPW,170207.0,20:51:47.875,L,218.8,RL,554.7,398.4
AJIGSB2YPW,170207.0,20:52:05.648,R,179.7,RR,351.6,257.8
AJIGSB2YPW,170207.0,20:52:06.305,R,164.1,RR,671.9,492.2
AJIGSB2YPW,170207.0,20:52:08.609,S,187.5,LS,781.3,531.3
AJIGSB2YPW,170207.0,20:52:11.883,L,226.6,LL,453.1,273.4
AJIGSB2YPW,170207.0,20:52:12.289,L,125.0,LL,507.8,281.3
AJIGSB2YPW,170207.0,20:52:24.992,S,148.4,LS,640.6,515.6
AJIGSB2YPW,170207.0,20:52:25.922,R,296.9,SR,781.3,632.8
AJIGSB2YPW,170207.0,20:52:26.680,L,265.6,RL,789.1,492.2
AJIGSB2YPW,170207.0,20:52:27.125,S,226.6,LS,484.4,218.8
AJIGSB2YPW,170207.0,20:52:28.969,R,195.3,RR,453.1,343.8
AJIGSB2YPW,170207.0,20:52:29.445,R,164.1,RR,507.8,312.5
AJIGSB2YPW,170207.0,20:52:31.234,L,218.8,LL,351.6,125.0
AJIGSB2YPW,170207.0,20:52:31.859,R,210.9,LR,632.8,414.1
AJIGSB2YPW,170207.0,20:52:37.867,R,132.8,LR,289.1,62.5
AJIGSB2YPW,170207.0,20:53:23.375,L,343.8,LL,296.9,54.7
AJIGSB2YPW,170207.0,20:53:23.578,L,125.0,LL,421.9,78.1
AJIGSB2YPW,170207.0,20:53:23.914,L,31.3,LL,226.6,304.7
AJIGSB2YPW,170207.0,20:53:24.078,L,195.3,LL,226.6,304.7
AJIGSB2YPW,170207.0,20:53:34.141,R,93.8,RR,437.5,367.2
AJIGSB2YPW,170207.0,20:53:34.508,R,125.0,RR,335.9,242.2
AJIGSB2YPW,170207.0,20:53:35.195,L,156.3,RL,656.3,531.3
AJIGSB2YPW,170207.0,20:53:35.672,L,226.6,LL,406.3,250.0
AJIGSB2YPW,170207.0,20:53:36.047,R,164.1,LR,437.5,210.9
AJIGSB2YPW,170207.0,20:55:57.023,R,148.4,LR,351.6,93.8
AJIGSB2YPW,170207.0,20:55:57.555,L,195.3,RL,484.4,335.9
AJIGSB2YPW,170207.0,20:55:57.703,R,125.0,LR,218.8,23.4
AJIGSB2YPW,170207.0,20:56:00.570,L,171.9,RL,750.0,585.9
AJIGSB2YPW,170207.0,20:56:05.023,R,125.0,LR,320.3,54.7
AJIGSB2YPW,170207.0,20:56:05.359,L,242.2,RL,218.8,93.8
AJIGSB2YPW,170207.0,20:56:05.953,L,109.4,LL,726.6,484.4
AJIGSB2YPW,170207.0,20:56:06.375,L,242.2,LL,289.1,179.7
AJIGSB2YPW,170207.0,20:56:06.500,L,117.2,LL,250.0,7.8
AJIGSB2YPW,170207.0,20:56:11.617,R,179.7,LR,234.4,85.9
AJIGSB2YPW,170207.0,20:56:12.297,L,171.9,RL,687.5,507.8
AJIGSB2YPW,170207.0,20:56:12.641,S,140.6,LS,375.0,203.1
AJIGSB2YPW,170207.0,20:56:13.992,L,148.4,RL,476.6,250.0
AJIGSB2YPW,170207.0,20:56:14.492,L,156.3,LL,492.2,343.8
AJIGSB2YPW,170207.0,20:56:14.844,L,226.6,LL,281.3,125.0
AJIGSB2YPW,170207.0,20:56:16.406,L,140.6,RL,531.3,359.4
AJIGSB2YPW,170207.0,20:56:17.281,L,250.0,LL,765.6,625.0
AJIGSB2YPW,170207.0,20:56:21.031,R,54.7,LR,335.9,85.9
AJIGSB2YPW,170207.0,20:56:21.805,L,210.9,RL,617.2,562.5
AJIGSB2YPW,170207.0,20:56:22.125,S,171.9,LS,359.4,148.4
AJIGSB2YPW,170207.0,20:56:23.664,R,179.7,LR,304.7,78.1
AJIGSB2YPW,170207.0,20:56:23.969,L,250.0,RL,234.4,54.7
AJIGSB2YPW,170207.0,20:56:24.398,L,117.2,LL,562.5,312.5
AJIGSB2YPW,170207.0,20:56:24.758,L,23.4,LL,187.5,335.9
AJIGSB2YPW,170207.0,20:56:24.891,L,156.3,LL,187.5,335.9
AJIGSB2YPW,170207.0,20:56:25.430,S,140.6,LS,554.7,398.4
AJIGSB2YPW,170207.0,20:56:26.086,R,156.3,SR,640.6,500.0
AJIGSB2YPW,170207.0,20:56:26.594,L,265.6,RL,398.4,242.2
AJIGSB2YPW,170207.0,20:56:26.984,S,140.6,LS,515.6,250.0
AJIGSB2YPW,170207.0,20:56:32.805,L,226.6,LL,531.3,390.6
AJIGSB2YPW,170207.0,20:57:29.125,L,164.1,LL,664.1,382.8
AJIGSB2YPW,170207.0,20:57:30.430,R,125.0,LR,421.9,70.3
AJIGSB2YPW,170207.0,20:57:30.938,R,179.7,RR,453.1,328.1
AJIGSB2YPW,170207.0,20:57:31.508,L,171.9,RL,578.1,398.4
AJIGSB2YPW,170207.0,20:57:31.906,S,218.8,LS,351.6,179.7
AJIGSB2YPW,170207.0,20:57:33.461,R,125.0,RR,539.1,414.1
AJIGSB2YPW,170207.0,20:57:33.883,R,171.9,RR,375.0,250.0
AJIGSB2YPW,170207.0,20:57:34.461,L,218.8,RL,531.3,359.4
AJIGSB2YPW,170207.0,20:57:39.469,S,234.4,RS,679.7,515.6
AJIGSB2YPW,170207.0,20:57:43.852,R,125.0,RR,406.3,265.6
AJIGSB2YPW,170207.0,20:57:55.406,R,125.0,RR,390.6,250.0
AJIGSB2YPW,170207.0,20:57:56.078,R,156.3,RR,640.6,515.6
AJIGSB2YPW,170207.0,20:57:56.719,L,250.0,RL,546.9,390.6
AJIGSB2YPW,170207.0,20:57:59.430,R,125.0,RR,343.8,203.1
AJIGSB2YPW,170207.0,20:57:59.781,R,195.3,RR,281.3,156.3
AJIGSB2YPW,170207.0,20:58:00.328,L,210.9,RL,531.3,335.9
AJIGSB2YPW,170207.0,20:58:00.617,S,171.9,LS,328.1,117.2
AJIGSB2YPW,170207.0,20:58:01.281,L,218.8,SL,617.2,445.3
AJIGSB2YPW,170207.0,20:58:01.492,R,148.4,LR,281.3,62.5
AJIGSB2YPW,170207.0,20:58:08.766,L,148.4,LL,242.2,132.8
AJIGSB2YPW,170207.0,20:58:09.570,R,226.6,LR,726.6,578.1
AJIGSB2YPW,170207.0,20:58:09.977,L,179.7,RL,453.1,226.6
AJIGSB2YPW,170207.0,20:58:19.148,R,226.6,LR,718.8,335.9
AJIGSB2YPW,170207.0,20:58:29.648,L,265.6,LL,468.8,281.3
AJIGSB2YPW,170207.0,20:58:37.289,R,156.3,LR,312.5,31.3
AJIGSB2YPW,170207.0,20:58:38.148,L,218.8,RL,796.9,640.6
AJIGSB2YPW,170207.0,20:58:38.641,S,218.8,LS,492.2,273.4
AJIGSB2YPW,170207.0,20:58:40.211,L,304.7,LL,500.0,265.6
AJIGSB2YPW,170207.0,20:58:40.406,R,109.4,LR,390.6,85.9
AJIGSB2YPW,170207.0,20:58:42.359,R,179.7,LR,765.6,531.3
AJIGSB2YPW,170207.0,20:58:43.102,L,234.4,RL,687.5,507.8
AJIGSB2YPW,170207.0,20:58:48.875,R,101.6,LR,281.3,31.3
AJIGSB2YPW,170207.0,20:58:49.430,L,179.7,RL,476.6,375.0
AJIGSB2YPW,170207.0,20:58:49.781,S,218.8,LS,312.5,132.8
AJIGSB2YPW,170207.0,20:58:52.828,R,195.3,LR,343.8,31.3
AJIGSB2YPW,170207.0,20:58:53.500,L,234.4,RL,632.8,437.5
AJIGSB2YPW,170207.0,20:58:54.047,S,164.1,LS,617.2,382.8
AJIGSB2YPW,170207.0,20:59:26.930,R,164.1,LR,523.4,507.8
AJIGSB2YPW,170207.0,20:59:27.578,L,226.6,RL,585.9,421.9
AJIGSB2YPW,170207.0,20:59:27.844,S,195.3,LS,296.9,70.3
AJIGSB2YPW,170207.0,20:59:28.469,R,132.8,SR,687.5,492.2
AJIGSB2YPW,170207.0,20:59:29.234,R,195.3,RR,703.1,570.3
AJIGSB2YPW,170207.0,20:59:34.078,R,187.5,LR,257.8,39.1
AJIGSB2YPW,170207.0,20:59:39.531,R,140.6,RR,492.2,351.6
AJIGSB2YPW,170207.0,20:59:40.211,S,234.4,RS,585.9,445.3
AJIGSB2YPW,170207.0,21:00:08.023,R,93.8,RR,632.8,523.4
AJIGSB2YPW,170207.0,21:00:08.234,R,93.8,RR,210.9,117.2
AJIGSB2YPW,170207.0,21:00:08.844,L,289.1,RL,414.1,320.3
AJIGSB2YPW,170207.0,21:00:09.109,L,132.8,LL,421.9,132.8
AJIGSB2YPW,170207.0,21:00:13.539,S,226.6,RS,492.2,343.8
AJIGSB2YPW,170207.0,21:00:14.227,L,156.3,SL,757.8,531.3
AJIGSB2YPW,170207.0,21:00:14.469,R,179.7,LR,218.8,62.5
AJIGSB2YPW,170207.0,21:00:15.781,R,109.4,LR,414.1,101.6
AJIGSB2YPW,170207.0,21:00:16.320,S,171.9,RS,484.4,375.0
AJIGSB2YPW,170207.0,21:00:18.828,R,93.8,LR,281.3,54.7
AJIGSB2YPW,170207.0,21:00:19.328,R,54.7,RR,539.1,445.3
AJIGSB2YPW,170207.0,21:00:19.555,R,109.4,RR,171.9,117.2
AJIGSB2YPW,170207.0,21:00:27.609,L,226.6,SL,750.0,539.1
AJIGSB2YPW,170207.0,21:00:27.695,R,54.7,LR,257.8,31.3
AJIGSB2YPW,170207.0,21:00:28.008,R,70.3,RR,296.9,242.2
AJIGSB2YPW,170207.0,21:00:28.195,R,70.3,RR,187.5,117.2
AJIGSB2YPW,170207.0,21:00:28.773,S,148.4,RS,500.0,429.7
AJIGSB2YPW,170207.0,21:00:29.562,L,234.4,SL,703.1,554.7
AJIGSB2YPW,170207.0,21:00:34.477,R,132.8,RR,406.3,265.6
AJIGSB2YPW,170207.0,21:00:34.898,R,179.7,RR,375.0,242.2
AJIGSB2YPW,170207.0,21:00:35.703,L,265.6,RL,718.8,539.1
AJIGSB2YPW,170207.0,21:00:38.367,R,156.3,LR,257.8,31.3
AJIGSB2YPW,170207.0,21:00:38.977,S,281.3,RS,484.4,328.1
AJIGSB2YPW,170207.0,21:00:42.039,R,156.3,LR,531.3,304.7
AJIGSB2YPW,170207.0,21:00:42.320,L,218.8,RL,218.8,62.5
AJIGSB2YPW,170207.0,21:00:43.594,L,242.2,LL,414.1,234.4
AJIGSB2YPW,170207.0,21:00:51.070,L,296.9,SL,664.1,437.5
AJIGSB2YPW,170207.0,21:00:55.984,S,218.8,RS,578.1,414.1
AJIGSB2YPW,170207.0,21:00:58.406,R,164.1,LR,257.8,23.4
AJIGSB2YPW,170207.0,21:00:58.945,L,187.5,RL,515.6,351.6
AJIGSB2YPW,170207.0,21:01:02.609,R,210.9,LR,289.1,39.1
AJIGSB2YPW,170207.0,21:01:49.297,R,132.8,LR,531.3,445.3
AJIGSB2YPW,170207.0,21:02:20.500,L,250.0,RL,734.4,570.3
AJIGSB2YPW,170207.0,21:02:21.141,L,148.4,LL,742.2,492.2
AJIGSB2YPW,170207.0,21:02:28.938,R,109.4,LR,242.2,62.5
AJIGSB2YPW,170207.0,21:02:29.305,R,203.1,RR,273.4,164.1
AJIGSB2YPW,170207.0,21:02:30.047,L,218.8,RL,726.6,523.4
AJIGSB2YPW,170207.0,21:02:30.414,S,148.4,LS,437.5,218.8
AJIGSB2YPW,170207.0,21:02:31.094,R,179.7,SR,648.4,500.0
AJIGSB2YPW,170207.0,21:02:31.578,L,117.2,RL,546.9,367.2
AJIGSB2YPW,170207.0,21:02:33.320,L,195.3,LL,710.9,406.3
AJIGSB2YPW,170207.0,21:05:38.461,S,203.1,LS,289.1,39.1
AJIGSB2YPW,170207.0,21:05:39.008,R,218.8,SR,531.3,328.1
AJIGSB2YPW,170207.0,21:05:39.570,L,187.5,RL,593.8,375.0
AJIGSB2YPW,170207.0,21:05:40.117,S,312.5,LS,421.9,234.4
AJIGSB2YPW,170207.0,21:05:42.664,R,117.2,RR,710.9,546.9
AJIGSB2YPW,170207.0,21:05:43.234,R,218.8,RR,468.8,351.6
AJIGSB2YPW,170207.0,21:05:44.758,S,273.4,LS,578.1,289.1
AJIGSB2YPW,170207.0,21:05:47.156,R,218.8,RR,554.7,445.3
AJIGSB2YPW,170207.0,21:10:38.844,R,187.5,LR,296.9,85.9
AJIGSB2YPW,170207.0,21:10:39.406,L,171.9,RL,578.1,390.6
AJIGSB2YPW,170207.0,21:11:14.352,R,140.6,RR,382.8,289.1
AJIGSB2YPW,170207.0,21:11:15.031,L,109.4,RL,710.9,570.3
AJIGSB2YPW,170207.0,21:11:15.719,L,210.9,LL,585.9,476.6
AJIGSB2YPW,170207.0,21:11:22.398,R,148.4,LR,726.6,578.1
AJIGSB2YPW,170207.0,21:11:22.984,S,179.7,RS,554.7,406.3
AJIGSB2YPW,170207.0,21:11:25.023,R,148.4,LR,734.4,640.6
AJIGSB2YPW,170207.0,21:11:27.078,L,179.7,RL,632.8,531.3
AJIGSB2YPW,170207.0,21:11:30.250,R,132.8,RR,273.4,179.7
AJIGSB2YPW,170207.0,21:11:30.648,R,164.1,RR,367.2,234.4
AJIGSB2YPW,170207.0,21:11:31.078,L,132.8,RL,460.9,296.9
AJIGSB2YPW,170207.0,21:11:31.789,L,320.3,LL,523.4,390.6
AJIGSB2YPW,170207.0,21:11:32.117,L,164.1,LL,484.4,164.1
AJIGSB2YPW,170207.0,21:11:39.234,L,148.4,LL,312.5,195.3
AJIGSB2YPW,170207.0,21:11:40.859,L,164.1,LL,601.6,343.8
AJIGSB2YPW,170207.0,21:11:41.336,L,242.2,LL,398.4,234.4
AJIGSB2YPW,170207.0,21:11:41.883,R,117.2,LR,671.9,429.7
AJIGSB2YPW,170207.0,21:11:42.352,S,179.7,RS,406.3,289.1
AJIGSB2YPW,170207.0,21:11:42.984,L,421.9,SL,390.6,210.9
AJIGSB2YPW,170207.0,21:11:43.141,L,125.0,LL,453.1,31.3
AJIGSB2YPW,170207.0,21:11:43.680,L,234.4,LL,429.7,304.7
AJIGSB2YPW,170207.0,21:11:44.117,R,171.9,LR,500.0,265.6
AJIGSB2YPW,170207.0,21:11:46.008,R,226.6,LR,687.5,320.3
AJIGSB2YPW,170207.0,21:12:09.219,R,187.5,RR,312.5,210.9
AJIGSB2YPW,170207.0,21:12:10.555,S,226.6,LS,445.3,164.1
AJIGSB2YPW,170207.0,21:12:16.430,R,171.9,LR,296.9,70.3
AJIGSB2YPW,170207.0,21:12:17.141,S,257.8,RS,625.0,453.1
AJIGSB2YPW,170207.0,21:12:18.430,R,210.9,LR,328.1,78.1
AJIGSB2YPW,170207.0,21:12:22.289,L,171.9,RL,750.0,601.6
AJIGSB2YPW,170207.0,21:12:22.719,S,234.4,LS,367.2,195.3
AJIGSB2YPW,170207.0,21:12:23.367,L,179.7,SL,703.1,468.8
AJIGSB2YPW,170207.0,21:12:23.938,R,218.8,LR,531.3,351.6
AJIGSB2YPW,170207.0,21:12:29.438,R,85.9,RR,195.3,125.0
AJIGSB2YPW,170207.0,21:12:31.039,L,289.1,RL,375.0,195.3
AJIGSB2YPW,170207.0,21:12:33.188,R,164.1,RR,734.4,609.4
AJIGSB2YPW,170207.0,21:12:33.938,L,210.9,RL,703.1,539.1
AJIGSB2YPW,170207.0,21:12:34.445,S,265.6,LS,453.1,242.2
AJIGSB2YPW,170207.0,21:12:37.500,L,187.5,LL,539.1,312.5
AJIGSB2YPW,170207.0,21:12:40.680,L,156.3,RL,703.1,507.8
AJIGSB2YPW,170207.0,21:12:41.133,L,250.0,LL,359.4,203.1
AJIGSB2YPW,170207.0,21:12:45.773,R,179.7,LR,375.0,195.3
AJIGSB2YPW,170207.0,21:12:47.422,L,148.4,SL,601.6,453.1
AJIGSB2YPW,170207.0,21:12:47.914,L,304.7,LL,335.9,187.5
AJIGSB2YPW,170207.0,21:12:48.461,L,140.6,LL,710.9,406.3
AJIGSB2YPW,170207.0,21:12:48.938,S,210.9,LS,406.3,265.6
AJIGSB2YPW,170207.0,21:12:50.578,R,93.8,LR,468.8,203.1
AJIGSB2YPW,170207.0,21:12:51.039,S,226.6,RS,328.1,234.4
AJIGSB2YPW,170207.0,21:12:53.406,L,164.1,LL,781.3,562.5
AJIGSB2YPW,170207.0,21:12:53.938,L,210.9,LL,484.4,320.3
AJIGSB2YPW,170207.0,21:13:00.078,L,226.6,LL,453.1,109.4
AJIGSB2YPW,170207.0,21:13:00.359,R,132.8,LR,375.0,148.4
AJIGSB2YPW,170207.0,21:13:00.734,R,148.4,RR,359.4,226.6
AJIGSB2YPW,170207.0,21:13:01.344,L,140.6,RL,617.2,468.8
AJIGSB2YPW,170207.0,21:13:01.867,S,257.8,LS,406.3,265.6
AJIGSB2YPW,170207.0,21:13:08.742,R,179.7,LR,179.7,39.1
AJIGSB2YPW,170207.0,21:13:09.172,L,226.6,RL,382.8,203.1
AJIGSB2YPW,170207.0,21:13:09.555,S,242.2,LS,367.2,140.6
AJIGSB2YPW,170207.0,21:13:11.812,R,140.6,RR,390.6,265.6
AJIGSB2YPW,170207.0,21:13:12.242,L,164.1,RL,406.3,265.6
AJIGSB2YPW,170207.0,21:13:38.258,L,85.9,LL,210.9,109.4
AJIGSB2YPW,170207.0,21:13:38.477,L,164.1,LL,140.6,54.7
AJIGSB2YPW,170207.0,21:13:44.656,R,140.6,LR,546.9,218.8
AJIGSB2YPW,170207.0,21:13:45.391,R,218.8,RR,656.3,515.6
AJIGSB2YPW,170207.0,21:13:46.891,L,156.3,LL,414.1,46.9
AJIGSB2YPW,170207.0,21:13:47.305,L,195.3,LL,375.0,218.8
AJIGSB2YPW,170207.0,21:13:49.664,L,132.8,LL,328.1,218.8
AJIGSB2YPW,170207.0,21:13:51.227,L,187.5,LL,656.3,468.8
AJIGSB2YPW,170207.0,21:13:51.844,L,265.6,LL,539.1,351.6
AJIGSB2YPW,170207.0,21:13:55.984,R,179.7,RR,742.2,531.3
AJIGSB2YPW,170207.0,21:13:56.547,L,179.7,RL,562.5,382.8
AJIGSB2YPW,170207.0,21:13:57.023,L,164.1,LL,492.2,312.5
AJIGSB2YPW,170207.0,21:14:43.047,L,101.6,LL,250.0,117.2
AJIGSB2YPW,170207.0,21:14:43.281,L,140.6,LL,195.3,93.8
AJIGSB2YPW,170207.0,21:14:52.758,R,109.4,LR,500.0,265.6
AJIGSB2YPW,170207.0,21:14:53.273,R,171.9,RR,453.1,343.8
AJIGSB2YPW,170207.0,21:14:54.078,L,31.3,RL,265.6,773.4
AJIGSB2YPW,170207.0,21:14:54.219,R,171.9,LR,265.6,773.4
AJIGSB2YPW,170207.0,21:15:01.297,R,93.8,LR,351.6,125.0
AJIGSB2YPW,170207.0,21:15:01.828,R,164.1,RR,460.9,367.2
AJIGSB2YPW,170207.0,21:15:02.336,L,140.6,RL,531.3,367.2
AJIGSB2YPW,170207.0,21:15:07.383,L,164.1,RL,718.8,539.1
AJIGSB2YPW,170207.0,21:15:07.852,L,171.9,LL,460.9,296.9
AJIGSB2YPW,170207.0,21:18:43.727,L,132.8,LL,585.9,437.5
AJIGSB2YPW,170207.0,21:18:44.336,L,218.8,LL,523.4,390.6
AJIGSB2YPW,170207.0,21:18:44.992,L,15.6,LL,500.0,640.6
AJIGSB2YPW,170207.0,21:18:45.633,R,226.6,LR,429.7,414.1
AJIGSB2YPW,170207.0,21:19:09.023,R,187.5,RR,718.8,554.7
AJIGSB2YPW,170207.0,21:19:09.594,L,187.5,RL,570.3,382.8
AJIGSB2YPW,170207.0,21:19:10.305,L,156.3,LL,742.2,554.7
AJIGSB2YPW,170207.0,21:19:10.695,L,234.4,LL,312.5,156.3
AJIGSB2YPW,170207.0,21:19:13.000,L,351.6,RL,750.0,531.3
AJIGSB2YPW,170207.0,21:19:13.180,R,148.4,LR,382.8,31.3
AJIGSB2YPW,170207.0,21:19:13.953,R,273.4,RR,648.4,500.0
AJIGSB2YPW,170207.0,21:20:09.617,R,156.3,LR,187.5,101.6
AJIGSB2YPW,170207.0,21:20:11.219,L,218.8,LL,734.4,476.6
AJIGSB2YPW,170207.0,21:20:11.516,R,218.8,LR,296.9,78.1
AJIGSB2YPW,170207.0,21:20:12.062,R,164.1,RR,601.6,382.8
AJIGSB2YPW,170207.0,21:20:12.664,L,179.7,RL,585.9,421.9
AJIGSB2YPW,170207.0,21:20:40.453,L,226.6,LL,593.8,445.3
AJIGSB2YPW,170207.0,21:20:41.805,L,320.3,LL,343.8,85.9
AJIGSB2YPW,170207.0,21:20:42.094,R,195.3,LR,414.1,93.8
AJIGSB2YPW,170207.0,21:20:42.797,L,156.3,RL,742.2,546.9
AJIGSB2YPW,170207.0,21:20:43.641,L,445.3,LL,554.7,398.4
AJIGSB2YPW,170207.0,21:20:53.891,R,132.8,LR,500.0,210.9
AJIGSB2YPW,170207.0,21:20:54.375,R,101.6,RR,515.6,382.8
AJIGSB2YPW,170207.0,21:20:54.820,R,171.9,RR,375.0,273.4
AJIGSB2YPW,170207.0,21:20:56.672,L,218.8,LL,609.4,500.0
AJIGSB2YPW,170207.0,21:20:57.969,L,218.8,RL,460.9,296.9
AJIGSB2YPW,170207.0,21:21:03.156,R,125.0,LR,570.3,460.9
AJIGSB2YPW,170207.0,21:21:03.789,R,179.7,RR,578.1,453.1
AJIGSB2YPW,170207.0,21:23:22.781,R,148.4,LR,476.6,312.5
AJIGSB2YPW,170207.0,21:23:23.445,L,218.8,RL,593.8,445.3
AJIGSB2YPW,170207.0,21:23:23.891,L,195.3,LL,468.8,250.0
AJIGSB2YPW,170207.0,21:23:24.070,R,78.1,LR,296.9,101.6
AJIGSB2YPW,170207.0,21:23:24.523,R,226.6,RR,304.7,226.6
AJIGSB2YPW,170207.0,21:23:26.852,L,210.9,RL,562.5,437.5
AJIGSB2YPW,170207.0,21:23:35.578,L,164.1,LL,406.3,179.7
AJIGSB2YPW,170207.0,21:23:37.297,L,312.5,LL,546.9,234.4
AJIGSB2YPW,170207.0,21:23:37.703,R,226.6,LR,492.2,179.7
AJIGSB2YPW,170207.0,21:23:52.688,R,140.6,RR,695.3,570.3
AJIGSB2YPW,170207.0,21:23:53.414,R,226.6,RR,640.6,500.0
AJIGSB2YPW,170207.0,21:24:01.734,R,218.8,RR,445.3,312.5
AJIGSB2YPW,170207.0,21:24:24.500,S,187.5,RS,484.4,312.5
AJIGSB2YPW,170207.0,21:24:26.195,R,148.4,RR,375.0,265.6
AJIGSB2YPW,170207.0,21:24:26.914,L,242.2,RL,625.0,476.6
AJIGSB2YPW,170207.0,21:24:27.719,S,296.9,LS,750.0,507.8
AJIGSB2YPW,170207.0,21:24:31.484,R,140.6,LR,273.4,54.7
AJIGSB2YPW,170207.0,21:24:32.148,L,218.8,RL,585.9,445.3
AJIGSB2YPW,170207.0,21:24:32.359,S,132.8,LS,296.9,78.1
AJIGSB2YPW,170207.0,21:24:33.180,R,171.9,SR,781.3,648.4
AJIGSB2YPW,170207.0,21:24:33.992,L,31.3,RL,218.8,781.3
AJIGSB2YPW,170207.0,21:24:34.117,R,156.3,LR,218.8,781.3
AJIGSB2YPW,170207.0,21:24:34.781,L,125.0,RL,695.3,539.1
AJIGSB2YPW,170207.0,21:24:35.203,L,140.6,LL,406.3,281.3
AJIGSB2YPW,170207.0,21:24:35.508,S,187.5,LS,257.8,117.2
AJIGSB2YPW,170207.0,21:24:35.883,R,210.9,SR,351.6,164.1
AJIGSB2YPW,170207.0,21:24:36.734,L,437.5,RL,625.0,414.1
AJIGSB2YPW,170207.0,21:24:39.234,R,140.6,LR,390.6,148.4
AJIGSB2YPW,170207.0,21:24:39.703,S,226.6,RS,382.8,242.2
AJIGSB2YPW,170207.0,21:24:41.242,R,93.8,LR,421.9,132.8
AJIGSB2YPW,170207.0,21:24:41.422,R,39.1,RR,234.4,140.6
AJIGSB2YPW,170207.0,21:25:23.414,L,320.3,LL,632.8,437.5
AJIGSB2YPW,170208.0,11:45:16.941,L,195.3,RL,535.2,367.2
AJIGSB2YPW,170208.0,11:45:17.277,S,152.3,LS,375.0,179.7
AJIGSB2YPW,170208.0,11:45:17.875,R,214.8,SR,539.1,386.7
AJIGSB2YPW,170208.0,11:45:18.441,L,222.7,RL,558.6,343.8
AJIGSB2YPW,170208.0,11:45:18.988,S,296.9,LS,472.7,250.0
AJIGSB2YPW,170208.0,11:45:21.164,R,89.8,RR,625.0,535.2
AJIGSB2YPW,170208.0,11:45:21.652,S,218.8,RS,359.4,269.5
AJIGSB2YPW,170208.0,11:45:24.641,R,175.8,LR,582.0,222.7
AJIGSB2YPW,170208.0,11:45:26.012,R,128.9,LR,328.1,31.3
AJIGSB2YPW,170208.0,11:45:29.754,R,160.2,RR,402.3,250.0
AJIGSB2YPW,170208.0,11:45:54.078,L,105.5,SL,429.7,207.0
AJIGSB2YPW,170208.0,11:45:54.652,L,191.4,LL,488.3,382.8
AJIGSB2YPW,170208.0,11:45:55.176,L,226.6,LL,488.3,296.9
AJIGSB2YPW,170208.0,11:45:55.422,S,160.2,LS,312.5,85.9
AJIGSB2YPW,170208.0,11:45:57.141,L,414.1,LL,496.1,375.0
AJIGSB2YPW,170208.0,11:45:57.688,L,351.6,LL,609.4,195.3
AJIGSB2YPW,170208.0,11:45:57.879,R,144.5,LR,398.4,46.9
AJIGSB2YPW,170208.0,11:45:58.367,S,218.8,RS,414.1,269.5
AJIGSB2YPW,170208.0,11:46:00.887,S,218.8,RS,480.5,304.7
AJIGSB2YPW,170208.0,11:46:11.781,R,113.3,SR,617.2,199.2
AJIGSB2YPW,170208.0,11:46:12.203,R,160.2,RR,375.0,261.7
AJIGSB2YPW,170208.0,11:46:12.578,S,140.6,RS,394.5,234.4
AJIGSB2YPW,170208.0,11:46:13.309,L,191.4,SL,679.7,539.1
AJIGSB2YPW,170208.0,11:46:13.492,R,152.3,LR,222.7,31.3
AJIGSB2YPW,170208.0,11:46:15.906,R,101.6,RR,464.8,371.1
AJIGSB2YPW,170208.0,11:46:16.340,R,168.0,RR,367.2,265.6
AJIGSB2YPW,170208.0,11:46:16.820,L,113.3,RL,535.2,367.2
AJIGSB2YPW,170208.0,11:46:17.363,L,230.5,LL,425.8,312.5
AJIGSB2YPW,170208.0,11:46:18.059,L,367.2,LL,558.6,328.1
AJIGSB2YPW,170208.0,11:47:39.215,R,101.6,RR,394.5,257.8
AJIGSB2YPW,170208.0,11:47:39.855,R,441.4,RR,300.8,199.2
AJIGSB2YPW,170208.0,11:47:43.328,R,136.7,RR,503.9,437.5
AJIGSB2YPW,170208.0,11:47:43.762,R,168.0,RR,402.3,265.6
AJIGSB2YPW,170208.0,11:47:44.395,L,242.2,RL,558.6,390.6
AJIGSB2YPW,170208.0,11:47:44.848,S,214.8,LS,480.5,238.3
AJIGSB2YPW,170208.0,11:47:54.773,R,152.3,LR,781.3,382.8
AJIGSB2YPW,170208.0,11:47:55.660,R,156.3,RR,378.9,730.5
AJIGSB2YPW,170208.0,11:47:55.695,L,191.4,RL,378.9,730.5
AJIGSB2YPW,170208.0,12:29:51.016,R,175.8,LR,457.0,89.8
AJIGSB2YPW,170208.0,12:29:51.398,L,175.8,RL,382.8,207.0
AJIGSB2YPW,170208.0,12:29:57.637,R,160.2,LR,429.7,199.2
AJIGSB2YPW,170208.0,12:29:57.926,L,144.5,RL,304.7,144.5
AJIGSB2YPW,170208.0,12:30:14.301,R,183.6,LR,289.1,74.2
AJIGSB2YPW,170208.0,12:30:14.914,L,125.0,RL,671.9,488.3
AJIGSB2YPW,170208.0,12:30:15.562,L,191.4,LL,582.0,457.0
AJIGSB2YPW,170208.0,12:30:29.816,L,132.8,LL,371.1,242.2
AJIGSB2YPW,170208.0,12:30:36.785,R,226.6,LR,453.1,148.4
AJIGSB2YPW,170208.0,12:30:37.457,L,183.6,RL,714.8,488.3
AJIGSB2YPW,170208.0,12:30:38.023,S,214.8,LS,535.2,351.6
AJIGSB2YPW,170208.0,12:30:41.672,R,113.3,LR,375.0,191.4
AJIGSB2YPW,170208.0,12:30:41.977,L,222.7,RL,195.3,82.0
AJIGSB2YPW,170208.0,12:30:42.504,L,328.1,LL,421.9,199.2
AJIGSB2YPW,170208.0,12:31:01.238,R,89.8,RR,597.7,476.6
AJIGSB2YPW,170208.0,12:31:01.855,R,168.0,RR,539.1,449.2
AJIGSB2YPW,170208.0,12:31:02.406,L,183.6,RL,535.2,367.2
AJIGSB2YPW,170208.0,12:31:02.773,R,128.9,LR,421.9,238.3
AJIGSB2YPW,170208.0,12:31:04.094,L,312.5,LL,320.3,105.5
AJIGSB2YPW,170208.0,12:31:04.711,L,152.3,LL,777.3,464.8
AJIGSB2YPW,170208.0,12:31:04.859,R,46.9,LR,253.9,101.6
AJIGSB2YPW,170208.0,12:31:05.156,R,128.9,RR,214.8,168.0
AJIGSB2YPW,170208.0,12:31:05.691,R,85.9,RR,578.1,449.2
AJIGSB2YPW,170208.0,12:31:06.180,S,183.6,RS,390.6,304.7
AJIGSB2YPW,170208.0,12:31:06.973,L,261.7,SL,714.8,531.3
AJIGSB2YPW,170208.0,12:31:07.238,R,144.5,LR,382.8,121.1
AJIGSB2YPW,170208.0,12:31:07.668,L,214.8,RL,359.4,214.8
AJIGSB2YPW,170208.0,12:31:08.379,S,277.3,LS,648.4,433.6
AJIGSB2YPW,170208.0,12:31:19.883,R,222.7,RR,343.8,168.0
AJIGSB2YPW,170208.0,12:31:21.770,S,214.8,LS,414.1,230.5
AJIGSB2YPW,170208.0,12:31:22.441,R,214.8,SR,671.9,457.0
AJIGSB2YPW,170208.0,12:31:22.914,R,183.6,RR,503.9,289.1
AJIGSB2YPW,170208.0,12:31:23.496,L,101.6,RL,664.1,480.5
AJIGSB2YPW,170208.0,12:31:23.859,L,234.4,LL,230.5,128.9
AJIGSB2YPW,170208.0,12:32:27.977,S,214.8,RS,625.0,472.7
AJIGSB2YPW,170208.0,12:32:35.336,R,168.0,LR,351.6,85.9
AJIGSB2YPW,170208.0,12:32:36.008,L,144.5,RL,695.3,527.3
AJIGSB2YPW,170208.0,14:14:34.359,R,152.3,LR,375.0,183.6
AJIGSB2YPW,170208.0,14:14:34.832,L,214.8,RL,410.2,257.8
AJIGSB2YPW,170208.0,14:24:32.770,R,97.7,SR,726.6,550.8
AJIGSB2YPW,170208.0,14:24:33.234,R,152.3,RR,410.2,312.5
AJIGSB2YPW,170208.0,14:24:33.723,R,89.8,RR,550.8,398.4
AJIGSB2YPW,170208.0,14:24:34.434,L,121.1,RL,679.7,589.8
AJIGSB2YPW,170208.0,14:24:38.984,L,82.0,RL,664.1,558.6
AJIGSB2YPW,170208.0,14:24:39.473,L,82.0,LL,488.3,406.3
AJIGSB2YPW,170208.0,14:24:40.902,L,109.4,RL,496.1,410.2
AJIGSB2YPW,170208.0,14:24:41.609,R,82.0,LR,734.4,625.0
AJIGSB2YPW,170208.0,14:24:42.258,L,101.6,RL,625.0,543.0
AJIGSB2YPW,170208.0,14:24:43.039,S,191.4,LS,695.3,593.8
AJIGSB2YPW,170208.0,14:24:48.086,R,144.5,LR,777.3,656.3
AJIGSB2YPW,170208.0,17:49:30.148,R,62.5,RR,554.7,441.4
AJIGSB2YPW,170208.0,17:49:30.395,R,109.4,RR,199.2,136.7
AJIGSB2YPW,170208.0,17:49:33.391,R,78.1,LR,597.7,503.9
AJIGSB2YPW,170208.0,17:49:33.902,R,78.1,RR,511.7,433.6
AJIGSB2YPW,170208.0,17:49:34.438,R,82.0,RR,535.2,457.0
AJIGSB2YPW,170208.0,17:49:35.891,S,140.6,LS,433.6,289.1
AJIGSB2YPW,170208.0,17:49:41.637,R,152.3,LR,617.2,382.8
AJIGSB2YPW,170208.0,17:49:42.254,L,97.7,RL,320.3,519.5
AJIGSB2YPW,170208.0,17:49:42.301,R,144.5,LR,320.3,519.5
AJIGSB2YPW,170208.0,17:50:46.953,S,246.1,RS,656.3,554.7
AJIGSB2YPW,170208.0,17:50:49.113,L,175.8,LL,640.6,457.0
AJIGSB2YPW,170208.0,17:50:49.664,L,222.7,LL,503.9,328.1
AJIGSB2YPW,170208.0,17:50:50.969,S,175.8,RS,406.3,296.9
AJIGSB2YPW,170208.0,17:50:52.754,R,136.7,RR,398.4,281.3
AJIGSB2YPW,170208.0,17:50:53.234,S,218.8,RS,398.4,261.7
AJIGSB2YPW,170208.0,17:50:56.426,R,168.0,LR,777.3,648.4
AJIGSB2YPW,170208.0,17:51:08.758,R,175.8,RR,687.5,503.9
AJIGSB2YPW,170208.0,17:51:09.062,R,168.0,RR,312.5,136.7
AJIGSB2YPW,170208.0,17:51:12.949,R,85.9,LR,527.3,257.8
AJIGSB2YPW,170208.0,17:51:13.324,R,117.2,RR,343.8,257.8
AJIGSB2YPW,170208.0,17:51:13.781,R,168.0,RR,406.3,289.1
AJIGSB2YPW,170208.0,17:51:14.238,L,183.6,RL,441.4,273.4
AJIGSB2YPW,170208.0,17:52:16.543,R,226.6,RR,308.6,183.6
AJIGSB2YPW,170208.0,17:52:31.637,R,152.3,RR,375.0,273.4
AJIGSB2YPW,170208.0,17:52:35.996,R,144.5,LR,656.3,406.3
AJIGSB2YPW,170208.0,17:52:36.387,R,132.8,RR,402.3,257.8
AJIGSB2YPW,170208.0,17:52:36.828,R,168.0,RR,406.3,273.4
AJIGSB2YPW,170208.0,17:52:37.461,L,121.1,RL,679.7,511.7
AJIGSB2YPW,170208.0,17:52:53.930,S,191.4,RS,371.1,273.4
AJIGSB2YPW,170208.0,17:52:54.480,L,222.7,SL,519.5,328.1
AJIGSB2YPW,170208.0,17:52:54.930,L,273.4,LL,398.4,175.8
AJIGSB2YPW,170208.0,17:52:56.496,R,152.3,LR,566.4,343.8
AJIGSB2YPW,170208.0,17:52:56.961,S,222.7,RS,394.5,242.2
AJIGSB2YPW,170208.0,17:52:57.410,R,105.5,SR,566.4,343.8
AJIGSB2YPW,170208.0,17:52:57.855,R,152.3,RR,398.4,293.0
AJIGSB2YPW,170208.0,17:52:58.406,S,238.3,RS,464.8,312.5
AJIGSB2YPW,170208.0,17:53:01.832,L,144.5,RL,519.5,390.6
AJIGSB2YPW,170208.0,19:34:38.438,L,148.4,LL,695.3,554.7
AJIGSB2YPW,170208.0,19:34:38.836,R,210.9,LR,335.9,187.5
AJIGSB2YPW,170208.0,19:35:18.586,L,312.5,LL,726.6,531.3
AJIGSB2YPW,170208.0,19:35:18.883,R,164.1,LR,445.3,132.8
AJIGSB2YPW,170208.0,19:35:22.227,R,250.0,LR,765.6,398.4
AJIGSB2YPW,170208.0,19:35:34.898,R,179.7,LR,507.8,296.9
AJIGSB2YPW,170208.0,19:35:35.312,L,117.2,RL,476.6,296.9
AJIGSB2YPW,170208.0,19:35:35.953,L,226.6,LL,531.3,414.1
AJIGSB2YPW,170208.0,19:35:52.227,L,218.8,RL,593.8,429.7
AJIGSB2YPW,170208.0,19:36:21.242,L,226.6,RL,687.5,507.8
AJIGSB2YPW,170208.0,19:53:11.312,L,335.9,LL,710.9,507.8
AJIGSB2YPW,170208.0,19:53:11.727,R,179.7,LR,570.3,234.4
AJIGSB2YPW,170208.0,19:53:12.953,R,179.7,LR,273.4,39.1
AJIGSB2YPW,170208.0,19:53:25.945,L,78.1,RL,710.9,570.3
AJIGSB2YPW,170208.0,19:53:26.742,R,109.4,LR,765.6,687.5
AJIGSB2YPW,170208.0,19:53:27.523,L,125.0,RL,765.6,656.3
AJIGSB2YPW,170208.0,19:53:27.852,L,101.6,LL,351.6,226.6
AJIGSB2YPW,170208.0,19:53:28.438,L,132.8,LL,554.7,453.1
AJIGSB2YPW,170208.0,19:53:35.648,R,85.9,LR,171.9,23.4
AJIGSB2YPW,170208.0,19:53:38.016,R,109.4,SR,421.9,335.9
AJIGSB2YPW,170208.0,19:53:38.914,L,234.4,RL,773.4,664.1
AJIGSB2YPW,170208.0,19:53:39.211,R,117.2,LR,414.1,179.7
AJIGSB2YPW,170208.0,19:53:39.766,L,93.8,RL,578.1,460.9
AJIGSB2YPW,170208.0,19:53:40.352,L,234.4,LL,445.3,351.6
AJIGSB2YPW,170208.0,19:53:44.031,L,179.7,RL,703.1,546.9
AJIGSB2YPW,170208.0,19:53:44.398,S,164.1,LS,382.8,203.1
AJIGSB2YPW,170208.0,19:53:47.102,R,132.8,LR,343.8,132.8
AJIGSB2YPW,170208.0,19:53:47.680,R,148.4,RR,562.5,429.7
AJIGSB2YPW,170208.0,19:53:48.391,L,187.5,RL,671.9,523.4
AJIGSB2YPW,170208.0,19:53:48.625,R,164.1,LR,257.8,70.3
AJIGSB2YPW,170208.0,19:53:49.422,L,218.8,RL,742.2,578.1
AJIGSB2YPW,170208.0,19:54:06.734,S,187.5,RS,718.8,523.4
AJIGSB2YPW,170208.0,19:54:10.680,L,226.6,RL,578.1,437.5
AJIGSB2YPW,170208.0,19:54:17.438,L,312.5,LL,140.6,39.1
AJIGSB2YPW,170208.0,19:54:32.438,L,335.9,LL,671.9,437.5
AJIGSB2YPW,170208.0,19:54:32.844,R,179.7,LR,562.5,226.6
AJIGSB2YPW,170208.0,19:54:34.586,R,242.2,LR,507.8,179.7
AJIGSB2YPW,170208.0,19:54:34.883,R,140.6,RR,398.4,156.3
AJIGSB2YPW,170208.0,19:54:35.555,L,179.7,RL,632.8,492.2
AJIGSB2YPW,170208.0,19:54:36.016,L,312.5,LL,328.1,148.4
AJIGSB2YPW,170208.0,19:54:36.266,L,171.9,LL,390.6,78.1
AJIGSB2YPW,170208.0,19:54:49.961,L,250.0,LL,414.1,226.6
AJIGSB2YPW,170208.0,19:54:50.344,R,164.1,LR,468.8,218.8
AJIGSB2YPW,170208.0,19:54:51.758,R,195.3,LR,390.6,125.0
AJIGSB2YPW,170208.0,19:55:06.211,L,140.6,RL,632.8,515.6
AJIGSB2YPW,170208.0,19:55:07.109,L,382.8,LL,656.3,515.6
AJIGSB2YPW,170208.0,19:55:07.367,L,164.1,LL,476.6,93.8
AJIGSB2YPW,170208.0,19:55:28.336,R,226.6,RR,507.8,375.0
AJIGSB2YPW,170208.0,19:55:28.930,L,171.9,RL,648.4,421.9
AJIGSB2YPW,170208.0,19:55:29.320,L,156.3,LL,406.3,234.4
AJIGSB2YPW,170208.0,19:55:29.711,L,218.8,LL,328.1,171.9
AJIGSB2YPW,170208.0,19:55:30.344,L,242.2,LL,609.4,390.6
AJIGSB2YPW,170208.0,19:55:31.023,R,242.2,LR,679.7,437.5
AJIGSB2YPW,170208.0,19:55:57.523,R,125.0,RR,460.9,304.7
AJIGSB2YPW,170208.0,19:55:57.000,R,140.6,RR,460.9,335.9
AJIGSB2YPW,170208.0,19:55:59.266,L,125.0,LL,289.1,203.1
AJIGSB2YPW,170208.0,19:55:59.734,L,187.5,LL,406.3,281.3
AJIGSB2YPW,170208.0,19:56:00.375,L,265.6,LL,562.5,375.0
AJIGSB2YPW,170208.0,19:56:00.820,R,179.7,LR,531.3,265.6
AJIGSB2YPW,170208.0,19:56:17.070,R,125.0,RR,351.6,242.2
AJIGSB2YPW,170208.0,19:56:17.562,R,148.4,RR,468.8,343.8
AJIGSB2YPW,170208.0,19:56:20.062,L,132.8,LL,273.4,195.3
AJIGSB2YPW,170208.0,19:56:20.547,L,187.5,LL,437.5,304.7
AJIGSB2YPW,170208.0,19:56:21.117,L,226.6,LL,531.3,343.8
AJIGSB2YPW,170208.0,19:56:45.367,L,234.4,LL,476.6,148.4
AJIGSB2YPW,170208.0,19:56:45.812,R,242.2,LR,437.5,203.1
AJIGSB2YPW,170208.0,19:56:49.070,R,171.9,LR,335.9,39.1
AJIGSB2YPW,170208.0,19:56:49.430,R,156.3,RR,375.0,203.1
AJIGSB2YPW,170208.0,19:56:51.750,L,257.8,LL,484.4,304.7
AJIGSB2YPW,170208.0,19:56:51.953,L,125.0,LL,335.9,78.1
AJIGSB2YPW,170208.0,19:57:06.578,R,187.5,LR,250.0,31.3
AJIGSB2YPW,170208.0,19:57:07.234,L,304.7,RL,539.1,351.6
AJIGSB2YPW,170208.0,19:57:52.594,L,156.3,RL,460.9,312.5
AJIGSB2YPW,170208.0,19:58:21.508,R,78.1,LR,359.4,265.6
AJIGSB2YPW,170208.0,19:58:21.898,L,85.9,RL,382.8,304.7
AJIGSB2YPW,170208.0,19:58:35.531,R,117.2,SR,664.1,484.4
AJIGSB2YPW,170208.0,19:58:42.312,L,125.0,LL,578.1,484.4
AJIGSB2YPW,170208.0,19:58:59.086,L,226.6,LL,710.9,453.1
AJIGSB2YPW,170208.0,19:59:39.594,R,171.9,LR,601.6,375.0
AJIGSB2YPW,170208.0,19:59:40.430,L,312.5,RL,695.3,523.4
AJIGSB2YPW,170208.0,20:00:55.594,L,242.2,LL,507.8,367.2
AJIGSB2YPW,170208.0,20:00:56.062,R,187.5,LR,523.4,281.3
AJIGSB2YPW,170208.0,20:00:56.766,L,234.4,RL,656.3,468.8
AJIGSB2YPW,170208.0,20:00:56.977,R,132.8,LR,312.5,78.1
AJIGSB2YPW,170208.0,20:00:57.742,R,140.6,RR,757.8,625.0
AJIGSB2YPW,170208.0,20:00:59.219,L,328.1,LL,460.9,328.1
AJIGSB2YPW,170208.0,20:01:14.602,L,234.4,LL,351.6,93.8
AJIGSB2YPW,170208.0,20:01:15.062,R,171.9,LR,523.4,289.1
AJIGSB2YPW,170208.0,20:01:16.516,R,156.3,RR,343.8,242.2
AJIGSB2YPW,170208.0,20:01:17.008,L,132.8,RL,515.6,359.4
AJIGSB2YPW,170208.0,20:01:17.625,L,343.8,LL,406.3,273.4
AJIGSB2YPW,170208.0,20:01:17.883,L,140.6,LL,460.9,117.2
AJIGSB2YPW,170208.0,20:01:54.766,L,164.1,RL,671.9,562.5
AJIGSB2YPW,170208.0,20:01:56.758,R,125.0,RR,460.9,351.6
AJIGSB2YPW,170208.0,20:02:01.172,L,343.8,LL,359.4,226.6
AJIGSB2YPW,170208.0,20:02:08.969,L,195.3,LL,359.4,195.3
AJIGSB2YPW,170208.0,20:03:00.344,L,117.2,RL,656.3,476.6
AJIGSB2YPW,170208.0,20:03:00.680,L,148.4,LL,304.7,187.5
AJIGSB2YPW,170208.0,20:03:01.055,L,132.8,LL,390.6,242.2
AJIGSB2YPW,170208.0,20:03:01.547,L,156.3,LL,468.8,335.9
AJIGSB2YPW,170208.0,20:03:02.273,R,171.9,LR,710.9,554.7
AJIGSB2YPW,170208.0,20:03:12.102,L,125.0,LL,539.1,125.0
AJIGSB2YPW,170208.0,20:03:12.492,L,234.4,LL,281.3,156.3
AJIGSB2YPW,170208.0,20:03:20.844,L,250.0,LL,375.0,281.3
AJIGSB2YPW,170208.0,20:03:30.234,L,31.3,LL,31.3,640.6
AJIGSB2YPW,170208.0,20:03:30.430,L,226.6,LL,31.3,640.6
AJIGSB2YPW,170208.0,20:03:41.992,L,242.2,LL,789.1,382.8
AJIGSB2YPW,170210.0,16:23:16.879,L,89.8,LL,105.5,78.1
AJIGSB2YPW,170210.0,16:23:24.836,L,85.9,LL,218.8,97.7
AJIGSB2YPW,170210.0,16:23:25.004,L,78.1,LL,175.8,89.8
AJIGSB2YPW,170210.0,16:23:42.234,L,78.1,LL,168.0,97.7
AJIGSB2YPW,170210.0,16:23:42.410,L,93.8,LL,160.2,82.0
AJIGSB2YPW,170210.0,16:23:50.172,L,250.0,LL,273.4,175.8
AJIGSB2YPW,170210.0,16:23:50.531,R,89.8,LR,519.5,269.5
AJIGSB2YPW,170210.0,16:23:50.754,R,70.3,RR,242.2,152.3
AJIGSB2YPW,170210.0,16:23:51.121,R,175.8,RR,261.7,191.4
AJIGSB2YPW,170210.0,16:23:51.836,L,250.0,RL,640.6,464.8
AJIGSB2YPW,170210.0,16:23:52.273,R,136.7,LR,550.8,300.8
AJIGSB2YPW,170210.0,16:24:31.516,R,105.5,LR,316.4,93.8
AJIGSB2YPW,170210.0,16:24:32.324,R,168.0,RR,746.1,640.6
AJIGSB2YPW,170210.0,16:27:06.512,L,58.6,LL,218.8,140.6
AJIGSB2YPW,170210.0,16:27:06.695,L,70.3,LL,171.9,113.3
AJIGSB2YPW,170210.0,16:27:19.809,L,335.9,LL,464.8,50.8
AJIGSB2YPW,170210.0,16:27:20.105,L,234.4,LL,398.4,62.5
AJIGSB2YPW,170210.0,16:27:20.484,R,179.7,LR,433.6,199.2
AJIGSB2YPW,170210.0,16:27:23.207,L,250.0,RL,793.0,566.4
AJIGSB2YPW,170210.0,16:27:23.590,R,128.9,LR,503.9,253.9
AJIGSB2YPW,170210.0,16:27:31.965,L,234.4,RL,687.5,519.5
AJIGSB2YPW,170210.0,16:27:32.141,R,105.5,LR,304.7,70.3
AJIGSB2YPW,170210.0,16:27:32.676,R,183.6,RR,457.0,351.6
AJIGSB2YPW,170210.0,16:29:19.465,L,117.2,LL,324.2,171.9
AJIGSB2YPW,170210.0,16:29:19.918,L,168.0,LL,402.3,285.2
AJIGSB2YPW,170210.0,16:29:20.449,L,371.1,LL,328.1,160.2
AJIGSB2YPW,170210.0,16:29:43.062,L,89.8,LL,207.0,109.4
AJIGSB2YPW,170210.0,16:29:43.312,L,156.3,LL,183.6,93.8
AJIGSB2YPW,170210.0,16:31:13.496,L,89.8,LL,214.8,101.6
AJIGSB2YPW,170210.0,16:31:13.750,L,168.0,LL,175.8,85.9
AJIGSB2YPW,170210.0,16:31:34.867,L,238.3,LL,457.0,183.6
AJIGSB2YPW,170210.0,16:31:35.445,R,226.6,LR,589.8,351.6
AJIGSB2YPW,170210.0,16:31:36.652,R,226.6,RR,277.3,183.6
AJIGSB2YPW,170210.0,16:31:37.273,L,246.1,RL,601.6,375.0
AJIGSB2YPW,170210.0,16:31:37.570,R,175.8,LR,367.2,121.1
AJIGSB2YPW,170210.0,16:31:41.637,L,265.6,RL,656.3,488.3
AJIGSB2YPW,170210.0,16:31:41.844,R,121.1,LR,351.6,85.9
AJIGSB2YPW,170210.0,16:31:42.219,R,128.9,RR,367.2,246.1
AJIGSB2YPW,170210.0,17:20:56.258,L,74.2,LL,238.3,132.8
AJIGSB2YPW,170210.0,17:20:56.586,L,218.8,LL,183.6,109.4
AJIGSB2YPW,170210.0,17:21:00.980,L,43.0,LL,441.4,488.3
AJIGSB2YPW,170210.0,17:21:01.195,L,257.8,LL,441.4,488.3
AJIGSB2YPW,170210.0,17:21:01.520,R,246.1,LR,335.9,78.1
AJIGSB2YPW,170210.0,17:23:07.223,R,117.2,LR,585.9,464.8
AJIGSB2YPW,170210.0,17:23:07.793,L,113.3,RL,574.2,457.0
AJIGSB2YPW,170210.0,17:23:08.453,R,156.3,LR,617.2,503.9
AJIGSB2YPW,170210.0,17:23:18.879,R,183.6,LR,457.0,105.5
AJIGSB2YPW,170210.0,17:23:19.523,L,31.3,RL,261.7,613.3
AJIGSB2YPW,170210.0,17:23:19.711,R,218.8,LR,261.7,613.3
AJIGSB2YPW,170210.0,17:23:42.645,R,152.3,RR,503.9,289.1
AJIGSB2YPW,170211.0,08:37:47.717,L,128.9,RL,750.0,599.6
AJIGSB2YPW,170211.0,08:37:48.301,L,103.5,LL,609.4,480.5
AJIGSB2YPW,170211.0,08:37:48.936,S,107.4,LS,630.9,527.3
AJIGSB2YPW,170211.0,08:37:49.396,R,119.1,SR,449.2,341.8
AJIGSB2YPW,170211.0,08:37:50.676,L,70.3,LL,318.4,201.2
AJIGSB2YPW,170211.0,08:38:00.242,L,111.3,SL,695.3,496.1
AJIGSB2YPW,170211.0,08:38:00.529,L,109.4,LL,289.1,177.7
AJIGSB2YPW,170211.0,08:38:38.662,R,111.3,LR,720.7,593.8
AJIGSB2YPW,170211.0,08:38:39.102,S,160.2,RS,390.6,279.3
AJIGSB2YPW,170211.0,08:38:41.678,R,144.5,RR,503.9,390.6
AJIGSB2YPW,170211.0,08:38:44.332,L,103.5,LL,390.6,279.3
AJIGSB2YPW,170211.0,08:38:48.859,R,111.3,RR,656.3,552.7
AJIGSB2YPW,170211.0,08:38:49.340,L,87.9,RL,503.9,392.6
AJIGSB2YPW,170211.0,08:38:49.805,L,128.9,LL,423.8,335.9
AJIGSB2YPW,170211.0,08:38:52.107,S,128.9,LS,685.5,582.0
AJIGSB2YPW,170211.0,08:39:35.982,R,56.6,RR,630.9,527.3
AJIGSB2YPW,170211.0,08:39:36.727,R,152.3,RR,648.4,591.8
AJIGSB2YPW,170211.0,08:39:41.102,L,232.4,LL,496.1,343.8
AJIGSB2YPW,170211.0,08:39:41.404,R,111.3,LR,423.8,191.4
AJIGSB2YPW,170211.0,08:39:41.877,S,216.8,RS,367.2,255.9
AJIGSB2YPW,170211.0,08:39:42.533,L,224.6,SL,648.4,431.6
AJIGSB2YPW,170211.0,08:39:42.645,R,54.7,LR,281.3,56.6
AJIGSB2YPW,170211.0,08:39:43.156,R,142.6,RR,423.8,369.1
AJIGSB2YPW,170211.0,08:39:43.748,L,119.1,RL,615.2,472.7
AJIGSB2YPW,170211.0,08:39:44.652,L,255.9,LL,767.6,648.4
AJIGSB2YPW,170211.0,08:39:45.164,L,175.8,LL,591.8,335.9
AJIGSB2YPW,170211.0,08:39:51.779,R,214.8,SR,400.4,255.9
AJIGSB2YPW,170211.0,08:39:52.396,L,216.8,RL,615.2,400.4
AJIGSB2YPW,170211.0,08:39:52.844,S,224.6,LS,439.5,222.7
AJIGSB2YPW,170211.0,08:39:53.652,L,359.4,SL,673.8,449.2
AJIGSB2YPW,170211.0,08:39:54.115,L,142.6,LL,679.7,320.3
AJIGSB2YPW,170211.0,08:39:54.443,S,175.8,LS,294.9,152.3
AJIGSB2YPW,170211.0,08:39:55.100,R,127.0,SR,705.1,529.3
AJIGSB2YPW,170211.0,08:39:59.451,R,144.5,RR,367.2,271.5
AJIGSB2YPW,170211.0,08:39:59.836,L,89.8,RL,439.5,294.9
AJIGSB2YPW,170211.0,08:40:00.154,L,127.0,LL,281.3,191.4
AJIGSB2YPW,170211.0,08:40:00.516,L,127.0,LL,359.4,232.4
AJIGSB2YPW,170211.0,08:40:01.346,L,279.3,LL,679.7,552.7
AJIGSB2YPW,170211.0,08:40:02.074,R,216.8,LR,791.0,511.7
AJIGSB2YPW,170211.0,08:40:27.566,S,142.6,RS,664.1,513.7
AJIGSB2YPW,170211.0,08:40:28.719,R,160.2,LR,222.7,64.5
AJIGSB2YPW,170211.0,08:40:29.902,R,62.5,LR,328.1,56.6
AJIGSB2YPW,170211.0,08:40:30.391,R,111.3,RR,439.5,377.0
AJIGSB2YPW,170211.0,08:40:31.070,L,222.7,RL,568.4,457.0
AJIGSB2YPW,170211.0,08:40:51.373,R,169.9,RR,248.0,158.2
AJIGSB2YPW,170211.0,08:40:54.596,R,105.5,RR,439.5,375.0
AJIGSB2YPW,170211.0,08:40:55.322,R,115.2,RR,716.8,611.3
AJIGSB2YPW,170211.0,08:41:08.441,S,222.7,LS,423.8,296.9
AJIGSB2YPW,170211.0,08:41:13.049,R,144.5,LR,328.1,80.1
AJIGSB2YPW,170211.0,08:41:59.082,R,142.6,RR,271.5,144.5
AJIGSB2YPW,170211.0,08:41:59.402,R,191.4,RR,271.5,128.9
AJIGSB2YPW,170211.0,08:42:02.354,R,111.3,RR,384.8,312.5
AJIGSB2YPW,170211.0,08:42:02.818,R,160.2,RR,416.0,304.7
AJIGSB2YPW,170211.0,08:42:03.650,L,224.6,RL,767.6,607.4
AJIGSB2YPW,170211.0,08:42:04.314,S,160.2,LS,728.5,503.9
AJIGSB2YPW,170211.0,08:42:19.672,L,271.5,RL,705.1,552.7
AJIGSB2YPW,170211.0,08:42:19.896,R,128.9,LR,367.2,95.7
AJIGSB2YPW,170211.0,12:24:50.309,R,85.9,RR,656.3,480.5
AJIGSB2YPW,170211.0,12:24:54.086,R,128.9,LR,765.6,671.9
AJIGSB2YPW,170211.0,12:24:54.652,L,85.9,RL,609.4,480.5
AJIGSB2YPW,170211.0,12:24:55.348,R,101.6,LR,679.7,593.8
AJIGSB2YPW,170211.0,12:27:07.883,R,109.4,LR,433.6,97.7
AJIGSB2YPW,170211.0,12:27:08.395,R,78.1,RR,543.0,433.6
AJIGSB2YPW,170211.0,12:27:12.012,R,89.8,RR,246.1,175.8
AJIGSB2YPW,170211.0,12:27:12.434,R,132.8,RR,378.9,289.1
AJIGSB2YPW,170211.0,12:27:14.281,S,168.0,LS,652.3,480.5
AJIGSB2YPW,170211.0,12:27:20.234,L,230.5,RL,425.8,312.5
AJIGSB2YPW,170211.0,12:27:20.508,R,168.0,LR,335.9,105.5
AJIGSB2YPW,170211.0,12:27:44.855,L,390.6,RL,570.3,410.2
AJIGSB2YPW,170211.0,12:27:45.047,R,168.0,LR,414.1,23.4
AJIGSB2YPW,170211.0,12:27:45.504,L,273.4,RL,351.6,183.6
AJIGSB2YPW,170211.0,12:28:24.527,R,117.2,LR,250.0,31.3
AJIGSB2YPW,170211.0,12:28:25.129,L,265.6,RL,453.1,335.9
AJIGSB2YPW,170211.0,12:28:25.426,R,128.9,LR,433.6,168.0
AJIGSB2YPW,170211.0,12:28:25.938,S,222.7,RS,418.0,289.1
AJIGSB2YPW,170211.0,12:32:19.754,L,97.7,RL,644.5,550.8
AJIGSB2YPW,170211.0,12:32:20.488,R,93.8,LR,738.3,640.6
AJIGSB2YPW,170211.0,12:32:21.012,L,105.5,RL,511.7,418.0
AJIGSB2YPW,170211.0,12:32:21.785,R,160.2,LR,718.8,613.3
AJIGSB2YPW,170211.0,12:32:32.062,L,222.7,RL,750.0,601.6
AJIGSB2YPW,170211.0,12:33:23.594,R,144.5,RR,535.2,375.0
AJIGSB2YPW,170211.0,12:33:28.480,R,160.2,LR,289.1,39.1
AJIGSB2YPW,170211.0,12:33:28.969,L,253.9,RL,394.5,234.4
AJIGSB2YPW,170211.0,12:33:29.418,R,218.8,LR,484.4,230.5
AJIGSB2YPW,170211.0,12:36:05.059,L,343.8,RL,679.7,453.1
AJIGSB2YPW,170211.0,12:36:05.277,R,191.4,LR,371.1,27.3
AJIGSB2YPW,170211.0,12:36:05.980,L,273.4,RL,621.1,429.7
AJIGSB2YPW,170211.0,12:36:06.309,R,191.4,LR,410.2,136.7
AJIGSB2YPW,170211.0,14:58:28.750,R,175.8,RR,578.1,437.5
AJIGSB2YPW,170211.0,14:58:41.477,R,183.6,RR,648.4,425.8
AJIGSB2YPW,170211.0,14:58:46.500,L,113.3,RL,503.9,414.1
AJIGSB2YPW,170211.0,15:10:38.512,L,300.8,RL,625.0,472.7
AJIGSB2YPW,170211.0,15:10:38.844,R,164.1,LR,472.7,171.9
AJIGSB2YPW,170211.0,15:10:39.230,L,195.3,RL,355.5,191.4
AJIGSB2YPW,170211.0,15:10:39.508,R,136.7,LR,335.9,140.6
AJIGSB2YPW,170212.0,08:19:47.162,R,136.7,LR,615.2,488.3
AJIGSB2YPW,170212.0,08:19:47.666,L,119.1,RL,521.5,384.8
AJIGSB2YPW,170212.0,21:04:19.164,L,70.3,LL,640.6,546.9
AJIGSB2YPW,170212.0,21:04:25.852,R,148.4,LR,703.1,320.3
AJIGSB2YPW,170212.0,21:04:26.250,L,156.3,RL,390.6,242.2
AJIGSB2YPW,170212.0,21:04:26.711,L,234.4,LL,382.8,226.6
AJIGSB2YPW,170214.0,18:59:46.141,L,179.7,RL,742.2,500.0
AJIGSB2YPW,170214.0,18:59:46.578,L,171.9,LL,445.3,265.6
