User_ID,Date,Timestamp,Hand,Hold_Time,Direction,Latency_Time,Flight_Time
ARUGT4UL2R,170301.0,07:53:44.311,R,171.9,RR,375.0,250.0
ARUGT4UL2R,170301.0,07:54:42.043,L,140.6,LL,404.3,259.8
ARUGT4UL2R,170301.0,07:54:42.836,L,134.8,LL,798.8,658.2
ARUGT4UL2R,170301.0,07:54:43.451,R,93.8,LR,656.3,521.5
ARUGT4UL2R,170301.0,07:54:43.688,R,117.2,RR,212.9,119.1
ARUGT4UL2R,170301.0,07:54:44.033,R,140.6,RR,322.3,205.1
ARUGT4UL2R,170301.0,08:00:19.693,R,93.8,LR,562.5,419.9
ARUGT4UL2R,170301.0,08:00:29.844,S,150.4,RS,773.4,625.0
ARUGT4UL2R,170301.0,08:00:30.439,L,109.4,SL,636.7,486.3
ARUGT4UL2R,170301.0,08:00:30.748,L,95.7,LL,322.3,212.9
ARUGT4UL2R,170301.0,08:00:31.355,L,142.6,LL,560.5,464.8
ARUGT4UL2R,170301.0,08:00:32.086,S,236.3,LS,636.7,494.1
ARUGT4UL2R,170301.0,08:00:38.100,R,142.6,LR,632.8,474.6
ARUGT4UL2R,170301.0,08:00:38.715,L,111.3,RL,646.5,503.9
ARUGT4UL2R,170301.0,08:00:39.250,L,93.8,LL,552.7,441.4
ARUGT4UL2R,170301.0,08:00:39.740,L,181.6,LL,402.3,308.6
ARUGT4UL2R,170301.0,08:00:40.326,S,132.8,LS,634.8,453.1
ARUGT4UL2R,170301.0,08:00:40.750,L,127.0,SL,429.7,296.9
ARUGT4UL2R,170301.0,08:00:41.246,R,132.8,LR,490.2,363.3
ARUGT4UL2R,170301.0,08:00:46.996,R,166.0,RR,566.4,418.0
ARUGT4UL2R,170301.0,08:00:48.342,S,119.1,LS,539.1,414.1
ARUGT4UL2R,170301.0,08:00:48.670,L,103.5,SL,343.8,224.6
ARUGT4UL2R,170301.0,08:00:49.156,L,117.2,LL,472.7,369.1
ARUGT4UL2R,170301.0,08:00:52.568,R,127.0,LR,544.9,449.2
ARUGT4UL2R,170301.0,08:00:53.262,L,109.4,RL,710.9,584.0
ARUGT4UL2R,170301.0,08:00:53.863,R,127.0,LR,584.0,474.6
ARUGT4UL2R,170301.0,08:00:54.424,L,103.5,RL,584.0,457.0
ARUGT4UL2R,170301.0,08:00:54.668,L,119.1,LL,228.5,125.0
ARUGT4UL2R,170301.0,08:00:54.975,L,111.3,LL,314.5,195.3
ARUGT4UL2R,170301.0,08:00:55.258,L,111.3,LL,283.2,171.9
ARUGT4UL2R,170301.0,08:00:57.316,L,93.8,LL,322.3,203.1
ARUGT4UL2R,170301.0,08:00:57.664,L,62.5,LL,378.9,285.2
ARUGT4UL2R,170301.0,08:15:00.184,R,93.8,LR,703.1,578.1
ARUGT4UL2R,170301.0,08:15:00.949,R,125.0,RR,734.4,640.6
ARUGT4UL2R,170301.0,08:15:58.160,L,101.6,SL,377.0,250.0
ARUGT4UL2R,170301.0,08:16:00.178,R,111.3,LR,710.9,591.8
ARUGT4UL2R,170301.0,08:16:00.596,L,87.9,RL,441.4,330.1
ARUGT4UL2R,170301.0,08:16:00.861,L,117.2,LL,236.3,148.4
ARUGT4UL2R,170301.0,08:16:01.648,S,111.3,LS,793.0,675.8
ARUGT4UL2R,170301.0,08:16:02.189,L,101.6,SL,550.8,439.5
ARUGT4UL2R,170301.0,08:16:02.496,L,101.6,LL,306.6,205.1
ARUGT4UL2R,170301.0,08:16:02.707,L,93.8,LL,218.8,117.2
ARUGT4UL2R,170301.0,08:16:03.988,R,85.9,SR,486.3,377.0
ARUGT4UL2R,170301.0,08:16:04.789,R,111.3,RR,775.4,689.5
ARUGT4UL2R,170301.0,08:16:05.426,R,80.1,RR,668.0,556.6
ARUGT4UL2R,170301.0,08:16:06.959,R,109.4,SR,503.9,384.8
ARUGT4UL2R,170301.0,08:16:07.631,R,142.6,RR,638.7,529.3
ARUGT4UL2R,170301.0,08:16:08.145,S,140.6,RS,515.6,373.0
ARUGT4UL2R,170301.0,08:16:08.766,L,93.8,SL,668.0,527.3
ARUGT4UL2R,170301.0,08:16:09.584,S,134.8,LS,777.3,683.6
ARUGT4UL2R,170301.0,08:16:09.998,L,140.6,SL,408.2,273.4
ARUGT4UL2R,170301.0,08:16:10.379,R,85.9,LR,435.5,294.9
ARUGT4UL2R,170301.0,08:16:10.748,R,132.8,RR,322.3,236.3
ARUGT4UL2R,170301.0,08:16:11.064,R,111.3,RR,337.9,205.1
ARUGT4UL2R,170301.0,08:16:11.633,R,78.1,RR,601.6,490.2
ARUGT4UL2R,170301.0,08:16:11.898,R,78.1,RR,265.6,187.5
ARUGT4UL2R,170301.0,08:16:12.158,R,205.1,RR,132.8,54.7
ARUGT4UL2R,170301.0,08:35:40.480,S,62.5,SS,312.5,171.9
ARUGT4UL2R,170301.0,09:13:41.070,L,93.8,RL,726.6,632.8
ARUGT4UL2R,170301.0,09:13:49.285,R,140.6,LR,523.4,414.1
ARUGT4UL2R,170301.0,09:13:57.797,R,125.0,LR,703.1,609.4
ARUGT4UL2R,170301.0,09:13:59.289,S,109.4,LS,539.1,460.9
ARUGT4UL2R,170301.0,09:13:59.727,R,85.9,SR,460.9,351.6
ARUGT4UL2R,170301.0,09:14:00.219,S,109.4,RS,468.8,382.8
ARUGT4UL2R,170301.0,09:14:00.641,L,109.4,SL,421.9,312.5
ARUGT4UL2R,170301.0,09:14:01.230,L,109.4,LL,589.8,480.5
ARUGT4UL2R,170301.0,09:14:01.570,L,85.9,LL,363.3,253.9
ARUGT4UL2R,170301.0,09:14:01.812,L,93.8,LL,234.4,148.4
ARUGT4UL2R,170301.0,09:14:02.566,S,101.6,LS,746.1,652.3
ARUGT4UL2R,170301.0,09:14:02.910,L,85.9,SL,359.4,257.8
ARUGT4UL2R,170301.0,09:14:03.262,L,117.2,LL,320.3,234.4
ARUGT4UL2R,170301.0,09:14:03.586,L,132.8,LL,308.6,191.4
ARUGT4UL2R,170301.0,09:14:06.859,R,113.3,SR,468.8,335.9
ARUGT4UL2R,170301.0,09:14:07.527,L,117.2,RL,664.1,550.8
ARUGT4UL2R,170301.0,09:14:08.098,S,101.6,LS,585.9,468.8
ARUGT4UL2R,170301.0,09:14:08.535,L,125.0,SL,414.1,312.5
ARUGT4UL2R,170301.0,09:14:09.000,R,109.4,LR,480.5,355.5
ARUGT4UL2R,170301.0,09:14:09.379,R,132.8,RR,355.5,246.1
ARUGT4UL2R,170301.0,09:14:09.875,L,109.4,RL,519.5,386.7
ARUGT4UL2R,170301.0,09:14:10.418,L,109.4,LL,543.0,433.6
ARUGT4UL2R,170301.0,09:14:10.910,S,93.8,LS,507.8,398.4
ARUGT4UL2R,170301.0,09:14:11.293,L,101.6,SL,375.0,281.3
ARUGT4UL2R,170301.0,09:14:12.340,L,78.1,RL,605.5,496.1
ARUGT4UL2R,170301.0,09:14:12.805,S,93.8,LS,449.2,371.1
ARUGT4UL2R,170301.0,09:14:13.207,R,109.4,SR,386.7,293.0
ARUGT4UL2R,170301.0,09:14:13.621,R,117.2,RR,406.3,296.9
ARUGT4UL2R,170301.0,09:14:14.090,S,109.4,RS,476.6,359.4
ARUGT4UL2R,170301.0,09:14:14.590,R,132.8,SR,476.6,367.2
ARUGT4UL2R,170301.0,09:14:15.070,L,117.2,RL,496.1,363.3
ARUGT4UL2R,170301.0,09:14:15.449,R,109.4,LR,386.7,269.5
ARUGT4UL2R,170301.0,09:14:15.824,L,101.6,RL,382.8,273.4
ARUGT4UL2R,170301.0,09:14:16.066,L,85.9,LL,257.8,156.3
ARUGT4UL2R,170301.0,09:14:16.527,S,85.9,LS,460.9,375.0
ARUGT4UL2R,170301.0,09:14:17.023,R,109.4,SR,472.7,386.7
ARUGT4UL2R,170301.0,09:14:17.676,L,70.3,RL,691.4,582.0
ARUGT4UL2R,170301.0,09:14:18.152,R,89.8,LR,457.0,386.7
ARUGT4UL2R,170301.0,09:14:18.449,R,125.0,RR,261.7,171.9
ARUGT4UL2R,170301.0,09:14:19.039,L,62.5,RL,652.3,527.3
ARUGT4UL2R,170301.0,09:14:22.812,L,93.8,LL,253.9,164.1
ARUGT4UL2R,170301.0,09:14:23.086,L,109.4,LL,257.8,164.1
ARUGT4UL2R,170301.0,09:14:23.387,R,109.4,LR,300.8,191.4
ARUGT4UL2R,170301.0,09:14:38.871,L,78.1,SL,730.5,636.7
ARUGT4UL2R,170301.0,09:14:39.289,R,109.4,LR,386.7,308.6
ARUGT4UL2R,170301.0,09:14:39.691,R,101.6,RR,410.2,300.8
ARUGT4UL2R,170301.0,09:14:40.969,L,85.9,LL,253.9,168.0
ARUGT4UL2R,170301.0,09:14:41.539,S,101.6,LS,554.7,468.8
ARUGT4UL2R,170301.0,09:14:42.004,R,89.8,SR,476.6,375.0
ARUGT4UL2R,170301.0,09:15:07.160,R,132.8,LR,523.4,398.4
ARUGT4UL2R,170301.0,09:15:07.699,S,109.4,RS,562.5,429.7
ARUGT4UL2R,170301.0,09:15:08.004,L,113.3,SL,300.8,191.4
ARUGT4UL2R,170301.0,09:15:08.355,R,85.9,LR,378.9,265.6
ARUGT4UL2R,170301.0,09:15:08.641,R,101.6,RR,269.5,183.6
ARUGT4UL2R,170301.0,09:15:09.262,R,62.5,RR,660.2,558.6
ARUGT4UL2R,170301.0,09:15:09.902,R,93.8,RR,609.4,546.9
ARUGT4UL2R,170301.0,09:15:10.250,S,117.2,RS,324.2,230.5
ARUGT4UL2R,170301.0,09:15:10.500,R,93.8,SR,273.4,156.3
ARUGT4UL2R,170301.0,09:15:10.934,R,105.5,RR,421.9,328.1
ARUGT4UL2R,170301.0,09:15:11.398,S,101.6,RS,468.8,363.3
ARUGT4UL2R,170301.0,09:15:27.176,R,101.6,LR,609.4,468.8
ARUGT4UL2R,170301.0,09:15:27.742,S,39.1,RS,628.9,527.3
ARUGT4UL2R,170301.0,09:15:28.207,R,101.6,SR,402.3,363.3
ARUGT4UL2R,170301.0,09:15:28.809,S,113.3,RS,589.8,488.3
ARUGT4UL2R,170301.0,09:15:29.168,R,70.3,SR,402.3,289.1
ARUGT4UL2R,170301.0,09:15:29.688,L,93.8,RL,496.1,425.8
ARUGT4UL2R,170301.0,09:15:30.098,L,93.8,LL,410.2,316.4
ARUGT4UL2R,170301.0,09:15:30.863,S,117.2,LS,742.2,648.4
ARUGT4UL2R,170301.0,09:15:31.207,L,93.8,SL,367.2,250.0
ARUGT4UL2R,170301.0,09:15:31.652,S,109.4,LS,429.7,335.9
ARUGT4UL2R,170301.0,09:15:32.004,L,105.5,SL,355.5,246.1
ARUGT4UL2R,170301.0,09:15:32.598,R,109.4,LR,589.8,484.4
ARUGT4UL2R,170301.0,09:15:33.328,L,93.8,RL,746.1,636.7
ARUGT4UL2R,170301.0,09:15:34.070,R,101.6,LR,734.4,640.6
ARUGT4UL2R,170301.0,09:15:34.668,L,85.9,RL,613.3,511.7
ARUGT4UL2R,170301.0,09:15:35.137,L,105.5,LL,449.2,363.3
ARUGT4UL2R,170301.0,09:15:40.270,L,117.2,RL,382.8,281.3
ARUGT4UL2R,170301.0,09:15:40.793,S,109.4,LS,531.3,414.1
ARUGT4UL2R,170301.0,09:15:41.262,L,50.8,SL,527.3,418.0
ARUGT4UL2R,170301.0,09:15:41.727,L,85.9,LL,429.7,378.9
ARUGT4UL2R,170301.0,09:15:42.258,R,101.6,LR,515.6,429.7
ARUGT4UL2R,170301.0,09:15:42.707,L,101.6,RL,449.2,347.7
ARUGT4UL2R,170301.0,09:15:43.074,L,70.3,LL,398.4,296.9
ARUGT4UL2R,170301.0,09:15:43.559,R,85.9,LR,468.8,398.4
ARUGT4UL2R,170301.0,09:15:43.949,R,97.7,RR,378.9,293.0
ARUGT4UL2R,170301.0,09:15:45.125,L,101.6,LL,332.0,238.3
ARUGT4UL2R,170301.0,09:15:45.641,S,125.0,LS,492.2,390.6
ARUGT4UL2R,170301.0,09:15:46.363,L,78.1,SL,769.5,644.5
ARUGT4UL2R,170301.0,09:15:47.000,R,93.8,LR,621.1,543.0
ARUGT4UL2R,170301.0,09:15:47.648,L,78.1,RL,664.1,570.3
ARUGT4UL2R,170301.0,09:15:49.242,R,93.8,SR,675.8,535.2
ARUGT4UL2R,170301.0,09:15:49.730,R,109.4,RR,472.7,378.9
ARUGT4UL2R,170301.0,09:15:51.055,L,85.9,LL,347.7,285.2
ARUGT4UL2R,170301.0,09:15:51.395,R,109.4,LR,316.4,230.5
ARUGT4UL2R,170301.0,09:15:51.859,L,70.3,RL,503.9,394.5
ARUGT4UL2R,170301.0,09:15:52.227,L,101.6,LL,335.9,265.6
ARUGT4UL2R,170301.0,09:15:52.590,L,101.6,LL,363.3,261.7
ARUGT4UL2R,170301.0,09:15:53.223,S,132.8,LS,601.6,500.0
ARUGT4UL2R,170301.0,09:15:53.680,L,70.3,SL,519.5,386.7
ARUGT4UL2R,170301.0,09:15:54.258,R,105.5,LR,543.0,472.7
ARUGT4UL2R,170301.0,09:15:56.312,L,78.1,LL,304.7,242.2
ARUGT4UL2R,170301.0,09:16:02.496,L,125.0,SL,441.4,308.6
ARUGT4UL2R,170301.0,09:16:03.008,L,113.3,LL,523.4,398.4
ARUGT4UL2R,170301.0,09:16:03.535,L,109.4,LL,531.3,418.0
ARUGT4UL2R,170301.0,09:16:03.969,R,109.4,LR,433.6,324.2
ARUGT4UL2R,170301.0,09:16:05.938,R,101.6,RR,457.0,355.5
ARUGT4UL2R,170301.0,09:16:11.629,R,101.6,RR,250.0,156.3
ARUGT4UL2R,170301.0,09:16:12.418,R,109.4,RR,781.3,679.7
ARUGT4UL2R,170301.0,09:16:12.840,S,113.3,RS,418.0,308.6
ARUGT4UL2R,170301.0,09:16:13.254,L,93.8,SL,433.6,320.3
ARUGT4UL2R,170301.0,09:16:13.559,L,78.1,LL,320.3,226.6
ARUGT4UL2R,170301.0,09:16:13.961,L,101.6,LL,378.9,300.8
ARUGT4UL2R,170301.0,09:16:14.488,R,62.5,LR,566.4,464.8
ARUGT4UL2R,170301.0,09:16:18.629,L,78.1,RL,750.0,640.6
ARUGT4UL2R,170301.0,09:16:18.996,L,101.6,LL,343.8,265.6
ARUGT4UL2R,170301.0,09:16:19.527,R,113.3,LR,519.5,418.0
ARUGT4UL2R,170301.0,09:16:34.375,L,140.6,SL,390.6,281.3
ARUGT4UL2R,170301.0,09:16:34.812,R,140.6,LR,437.5,296.9
ARUGT4UL2R,170301.0,09:16:35.562,L,93.8,RL,796.9,656.3
ARUGT4UL2R,170301.0,09:16:35.957,L,125.0,LL,363.3,269.5
ARUGT4UL2R,170301.0,09:16:36.551,R,93.8,LR,625.0,500.0
ARUGT4UL2R,170301.0,09:16:40.383,R,82.0,LR,656.3,562.5
ARUGT4UL2R,170301.0,09:16:40.719,R,101.6,RR,316.4,234.4
ARUGT4UL2R,170301.0,09:16:41.109,R,93.8,RR,398.4,296.9
ARUGT4UL2R,170301.0,09:16:41.852,L,125.0,RL,710.9,617.2
ARUGT4UL2R,170301.0,09:16:42.309,S,93.8,LS,488.3,363.3
ARUGT4UL2R,170301.0,09:16:42.746,R,109.4,SR,421.9,328.1
ARUGT4UL2R,170301.0,09:16:43.043,R,93.8,RR,312.5,203.1
ARUGT4UL2R,170301.0,09:16:43.336,R,105.5,RR,281.3,187.5
ARUGT4UL2R,170301.0,09:16:43.840,L,93.8,RL,515.6,410.2
ARUGT4UL2R,170301.0,09:16:44.402,S,140.6,LS,515.6,421.9
ARUGT4UL2R,170301.0,09:16:44.750,L,109.4,SL,378.9,238.3
ARUGT4UL2R,170301.0,09:16:45.141,R,62.5,LR,437.5,328.1
ARUGT4UL2R,170301.0,09:16:45.219,R,46.9,RR,93.8,31.3
ARUGT4UL2R,170301.0,09:16:45.797,S,125.0,RS,500.0,453.1
ARUGT4UL2R,170301.0,09:16:46.211,L,113.3,SL,425.8,300.8
ARUGT4UL2R,170301.0,09:16:46.461,L,62.5,LL,300.8,187.5
ARUGT4UL2R,170301.0,09:16:47.008,L,109.4,LL,500.0,437.5
ARUGT4UL2R,170301.0,09:16:47.570,L,109.4,LL,562.5,453.1
ARUGT4UL2R,170301.0,09:16:47.949,R,66.4,LR,421.9,312.5
ARUGT4UL2R,170301.0,09:16:48.668,R,78.1,RR,707.0,640.6
ARUGT4UL2R,170301.0,09:16:50.066,R,105.5,LR,406.3,316.4
ARUGT4UL2R,170301.0,09:16:50.488,R,105.5,RR,421.9,316.4
ARUGT4UL2R,170301.0,09:17:24.984,R,113.3,LR,609.4,500.0
ARUGT4UL2R,170301.0,09:17:25.688,L,93.8,RL,722.7,609.4
ARUGT4UL2R,170301.0,09:17:26.918,L,78.1,SL,339.8,261.7
ARUGT4UL2R,170301.0,09:17:27.559,R,140.6,LR,578.1,500.0
ARUGT4UL2R,170301.0,09:17:29.156,R,46.9,LR,781.3,703.1
ARUGT4UL2R,170301.0,09:17:29.648,S,101.6,RS,437.5,390.6
ARUGT4UL2R,170301.0,09:17:30.082,L,78.1,SL,457.0,355.5
ARUGT4UL2R,170301.0,09:17:30.566,R,109.4,LR,453.1,375.0
ARUGT4UL2R,170301.0,09:17:31.188,L,31.3,RL,699.2,589.8
ARUGT4UL2R,170301.0,09:17:37.074,S,105.5,LS,625.0,535.2
ARUGT4UL2R,170301.0,09:17:37.496,L,93.8,SL,433.6,328.1
ARUGT4UL2R,170301.0,09:17:38.078,R,128.9,LR,546.9,453.1
ARUGT4UL2R,170301.0,09:17:38.453,R,93.8,RR,410.2,281.3
ARUGT4UL2R,170301.0,09:17:38.953,S,109.4,RS,484.4,390.6
ARUGT4UL2R,170301.0,09:17:39.312,L,93.8,SL,375.0,265.6
ARUGT4UL2R,170301.0,09:17:39.598,L,78.1,LL,300.8,207.0
ARUGT4UL2R,170301.0,09:17:40.070,R,140.6,LR,410.2,332.0
ARUGT4UL2R,170301.0,09:17:40.695,S,93.8,RS,671.9,531.3
ARUGT4UL2R,170301.0,09:17:42.305,L,109.4,RL,562.5,500.0
ARUGT4UL2R,170301.0,09:17:43.633,L,125.0,LL,484.4,359.4
ARUGT4UL2R,170301.0,09:17:44.398,S,109.4,LS,781.3,656.3
ARUGT4UL2R,170301.0,09:17:44.727,L,62.5,SL,375.0,265.6
ARUGT4UL2R,170301.0,09:17:45.426,R,93.8,LR,668.0,605.5
ARUGT4UL2R,170301.0,09:17:45.973,S,125.0,RS,515.6,421.9
ARUGT4UL2R,170301.0,09:17:46.273,L,50.8,SL,375.0,250.0
ARUGT4UL2R,170301.0,09:17:46.734,R,78.1,LR,382.8,351.6
ARUGT4UL2R,170301.0,09:17:47.223,L,78.1,RL,488.3,410.2
ARUGT4UL2R,170301.0,09:17:47.648,L,62.5,LL,441.4,363.3
ARUGT4UL2R,170301.0,09:17:47.945,L,93.8,LL,265.6,203.1
ARUGT4UL2R,170301.0,09:17:48.383,R,62.5,LR,468.8,375.0
ARUGT4UL2R,170301.0,09:17:48.867,R,93.8,RR,453.1,390.6
ARUGT4UL2R,170301.0,09:17:49.254,L,97.7,RL,382.8,289.1
ARUGT4UL2R,170301.0,09:17:49.676,S,78.1,LS,441.4,343.8
ARUGT4UL2R,170301.0,09:17:50.004,L,78.1,SL,328.1,250.0
ARUGT4UL2R,170301.0,09:17:50.238,L,62.5,LL,250.0,171.9
ARUGT4UL2R,170301.0,09:17:50.676,R,78.1,LR,421.9,359.4
ARUGT4UL2R,170301.0,09:17:51.176,R,93.8,RR,484.4,406.3
ARUGT4UL2R,170301.0,09:17:51.551,S,46.9,RS,421.9,328.1
ARUGT4UL2R,170301.0,09:17:51.910,R,93.8,SR,312.5,265.6
ARUGT4UL2R,170301.0,09:17:52.238,R,78.1,RR,343.8,250.0
ARUGT4UL2R,170301.0,09:17:52.770,R,109.4,RR,500.0,421.9
ARUGT4UL2R,170301.0,09:17:54.020,L,78.1,LL,421.9,390.6
ARUGT4UL2R,170301.0,09:17:54.586,R,93.8,LR,550.8,472.7
ARUGT4UL2R,170301.0,09:18:08.418,L,93.8,LL,453.1,312.5
ARUGT4UL2R,170301.0,09:18:29.410,L,187.5,LL,253.9,50.8
ARUGT4UL2R,170301.0,09:18:29.645,L,78.1,LL,343.8,156.3
ARUGT4UL2R,170301.0,09:18:29.914,L,78.1,LL,269.5,191.4
ARUGT4UL2R,170301.0,09:18:30.648,S,46.9,LS,765.6,687.5
ARUGT4UL2R,170301.0,09:18:31.008,L,78.1,SL,328.1,281.3
ARUGT4UL2R,170301.0,09:18:34.926,L,97.7,LL,355.5,293.0
ARUGT4UL2R,170301.0,09:18:35.473,L,93.8,LL,550.8,453.1
ARUGT4UL2R,170301.0,09:18:35.938,R,125.0,LR,433.6,339.8
ARUGT4UL2R,170301.0,09:18:36.531,L,78.1,RL,640.6,515.6
ARUGT4UL2R,170301.0,09:18:36.816,L,93.8,LL,269.5,191.4
ARUGT4UL2R,170301.0,09:18:37.332,S,93.8,LS,515.6,421.9
ARUGT4UL2R,170301.0,09:18:37.809,L,125.0,SL,445.3,351.6
ARUGT4UL2R,170301.0,09:18:38.043,L,78.1,LL,281.3,156.3
ARUGT4UL2R,170301.0,09:18:38.340,L,140.6,LL,234.4,156.3
ARUGT4UL2R,170301.0,09:18:38.934,R,125.0,LR,609.4,468.8
ARUGT4UL2R,170301.0,09:18:39.691,S,109.4,RS,773.4,648.4
ARUGT4UL2R,170301.0,09:18:40.082,L,109.4,SL,390.6,281.3
ARUGT4UL2R,170301.0,09:18:40.285,R,78.1,LR,234.4,125.0
ARUGT4UL2R,170301.0,09:36:52.184,R,82.0,LR,550.8,453.1
ARUGT4UL2R,170301.0,09:36:52.875,L,101.6,RL,671.9,589.8
ARUGT4UL2R,170301.0,09:36:53.344,S,54.7,LS,515.6,414.1
ARUGT4UL2R,170301.0,09:36:58.324,R,101.6,LR,269.5,183.6
ARUGT4UL2R,170301.0,09:36:58.910,S,62.5,RS,625.0,523.4
ARUGT4UL2R,170301.0,09:36:59.176,S,140.6,SS,187.5,125.0
ARUGT4UL2R,170301.0,09:37:01.461,R,125.0,RR,492.2,406.3
ARUGT4UL2R,170301.0,09:37:02.922,S,31.3,LS,722.7,644.5
ARUGT4UL2R,170301.0,09:37:03.473,L,121.1,SL,460.9,429.7
ARUGT4UL2R,170301.0,09:37:04.078,L,85.9,LL,640.6,519.5
ARUGT4UL2R,170301.0,09:37:04.625,R,125.0,LR,507.8,421.9
ARUGT4UL2R,170301.0,09:37:05.027,R,78.1,RR,449.2,324.2
ARUGT4UL2R,170301.0,09:37:05.523,L,78.1,RL,496.1,418.0
ARUGT4UL2R,170301.0,09:37:06.348,S,125.0,LS,777.3,699.2
ARUGT4UL2R,170301.0,09:37:06.906,R,101.6,SR,582.0,457.0
ARUGT4UL2R,170301.0,09:37:07.574,L,93.8,RL,675.8,574.2
ARUGT4UL2R,170301.0,09:37:08.059,R,109.4,LR,468.8,375.0
ARUGT4UL2R,170301.0,09:37:08.508,L,78.1,RL,480.5,371.1
ARUGT4UL2R,170301.0,09:37:08.766,L,93.8,LL,242.2,164.1
ARUGT4UL2R,170301.0,09:37:09.465,S,117.2,LS,675.8,582.0
ARUGT4UL2R,170301.0,09:37:10.031,R,132.8,SR,550.8,433.6
ARUGT4UL2R,170301.0,09:37:11.422,R,46.9,LR,640.6,554.7
ARUGT4UL2R,170301.0,09:37:11.672,R,93.8,RR,203.1,156.3
ARUGT4UL2R,170301.0,09:37:12.363,L,85.9,RL,699.2,605.5
ARUGT4UL2R,170301.0,09:37:12.648,L,78.1,LL,293.0,207.0
ARUGT4UL2R,170301.0,09:37:12.926,L,97.7,LL,257.8,179.7
ARUGT4UL2R,170301.0,09:37:13.207,R,117.2,LR,261.7,164.1
ARUGT4UL2R,170301.0,09:37:23.742,R,93.8,RR,468.8,347.7
ARUGT4UL2R,170301.0,09:37:24.430,R,113.3,RR,668.0,574.2
ARUGT4UL2R,170301.0,09:37:25.867,S,101.6,LS,605.5,500.0
ARUGT4UL2R,170301.0,09:37:26.441,R,93.8,SR,582.0,480.5
ARUGT4UL2R,170301.0,09:37:28.035,R,85.9,LR,480.5,457.0
ARUGT4UL2R,170301.0,09:37:28.508,L,78.1,RL,480.5,394.5
ARUGT4UL2R,170301.0,09:37:28.738,L,78.1,LL,230.5,152.3
ARUGT4UL2R,170301.0,09:37:29.527,L,183.6,LL,683.6,605.5
ARUGT4UL2R,170301.0,22:31:01.797,R,140.6,LR,687.5,562.5
ARUGT4UL2R,170301.0,22:31:02.188,R,156.3,RR,375.0,234.4
ARUGT4UL2R,170301.0,22:32:38.797,L,109.4,LL,625.0,492.2
ARUGT4UL2R,170301.0,22:32:39.492,L,117.2,LL,687.5,578.1
ARUGT4UL2R,170301.0,22:32:39.844,L,78.1,LL,390.6,273.4
ARUGT4UL2R,170301.0,22:32:40.219,L,117.2,LL,335.9,257.8
ARUGT4UL2R,170301.0,22:32:40.727,L,85.9,LL,539.1,421.9
ARUGT4UL2R,170301.0,22:33:01.367,L,117.2,LL,679.7,507.8
ARUGT4UL2R,170301.0,22:33:02.492,L,101.6,LL,335.9,312.5
ARUGT4UL2R,170301.0,22:33:02.844,L,109.4,LL,343.8,242.2
ARUGT4UL2R,170301.0,22:33:03.352,L,101.6,LL,515.6,406.3
ARUGT4UL2R,170301.0,22:33:17.109,L,117.2,LL,609.4,476.6
ARUGT4UL2R,170301.0,22:33:17.734,L,109.4,LL,632.8,515.6
ARUGT4UL2R,170301.0,22:33:18.055,L,78.1,LL,351.6,242.2
ARUGT4UL2R,170301.0,22:33:18.531,L,156.3,LL,398.4,320.3
ARUGT4UL2R,170301.0,22:33:19.117,L,78.1,LL,664.1,507.8
ARUGT4UL2R,170301.0,22:33:37.180,L,93.8,LL,742.2,570.3
ARUGT4UL2R,170301.0,22:33:38.039,L,164.1,LL,789.1,695.3
ARUGT4UL2R,170301.0,22:33:38.406,L,85.9,LL,445.3,281.3
ARUGT4UL2R,170301.0,22:33:38.812,L,125.0,LL,367.2,281.3
ARUGT4UL2R,170301.0,22:33:39.312,L,78.1,LL,546.9,421.9
ARUGT4UL2R,170301.0,22:34:34.711,L,101.6,LL,476.6,328.1
ARUGT4UL2R,170301.0,22:34:40.828,L,125.0,LL,421.9,257.8
ARUGT4UL2R,170301.0,22:34:41.477,L,125.0,LL,648.4,523.4
ARUGT4UL2R,170301.0,22:34:42.141,R,125.0,LR,664.1,539.1
ARUGT4UL2R,170301.0,22:34:42.508,R,117.2,RR,375.0,250.0
ARUGT4UL2R,170301.0,22:35:34.820,L,164.1,LL,570.3,421.9
ARUGT4UL2R,170301.0,22:35:35.305,L,109.4,LL,539.1,375.0
ARUGT4UL2R,170301.0,22:35:36.055,R,117.2,LR,742.2,632.8
ARUGT4UL2R,170301.0,22:35:39.422,L,117.2,LL,609.4,476.6
ARUGT4UL2R,170301.0,22:35:39.797,L,101.6,LL,390.6,273.4
ARUGT4UL2R,170301.0,22:41:29.484,R,234.4,RR,218.8,140.6
ARUGT4UL2R,170301.0,22:41:35.945,R,93.8,RR,304.7,179.7
ARUGT4UL2R,170301.0,22:41:36.719,L,140.6,RL,726.6,632.8
ARUGT4UL2R,170301.0,22:41:53.562,R,179.7,RR,773.4,640.6
ARUGT4UL2R,170301.0,22:41:53.961,R,31.3,RR,546.9,367.2
ARUGT4UL2R,170301.0,22:42:03.219,R,39.1,RR,765.6,609.4
ARUGT4UL2R,170301.0,22:42:17.078,R,132.8,LR,710.9,554.7
ARUGT4UL2R,170301.0,22:42:17.305,R,132.8,RR,226.6,93.8
ARUGT4UL2R,170301.0,22:42:17.586,R,109.4,RR,304.7,171.9
ARUGT4UL2R,170301.0,22:42:20.703,L,109.4,SL,390.6,234.4
ARUGT4UL2R,170301.0,22:42:21.352,R,164.1,LR,593.8,484.4
ARUGT4UL2R,170301.0,22:42:23.188,R,109.4,LR,773.4,640.6
ARUGT4UL2R,170301.0,22:42:25.828,R,46.9,RR,710.9,585.9
ARUGT4UL2R,170301.0,22:42:26.328,R,195.3,RR,351.6,304.7
ARUGT4UL2R,170301.0,22:42:27.859,L,140.6,LL,320.3,195.3
ARUGT4UL2R,170301.0,22:42:39.367,R,132.8,LR,609.4,492.2
ARUGT4UL2R,170301.0,22:42:40.148,S,117.2,RS,796.9,664.1
ARUGT4UL2R,170301.0,22:42:40.633,R,125.0,SR,476.6,359.4
ARUGT4UL2R,170301.0,22:42:41.914,L,125.0,LL,390.6,257.8
ARUGT4UL2R,170301.0,22:42:42.203,L,93.8,LL,320.3,195.3
ARUGT4UL2R,170301.0,22:42:43.500,L,78.1,SL,460.9,343.8
ARUGT4UL2R,170301.0,22:42:44.148,R,132.8,LR,593.8,515.6
ARUGT4UL2R,170301.0,22:42:44.875,L,109.4,RL,750.0,617.2
ARUGT4UL2R,170301.0,22:42:45.219,L,132.8,LL,320.3,210.9
ARUGT4UL2R,170301.0,22:42:50.336,S,132.8,LS,617.2,476.6
ARUGT4UL2R,170301.0,22:42:50.656,L,93.8,SL,359.4,226.6
ARUGT4UL2R,170301.0,22:42:51.234,R,101.6,LR,570.3,476.6
ARUGT4UL2R,170301.0,22:42:51.930,L,39.1,RL,757.8,656.3
ARUGT4UL2R,170301.0,22:42:56.203,L,15.6,LL,70.3,23.4
ARUGT4UL2R,170301.0,22:43:32.695,S,125.0,SS,226.6,210.9
ARUGT4UL2R,170301.0,22:43:33.602,R,85.9,RR,500.0,406.3
ARUGT4UL2R,170301.0,22:43:35.281,R,85.9,LR,562.5,421.9
ARUGT4UL2R,170301.0,22:44:48.859,R,93.8,RR,203.1,101.6
ARUGT4UL2R,170301.0,22:44:49.219,R,101.6,RR,351.6,257.8
ARUGT4UL2R,170301.0,22:44:50.953,S,148.4,LS,640.6,523.4
ARUGT4UL2R,170301.0,22:44:58.281,R,101.6,RR,210.9,93.8
ARUGT4UL2R,170301.0,22:44:58.609,R,31.3,RR,398.4,296.9
ARUGT4UL2R,170301.0,22:45:00.328,S,117.2,LS,671.9,539.1
ARUGT4UL2R,170301.0,22:45:01.039,R,93.8,SR,734.4,617.2
ARUGT4UL2R,170301.0,22:45:01.523,R,85.9,RR,492.2,398.4
ARUGT4UL2R,170301.0,22:45:01.750,R,93.8,RR,218.8,132.8
ARUGT4UL2R,170301.0,22:45:03.133,L,109.4,LL,390.6,257.8
ARUGT4UL2R,170301.0,22:46:55.781,R,140.6,RR,593.8,484.4
ARUGT4UL2R,170301.0,22:46:59.000,R,109.4,SR,617.2,570.3
ARUGT4UL2R,170301.0,22:46:59.438,R,85.9,RR,460.9,351.6
ARUGT4UL2R,170301.0,22:46:59.711,R,109.4,RR,250.0,164.1
ARUGT4UL2R,170301.0,22:51:23.016,R,93.8,RR,281.3,179.7
ARUGT4UL2R,170301.0,22:51:23.312,R,117.2,RR,273.4,179.7
ARUGT4UL2R,170301.0,22:53:58.195,L,78.1,LL,343.8,250.0
ARUGT4UL2R,170301.0,22:53:58.852,L,101.6,LL,632.8,554.7
ARUGT4UL2R,170301.0,22:53:59.320,L,85.9,LL,484.4,382.8
ARUGT4UL2R,170301.0,22:53:59.688,L,62.5,LL,390.6,304.7
ARUGT4UL2R,170301.0,22:54:00.047,L,78.1,LL,343.8,281.3
ARUGT4UL2R,170301.0,22:54:00.500,L,93.8,LL,437.5,359.4
ARUGT4UL2R,170301.0,22:54:01.156,S,101.6,LS,648.4,554.7
ARUGT4UL2R,170301.0,22:54:01.961,L,117.2,SL,789.1,687.5
ARUGT4UL2R,170301.0,22:54:02.469,L,101.6,LL,523.4,406.3
ARUGT4UL2R,170301.0,22:54:06.750,L,101.6,LL,750.0,609.4
ARUGT4UL2R,170301.0,22:54:26.680,L,109.4,LL,406.3,281.3
ARUGT4UL2R,170301.0,22:54:27.242,L,117.2,LL,554.7,445.3
ARUGT4UL2R,170301.0,22:54:27.758,L,93.8,LL,539.1,421.9
ARUGT4UL2R,170301.0,22:54:28.133,L,101.6,LL,367.2,273.4
ARUGT4UL2R,170301.0,22:54:28.516,L,132.8,LL,351.6,250.0
ARUGT4UL2R,170301.0,22:54:28.945,L,148.4,LL,414.1,281.3
ARUGT4UL2R,170301.0,22:54:29.469,S,78.1,LS,593.8,445.3
ARUGT4UL2R,170301.0,22:54:29.531,S,23.4,SS,117.2,39.1
ARUGT4UL2R,170301.0,22:54:30.320,L,117.2,SL,695.3,671.9
ARUGT4UL2R,170301.0,22:54:30.992,L,171.9,LL,617.2,500.0
ARUGT4UL2R,170301.0,22:56:11.188,L,78.1,LL,343.8,218.8
ARUGT4UL2R,170301.0,22:56:11.938,R,125.0,LR,703.1,625.0
ARUGT4UL2R,170301.0,22:56:14.336,L,101.6,RL,726.6,617.2
ARUGT4UL2R,170301.0,22:56:14.984,S,101.6,LS,648.4,546.9
ARUGT4UL2R,170301.0,22:56:15.328,S,23.4,SS,23.4,320.3
ARUGT4UL2R,170301.0,22:56:15.359,L,54.7,SL,23.4,320.3
ARUGT4UL2R,170301.0,22:56:15.977,R,101.6,LR,570.3,515.6
ARUGT4UL2R,170301.0,22:56:17.766,R,46.9,RR,609.4,570.3
ARUGT4UL2R,170301.0,22:56:19.211,L,117.2,LL,375.0,289.1
ARUGT4UL2R,170301.0,23:00:48.273,L,93.8,LL,359.4,226.6
ARUGT4UL2R,170301.0,23:00:49.719,L,70.3,LL,593.8,476.6
ARUGT4UL2R,170301.0,23:00:50.188,L,125.0,LL,414.1,343.8
ARUGT4UL2R,170301.0,23:00:50.508,L,85.9,LL,359.4,234.4
ARUGT4UL2R,170301.0,23:00:50.984,L,125.0,LL,437.5,351.6
ARUGT4UL2R,170301.0,23:00:53.461,L,101.6,SL,585.9,406.3
ARUGT4UL2R,170301.0,23:00:53.773,L,93.8,LL,320.3,218.8
ARUGT4UL2R,170301.0,23:00:54.406,L,54.7,LL,671.9,578.1
ARUGT4UL2R,170301.0,23:00:55.188,R,117.2,LR,718.8,664.1
ARUGT4UL2R,170302.0,03:13:33.390,L,21.5,LL,171.9,46.9
ARUGT4UL2R,170302.0,03:13:35.207,L,110.4,LL,448.2,306.6
ARUGT4UL2R,170302.0,03:13:42.148,R,126.0,RR,465.8,378.9
ARUGT4UL2R,170302.0,03:13:42.739,R,126.0,RR,590.8,464.8
ARUGT4UL2R,170302.0,03:21:15.611,L,94.7,LL,392.6,314.5
ARUGT4UL2R,170302.0,03:21:19.261,L,157.2,SL,770.5,644.5
ARUGT4UL2R,170302.0,03:21:21.538,R,85.9,RR,593.8,460.0
ARUGT4UL2R,170302.0,03:21:22.768,L,94.7,LL,275.4,172.9
ARUGT4UL2R,170302.0,03:21:36.865,R,126.0,SR,527.3,423.8
ARUGT4UL2R,170302.0,03:21:37.583,L,110.4,RL,733.4,607.4
ARUGT4UL2R,170302.0,03:21:37.946,L,181.6,LL,292.0,181.6
ARUGT4UL2R,170302.0,03:21:39.905,L,133.8,LL,426.8,301.8
ARUGT4UL2R,170302.0,03:21:40.251,L,111.3,LL,368.2,234.4
ARUGT4UL2R,170302.0,03:21:40.581,L,139.6,LL,300.8,189.5
ARUGT4UL2R,170302.0,03:21:41.030,L,158.2,LL,431.6,292.0
ARUGT4UL2R,170302.0,03:24:03.554,L,195.3,LL,767.6,633.8
ARUGT4UL2R,170302.0,03:25:37.650,L,158.2,LL,252.0,142.6
ARUGT4UL2R,170302.0,03:25:38.384,L,149.4,LL,742.2,584.0
ARUGT4UL2R,170302.0,03:25:38.715,L,102.5,LL,377.9,228.5
ARUGT4UL2R,170302.0,03:25:39.037,L,133.8,LL,291.0,188.5
ARUGT4UL2R,170302.0,03:25:39.297,L,102.5,LL,291.0,157.2
ARUGT4UL2R,170302.0,03:25:39.642,L,125.0,LL,322.3,219.7
ARUGT4UL2R,170302.0,03:25:40.963,L,126.0,SL,462.9,313.5
ARUGT4UL2R,170302.0,03:25:42.693,L,63.5,RL,662.1,529.3
ARUGT4UL2R,170302.0,03:25:51.136,L,101.6,RL,717.8,592.8
ARUGT4UL2R,170302.0,03:25:51.379,L,110.4,LL,234.4,132.8
ARUGT4UL2R,170302.0,03:25:54.647,S,173.8,LS,721.7,611.3
ARUGT4UL2R,170302.0,03:25:55.300,L,101.6,SL,724.6,550.8
ARUGT4UL2R,170302.0,03:25:55.870,R,111.3,LR,560.5,459.0
ARUGT4UL2R,170302.0,03:26:01.866,L,109.4,SL,455.1,336.9
ARUGT4UL2R,170302.0,03:26:02.134,L,101.6,LL,275.4,166.0
ARUGT4UL2R,170302.0,03:26:18.739,R,126.0,LR,602.5,484.4
ARUGT4UL2R,170302.0,03:26:19.487,L,134.8,RL,739.3,613.3
ARUGT4UL2R,170302.0,03:26:20.017,R,94.7,LR,569.3,434.6
ARUGT4UL2R,170302.0,03:26:21.509,L,141.6,SL,447.3,337.9
ARUGT4UL2R,170302.0,03:26:21.807,L,117.2,LL,322.3,180.7
ARUGT4UL2R,170302.0,03:26:32.243,L,126.0,RL,796.9,750.0
ARUGT4UL2R,170302.0,03:33:23.147,L,118.2,LL,355.5,221.7
ARUGT4UL2R,170302.0,03:33:23.929,L,149.4,LL,750.0,631.8
ARUGT4UL2R,170302.0,03:33:24.300,L,93.8,LL,426.8,277.3
ARUGT4UL2R,170302.0,03:33:24.654,L,94.7,LL,353.5,259.8
ARUGT4UL2R,170302.0,03:33:24.929,L,85.9,LL,283.2,188.5
ARUGT4UL2R,170302.0,03:33:25.315,L,102.5,LL,370.1,284.2
ARUGT4UL2R,170302.0,03:33:26.935,L,85.9,SL,454.1,320.3
ARUGT4UL2R,170302.0,03:33:47.338,L,110.4,SL,526.4,360.4
ARUGT4UL2R,170302.0,03:33:49.005,L,102.5,RL,662.1,520.5
ARUGT4UL2R,170302.0,03:33:49.686,R,109.4,LR,673.8,571.3
ARUGT4UL2R,170302.0,03:33:50.388,L,86.9,RL,724.6,615.2
ARUGT4UL2R,170302.0,03:33:50.663,L,134.8,LL,227.5,140.6
ARUGT4UL2R,170302.0,03:33:55.345,L,149.4,SL,542.0,376.0
ARUGT4UL2R,170302.0,03:33:56.009,R,118.2,LR,695.3,545.9
ARUGT4UL2R,170302.0,03:34:04.314,L,158.2,LL,424.8,251.0
ARUGT4UL2R,170302.0,03:34:05.974,R,93.8,LR,504.9,394.5
ARUGT4UL2R,170302.0,03:34:06.598,R,188.5,RR,529.3,435.5
ARUGT4UL2R,170302.0,03:34:16.744,L,79.1,RL,559.6,464.8
ARUGT4UL2R,170302.0,03:36:48.038,L,93.8,RL,789.1,630.9
ARUGT4UL2R,170302.0,03:36:48.362,L,134.8,LL,283.2,189.5
ARUGT4UL2R,170302.0,03:36:49.847,L,85.9,LL,425.8,284.2
ARUGT4UL2R,170302.0,03:36:50.210,L,102.5,LL,346.7,260.7
ARUGT4UL2R,170302.0,03:36:50.453,L,78.1,LL,267.6,165.0
ARUGT4UL2R,170302.0,03:36:50.839,L,110.4,LL,353.5,275.4
ARUGT4UL2R,170302.0,03:36:52.483,L,71.3,SL,414.1,295.9
ARUGT4UL2R,170302.0,03:36:53.252,R,126.0,LR,713.9,642.6
ARUGT4UL2R,170302.0,03:37:03.558,R,29.3,LR,602.5,515.6
ARUGT4UL2R,170302.0,03:37:21.223,L,94.7,SL,556.6,415.0
ARUGT4UL2R,170302.0,03:37:23.120,L,102.5,RL,670.9,585.0
ARUGT4UL2R,170302.0,03:37:25.184,L,78.1,RL,796.9,591.8
ARUGT4UL2R,170302.0,03:37:25.427,L,109.4,LL,211.9,133.8
ARUGT4UL2R,170302.0,03:37:29.688,L,141.6,SL,407.2,344.7
ARUGT4UL2R,170302.0,03:37:30.290,R,100.6,LR,642.6,501.0
ARUGT4UL2R,170302.0,03:37:31.711,R,132.8,LR,562.5,419.9
ARUGT4UL2R,170302.0,03:37:34.169,L,133.8,SL,770.5,574.2
ARUGT4UL2R,170302.0,03:37:34.468,L,127.0,LL,305.7,171.9
ARUGT4UL2R,170302.0,03:37:39.222,L,70.3,RL,765.6,584.0
ARUGT4UL2R,170302.0,03:39:24.421,L,110.4,RL,749.0,599.6
ARUGT4UL2R,170302.0,03:39:24.752,L,165.0,LL,276.4,166.0
ARUGT4UL2R,170302.0,03:39:26.023,L,86.9,LL,370.1,259.8
ARUGT4UL2R,170302.0,03:39:26.378,L,118.2,LL,323.2,236.3
ARUGT4UL2R,170302.0,03:39:26.637,L,85.9,LL,291.0,172.9
ARUGT4UL2R,170302.0,03:39:26.999,L,118.2,LL,330.1,244.1
ARUGT4UL2R,170302.0,03:39:28.588,L,118.2,SL,628.9,518.6
ARUGT4UL2R,170302.0,03:39:30.326,L,102.5,RL,662.1,520.5
ARUGT4UL2R,170302.0,03:39:30.991,R,109.4,LR,658.2,555.7
ARUGT4UL2R,170302.0,03:39:31.701,L,118.2,RL,701.2,591.8
ARUGT4UL2R,170302.0,03:39:31.937,L,117.2,LL,236.3,118.2
ARUGT4UL2R,170302.0,03:39:38.416,L,118.2,SL,502.0,321.3
ARUGT4UL2R,170302.0,03:39:39.034,R,102.5,LR,633.8,515.6
ARUGT4UL2R,170302.0,03:39:39.806,L,101.6,RL,772.5,669.9
ARUGT4UL2R,170302.0,03:39:40.320,R,110.4,LR,505.9,404.3
ARUGT4UL2R,170302.0,03:39:41.987,L,94.7,SL,644.5,480.5
ARUGT4UL2R,170302.0,03:39:42.285,L,118.2,LL,274.4,179.7
ARUGT4UL2R,170302.0,03:39:42.974,R,101.6,LR,705.1,586.9
ARUGT4UL2R,170302.0,03:40:26.634,R,101.6,LR,657.2,556.6
ARUGT4UL2R,170302.0,03:40:28.524,R,141.6,RR,522.5,389.6
ARUGT4UL2R,170302.0,03:40:31.472,R,94.7,RR,417.0,298.8
ARUGT4UL2R,170302.0,03:43:52.541,S,32.2,SS,210.9,38.1
ARUGT4UL2R,170302.0,03:43:53.251,R,86.9,SR,655.3,623.0
ARUGT4UL2R,170302.0,03:43:56.398,R,110.4,SR,456.1,322.3
ARUGT4UL2R,170302.0,03:43:56.807,R,93.8,RR,424.8,314.5
ARUGT4UL2R,170302.0,03:44:39.849,R,140.6,SR,678.7,544.9
ARUGT4UL2R,170302.0,03:44:40.196,R,103.5,RR,384.8,244.1
ARUGT4UL2R,170302.0,03:44:43.279,L,102.5,LL,583.0,497.1
ARUGT4UL2R,170302.0,03:44:43.999,L,110.4,LL,711.9,609.4
ARUGT4UL2R,170302.0,03:44:44.512,L,85.9,LL,537.1,426.8
ARUGT4UL2R,170302.0,03:44:45.278,L,118.2,LL,734.4,648.4
ARUGT4UL2R,170302.0,03:44:47.399,R,118.2,SR,622.1,488.3
ARUGT4UL2R,170302.0,03:44:53.222,S,149.4,RS,657.2,531.3
ARUGT4UL2R,170302.0,03:44:53.606,R,134.8,SR,399.4,250.0
ARUGT4UL2R,170302.0,03:44:54.000,R,125.0,RR,403.3,268.6
ARUGT4UL2R,170302.0,03:52:37.835,L,97.7,LL,316.4,188.5
ARUGT4UL2R,170302.0,03:52:38.301,L,138.7,LL,424.8,327.1
ARUGT4UL2R,170302.0,03:52:39.608,S,46.9,SS,149.4,14.6
ARUGT4UL2R,170302.0,03:52:40.149,L,107.4,SL,480.5,433.6
ARUGT4UL2R,170302.0,03:52:48.746,L,106.4,SL,491.2,328.1
ARUGT4UL2R,170302.0,03:52:49.513,R,138.7,LR,734.4,627.9
ARUGT4UL2R,170302.0,03:52:50.117,L,114.3,RL,628.9,490.2
ARUGT4UL2R,170302.0,03:52:53.490,R,82.0,RR,677.7,575.2
ARUGT4UL2R,170302.0,03:52:59.225,R,89.8,RR,231.4,185.5
ARUGT4UL2R,170302.0,03:53:02.031,L,130.9,SL,430.7,241.2
ARUGT4UL2R,170302.0,03:53:07.131,R,111.3,LR,550.8,405.3
ARUGT4UL2R,170302.0,03:53:09.123,L,103.5,SL,481.4,340.8
ARUGT4UL2R,170302.0,03:53:09.431,L,95.7,LL,315.4,211.9
ARUGT4UL2R,170302.0,03:53:13.662,L,111.3,RL,793.0,653.3
ARUGT4UL2R,170302.0,03:53:20.340,S,229.5,RS,599.6,448.2
ARUGT4UL2R,170302.0,03:53:20.685,L,89.8,SL,484.4,254.9
ARUGT4UL2R,170302.0,03:53:21.116,R,41.0,LR,480.5,390.6
ARUGT4UL2R,170302.0,03:53:26.765,R,112.3,RR,401.4,289.1
ARUGT4UL2R,170302.0,03:53:29.279,S,138.7,RS,628.9,447.3
ARUGT4UL2R,170302.0,03:53:29.566,R,116.2,SR,309.6,170.9
ARUGT4UL2R,170302.0,03:53:29.946,R,124.0,RR,372.1,255.9
ARUGT4UL2R,170302.0,03:57:42.968,L,124.0,SL,428.7,278.3
ARUGT4UL2R,170302.0,03:57:43.680,R,202.1,LR,633.8,509.8
ARUGT4UL2R,170302.0,03:57:46.936,R,144.5,RR,480.5,416.0
ARUGT4UL2R,170302.0,03:57:50.541,R,78.1,RR,432.6,292.0
ARUGT4UL2R,170302.0,04:00:00.493,R,110.4,LR,401.4,275.4
ARUGT4UL2R,170302.0,04:00:00.863,R,161.1,RR,319.3,209.0
ARUGT4UL2R,170302.0,04:00:03.791,R,158.2,LR,631.8,521.5
ARUGT4UL2R,170302.0,04:00:05.845,L,89.8,RL,468.8,294.9
ARUGT4UL2R,170302.0,04:01:53.843,R,143.6,LR,605.5,466.8
ARUGT4UL2R,170302.0,04:01:55.774,R,146.5,RR,447.3,305.7
ARUGT4UL2R,170302.0,04:01:59.238,R,117.2,RR,393.6,278.3
ARUGT4UL2R,170302.0,04:04:53.998,S,123.0,RS,649.4,546.9
ARUGT4UL2R,170302.0,04:04:54.477,R,128.9,SR,472.7,349.6
ARUGT4UL2R,170302.0,04:04:55.119,R,83.0,RR,688.5,559.6
ARUGT4UL2R,170302.0,04:04:56.966,L,94.7,SL,408.2,291.0
ARUGT4UL2R,170302.0,04:04:57.518,R,101.6,LR,544.9,450.2
ARUGT4UL2R,170302.0,04:04:58.213,L,115.2,RL,681.6,580.1
ARUGT4UL2R,170302.0,04:04:58.850,R,101.6,LR,650.4,535.2
ARUGT4UL2R,170302.0,04:05:00.084,L,117.2,LL,210.9,87.9
ARUGT4UL2R,170302.0,04:05:00.687,R,119.1,LR,600.6,483.4
ARUGT4UL2R,170302.0,04:05:02.847,L,112.3,SL,367.2,236.3
ARUGT4UL2R,170302.0,04:05:03.406,R,110.4,LR,561.5,449.2
ARUGT4UL2R,170302.0,04:05:04.723,R,90.8,LR,483.4,382.8
ARUGT4UL2R,170302.0,04:05:08.547,L,129.9,LL,636.7,502.9
ARUGT4UL2R,170302.0,04:05:09.005,L,137.7,LL,450.2,320.3
ARUGT4UL2R,170302.0,04:05:09.332,L,115.2,LL,349.6,211.9
ARUGT4UL2R,170302.0,04:05:10.099,L,100.6,LL,781.3,666.0
ARUGT4UL2R,170302.0,04:05:10.532,L,89.8,LL,444.3,343.8
ARUGT4UL2R,170302.0,04:05:37.531,R,102.5,RR,582.0,419.9
ARUGT4UL2R,170302.0,04:05:39.021,R,111.3,SR,437.5,313.5
ARUGT4UL2R,170302.0,04:05:39.785,L,103.5,RL,771.5,660.2
ARUGT4UL2R,170302.0,04:05:40.571,L,110.4,LL,779.3,675.8
ARUGT4UL2R,170302.0,04:05:41.043,L,66.4,LL,515.6,405.3
ARUGT4UL2R,170302.0,04:06:01.203,L,115.2,LL,496.1,395.5
ARUGT4UL2R,170302.0,04:06:05.037,L,93.8,SL,451.2,316.4
ARUGT4UL2R,170302.0,04:06:05.631,R,211.9,LR,475.6,381.8
ARUGT4UL2R,170302.0,04:06:07.303,L,124.0,LL,496.1,358.4
ARUGT4UL2R,170302.0,04:06:10.238,L,153.3,LL,484.4,409.2
ARUGT4UL2R,170302.0,04:06:15.132,R,86.9,RR,295.9,187.5
ARUGT4UL2R,170302.0,04:06:16.482,L,70.3,SL,394.5,271.5
ARUGT4UL2R,170302.0,04:06:19.280,L,64.5,RL,477.5,304.7
ARUGT4UL2R,170302.0,04:06:20.930,L,79.1,SL,715.8,542.0
ARUGT4UL2R,170302.0,04:06:21.722,R,121.1,LR,750.0,670.9
ARUGT4UL2R,170302.0,04:21:57.864,R,110.4,LR,625.0,523.4
ARUGT4UL2R,170302.0,04:22:11.374,R,62.5,LR,21.5,459.0
ARUGT4UL2R,170302.0,04:22:11.437,R,125.0,RR,21.5,459.0
ARUGT4UL2R,170302.0,04:22:12.619,L,194.3,LL,174.8,41.0
ARUGT4UL2R,170302.0,04:22:35.988,L,117.2,SL,366.2,224.6
ARUGT4UL2R,170302.0,04:22:36.581,R,118.2,LR,591.8,474.6
ARUGT4UL2R,170302.0,04:22:38.264,R,107.4,LR,475.6,367.2
ARUGT4UL2R,170302.0,04:22:39.643,L,125.0,SL,449.2,328.1
ARUGT4UL2R,170302.0,04:22:39.950,L,125.0,LL,307.6,182.6
ARUGT4UL2R,170302.0,04:22:40.655,R,120.1,LR,710.0,585.0
ARUGT4UL2R,170302.0,04:22:46.129,L,114.3,RL,786.1,684.6
ARUGT4UL2R,170302.0,04:22:47.566,L,109.4,SL,343.8,282.2
ARUGT4UL2R,170302.0,04:22:47.866,L,94.7,LL,314.5,205.1
ARUGT4UL2R,170302.0,04:22:48.141,L,110.4,LL,258.8,164.1
ARUGT4UL2R,170302.0,04:22:48.813,L,99.6,LL,683.6,573.2
ARUGT4UL2R,170302.0,04:22:49.293,R,127.9,LR,451.2,351.6
ARUGT4UL2R,170302.0,04:22:53.708,L,107.4,LL,344.7,237.3
ARUGT4UL2R,170302.0,04:24:05.629,L,97.7,LL,273.4,188.5
ARUGT4UL2R,170302.0,04:24:06.378,L,126.0,LL,720.7,623.0
ARUGT4UL2R,170302.0,04:24:06.681,L,49.8,LL,378.9,252.9
ARUGT4UL2R,170302.0,04:24:06.998,L,84.0,LL,283.2,233.4
ARUGT4UL2R,170302.0,04:24:07.268,L,54.7,LL,298.8,214.8
ARUGT4UL2R,170302.0,04:24:07.976,L,99.6,LL,663.1,608.4
ARUGT4UL2R,170302.0,04:24:09.281,L,130.9,SL,402.3,268.6
ARUGT4UL2R,170302.0,04:24:10.057,R,146.5,LR,759.8,628.9
ARUGT4UL2R,170302.0,04:27:13.467,L,93.8,SL,455.1,337.9
ARUGT4UL2R,170302.0,04:27:14.210,R,110.4,LR,726.6,632.8
ARUGT4UL2R,170302.0,04:27:14.872,L,85.0,RL,687.5,577.1
ARUGT4UL2R,170302.0,04:27:15.506,R,93.8,LR,625.0,540.0
ARUGT4UL2R,170302.0,04:27:16.271,L,110.4,RL,749.0,655.3
ARUGT4UL2R,170302.0,04:27:16.443,L,63.5,LL,218.8,108.4
ARUGT4UL2R,170302.0,04:27:19.470,L,30.3,LL,149.4,22.5
ARUGT4UL2R,170302.0,04:28:22.215,R,92.8,LR,435.5,317.4
ARUGT4UL2R,170302.0,04:28:22.539,R,118.2,RR,298.8,206.1
ARUGT4UL2R,170302.0,04:28:23.337,R,118.2,RR,797.9,679.7
ARUGT4UL2R,170302.0,04:28:25.962,R,101.6,LR,649.4,546.9
ARUGT4UL2R,170302.0,04:28:28.032,L,85.9,RL,630.9,504.9
ARUGT4UL2R,170302.0,04:29:15.320,R,103.5,LR,665.0,522.5
ARUGT4UL2R,170302.0,04:29:17.564,L,78.1,RL,464.8,355.5
ARUGT4UL2R,170302.0,04:29:18.109,L,86.9,LL,536.1,458.0
ARUGT4UL2R,170302.0,04:29:18.789,R,78.1,LR,688.5,601.6
ARUGT4UL2R,170302.0,04:29:19.611,R,172.9,RR,727.5,649.4
ARUGT4UL2R,170302.0,04:33:13.525,L,80.1,SL,617.2,466.8
ARUGT4UL2R,170302.0,04:33:15.836,L,109.4,RL,578.1,505.9
ARUGT4UL2R,170302.0,04:33:16.516,R,103.5,LR,685.5,576.2
ARUGT4UL2R,170302.0,04:33:17.189,R,80.1,RR,697.3,593.8
ARUGT4UL2R,170302.0,04:33:20.924,L,111.3,LL,291.0,171.9
ARUGT4UL2R,170302.0,04:33:25.785,L,103.5,SL,400.4,267.6
ARUGT4UL2R,170302.0,04:33:26.342,R,105.5,LR,554.7,451.2
ARUGT4UL2R,170302.0,04:33:27.715,R,89.8,LR,568.4,439.5
ARUGT4UL2R,170302.0,04:34:59.039,L,179.7,LL,386.7,252.0
ARUGT4UL2R,170302.0,04:35:00.994,R,125.0,RR,308.6,220.7
ARUGT4UL2R,170302.0,04:35:06.236,R,109.4,LR,562.5,445.3
ARUGT4UL2R,170302.0,04:35:09.752,L,93.8,SL,416.0,289.1
ARUGT4UL2R,170302.0,04:35:10.297,L,111.3,LL,527.3,433.6
ARUGT4UL2R,170302.0,04:35:10.662,L,58.6,LL,418.0,306.6
ARUGT4UL2R,170302.0,04:35:16.695,R,85.9,LR,593.8,492.2
ARUGT4UL2R,170302.0,04:35:17.471,R,119.1,RR,742.2,656.3
ARUGT4UL2R,170302.0,04:36:16.529,L,93.8,LL,306.6,230.5
ARUGT4UL2R,170302.0,04:36:17.307,R,119.1,LR,752.0,658.2
ARUGT4UL2R,170302.0,04:36:19.590,L,127.0,LL,669.9,560.5
ARUGT4UL2R,170302.0,04:36:20.135,L,78.1,LL,593.8,466.8
ARUGT4UL2R,170302.0,04:36:20.703,L,134.8,LL,511.7,433.6
ARUGT4UL2R,170302.0,04:41:46.512,L,173.8,LL,785.2,621.1
ARUGT4UL2R,170302.0,04:41:47.230,L,101.6,LL,791.0,617.2
ARUGT4UL2R,170302.0,04:41:47.873,L,52.7,LL,691.4,589.8
ARUGT4UL2R,170302.0,04:41:49.379,L,84.0,SL,423.8,234.4
ARUGT4UL2R,170302.0,04:41:50.113,L,123.0,LL,695.3,611.3
ARUGT4UL2R,170302.0,04:41:50.582,L,74.2,LL,517.6,394.5
ARUGT4UL2R,170302.0,04:41:51.262,R,125.0,LR,628.9,554.7
ARUGT4UL2R,170302.0,04:41:51.926,R,103.5,RR,685.5,560.5
ARUGT4UL2R,170302.0,04:41:52.178,R,105.5,RR,250.0,146.5
ARUGT4UL2R,170302.0,04:43:29.053,R,132.8,LR,777.3,619.1
ARUGT4UL2R,170302.0,04:43:36.318,L,109.4,RL,710.9,638.7
ARUGT4UL2R,170302.0,04:43:40.566,R,109.4,SR,638.7,488.3
ARUGT4UL2R,170302.0,04:43:41.064,R,80.1,RR,527.3,418.0
ARUGT4UL2R,170302.0,04:43:42.357,R,101.6,LR,314.5,212.9
ARUGT4UL2R,170302.0,04:43:42.926,L,101.6,RL,568.4,466.8
ARUGT4UL2R,170302.0,04:43:43.486,L,78.1,LL,584.0,482.4
ARUGT4UL2R,170302.0,04:43:50.445,L,93.8,SL,343.8,234.4
ARUGT4UL2R,170302.0,04:43:52.887,L,93.8,LL,410.2,293.0
ARUGT4UL2R,170302.0,04:43:53.568,R,70.3,LR,705.1,611.3
ARUGT4UL2R,170302.0,04:44:16.760,L,101.6,LL,322.3,189.5
ARUGT4UL2R,170302.0,04:44:18.127,L,78.1,LL,371.1,261.7
ARUGT4UL2R,170302.0,04:44:18.473,L,109.4,LL,314.5,236.3
ARUGT4UL2R,170302.0,04:44:18.725,L,78.1,LL,283.2,173.8
ARUGT4UL2R,170302.0,04:44:19.221,L,117.2,LL,457.0,378.9
ARUGT4UL2R,170302.0,09:03:36.004,R,132.8,LR,746.1,584.0
ARUGT4UL2R,170302.0,09:03:36.812,R,154.3,RR,787.1,654.3
ARUGT4UL2R,170302.0,09:05:03.740,L,85.9,LL,668.0,582.0
ARUGT4UL2R,170302.0,09:05:04.963,L,95.7,LL,351.6,265.6
ARUGT4UL2R,170302.0,09:05:06.717,R,134.8,LR,615.2,419.9
ARUGT4UL2R,170302.0,09:05:06.943,R,134.8,RR,226.6,91.8
ARUGT4UL2R,170302.0,09:10:24.738,R,125.0,RR,683.6,546.9
ARUGT4UL2R,170302.0,23:46:37.148,L,125.0,SL,453.1,320.3
ARUGT4UL2R,170302.0,23:46:40.281,R,156.3,RR,679.7,539.1
ARUGT4UL2R,170302.0,23:46:41.023,R,109.4,RR,789.1,632.8
ARUGT4UL2R,170302.0,23:46:56.805,R,117.2,RR,398.4,289.1
ARUGT4UL2R,170302.0,23:46:57.438,R,125.0,RR,625.0,507.8
ARUGT4UL2R,170302.0,23:47:12.336,L,125.0,SL,578.1,484.4
ARUGT4UL2R,170302.0,23:47:12.641,L,78.1,LL,351.6,226.6
ARUGT4UL2R,170302.0,23:47:12.898,L,140.6,LL,195.3,117.2
ARUGT4UL2R,170302.0,23:47:15.062,R,62.5,RR,109.4,23.4
ARUGT4UL2R,170302.0,23:47:15.734,R,70.3,RR,664.1,601.6
ARUGT4UL2R,170302.0,23:47:16.422,R,101.6,RR,656.3,585.9
ARUGT4UL2R,170302.0,23:47:17.164,L,78.1,RL,765.6,664.1
ARUGT4UL2R,170302.0,23:47:23.852,R,93.8,SR,750.0,632.8
ARUGT4UL2R,170302.0,23:47:25.594,S,148.4,RS,726.6,593.8
ARUGT4UL2R,170302.0,23:47:26.344,L,125.0,SL,773.4,625.0
ARUGT4UL2R,170302.0,23:47:34.961,R,125.0,LR,492.2,382.8
ARUGT4UL2R,170302.0,23:47:35.359,R,109.4,RR,414.1,289.1
ARUGT4UL2R,170302.0,23:47:35.688,R,117.2,RR,320.3,210.9
ARUGT4UL2R,170302.0,23:47:36.289,R,93.8,RR,625.0,507.8
ARUGT4UL2R,170302.0,23:47:36.617,R,117.2,RR,304.7,210.9
ARUGT4UL2R,170302.0,23:47:37.039,R,140.6,RR,398.4,281.3
ARUGT4UL2R,170302.0,23:48:04.609,L,171.9,LL,718.8,578.1
ARUGT4UL2R,170302.0,23:48:06.359,L,171.9,LL,375.0,250.0
ARUGT4UL2R,170302.0,23:48:09.984,R,109.4,RR,218.8,156.3
ARUGT4UL2R,170302.0,23:48:10.562,R,140.6,RR,546.9,437.5
ARUGT4UL2R,170302.0,23:49:58.086,L,117.2,LL,335.9,210.9
ARUGT4UL2R,170302.0,23:50:28.828,L,101.6,LL,62.5,31.3
ARUGT4UL2R,170302.0,23:50:29.906,R,164.1,LR,695.3,531.3
ARUGT4UL2R,170302.0,23:50:33.398,L,54.7,LL,695.3,562.5
ARUGT4UL2R,170302.0,23:50:43.203,L,156.3,LL,328.1,203.1
ARUGT4UL2R,170302.0,23:55:31.477,L,117.2,LL,296.9,140.6
ARUGT4UL2R,170302.0,23:55:31.773,L,195.3,LL,218.8,101.6
ARUGT4UL2R,170302.0,23:56:08.586,L,226.6,LL,570.3,460.9
ARUGT4UL2R,170302.0,23:56:34.797,L,125.0,LL,632.8,468.8
ARUGT4UL2R,170302.0,23:56:35.531,L,117.2,LL,742.2,617.2
ARUGT4UL2R,170302.0,23:56:35.859,L,70.3,LL,375.0,257.8
ARUGT4UL2R,170302.0,23:56:36.398,L,164.1,LL,445.3,375.0
ARUGT4UL2R,170302.0,23:56:59.953,R,257.8,RR,218.8,85.9
ARUGT4UL2R,170302.0,23:57:21.500,L,140.6,LL,750.0,578.1
ARUGT4UL2R,170302.0,23:57:21.859,L,140.6,LL,359.4,218.8
ARUGT4UL2R,170302.0,23:57:47.875,L,218.8,LL,726.6,601.6
ARUGT4UL2R,170302.0,23:57:48.516,L,265.6,LL,593.8,375.0
ARUGT4UL2R,170302.0,23:57:50.133,L,109.4,LL,796.9,656.3
ARUGT4UL2R,170302.0,23:58:50.555,R,125.0,RR,414.1,226.6
ARUGT4UL2R,170302.0,23:59:19.727,L,125.0,LL,335.9,234.4
ARUGT4UL2R,170302.0,23:59:23.242,R,78.1,LR,31.3,617.2
ARUGT4UL2R,170302.0,23:59:23.289,R,125.0,RR,31.3,617.2
ARUGT4UL2R,170303.0,00:05:37.058,R,188.0,LR,442.0,345.0
ARUGT4UL2R,170303.0,00:06:16.157,L,156.0,LL,719.0,533.0
ARUGT4UL2R,170303.0,00:06:17.294,L,125.0,LL,345.0,234.0
ARUGT4UL2R,170303.0,00:06:17.941,L,259.0,LL,513.0,388.0
ARUGT4UL2R,170303.0,00:06:50.692,L,187.0,LL,307.0,202.0
ARUGT4UL2R,170303.0,00:06:51.101,L,203.0,LL,393.0,206.0
ARUGT4UL2R,170303.0,00:07:13.258,L,156.0,LL,282.0,188.0
ARUGT4UL2R,170303.0,00:07:13.570,L,203.0,LL,265.0,109.0
ARUGT4UL2R,170303.0,00:07:36.467,L,216.0,LL,235.0,104.0
ARUGT4UL2R,170303.0,00:07:37.163,L,359.0,LL,553.0,337.0
ARUGT4UL2R,170303.0,00:07:42.553,R,184.0,LR,787.0,599.0
ARUGT4UL2R,170303.0,00:07:48.450,L,51.0,LL,94.0,46.0
ARUGT4UL2R,170303.0,00:07:48.860,L,160.0,LL,301.0,250.0
ARUGT4UL2R,170303.0,00:07:50.692,R,169.0,LR,785.0,617.0
ARUGT4UL2R,170303.0,00:08:48.524,R,47.0,RR,156.0,126.0
ARUGT4UL2R,170303.0,00:08:51.536,R,154.0,LR,677.0,545.0
ARUGT4UL2R,170303.0,00:08:57.479,L,114.0,LL,485.0,360.0
ARUGT4UL2R,170303.0,00:08:58.680,L,168.0,LL,343.0,203.0
ARUGT4UL2R,170303.0,00:08:59.017,L,118.0,LL,387.0,219.0
ARUGT4UL2R,170303.0,00:08:59.530,L,154.1,LL,477.0,358.9
ARUGT4UL2R,170303.0,04:18:07.528,L,126.0,LL,306.6,237.3
ARUGT4UL2R,170303.0,04:18:09.266,R,77.1,LR,569.3,460.0
ARUGT4UL2R,170303.0,04:18:09.493,R,102.5,RR,202.1,125.0
ARUGT4UL2R,170303.0,04:18:10.219,R,141.6,RR,686.5,584.0
ARUGT4UL2R,170303.0,04:19:14.313,L,43.9,LL,293.0,151.4
ARUGT4UL2R,170303.0,04:19:20.507,R,126.0,RR,537.1,426.8
ARUGT4UL2R,170303.0,04:19:21.041,R,124.0,RR,536.1,410.2
ARUGT4UL2R,170303.0,04:19:22.643,L,133.8,LL,456.1,315.4
ARUGT4UL2R,170303.0,04:19:24.793,R,101.6,LR,688.5,554.7
ARUGT4UL2R,170303.0,04:19:25.502,R,101.6,RR,709.0,607.4
ARUGT4UL2R,170303.0,04:19:30.399,R,133.8,LR,616.2,499.0
ARUGT4UL2R,170303.0,04:20:00.800,L,84.0,LL,262.7,178.7
ARUGT4UL2R,170303.0,04:20:05.774,R,37.1,LR,720.7,604.5
ARUGT4UL2R,170303.0,04:20:18.572,R,125.0,RR,515.6,390.6
ARUGT4UL2R,170303.0,04:20:20.850,L,93.8,RL,788.1,711.9
ARUGT4UL2R,170303.0,04:20:21.384,L,187.5,LL,440.4,346.7
ARUGT4UL2R,170303.0,04:20:24.130,R,46.9,LR,609.4,468.8
ARUGT4UL2R,170303.0,04:20:30.257,R,93.8,LR,690.4,487.3
ARUGT4UL2R,170303.0,04:20:31.484,R,16.6,RR,125.0,61.5
ARUGT4UL2R,170303.0,04:20:48.698,L,140.6,LL,265.6,171.9
ARUGT4UL2R,170303.0,04:20:48.995,L,139.6,LL,297.9,157.2
ARUGT4UL2R,170303.0,04:20:49.323,L,109.4,LL,358.4,218.8
ARUGT4UL2R,170303.0,04:20:54.918,L,156.3,LL,250.0,108.4
ARUGT4UL2R,170303.0,04:20:55.528,L,110.4,LL,656.3,500.0
ARUGT4UL2R,170303.0,04:20:59.540,L,45.9,LL,141.6,46.9
ARUGT4UL2R,170303.0,04:21:01.119,R,125.0,RR,485.4,375.0
ARUGT4UL2R,170303.0,04:21:01.714,R,108.4,RR,611.3,486.3
ARUGT4UL2R,170303.0,04:21:03.444,L,127.9,LL,455.1,346.7
ARUGT4UL2R,170303.0,04:21:05.603,R,111.3,LR,563.5,438.5
ARUGT4UL2R,170303.0,04:21:06.181,R,78.1,RR,611.3,500.0
ARUGT4UL2R,170303.0,04:21:06.994,L,110.4,RL,781.3,703.1
ARUGT4UL2R,170303.0,04:21:10.981,R,109.4,LR,703.1,609.4
ARUGT4UL2R,170303.0,04:22:08.449,L,110.4,LL,393.6,292.0
ARUGT4UL2R,170303.0,04:22:09.829,L,110.4,LL,331.1,181.6
ARUGT4UL2R,170303.0,04:22:10.198,L,70.3,LL,409.2,298.8
ARUGT4UL2R,170303.0,04:22:10.688,L,150.4,LL,410.2,339.8
ARUGT4UL2R,170303.0,04:22:28.578,L,109.4,LL,424.8,259.8
ARUGT4UL2R,170303.0,04:22:29.793,L,101.6,LL,308.6,165.0
ARUGT4UL2R,170303.0,04:22:30.147,L,134.8,LL,321.3,219.7
ARUGT4UL2R,170303.0,04:22:30.596,L,92.8,LL,1.0,355.5
ARUGT4UL2R,170303.0,04:22:30.619,L,116.2,LL,1.0,355.5
ARUGT4UL2R,170303.0,04:22:49.858,L,120.1,LL,266.6,188.5
ARUGT4UL2R,170303.0,04:22:50.466,L,152.3,LL,575.2,455.1
ARUGT4UL2R,170303.0,04:22:54.304,L,136.7,LL,398.4,275.4
ARUGT4UL2R,170303.0,04:22:55.130,L,169.9,LL,793.0,656.3
ARUGT4UL2R,170303.0,04:23:21.158,R,83.0,RR,317.4,171.9
ARUGT4UL2R,170303.0,04:23:23.323,R,105.5,LR,606.4,497.1
ARUGT4UL2R,170303.0,04:23:35.171,L,84.0,LL,334.0,209.0
ARUGT4UL2R,170303.0,04:23:35.642,L,59.6,LL,495.1,411.1
ARUGT4UL2R,170303.0,04:23:56.305,L,111.3,LL,449.2,288.1
ARUGT4UL2R,170303.0,04:23:56.950,L,102.5,LL,654.3,543.0
ARUGT4UL2R,170303.0,04:23:57.294,L,150.4,LL,295.9,193.4
ARUGT4UL2R,170303.0,04:23:57.670,L,110.4,LL,416.0,265.6
ARUGT4UL2R,170303.0,04:23:58.184,L,137.7,LL,486.3,376.0
ARUGT4UL2R,170303.0,04:24:15.890,R,156.3,RR,404.3,252.0
ARUGT4UL2R,170303.0,04:24:22.366,R,60.5,RR,355.5,203.1
ARUGT4UL2R,170303.0,04:24:26.241,R,123.0,LR,587.9,435.5
ARUGT4UL2R,170303.0,04:24:39.374,L,95.7,LL,373.0,254.9
ARUGT4UL2R,170303.0,04:24:40.071,L,111.3,LL,681.6,585.9
ARUGT4UL2R,170303.0,04:24:40.447,L,156.3,LL,331.1,219.7
ARUGT4UL2R,170303.0,04:24:40.857,L,115.2,LL,451.2,294.9
ARUGT4UL2R,170303.0,04:24:41.700,L,190.4,LL,767.6,652.3
ARUGT4UL2R,170303.0,04:25:05.435,R,140.6,RR,516.6,406.3
ARUGT4UL2R,170303.0,04:25:07.642,R,74.2,RR,276.4,203.1
ARUGT4UL2R,170303.0,04:25:09.340,R,75.2,LR,569.3,442.4
ARUGT4UL2R,170303.0,04:25:16.027,L,94.7,LL,460.0,342.8
ARUGT4UL2R,170303.0,04:25:25.653,L,135.7,LL,460.9,316.4
ARUGT4UL2R,170303.0,04:25:26.313,L,136.7,LL,659.2,523.4
ARUGT4UL2R,170303.0,04:25:26.613,L,127.0,LL,309.6,172.9
ARUGT4UL2R,170303.0,04:25:26.904,L,97.7,LL,320.3,193.4
ARUGT4UL2R,170303.0,04:25:27.723,L,134.8,LL,781.3,683.6
ARUGT4UL2R,170303.0,04:25:43.301,R,176.8,RR,416.0,267.6
ARUGT4UL2R,170303.0,04:25:45.022,R,110.4,RR,254.9,156.3
ARUGT4UL2R,170303.0,04:25:47.579,R,111.3,LR,688.5,539.1
ARUGT4UL2R,170303.0,04:25:53.115,L,139.6,LL,418.0,254.9
ARUGT4UL2R,170303.0,04:25:53.662,L,91.8,LL,594.7,455.1
ARUGT4UL2R,170303.0,04:25:54.050,L,152.3,LL,327.1,235.4
ARUGT4UL2R,170303.0,04:25:54.366,L,101.6,LL,367.2,214.8
ARUGT4UL2R,170303.0,04:25:55.136,L,83.0,LL,788.1,686.5
ARUGT4UL2R,170303.0,04:26:05.277,L,128.9,LL,557.6,360.4
ARUGT4UL2R,170303.0,04:26:05.823,L,88.9,LL,585.9,457.0
ARUGT4UL2R,170303.0,04:26:06.235,L,131.8,LL,369.1,280.3
ARUGT4UL2R,170303.0,04:26:06.547,L,92.8,LL,350.6,218.8
ARUGT4UL2R,170303.0,04:26:07.322,L,72.3,LL,795.9,703.1
ARUGT4UL2R,170303.0,04:26:28.997,L,152.3,LL,340.8,267.6
ARUGT4UL2R,170303.0,04:26:29.307,L,115.2,LL,346.7,194.3
ARUGT4UL2R,170303.0,04:26:36.308,L,127.0,LL,286.1,158.2
ARUGT4UL2R,170303.0,04:26:36.550,L,131.8,LL,237.3,110.4
ARUGT4UL2R,170303.0,04:26:51.162,R,106.4,RR,413.1,345.7
ARUGT4UL2R,170303.0,04:26:56.658,R,100.6,RR,769.5,717.8
ARUGT4UL2R,170303.0,04:26:56.915,R,114.3,RR,243.2,142.6
ARUGT4UL2R,170303.0,04:26:58.723,R,130.9,LR,689.5,582.0
ARUGT4UL2R,170303.0,04:27:05.717,L,107.4,LL,395.5,305.7
ARUGT4UL2R,170303.0,04:27:06.324,L,99.6,LL,615.2,507.8
ARUGT4UL2R,170303.0,04:27:06.655,L,127.9,LL,302.7,203.1
ARUGT4UL2R,170303.0,04:27:07.381,L,133.8,LL,719.7,591.8
ARUGT4UL2R,170303.0,04:27:07.834,L,106.4,LL,480.5,346.7
ARUGT4UL2R,170303.0,04:27:21.397,R,111.3,RR,316.4,214.8
ARUGT4UL2R,170303.0,04:27:26.754,R,105.5,RR,288.1,162.1
ARUGT4UL2R,170303.0,04:27:28.857,R,114.3,LR,587.9,443.4
ARUGT4UL2R,170303.0,04:27:34.326,L,107.4,LL,338.9,264.6
ARUGT4UL2R,170303.0,04:27:34.887,L,126.0,LL,542.0,434.6
ARUGT4UL2R,170303.0,04:27:35.233,L,98.6,LL,374.0,248.0
ARUGT4UL2R,170303.0,04:27:35.650,L,123.0,LL,392.6,293.9
ARUGT4UL2R,170303.0,04:29:49.869,L,93.8,SL,592.8,428.7
ARUGT4UL2R,170303.0,04:29:50.260,L,115.2,LL,369.1,275.4
ARUGT4UL2R,170303.0,04:29:50.516,L,81.1,LL,290.0,174.8
ARUGT4UL2R,170303.0,04:29:52.475,R,114.3,SR,689.5,581.1
ARUGT4UL2R,170303.0,04:29:54.047,L,106.4,LL,352.5,251.0
ARUGT4UL2R,170303.0,04:29:55.372,R,153.3,LR,439.5,398.4
ARUGT4UL2R,170303.0,04:29:55.727,R,132.8,RR,375.0,221.7
ARUGT4UL2R,170303.0,04:29:56.261,R,102.5,RR,564.5,431.6
ARUGT4UL2R,170303.0,04:29:58.007,R,53.7,LR,658.2,560.5
ARUGT4UL2R,170303.0,04:30:06.346,L,119.1,SL,411.1,282.2
ARUGT4UL2R,170303.0,04:30:07.966,R,145.5,RR,716.8,559.6
ARUGT4UL2R,170303.0,04:30:10.195,L,107.4,SL,447.3,291.0
ARUGT4UL2R,170303.0,04:30:10.803,R,95.7,LR,619.1,511.7
ARUGT4UL2R,170303.0,04:30:11.500,L,102.5,RL,690.4,594.7
ARUGT4UL2R,170303.0,04:30:14.311,L,90.8,SL,487.3,353.5
ARUGT4UL2R,170303.0,04:30:15.182,L,225.6,LL,736.3,645.5
ARUGT4UL2R,170303.0,04:30:15.512,L,98.6,LL,457.0,231.4
ARUGT4UL2R,170303.0,04:30:16.095,S,90.8,LS,590.8,492.2
ARUGT4UL2R,170303.0,04:30:27.905,L,119.1,SL,733.4,557.6
ARUGT4UL2R,170303.0,04:30:28.941,R,105.5,RR,232.4,149.4
ARUGT4UL2R,170303.0,04:30:30.366,R,124.0,LR,603.5,496.1
ARUGT4UL2R,170303.0,04:30:32.211,L,77.1,LL,410.2,311.5
ARUGT4UL2R,170303.0,04:30:32.823,L,109.4,LL,580.1,502.9
ARUGT4UL2R,170303.0,04:30:34.297,L,155.3,SL,555.7,455.1
ARUGT4UL2R,170303.0,04:30:34.678,R,98.6,LR,437.5,282.2
ARUGT4UL2R,170303.0,04:30:36.611,L,98.6,SL,453.1,313.5
ARUGT4UL2R,170303.0,04:30:37.263,L,45.9,LL,704.1,605.5
ARUGT4UL2R,170303.0,04:30:38.390,L,61.5,LL,89.8,16.6
ARUGT4UL2R,170303.0,04:30:39.975,L,100.6,SL,479.5,331.1
ARUGT4UL2R,170303.0,04:30:40.654,R,124.0,LR,656.3,555.7
ARUGT4UL2R,170303.0,04:30:42.260,L,152.3,LL,470.7,345.7
ARUGT4UL2R,170303.0,04:30:50.373,L,128.9,SL,466.8,376.0
ARUGT4UL2R,170303.0,04:30:51.854,R,101.6,RR,629.9,476.6
ARUGT4UL2R,170303.0,04:30:53.518,R,98.6,SR,567.4,457.0
ARUGT4UL2R,170303.0,04:30:57.101,L,41.0,SL,442.4,314.5
ARUGT4UL2R,170303.0,04:31:05.453,L,134.8,SL,404.3,276.4
ARUGT4UL2R,170303.0,04:31:07.790,L,114.3,LL,460.9,360.4
ARUGT4UL2R,170303.0,04:31:08.019,L,104.5,LL,238.3,124.0
ARUGT4UL2R,170303.0,04:31:08.452,L,128.9,LL,409.2,304.7
ARUGT4UL2R,170303.0,04:31:08.829,L,94.7,LL,411.1,282.2
ARUGT4UL2R,170303.0,04:31:09.591,S,115.2,LS,741.2,646.5
ARUGT4UL2R,170303.0,04:31:09.967,L,109.4,SL,381.8,266.6
ARUGT4UL2R,170303.0,04:31:10.422,R,107.4,LR,457.0,347.7
ARUGT4UL2R,170303.0,04:31:10.996,L,98.6,RL,583.0,475.6
ARUGT4UL2R,170303.0,04:31:11.631,L,156.3,LL,577.1,478.5
ARUGT4UL2R,170303.0,04:31:16.712,R,101.6,SR,307.6,204.1
ARUGT4UL2R,170303.0,04:31:17.171,R,164.1,RR,396.5,294.9
ARUGT4UL2R,170303.0,04:31:17.920,L,116.2,RL,796.9,632.8
ARUGT4UL2R,170303.0,04:31:19.743,L,147.5,SL,405.3,265.6
ARUGT4UL2R,170303.0,04:31:20.303,R,20.5,LR,41.0,539.1
ARUGT4UL2R,170303.0,04:31:20.334,R,51.8,RR,41.0,539.1
ARUGT4UL2R,170303.0,04:31:27.616,R,158.2,RR,72.3,15.6
ARUGT4UL2R,170303.0,04:31:29.085,L,88.9,LL,398.4,268.6
ARUGT4UL2R,170303.0,04:31:30.437,R,122.1,SR,466.8,333.0
ARUGT4UL2R,170303.0,04:31:30.982,R,131.8,RR,536.1,414.1
ARUGT4UL2R,170303.0,04:31:33.749,S,113.3,LS,585.0,475.6
ARUGT4UL2R,170303.0,04:31:43.607,R,150.4,SR,694.3,478.5
ARUGT4UL2R,170303.0,04:31:45.547,L,87.9,SL,286.1,171.9
ARUGT4UL2R,170303.0,04:31:46.189,R,131.8,LR,598.6,510.7
ARUGT4UL2R,170303.0,04:31:47.555,L,124.0,LL,418.0,266.6
ARUGT4UL2R,170303.0,04:31:47.782,L,102.5,LL,249.0,125.0
ARUGT4UL2R,170303.0,04:31:48.081,L,112.3,LL,289.1,186.5
ARUGT4UL2R,170303.0,04:31:48.390,L,74.2,LL,346.7,234.4
ARUGT4UL2R,170303.0,04:31:49.032,S,127.0,LS,589.8,515.6
ARUGT4UL2R,170303.0,04:31:49.398,L,138.7,SL,354.5,227.5
ARUGT4UL2R,170303.0,04:31:49.726,R,110.4,LR,355.5,216.8
ARUGT4UL2R,170303.0,04:31:50.924,L,109.4,SL,370.1,237.3
ARUGT4UL2R,170303.0,04:31:51.178,L,59.6,LL,303.7,194.3
ARUGT4UL2R,170303.0,04:31:51.679,L,100.6,LL,460.0,400.4
ARUGT4UL2R,170303.0,04:32:01.232,R,101.6,SR,448.2,311.5
ARUGT4UL2R,170303.0,04:32:03.896,L,56.6,SL,668.9,503.9
ARUGT4UL2R,170303.0,04:32:05.656,R,117.2,RR,716.8,593.8
ARUGT4UL2R,170303.0,04:32:07.080,R,120.1,RR,553.7,467.8
ARUGT4UL2R,170303.0,04:32:09.424,L,98.6,SL,402.3,265.6
ARUGT4UL2R,170303.0,04:32:10.977,S,119.1,LS,731.4,611.3
ARUGT4UL2R,170303.0,04:32:11.256,L,91.8,SL,306.6,187.5
ARUGT4UL2R,170303.0,04:32:14.151,L,128.9,LL,374.0,244.1
ARUGT4UL2R,170303.0,04:32:14.393,L,101.6,LL,268.6,139.6
ARUGT4UL2R,170303.0,04:32:14.703,L,76.2,LL,335.9,234.4
ARUGT4UL2R,170303.0,04:32:15.491,L,148.4,LL,715.8,639.6
ARUGT4UL2R,170303.0,04:34:16.516,R,125.0,RR,627.0,546.9
ARUGT4UL2R,170303.0,04:34:20.828,R,107.4,SR,607.4,490.2
ARUGT4UL2R,170303.0,04:34:21.197,R,87.9,RR,388.7,281.3
ARUGT4UL2R,170303.0,04:34:21.482,R,76.2,RR,296.9,209.0
ARUGT4UL2R,170303.0,04:34:24.000,L,85.9,SL,513.7,355.5
ARUGT4UL2R,170303.0,04:34:24.375,R,109.4,LR,351.6,265.6
ARUGT4UL2R,170303.0,04:34:24.822,R,85.9,RR,470.7,361.3
ARUGT4UL2R,170303.0,04:34:27.781,L,93.8,SL,441.4,298.8
ARUGT4UL2R,170303.0,04:34:28.070,L,68.4,LL,314.5,220.7
ARUGT4UL2R,170303.0,04:34:29.455,L,99.6,LL,408.2,304.7
ARUGT4UL2R,170303.0,04:34:30.055,R,93.8,LR,605.5,505.9
ARUGT4UL2R,170303.0,04:34:30.840,L,95.7,RL,783.2,689.5
ARUGT4UL2R,170303.0,04:34:31.143,L,105.5,LL,293.0,197.3
ARUGT4UL2R,170303.0,04:34:31.910,L,130.9,LL,742.2,636.7
ARUGT4UL2R,170303.0,04:34:33.254,L,97.7,SL,398.4,283.2
ARUGT4UL2R,170303.0,04:34:33.664,R,80.1,LR,427.7,330.1
ARUGT4UL2R,170303.0,04:34:35.535,R,115.2,SR,439.5,277.3
ARUGT4UL2R,170303.0,04:34:35.955,R,101.6,RR,433.6,318.4
ARUGT4UL2R,170303.0,04:34:37.383,R,87.9,LR,324.2,187.5
ARUGT4UL2R,170303.0,04:34:38.053,L,78.1,RL,679.7,591.8
ARUGT4UL2R,170303.0,04:34:38.355,L,84.0,LL,296.9,218.8
ARUGT4UL2R,170303.0,04:34:40.453,L,64.5,SL,689.5,554.7
ARUGT4UL2R,170303.0,04:34:43.848,R,93.8,RR,486.3,421.9
ARUGT4UL2R,170303.0,04:34:46.504,L,99.6,RL,630.9,505.9
ARUGT4UL2R,170303.0,04:34:46.785,R,93.8,LR,287.1,187.5
ARUGT4UL2R,170303.0,04:36:40.838,R,144.5,LR,755.9,634.8
ARUGT4UL2R,170303.0,04:36:45.645,R,111.3,LR,761.7,621.1
ARUGT4UL2R,170303.0,04:36:47.441,L,91.8,LL,287.1,175.8
ARUGT4UL2R,170303.0,04:38:23.197,L,199.2,LL,546.9,400.4
ARUGT4UL2R,170303.0,04:38:34.385,L,64.5,LL,443.4,334.0
ARUGT4UL2R,170303.0,04:39:26.137,R,31.3,LR,15.6,490.2
ARUGT4UL2R,170303.0,04:39:26.207,R,101.6,RR,15.6,490.2
ARUGT4UL2R,170303.0,04:39:51.258,R,113.3,RR,382.8,265.6
ARUGT4UL2R,170303.0,04:39:56.748,R,109.4,RR,285.2,189.5
ARUGT4UL2R,170303.0,04:39:58.867,R,101.6,LR,630.9,539.1
ARUGT4UL2R,170303.0,04:40:05.367,R,113.3,LR,771.5,664.1
ARUGT4UL2R,170303.0,04:40:08.807,R,52.7,RR,160.2,31.3
ARUGT4UL2R,170303.0,04:40:09.135,R,78.1,RR,302.7,250.0
ARUGT4UL2R,170303.0,04:40:09.779,L,85.9,RL,636.7,558.6
ARUGT4UL2R,170303.0,04:40:28.650,L,125.0,LL,683.6,568.4
ARUGT4UL2R,170303.0,04:40:30.520,R,80.1,RR,636.7,546.9
ARUGT4UL2R,170303.0,04:40:30.895,R,117.2,RR,337.9,257.8
ARUGT4UL2R,170303.0,04:40:31.986,L,107.4,LL,250.0,187.5
ARUGT4UL2R,170303.0,04:40:36.881,L,339.8,SL,460.9,335.9
ARUGT4UL2R,170303.0,04:40:39.473,L,113.3,RL,757.8,634.8
ARUGT4UL2R,170303.0,04:40:41.150,R,76.2,LR,697.3,597.7
ARUGT4UL2R,170303.0,04:40:56.750,R,91.8,RR,269.5,185.5
ARUGT4UL2R,170303.0,04:40:58.348,R,144.5,LR,505.9,377.0
ARUGT4UL2R,170303.0,04:41:08.156,R,119.1,LR,720.7,617.2
ARUGT4UL2R,170303.0,04:41:08.900,R,121.1,RR,742.2,623.0
ARUGT4UL2R,170303.0,04:41:09.596,R,121.1,RR,695.3,574.2
ARUGT4UL2R,170303.0,04:41:11.510,R,105.5,LR,621.1,519.5
ARUGT4UL2R,170303.0,04:41:26.082,R,103.5,LR,765.6,656.3
ARUGT4UL2R,170303.0,04:41:39.326,R,107.4,RR,371.1,252.0
ARUGT4UL2R,170303.0,04:41:41.004,R,109.4,RR,271.5,142.6
ARUGT4UL2R,170303.0,04:41:42.760,R,113.3,LR,558.6,423.8
ARUGT4UL2R,170303.0,04:41:50.775,R,127.0,RR,796.9,703.1
ARUGT4UL2R,170303.0,04:41:54.879,R,84.0,LR,691.4,574.2
ARUGT4UL2R,170303.0,04:42:01.123,R,146.5,LR,658.2,546.9
ARUGT4UL2R,170303.0,04:42:03.324,R,80.1,RR,406.3,271.5
ARUGT4UL2R,170303.0,04:42:04.676,L,85.9,LL,513.7,412.1
ARUGT4UL2R,170303.0,04:42:47.980,L,101.6,LL,418.0,283.2
ARUGT4UL2R,170303.0,04:42:48.580,L,78.1,LL,623.0,521.5
ARUGT4UL2R,170303.0,04:42:55.105,L,115.2,LL,441.4,308.6
ARUGT4UL2R,170303.0,04:42:55.713,L,107.4,LL,615.2,500.0
ARUGT4UL2R,170303.0,04:42:56.021,L,113.3,LL,302.7,195.3
ARUGT4UL2R,170303.0,04:42:56.451,L,130.9,LL,412.1,298.8
ARUGT4UL2R,170303.0,04:42:56.951,L,127.0,LL,11.7,373.0
ARUGT4UL2R,170303.0,04:42:56.953,L,128.9,LL,11.7,373.0
ARUGT4UL2R,170303.0,04:43:06.986,L,125.0,LL,441.4,294.9
ARUGT4UL2R,170303.0,04:43:08.385,L,142.6,LL,337.9,212.9
ARUGT4UL2R,170303.0,04:43:08.754,L,109.4,LL,402.3,259.8
ARUGT4UL2R,170303.0,04:43:09.307,L,156.3,LL,505.9,396.5
ARUGT4UL2R,170303.0,04:43:15.764,L,101.6,LL,378.9,261.7
ARUGT4UL2R,170303.0,04:43:16.600,L,138.7,LL,798.8,697.3
ARUGT4UL2R,170303.0,04:43:16.980,L,127.0,LL,392.6,253.9
ARUGT4UL2R,170303.0,04:43:17.619,L,181.6,LL,584.0,457.0
ARUGT4UL2R,170303.0,04:43:18.135,L,128.9,LL,568.4,386.7
ARUGT4UL2R,170303.0,04:43:28.463,L,95.7,LL,402.3,267.6
ARUGT4UL2R,170303.0,04:43:29.107,L,119.1,LL,621.1,525.4
ARUGT4UL2R,170303.0,04:43:29.746,L,107.4,LL,650.4,531.3
ARUGT4UL2R,170303.0,04:43:30.062,L,105.5,LL,318.4,210.9
ARUGT4UL2R,170303.0,04:43:44.629,L,95.7,LL,527.3,330.1
ARUGT4UL2R,170303.0,04:43:46.258,L,103.5,LL,687.5,578.1
ARUGT4UL2R,170303.0,04:43:46.617,L,127.0,LL,335.9,232.4
ARUGT4UL2R,170303.0,04:43:47.385,L,164.1,LL,730.5,603.5
ARUGT4UL2R,170303.0,04:44:03.229,L,111.3,LL,529.3,345.7
ARUGT4UL2R,170303.0,04:44:03.898,L,109.4,LL,671.9,560.5
ARUGT4UL2R,170303.0,04:44:04.277,L,109.4,LL,378.9,269.5
ARUGT4UL2R,170303.0,04:44:04.699,L,107.4,LL,423.8,314.5
ARUGT4UL2R,170303.0,04:44:24.525,R,142.6,RR,394.5,283.2
ARUGT4UL2R,170303.0,04:44:26.508,R,78.1,RR,240.2,148.4
ARUGT4UL2R,170303.0,04:44:28.117,R,25.4,LR,39.1,470.7
ARUGT4UL2R,170303.0,04:44:28.207,R,115.2,RR,39.1,470.7
ARUGT4UL2R,170303.0,04:44:39.695,R,125.0,LR,761.7,652.3
ARUGT4UL2R,170303.0,04:44:41.617,R,134.8,RR,750.0,560.5
ARUGT4UL2R,170303.0,04:44:43.812,R,39.1,LR,679.7,568.4
ARUGT4UL2R,170303.0,04:45:03.338,R,127.0,RR,757.8,646.5
ARUGT4UL2R,170303.0,04:45:04.473,R,117.2,RR,257.8,156.3
ARUGT4UL2R,170303.0,04:45:09.779,L,89.8,LL,564.5,494.1
ARUGT4UL2R,170303.0,04:45:10.363,L,164.1,LL,509.8,419.9
ARUGT4UL2R,170303.0,04:45:16.568,R,140.6,RR,505.9,406.3
ARUGT4UL2R,170303.0,04:46:37.848,R,111.3,LR,744.1,619.1
ARUGT4UL2R,170303.0,04:46:38.609,R,136.7,RR,736.3,625.0
ARUGT4UL2R,170303.0,04:47:30.340,R,121.1,RR,619.1,511.7
ARUGT4UL2R,170303.0,04:48:10.637,L,107.4,LL,410.2,242.2
ARUGT4UL2R,170303.0,04:48:11.164,L,82.0,LL,552.7,445.3
ARUGT4UL2R,170303.0,04:48:11.469,L,85.9,LL,300.8,218.8
ARUGT4UL2R,170303.0,04:48:12.078,L,177.7,LL,517.6,431.6
ARUGT4UL2R,170303.0,04:48:20.441,L,97.7,LL,414.1,244.1
ARUGT4UL2R,170303.0,04:48:20.904,L,97.7,LL,462.9,365.2
ARUGT4UL2R,170303.0,04:48:21.223,L,125.0,LL,291.0,193.4
ARUGT4UL2R,170303.0,04:48:21.510,L,99.6,LL,312.5,187.5
ARUGT4UL2R,170303.0,04:48:28.273,L,99.6,LL,334.0,240.2
ARUGT4UL2R,170303.0,04:48:28.742,L,99.6,LL,468.8,369.1
ARUGT4UL2R,170303.0,04:48:29.020,L,105.5,LL,271.5,171.9
ARUGT4UL2R,170303.0,04:48:29.607,L,148.4,LL,544.9,439.5
ARUGT4UL2R,170303.0,04:48:30.027,L,95.7,LL,472.7,324.2
ARUGT4UL2R,170303.0,04:48:51.266,L,99.6,LL,377.0,250.0
ARUGT4UL2R,170303.0,04:48:51.807,L,121.1,LL,519.5,419.9
ARUGT4UL2R,170303.0,04:48:52.201,L,127.0,LL,388.7,267.6
ARUGT4UL2R,170303.0,04:48:52.518,L,93.8,LL,349.6,222.7
ARUGT4UL2R,170303.0,04:49:10.809,R,168.0,RR,416.0,304.7
ARUGT4UL2R,170303.0,04:49:12.260,R,113.3,RR,212.9,125.0
ARUGT4UL2R,170303.0,04:49:13.869,R,111.3,LR,625.0,470.7
ARUGT4UL2R,170303.0,04:49:23.297,R,91.8,LR,738.3,636.7
ARUGT4UL2R,170303.0,04:49:24.059,R,121.1,RR,732.4,640.6
ARUGT4UL2R,170303.0,04:49:24.688,R,105.5,RR,644.5,523.4
ARUGT4UL2R,170303.0,04:49:26.326,R,117.2,LR,669.9,576.2
ARUGT4UL2R,170303.0,04:49:40.838,R,89.8,RR,271.5,177.7
ARUGT4UL2R,170303.0,04:49:44.164,L,197.3,LL,664.1,529.3
ARUGT4UL2R,170303.0,04:51:07.141,R,115.2,LR,720.7,580.1
ARUGT4UL2R,170303.0,04:51:07.617,R,138.7,RR,453.1,337.9
ARUGT4UL2R,170303.0,04:51:07.844,R,117.2,RR,248.0,109.4
ARUGT4UL2R,170303.0,04:51:08.986,L,119.1,LL,287.1,173.8
ARUGT4UL2R,170303.0,04:51:16.963,R,58.6,RR,107.4,62.5
ARUGT4UL2R,170303.0,04:51:17.725,R,138.7,RR,681.6,623.0
ARUGT4UL2R,170303.0,04:51:17.949,R,113.3,RR,250.0,111.3
ARUGT4UL2R,170303.0,04:51:19.285,L,150.4,LL,339.8,250.0
ARUGT4UL2R,170303.0,04:51:28.607,R,97.7,LR,763.7,636.7
ARUGT4UL2R,170303.0,04:51:29.977,R,158.2,RR,486.3,121.1
ARUGT4UL2R,170303.0,04:51:31.041,L,99.6,LL,273.4,181.6
ARUGT4UL2R,170303.0,04:51:42.957,R,117.2,RR,316.4,156.3
ARUGT4UL2R,170303.0,04:51:44.135,L,140.6,LL,289.1,205.1
ARUGT4UL2R,170303.0,04:51:54.273,R,107.4,RR,283.2,171.9
ARUGT4UL2R,170303.0,04:51:55.447,L,130.9,LL,298.8,218.8
ARUGT4UL2R,170303.0,04:52:02.734,R,29.3,RR,160.2,31.3
ARUGT4UL2R,170303.0,04:52:13.275,R,101.6,LR,761.7,611.3
ARUGT4UL2R,170303.0,04:52:14.082,R,121.1,RR,787.1,685.5
ARUGT4UL2R,170303.0,04:52:14.309,R,101.6,RR,246.1,125.0
ARUGT4UL2R,170303.0,04:52:15.055,L,93.8,RL,753.9,652.3
ARUGT4UL2R,170303.0,04:52:15.369,L,128.9,LL,279.3,185.5
ARUGT4UL2R,170303.0,04:52:31.807,R,64.5,LR,771.5,621.1
ARUGT4UL2R,170303.0,04:52:32.436,R,123.0,RR,570.3,505.9
ARUGT4UL2R,170303.0,04:52:32.705,R,113.3,RR,279.3,156.3
ARUGT4UL2R,170303.0,04:52:33.473,L,97.7,RL,783.2,669.9
ARUGT4UL2R,170303.0,04:52:33.824,L,146.5,LL,302.7,205.1
ARUGT4UL2R,170303.0,04:53:31.457,L,109.4,LL,355.5,250.0
ARUGT4UL2R,170303.0,04:53:32.168,R,91.8,LR,728.5,619.1
ARUGT4UL2R,170303.0,04:53:33.738,L,97.7,RL,523.4,396.5
ARUGT4UL2R,170303.0,04:53:34.357,L,111.3,LL,605.5,507.8
ARUGT4UL2R,170303.0,04:53:35.758,L,89.8,LL,460.9,285.2
ARUGT4UL2R,170303.0,04:57:18.051,L,111.3,LL,625.0,562.5
ARUGT4UL2R,170303.0,04:57:19.496,L,117.2,LL,345.7,236.3
ARUGT4UL2R,170303.0,04:57:21.947,L,78.1,RL,529.3,435.5
ARUGT4UL2R,170303.0,04:57:22.590,L,95.7,LL,625.0,546.9
ARUGT4UL2R,170303.0,04:57:24.045,L,95.7,LL,404.3,294.9
ARUGT4UL2R,170303.0,06:33:59.494,R,62.5,RR,578.1,468.8
ARUGT4UL2R,170303.0,06:36:47.314,L,142.6,LL,361.3,259.8
ARUGT4UL2R,170303.0,06:36:49.705,R,125.0,RR,662.1,560.5
ARUGT4UL2R,170303.0,06:37:29.182,L,109.4,LL,425.8,324.2
ARUGT4UL2R,170303.0,06:37:29.941,R,111.3,LR,757.8,648.4
ARUGT4UL2R,170303.0,07:24:18.326,R,109.4,RR,421.9,296.9
ARUGT4UL2R,170303.0,07:24:19.100,R,93.8,RR,789.1,679.7
ARUGT4UL2R,170303.0,07:24:19.678,R,95.7,RR,576.2,482.4
ARUGT4UL2R,170303.0,07:24:20.193,S,109.4,RS,502.0,406.3
ARUGT4UL2R,170303.0,07:24:20.662,L,140.6,SL,437.5,328.1
ARUGT4UL2R,170303.0,07:24:39.047,L,93.8,LL,523.4,377.0
ARUGT4UL2R,170303.0,07:24:40.576,R,109.4,RR,406.3,294.9
ARUGT4UL2R,170303.0,07:25:00.732,R,125.0,RR,252.0,179.7
ARUGT4UL2R,170303.0,07:25:01.277,R,78.1,RR,591.8,466.8
ARUGT4UL2R,170303.0,07:25:01.721,S,85.9,RS,433.6,355.5
ARUGT4UL2R,170303.0,07:25:02.109,L,101.6,SL,375.0,289.1
ARUGT4UL2R,170303.0,07:25:02.621,L,117.2,LL,496.1,394.5
ARUGT4UL2R,170303.0,07:25:03.230,R,46.9,LR,679.7,562.5
ARUGT4UL2R,170303.0,07:25:03.561,R,101.6,RR,275.4,228.5
ARUGT4UL2R,170303.0,07:25:11.697,L,132.8,RL,736.3,630.9
ARUGT4UL2R,170303.0,07:25:12.904,R,125.0,RR,378.9,293.0
ARUGT4UL2R,170303.0,07:25:22.836,R,134.8,RR,560.5,418.0
ARUGT4UL2R,170303.0,07:25:23.400,R,101.6,RR,597.7,462.9
ARUGT4UL2R,170303.0,07:25:23.914,S,109.4,RS,505.9,404.3
ARUGT4UL2R,170303.0,07:25:24.361,L,119.1,SL,437.5,328.1
ARUGT4UL2R,170303.0,07:25:24.943,L,111.3,LL,589.8,470.7
ARUGT4UL2R,170303.0,07:25:26.254,R,95.7,RR,431.6,304.7
ARUGT4UL2R,170303.0,07:25:26.938,L,101.6,RL,677.7,582.0
ARUGT4UL2R,170303.0,07:25:27.529,R,117.2,LR,576.2,474.6
ARUGT4UL2R,170303.0,07:25:28.012,R,150.4,RR,449.2,332.0
ARUGT4UL2R,170303.0,07:26:32.045,R,85.9,RR,472.7,324.2
ARUGT4UL2R,170303.0,07:28:17.795,L,87.9,LL,732.4,599.6
ARUGT4UL2R,170303.0,07:28:18.188,L,101.6,LL,378.9,291.0
ARUGT4UL2R,170303.0,07:28:18.924,L,46.9,LL,791.0,689.5
ARUGT4UL2R,170303.0,07:28:19.682,R,269.5,LR,535.2,488.3
ARUGT4UL2R,170303.0,07:28:19.980,R,93.8,RR,474.6,205.1
ARUGT4UL2R,170303.0,07:28:20.770,R,127.0,RR,755.9,662.1
ARUGT4UL2R,170303.0,07:31:55.699,L,117.2,RL,734.4,617.2
ARUGT4UL2R,170303.0,07:31:56.275,R,117.2,LR,576.2,459.0
ARUGT4UL2R,170303.0,07:31:58.896,L,85.9,RL,755.9,584.0
ARUGT4UL2R,170303.0,07:34:54.207,R,127.0,RR,623.0,496.1
ARUGT4UL2R,170303.0,07:34:54.441,R,78.1,RR,283.2,156.3
ARUGT4UL2R,170303.0,07:34:57.393,S,134.8,RS,728.5,609.4
ARUGT4UL2R,170303.0,07:34:58.188,R,197.3,SR,732.4,597.7
ARUGT4UL2R,170303.0,07:35:04.857,L,93.8,RL,716.8,648.4
ARUGT4UL2R,170303.0,07:35:06.287,R,111.3,LR,488.3,386.7
ARUGT4UL2R,170303.0,07:35:08.688,R,93.8,RR,425.8,308.6
ARUGT4UL2R,170303.0,07:36:07.297,L,318.4,LL,537.1,427.7
ARUGT4UL2R,170303.0,07:37:16.088,R,95.7,RR,433.6,314.5
ARUGT4UL2R,170303.0,07:37:16.789,R,78.1,RR,718.8,623.0
ARUGT4UL2R,170303.0,07:37:17.389,R,117.2,RR,560.5,482.4
ARUGT4UL2R,170303.0,07:37:17.770,S,119.1,RS,378.9,261.7
ARUGT4UL2R,170303.0,07:37:18.137,L,101.6,SL,384.8,265.6
ARUGT4UL2R,170303.0,07:37:18.627,R,101.6,LR,490.2,388.7
ARUGT4UL2R,170303.0,07:37:19.240,L,93.8,RL,621.1,519.5
ARUGT4UL2R,170303.0,07:37:19.445,L,87.9,LL,210.9,117.2
ARUGT4UL2R,170303.0,07:37:19.902,R,117.2,LR,427.7,339.8
ARUGT4UL2R,170303.0,09:17:20.453,R,164.1,RR,687.5,546.9
ARUGT4UL2R,170303.0,09:18:17.855,R,93.8,RR,546.9,421.9
ARUGT4UL2R,170303.0,09:30:43.285,R,144.5,RR,441.4,265.6
ARUGT4UL2R,170303.0,09:33:06.699,R,175.8,RR,386.7,238.3
ARUGT4UL2R,170303.0,09:33:19.426,R,117.2,LR,628.9,492.2
ARUGT4UL2R,170303.0,09:33:19.969,R,113.3,RR,546.9,429.7
ARUGT4UL2R,170303.0,09:33:52.250,R,140.6,RR,281.3,171.9
ARUGT4UL2R,170303.0,09:50:10.273,S,58.6,SS,226.6,70.3
ARUGT4UL2R,170303.0,09:50:10.473,S,23.4,SS,234.4,175.8
ARUGT4UL2R,170303.0,09:51:14.613,R,125.0,LR,519.5,378.9
ARUGT4UL2R,170303.0,09:51:15.152,R,101.6,RR,562.5,437.5
ARUGT4UL2R,170303.0,09:51:16.246,L,85.9,LL,261.7,168.0
ARUGT4UL2R,170303.0,09:51:16.680,L,109.4,LL,410.2,324.2
ARUGT4UL2R,170303.0,09:51:17.023,R,70.3,LR,382.8,273.4
ARUGT4UL2R,170303.0,09:51:17.555,S,101.6,RS,500.0,429.7
ARUGT4UL2R,170303.0,09:51:18.020,L,113.3,SL,453.1,351.6
ARUGT4UL2R,170303.0,09:51:18.570,R,70.3,LR,593.8,480.5
ARUGT4UL2R,170303.0,09:51:18.766,R,101.6,RR,164.1,93.8
ARUGT4UL2R,170303.0,09:51:19.953,L,93.8,LL,359.4,265.6
ARUGT4UL2R,170303.0,09:51:20.434,S,105.5,LS,468.8,375.0
ARUGT4UL2R,170303.0,09:51:23.758,R,85.9,LR,644.5,539.1
ARUGT4UL2R,170303.0,09:51:24.324,R,101.6,RR,550.8,464.8
ARUGT4UL2R,170303.0,09:51:24.766,R,78.1,RR,464.8,363.3
ARUGT4UL2R,170303.0,09:51:25.387,R,93.8,RR,605.5,527.3
ARUGT4UL2R,170303.0,09:51:26.012,L,70.3,RL,648.4,554.7
ARUGT4UL2R,170303.0,09:51:26.617,L,85.9,LL,589.8,519.5
ARUGT4UL2R,170303.0,09:51:27.109,S,140.6,LS,437.5,351.6
ARUGT4UL2R,170303.0,09:51:30.051,R,78.1,LR,355.5,285.2
ARUGT4UL2R,170303.0,09:51:30.781,L,93.8,RL,714.8,636.7
ARUGT4UL2R,170303.0,09:51:31.273,L,93.8,LL,492.2,398.4
ARUGT4UL2R,170303.0,09:51:31.883,S,148.4,LS,554.7,460.9
ARUGT4UL2R,170303.0,09:51:33.949,R,109.4,LR,488.3,339.8
ARUGT4UL2R,170303.0,09:51:34.199,R,85.9,RR,273.4,164.1
ARUGT4UL2R,170303.0,09:51:34.863,R,93.8,RR,656.3,570.3
ARUGT4UL2R,170303.0,09:51:35.312,R,78.1,RR,464.8,371.1
ARUGT4UL2R,170303.0,09:51:35.684,S,93.8,RS,355.5,277.3
ARUGT4UL2R,170303.0,09:51:36.027,R,85.9,SR,351.6,257.8
ARUGT4UL2R,170303.0,09:51:36.469,R,93.8,RR,433.6,347.7
ARUGT4UL2R,170303.0,09:51:37.109,S,148.4,RS,585.9,492.2
ARUGT4UL2R,170303.0,23:39:01.125,L,148.4,RL,757.8,585.9
ARUGT4UL2R,170303.0,23:39:01.867,L,156.3,LL,734.4,585.9
ARUGT4UL2R,170303.0,23:39:04.688,R,125.0,LR,703.1,562.5
ARUGT4UL2R,170303.0,23:39:06.109,L,156.3,LL,257.8,140.6
ARUGT4UL2R,170303.0,23:39:06.844,R,148.4,LR,742.2,585.9
ARUGT4UL2R,170303.0,23:39:15.406,R,156.3,RR,757.8,578.1
ARUGT4UL2R,170303.0,23:39:16.102,R,195.3,RR,656.3,500.0
ARUGT4UL2R,170303.0,23:39:16.695,R,164.1,RR,625.0,429.7
ARUGT4UL2R,170303.0,23:39:20.023,R,125.0,RR,789.1,671.9
ARUGT4UL2R,170303.0,23:40:16.367,L,132.8,LL,781.3,531.3
ARUGT4UL2R,170303.0,23:40:24.500,R,117.2,RR,304.7,171.9
ARUGT4UL2R,170303.0,23:40:25.094,R,132.8,RR,578.1,460.9
ARUGT4UL2R,170304.0,09:24:15.367,L,101.6,LL,597.7,472.7
ARUGT4UL2R,170304.0,09:45:11.586,R,121.1,RR,429.7,300.8
ARUGT4UL2R,170304.0,09:45:35.590,R,109.4,RR,578.1,500.0
ARUGT4UL2R,170304.0,09:45:36.297,S,125.0,RS,691.4,582.0
ARUGT4UL2R,170304.0,09:45:36.637,R,125.0,SR,339.8,214.8
ARUGT4UL2R,170304.0,09:45:37.246,L,74.2,RL,660.2,535.2
ARUGT4UL2R,170304.0,09:45:38.652,R,125.0,RR,433.6,328.1
