User_ID,Date,Timestamp,Hand,Hold_Time,Direction,Latency_Time,Flight_Time
ASP8RSNO73,170227.0,17:39:57.586,R,109.4,LR,562.5,484.4
ASP8RSNO73,170227.0,17:39:59.770,L,93.8,LL,593.8,500.0
ASP8RSNO73,170227.0,17:40:00.223,L,156.3,LL,390.6,296.9
ASP8RSNO73,170227.0,17:49:16.602,L,66.4,LL,257.8,156.3
ASP8RSNO73,170227.0,17:49:16.914,L,160.2,LL,218.8,152.3
ASP8RSNO73,170227.0,17:49:17.285,R,85.9,LR,445.3,285.2
ASP8RSNO73,170227.0,17:49:17.422,R,85.9,RR,136.7,50.8
ASP8RSNO73,170227.0,17:49:17.633,L,101.6,RL,195.3,109.4
ASP8RSNO73,170227.0,17:49:26.008,L,191.4,LL,652.3,425.8
ASP8RSNO73,170227.0,17:49:26.336,L,93.8,LL,425.8,234.4
ASP8RSNO73,170227.0,17:49:26.773,L,113.3,LL,418.0,324.2
ASP8RSNO73,170227.0,17:49:27.488,R,109.4,LR,718.8,605.5
ASP8RSNO73,170227.0,17:49:27.852,L,160.2,RL,312.5,203.1
ASP8RSNO73,170227.0,17:49:32.922,L,121.1,LL,496.1,394.5
ASP8RSNO73,170227.0,17:49:42.191,L,93.8,LL,648.4,558.6
ASP8RSNO73,170227.0,17:49:42.523,L,156.3,LL,269.5,175.8
ASP8RSNO73,170227.0,17:49:43.059,R,93.8,LR,597.7,441.4
ASP8RSNO73,170227.0,17:49:43.234,R,85.9,RR,183.6,89.8
ASP8RSNO73,170227.0,17:49:43.551,L,85.9,RL,316.4,230.5
ASP8RSNO73,170227.0,17:49:55.488,L,105.5,LL,382.8,234.4
ASP8RSNO73,170227.0,17:49:55.891,L,171.9,LL,335.9,230.5
ASP8RSNO73,170227.0,17:49:56.578,R,191.4,LR,668.0,496.1
ASP8RSNO73,170227.0,17:49:56.863,L,175.8,RL,300.8,109.4
ASP8RSNO73,170227.0,17:49:57.090,R,164.1,LR,238.3,62.5
ASP8RSNO73,170227.0,17:49:57.605,L,109.4,RL,570.3,406.3
ASP8RSNO73,170227.0,17:49:58.078,L,105.5,LL,476.6,367.2
ASP8RSNO73,170227.0,22:17:20.070,R,140.6,RR,687.5,554.7
ASP8RSNO73,170227.0,22:17:20.734,L,125.0,RL,679.7,539.1
ASP8RSNO73,170227.0,22:17:23.766,S,125.0,RS,312.5,125.0
ASP8RSNO73,170227.0,22:17:25.344,R,132.8,LR,460.9,328.1
ASP8RSNO73,170227.0,22:17:26.031,L,101.6,RL,718.8,585.9
ASP8RSNO73,170227.0,22:17:26.625,L,109.4,LL,585.9,484.4
ASP8RSNO73,170227.0,22:17:26.781,S,101.6,LS,164.1,54.7
ASP8RSNO73,170227.0,22:17:27.469,L,109.4,SL,679.7,578.1
ASP8RSNO73,170227.0,22:17:27.742,L,78.1,LL,304.7,195.3
ASP8RSNO73,170227.0,22:17:27.875,L,62.5,LL,148.4,70.3
ASP8RSNO73,170227.0,22:17:28.266,L,78.1,LL,375.0,312.5
ASP8RSNO73,170227.0,22:17:28.445,S,101.6,LS,156.3,78.1
ASP8RSNO73,170227.0,22:17:46.992,L,109.4,RL,796.9,609.4
ASP8RSNO73,170227.0,22:17:47.344,L,109.4,LL,351.6,242.2
ASP8RSNO73,170227.0,22:21:04.461,S,203.1,LS,476.6,335.9
ASP8RSNO73,170227.0,22:21:11.859,R,93.8,RR,585.9,445.3
ASP8RSNO73,170227.0,22:21:19.352,S,171.9,LS,515.6,398.4
ASP8RSNO73,170227.0,22:21:20.609,R,31.3,LR,15.6,382.8
ASP8RSNO73,170227.0,22:21:20.680,R,101.6,RR,15.6,382.8
ASP8RSNO73,170227.0,22:21:21.375,S,171.9,RS,625.0,523.4
ASP8RSNO73,170227.0,22:24:44.469,R,195.3,LR,367.2,117.2
ASP8RSNO73,170227.0,22:24:45.359,S,109.4,LS,156.3,46.9
ASP8RSNO73,170227.0,22:24:46.742,R,156.3,LR,515.6,250.0
ASP8RSNO73,170227.0,22:24:48.477,L,140.6,RL,695.3,546.9
ASP8RSNO73,170227.0,22:24:49.094,R,164.1,LR,593.8,453.1
ASP8RSNO73,170227.0,22:26:51.711,R,132.8,RR,640.6,531.3
ASP8RSNO73,170227.0,22:26:52.438,L,140.6,RL,718.8,585.9
ASP8RSNO73,170227.0,22:26:55.016,S,109.4,RS,304.7,203.1
ASP8RSNO73,170227.0,22:27:01.922,R,148.4,LR,460.9,250.0
ASP8RSNO73,170227.0,22:27:02.688,L,171.9,RL,742.2,593.8
ASP8RSNO73,170227.0,22:27:03.297,L,109.4,LL,671.9,500.0
ASP8RSNO73,170227.0,22:27:03.805,S,93.8,LS,523.4,414.1
ASP8RSNO73,170227.0,22:27:04.117,L,125.0,SL,281.3,187.5
ASP8RSNO73,170227.0,22:27:04.375,L,78.1,LL,304.7,179.7
ASP8RSNO73,170227.0,22:27:04.547,L,93.8,LL,156.3,78.1
ASP8RSNO73,170227.0,22:27:04.852,L,93.8,LL,304.7,210.9
ASP8RSNO73,170227.0,22:37:50.461,L,125.0,RL,726.6,546.9
ASP8RSNO73,170227.0,22:40:11.625,L,210.9,LL,648.4,523.4
ASP8RSNO73,170227.0,22:40:12.297,L,234.4,LL,648.4,437.5
ASP8RSNO73,170227.0,22:40:12.750,R,125.0,LR,562.5,328.1
ASP8RSNO73,170227.0,22:40:13.391,R,109.4,RR,656.3,531.3
ASP8RSNO73,170228.0,01:28:51.478,L,136.2,LL,487.8,326.7
ASP8RSNO73,170228.0,01:28:51.872,L,82.0,LL,448.2,312.0
ASP8RSNO73,170228.0,02:16:06.650,L,134.8,LL,495.1,365.2
ASP8RSNO73,170228.0,02:16:07.113,L,184.6,LL,413.1,278.3
ASP8RSNO73,170228.0,02:16:08.763,R,98.1,RR,228.0,110.8
ASP8RSNO73,170228.0,02:16:50.038,R,115.2,LR,781.3,635.7
ASP8RSNO73,170228.0,07:06:52.189,L,82.0,LL,255.9,152.3
ASP8RSNO73,170228.0,07:06:52.734,S,91.8,LS,535.2,453.1
ASP8RSNO73,170228.0,07:06:52.918,L,91.8,SL,183.6,91.8
ASP8RSNO73,170228.0,07:06:53.201,L,82.0,LL,293.0,201.2
ASP8RSNO73,170228.0,07:06:53.785,L,66.4,LL,599.6,517.6
ASP8RSNO73,170228.0,07:06:54.600,R,85.9,LR,794.9,728.5
ASP8RSNO73,170228.0,07:06:55.125,L,52.7,RL,558.6,472.7
ASP8RSNO73,170228.0,07:06:55.512,R,85.9,LR,353.5,300.8
ASP8RSNO73,170228.0,07:06:56.002,L,66.4,RL,509.8,423.8
ASP8RSNO73,170228.0,07:06:56.244,R,82.0,LR,226.6,160.2
ASP8RSNO73,170228.0,07:06:56.615,S,103.5,RS,349.6,267.6
ASP8RSNO73,170228.0,07:06:56.924,L,111.3,SL,300.8,197.3
ASP8RSNO73,170228.0,07:06:57.617,R,84.0,LR,720.7,609.4
ASP8RSNO73,170228.0,07:06:57.887,R,89.8,RR,261.7,177.7
ASP8RSNO73,170228.0,07:06:58.188,L,76.2,RL,316.4,226.6
ASP8RSNO73,170228.0,07:08:02.246,L,95.7,RL,632.8,537.1
ASP8RSNO73,170228.0,07:08:02.727,L,109.4,LL,466.8,371.1
ASP8RSNO73,170228.0,07:08:18.369,L,148.4,RL,298.8,150.4
ASP8RSNO73,170228.0,07:08:18.771,L,127.0,LL,423.8,275.4
ASP8RSNO73,170228.0,07:10:22.912,L,80.1,LL,214.8,128.9
ASP8RSNO73,170228.0,07:10:23.150,L,140.6,LL,177.7,97.7
ASP8RSNO73,170228.0,07:10:23.510,R,76.2,LR,421.9,281.3
ASP8RSNO73,170228.0,07:10:23.668,R,68.4,RR,168.0,91.8
ASP8RSNO73,170228.0,07:10:23.855,L,99.6,RL,156.3,87.9
ASP8RSNO73,170228.0,07:10:33.588,L,109.4,LL,238.3,37.1
ASP8RSNO73,170228.0,07:10:33.844,L,58.6,LL,308.6,199.2
ASP8RSNO73,170228.0,07:10:34.092,L,152.3,LL,154.3,95.7
ASP8RSNO73,170228.0,07:10:34.635,R,74.2,LR,619.1,466.8
ASP8RSNO73,170228.0,07:10:34.877,L,119.1,RL,199.2,125.0
ASP8RSNO73,170228.0,07:10:35.045,R,80.1,LR,207.0,87.9
ASP8RSNO73,170228.0,07:10:35.264,L,89.8,RL,209.0,128.9
ASP8RSNO73,170228.0,07:10:35.572,L,62.5,LL,335.9,246.1
ASP8RSNO73,170228.0,07:10:40.686,L,78.1,LL,230.5,140.6
ASP8RSNO73,170228.0,07:10:40.893,L,105.5,LL,179.7,101.6
ASP8RSNO73,170228.0,07:10:41.289,R,78.1,LR,423.8,318.4
ASP8RSNO73,170228.0,07:10:41.465,R,70.3,RR,181.6,103.5
ASP8RSNO73,170228.0,07:10:41.742,L,72.3,RL,277.3,207.0
ASP8RSNO73,170228.0,07:10:47.424,L,85.9,LL,281.3,146.5
ASP8RSNO73,170228.0,07:10:47.717,L,64.5,LL,314.5,228.5
ASP8RSNO73,170228.0,07:10:47.955,L,144.5,LL,158.2,93.8
ASP8RSNO73,170228.0,07:10:48.689,R,85.9,LR,793.0,648.4
ASP8RSNO73,170228.0,07:10:48.922,L,125.0,RL,193.4,107.4
ASP8RSNO73,170228.0,07:10:49.080,R,85.9,LR,197.3,72.3
ASP8RSNO73,170228.0,07:10:49.305,L,97.7,RL,212.9,127.0
ASP8RSNO73,170228.0,07:10:49.615,L,70.3,LL,337.9,240.2
ASP8RSNO73,170228.0,07:12:05.641,L,117.2,LL,603.5,447.3
ASP8RSNO73,170228.0,07:13:31.746,L,177.7,LL,324.2,99.6
ASP8RSNO73,170228.0,07:13:32.010,L,97.7,LL,343.8,166.0
ASP8RSNO73,170228.0,07:13:32.223,L,76.2,LL,234.4,136.7
ASP8RSNO73,170228.0,07:13:32.516,S,101.6,LS,267.6,191.4
ASP8RSNO73,170228.0,07:13:33.062,L,111.3,SL,537.1,435.5
ASP8RSNO73,170228.0,07:13:35.314,R,107.4,RR,406.3,279.3
ASP8RSNO73,170228.0,07:13:35.920,L,76.2,RL,636.7,529.3
ASP8RSNO73,170228.0,07:13:36.191,L,60.5,LL,287.1,210.9
ASP8RSNO73,170228.0,07:13:36.410,S,76.2,LS,203.1,142.6
ASP8RSNO73,170228.0,07:13:38.094,L,91.8,LL,531.3,435.5
ASP8RSNO73,170228.0,07:13:38.465,L,76.2,LL,386.7,294.9
ASP8RSNO73,170228.0,07:13:38.762,L,105.5,LL,267.6,191.4
ASP8RSNO73,170228.0,07:13:38.941,L,76.2,LL,209.0,103.5
ASP8RSNO73,170228.0,07:13:39.344,R,76.2,LR,402.3,326.2
ASP8RSNO73,170228.0,07:22:56.463,R,97.7,LR,628.9,519.5
ASP8RSNO73,170228.0,07:22:57.236,L,99.6,RL,771.5,673.8
ASP8RSNO73,170228.0,07:22:57.754,L,105.5,LL,511.7,412.1
ASP8RSNO73,170228.0,07:22:58.023,L,82.0,LL,291.0,185.5
ASP8RSNO73,170228.0,07:22:58.244,L,60.5,LL,244.1,162.1
ASP8RSNO73,170228.0,07:22:58.723,S,85.9,LS,453.1,392.6
ASP8RSNO73,170228.0,07:22:59.115,L,107.4,SL,371.1,285.2
ASP8RSNO73,170228.0,07:22:59.477,R,82.0,LR,386.7,279.3
ASP8RSNO73,170228.0,07:22:59.766,R,78.1,RR,293.0,210.9
ASP8RSNO73,170228.0,07:23:00.510,L,89.8,RL,732.4,654.3
ASP8RSNO73,170228.0,07:23:00.812,L,85.9,LL,306.6,216.8
ASP8RSNO73,170228.0,07:24:01.672,R,132.8,SR,584.0,468.8
ASP8RSNO73,170228.0,07:24:02.072,R,134.8,RR,398.4,265.6
ASP8RSNO73,170228.0,07:24:03.645,L,156.3,LL,638.7,539.1
ASP8RSNO73,170228.0,07:24:05.648,R,101.6,LR,257.8,125.0
ASP8RSNO73,170228.0,07:24:05.941,R,78.1,RR,316.4,214.8
ASP8RSNO73,170228.0,07:24:07.191,S,99.6,RS,205.1,109.4
ASP8RSNO73,170228.0,07:24:08.465,L,91.8,RL,380.9,294.9
ASP8RSNO73,170228.0,07:24:08.951,L,80.1,LL,498.0,406.3
ASP8RSNO73,170228.0,07:24:09.385,R,76.2,LR,437.5,357.4
ASP8RSNO73,170228.0,07:24:10.186,L,85.9,RL,791.0,714.8
ASP8RSNO73,170228.0,07:24:10.746,L,134.8,LL,511.7,425.8
ASP8RSNO73,170228.0,07:24:11.264,R,119.1,LR,531.3,396.5
ASP8RSNO73,170228.0,07:24:11.490,S,109.4,RS,238.3,119.1
ASP8RSNO73,170228.0,07:24:11.832,L,140.6,SL,310.5,201.2
ASP8RSNO73,170228.0,07:24:12.861,R,95.7,LR,244.1,84.0
ASP8RSNO73,170228.0,07:24:14.896,L,101.6,RL,789.1,648.4
ASP8RSNO73,170228.0,07:24:15.006,S,85.9,LS,125.0,23.4
ASP8RSNO73,170228.0,07:24:19.256,L,97.7,LL,107.4,46.9
ASP8RSNO73,170228.0,07:24:19.637,L,99.6,LL,378.9,281.3
ASP8RSNO73,170228.0,07:24:20.049,L,64.5,LL,447.3,347.7
ASP8RSNO73,170228.0,07:24:20.473,L,101.6,LL,386.7,322.3
