User_ID,Date,Timestamp,Hand,Hold_Time,Direction,Latency_Time,Flight_Time
EZF9NAHLOU,160912.0,17:13:44.637,L,66.4,LL,597.7,543.0
EZF9NAHLOU,160912.0,17:13:45.391,R,66.4,LR,753.9,687.5
EZF9NAHLOU,160912.0,17:13:45.566,R,58.6,RR,183.6,117.2
EZF9NAHLOU,160912.0,17:13:46.281,R,62.5,RR,710.9,652.3
EZF9NAHLOU,160912.0,17:14:47.992,R,66.4,LR,445.3,359.4
EZF9NAHLOU,160912.0,17:14:48.277,R,62.5,RR,289.1,222.7
EZF9NAHLOU,160912.0,17:14:48.660,L,58.6,RL,386.7,324.2
EZF9NAHLOU,160912.0,17:14:49.094,R,74.2,LR,418.0,359.4
EZF9NAHLOU,160912.0,17:14:49.375,R,74.2,RR,281.3,207.0
EZF9NAHLOU,160912.0,17:14:49.461,L,70.3,RL,89.8,15.6
EZF9NAHLOU,160912.0,17:14:49.727,S,125.0,LS,210.9,140.6
EZF9NAHLOU,160912.0,17:14:49.852,L,82.0,SL,168.0,43.0
EZF9NAHLOU,160912.0,17:14:50.102,R,62.5,LR,269.5,187.5
EZF9NAHLOU,160912.0,17:14:50.219,L,70.3,RL,109.4,46.9
EZF9NAHLOU,160912.0,17:14:53.793,L,62.5,LL,293.0,218.8
EZF9NAHLOU,160912.0,17:14:54.047,L,70.3,LL,246.1,183.6
EZF9NAHLOU,160912.0,17:14:54.484,L,82.0,LL,425.8,355.5
EZF9NAHLOU,160912.0,17:14:54.625,S,117.2,LS,105.5,23.4
EZF9NAHLOU,160912.0,17:14:55.277,R,82.0,SR,687.5,570.3
EZF9NAHLOU,160912.0,17:14:55.363,L,70.3,RL,97.7,15.6
EZF9NAHLOU,160912.0,17:14:55.816,L,82.0,LL,441.4,371.1
EZF9NAHLOU,160912.0,17:14:56.348,R,93.8,LR,519.5,437.5
EZF9NAHLOU,160912.0,17:14:56.672,R,74.2,RR,343.8,250.0
EZF9NAHLOU,160912.0,17:14:57.066,R,70.3,RR,398.4,324.2
EZF9NAHLOU,160912.0,17:14:57.316,L,109.4,RL,210.9,140.6
EZF9NAHLOU,160912.0,17:14:57.688,R,78.1,LR,402.3,293.0
EZF9NAHLOU,160912.0,17:14:58.219,R,78.1,RR,531.3,453.1
EZF9NAHLOU,160912.0,17:14:58.359,L,101.6,RL,117.2,39.1
EZF9NAHLOU,160912.0,17:14:58.715,S,105.5,LS,351.6,250.0
EZF9NAHLOU,160912.0,17:14:59.066,L,93.8,SL,363.3,257.8
EZF9NAHLOU,160912.0,17:14:59.414,L,74.2,LL,367.2,273.4
EZF9NAHLOU,160912.0,17:14:59.551,S,89.8,LS,121.1,46.9
EZF9NAHLOU,160912.0,17:14:59.895,R,78.1,SR,355.5,265.6
EZF9NAHLOU,160912.0,17:15:00.215,R,101.6,RR,296.9,218.8
EZF9NAHLOU,160912.0,17:15:00.504,S,101.6,RS,289.1,187.5
EZF9NAHLOU,160912.0,17:15:00.723,L,85.9,SL,234.4,132.8
EZF9NAHLOU,160912.0,17:15:01.266,L,89.8,LL,539.1,453.1
EZF9NAHLOU,160912.0,17:15:54.844,L,93.8,LL,484.4,406.3
EZF9NAHLOU,160912.0,17:15:55.562,R,93.8,LR,718.8,625.0
EZF9NAHLOU,160912.0,17:15:55.828,R,78.1,RR,281.3,187.5
EZF9NAHLOU,160912.0,17:15:56.172,R,78.1,RR,343.8,265.6
EZF9NAHLOU,160912.0,17:15:58.109,R,93.8,LR,640.6,531.3
EZF9NAHLOU,160912.0,17:15:58.656,R,78.1,RR,562.5,468.8
EZF9NAHLOU,160912.0,17:20:07.555,L,66.4,RL,308.6,250.0
EZF9NAHLOU,160912.0,17:20:08.008,L,78.1,LL,441.4,375.0
EZF9NAHLOU,160912.0,17:20:08.738,R,78.1,LR,730.5,652.3
EZF9NAHLOU,160912.0,17:20:09.102,R,78.1,RR,363.3,285.2
EZF9NAHLOU,160912.0,17:20:09.586,R,78.1,RR,484.4,406.3
EZF9NAHLOU,160912.0,17:20:09.836,L,62.5,RL,265.6,187.5
EZF9NAHLOU,160912.0,17:20:10.242,R,93.8,LR,375.0,312.5
EZF9NAHLOU,160912.0,17:20:10.805,R,62.5,RR,593.8,500.0
EZF9NAHLOU,160912.0,17:26:50.289,L,78.1,LL,562.5,468.8
EZF9NAHLOU,160912.0,17:26:50.867,R,93.8,LR,562.5,484.4
EZF9NAHLOU,160912.0,17:26:51.148,R,93.8,RR,281.3,187.5
EZF9NAHLOU,160912.0,17:26:51.617,R,62.5,RR,500.0,406.3
EZF9NAHLOU,160912.0,17:26:53.602,R,62.5,LR,671.9,578.1
EZF9NAHLOU,160912.0,17:26:54.242,R,62.5,RR,640.6,578.1
EZF9NAHLOU,160912.0,17:26:55.023,L,78.1,RL,765.6,703.1
EZF9NAHLOU,160912.0,17:31:20.438,R,78.1,LR,531.3,437.5
EZF9NAHLOU,160912.0,17:31:21.125,L,93.8,RL,671.9,593.8
EZF9NAHLOU,160912.0,17:31:21.594,R,78.1,LR,484.4,390.6
EZF9NAHLOU,160912.0,17:31:22.000,R,78.1,RR,406.3,328.1
EZF9NAHLOU,160912.0,17:31:22.375,R,78.1,RR,375.0,296.9
EZF9NAHLOU,160912.0,17:31:22.844,R,78.1,RR,468.8,390.6
EZF9NAHLOU,160912.0,17:31:23.516,L,78.1,RL,671.9,593.8
EZF9NAHLOU,160912.0,17:31:23.953,S,93.8,LS,421.9,343.8
EZF9NAHLOU,160912.0,17:31:24.312,L,78.1,SL,375.0,281.3
EZF9NAHLOU,160912.0,17:32:06.477,L,85.9,RL,515.6,371.1
EZF9NAHLOU,160912.0,17:32:06.949,L,85.9,LL,472.7,386.7
EZF9NAHLOU,160912.0,17:32:07.672,R,62.5,LR,746.1,660.2
EZF9NAHLOU,160912.0,17:32:08.082,R,35.2,RR,437.5,375.0
EZF9NAHLOU,160912.0,17:32:08.605,R,85.9,RR,472.7,437.5
EZF9NAHLOU,160912.0,17:32:08.852,L,105.5,RL,226.6,140.6
EZF9NAHLOU,160912.0,17:32:09.273,R,93.8,LR,433.6,328.1
EZF9NAHLOU,160912.0,17:32:10.031,R,58.6,RR,793.0,699.2
EZF9NAHLOU,160912.0,17:32:10.371,L,105.5,RL,293.0,234.4
EZF9NAHLOU,160912.0,17:32:10.660,S,105.5,LS,289.1,183.6
EZF9NAHLOU,160912.0,17:32:11.027,L,89.8,SL,382.8,277.3
EZF9NAHLOU,160912.0,17:32:11.379,L,85.9,LL,355.5,265.6
EZF9NAHLOU,160912.0,17:32:11.523,S,93.8,LS,136.7,50.8
EZF9NAHLOU,160912.0,17:32:11.945,R,82.0,SR,433.6,339.8
EZF9NAHLOU,160912.0,17:32:12.320,R,93.8,RR,363.3,281.3
EZF9NAHLOU,160912.0,17:32:12.621,S,113.3,RS,281.3,187.5
EZF9NAHLOU,160912.0,17:32:12.848,L,78.1,SL,261.7,148.4
EZF9NAHLOU,160912.0,17:32:13.211,R,78.1,LR,363.3,285.2
EZF9NAHLOU,160912.0,17:32:13.613,L,101.6,RL,378.9,300.8
EZF9NAHLOU,160912.0,17:32:13.945,R,66.4,LR,367.2,265.6
EZF9NAHLOU,160912.0,17:32:14.348,R,89.8,RR,378.9,312.5
EZF9NAHLOU,160912.0,17:32:14.668,R,113.3,RR,296.9,207.0
EZF9NAHLOU,160912.0,17:32:15.062,R,78.1,RR,414.1,300.8
EZF9NAHLOU,160912.0,17:32:15.188,L,78.1,RL,140.6,62.5
EZF9NAHLOU,160912.0,17:32:15.426,S,97.7,LS,218.8,140.6
EZF9NAHLOU,160912.0,17:32:15.691,L,78.1,SL,285.2,187.5
EZF9NAHLOU,160912.0,17:32:16.285,L,105.5,LL,566.4,488.3
EZF9NAHLOU,160912.0,17:33:41.840,L,85.9,LL,449.2,343.8
EZF9NAHLOU,160912.0,17:33:42.430,R,82.0,LR,593.8,507.8
EZF9NAHLOU,160912.0,17:33:42.688,R,85.9,RR,253.9,171.9
EZF9NAHLOU,160912.0,17:33:43.250,R,89.8,RR,558.6,472.7
EZF9NAHLOU,160912.0,17:33:44.000,L,66.4,RL,773.4,683.6
EZF9NAHLOU,160912.0,17:33:44.762,R,70.3,LR,757.8,691.4
EZF9NAHLOU,160912.0,17:33:45.512,R,66.4,RR,753.9,683.6
EZF9NAHLOU,160912.0,17:33:46.266,L,97.7,RL,722.7,656.3
EZF9NAHLOU,160912.0,18:46:01.516,L,70.3,LL,93.8,750.0
EZF9NAHLOU,160912.0,18:46:01.594,R,148.4,LR,93.8,750.0
EZF9NAHLOU,160912.0,18:46:02.367,R,148.4,RR,773.4,625.0
EZF9NAHLOU,160912.0,18:46:02.797,L,148.4,RL,429.7,281.3
EZF9NAHLOU,160912.0,18:46:03.055,L,148.4,LL,257.8,109.4
EZF9NAHLOU,160912.0,18:46:03.430,L,140.6,LL,382.8,234.4
EZF9NAHLOU,160912.0,19:03:03.367,R,101.6,RR,562.5,500.0
EZF9NAHLOU,160912.0,19:03:03.641,L,125.0,RL,250.0,148.4
EZF9NAHLOU,160912.0,19:03:03.898,L,156.3,LL,226.6,101.6
EZF9NAHLOU,160912.0,19:03:04.125,L,31.3,LL,70.3,195.3
EZF9NAHLOU,160912.0,19:03:04.266,L,171.9,LL,70.3,195.3
EZF9NAHLOU,160912.0,19:03:04.570,S,125.0,LS,351.6,179.7
EZF9NAHLOU,160912.0,19:03:04.844,L,109.4,SL,289.1,164.1
EZF9NAHLOU,160912.0,19:03:05.477,L,125.0,LL,507.8,320.3
EZF9NAHLOU,160912.0,19:03:05.961,R,85.9,LR,523.4,398.4
EZF9NAHLOU,160912.0,19:03:06.359,R,140.6,RR,343.8,257.8
EZF9NAHLOU,160912.0,19:03:06.664,L,117.2,RL,328.1,187.5
EZF9NAHLOU,160912.0,19:03:06.938,L,93.8,LL,296.9,179.7
EZF9NAHLOU,160912.0,19:09:40.055,R,109.4,LR,257.8,140.6
EZF9NAHLOU,160912.0,19:09:40.516,R,125.0,RR,445.3,335.9
EZF9NAHLOU,160912.0,19:09:40.797,L,132.8,RL,273.4,148.4
EZF9NAHLOU,160912.0,19:09:41.125,L,31.3,LL,226.6,296.9
EZF9NAHLOU,160912.0,19:09:41.258,L,39.1,LL,125.0,93.8
EZF9NAHLOU,160912.0,19:09:41.383,L,164.1,LL,125.0,93.8
EZF9NAHLOU,160912.0,19:09:41.633,S,140.6,LS,273.4,109.4
EZF9NAHLOU,160912.0,19:09:41.852,L,132.8,SL,226.6,85.9
EZF9NAHLOU,160912.0,19:09:42.148,R,62.5,LR,367.2,234.4
EZF9NAHLOU,160912.0,19:09:42.336,R,93.8,RR,156.3,93.8
EZF9NAHLOU,160912.0,19:09:42.539,L,132.8,RL,164.1,70.3
EZF9NAHLOU,160912.0,19:29:34.695,R,125.0,LR,210.9,101.6
EZF9NAHLOU,160912.0,19:29:35.195,R,109.4,RR,515.6,390.6
EZF9NAHLOU,160912.0,19:29:35.492,L,78.1,RL,328.1,218.8
EZF9NAHLOU,160912.0,19:29:36.117,L,109.4,LL,593.8,515.6
EZF9NAHLOU,160912.0,19:29:36.703,L,78.1,LL,617.2,507.8
EZF9NAHLOU,160912.0,19:29:36.992,L,117.2,LL,250.0,171.9
EZF9NAHLOU,160912.0,19:29:37.406,S,171.9,LS,359.4,242.2
EZF9NAHLOU,160912.0,19:29:37.633,L,132.8,SL,265.6,93.8
EZF9NAHLOU,160912.0,19:29:38.094,R,101.6,LR,492.2,359.4
EZF9NAHLOU,160912.0,19:29:38.289,R,93.8,RR,203.1,101.6
EZF9NAHLOU,160912.0,19:29:38.547,L,156.3,RL,195.3,101.6
EZF9NAHLOU,160912.0,19:34:20.109,R,93.8,LR,234.4,93.8
EZF9NAHLOU,160912.0,19:34:20.547,R,179.7,RR,351.6,257.8
EZF9NAHLOU,160912.0,19:34:20.938,L,156.3,RL,414.1,234.4
EZF9NAHLOU,160912.0,19:34:21.281,L,85.9,LL,226.6,257.8
EZF9NAHLOU,160912.0,19:34:21.375,L,62.5,LL,117.2,31.3
EZF9NAHLOU,160912.0,19:34:21.500,L,187.5,LL,117.2,31.3
EZF9NAHLOU,160912.0,19:34:21.719,S,156.3,LS,250.0,62.5
EZF9NAHLOU,160912.0,19:34:22.219,L,125.0,SL,531.3,375.0
EZF9NAHLOU,160912.0,19:34:22.508,R,85.9,LR,328.1,203.1
EZF9NAHLOU,160912.0,19:34:22.742,R,148.4,RR,171.9,85.9
EZF9NAHLOU,160912.0,19:34:22.992,L,148.4,RL,250.0,101.6
EZF9NAHLOU,160912.0,19:40:57.141,R,132.8,LR,203.1,62.5
EZF9NAHLOU,160912.0,19:40:57.570,R,156.3,RR,406.3,273.4
EZF9NAHLOU,160912.0,19:40:57.898,L,156.3,RL,328.1,171.9
EZF9NAHLOU,160912.0,19:40:58.281,L,46.9,LL,304.7,335.9
EZF9NAHLOU,160912.0,19:40:58.484,L,85.9,LL,164.1,117.2
EZF9NAHLOU,160912.0,19:40:58.656,L,257.8,LL,164.1,117.2
EZF9NAHLOU,160913.0,08:06:01.330,R,62.5,LR,404.3,328.1
EZF9NAHLOU,160913.0,08:06:01.801,L,76.2,RL,457.0,394.5
EZF9NAHLOU,160913.0,08:06:01.949,L,54.7,LL,169.9,93.8
EZF9NAHLOU,160913.0,08:06:02.539,L,66.4,LL,578.1,523.4
EZF9NAHLOU,160913.0,08:06:03.219,R,78.1,LR,668.0,601.6
EZF9NAHLOU,160913.0,08:06:03.438,R,66.4,RR,230.5,152.3
EZF9NAHLOU,160913.0,08:06:04.029,L,68.4,RL,589.8,523.4
EZF9NAHLOU,160913.0,08:06:04.500,R,72.3,LR,466.8,398.4
