User_ID,Date,Timestamp,Hand,Hold_Time,Direction,Latency_Time,Flight_Time
GMCJGJHMZN,170216.0,14:17:26.285,R,156.3,LR,593.8,371.1
GMCJGJHMZN,170216.0,14:17:26.488,L,140.6,RL,218.8,62.5
GMCJGJHMZN,170216.0,14:17:26.828,R,144.5,LR,335.9,195.3
GMCJGJHMZN,170216.0,15:11:32.969,R,125.0,LR,503.9,402.3
GMCJGJHMZN,170216.0,15:11:33.438,L,148.4,RL,445.3,320.3
GMCJGJHMZN,170216.0,15:11:33.801,L,136.7,LL,375.0,226.6
GMCJGJHMZN,170216.0,15:11:34.070,L,132.8,LL,273.4,136.7
GMCJGJHMZN,170216.0,15:11:34.598,R,74.2,LR,3.9,453.1
GMCJGJHMZN,170216.0,15:11:34.617,R,93.8,RR,3.9,453.1
GMCJGJHMZN,170216.0,15:11:35.172,L,156.3,RL,492.2,398.4
GMCJGJHMZN,170216.0,15:11:35.668,R,140.6,LR,511.7,355.5
GMCJGJHMZN,170216.0,15:11:36.141,L,179.7,RL,433.6,293.0
GMCJGJHMZN,170216.0,15:11:40.488,R,183.6,LR,710.9,585.9
GMCJGJHMZN,170216.0,15:11:40.832,R,203.1,RR,324.2,140.6
GMCJGJHMZN,170216.0,15:11:41.176,R,191.4,RR,355.5,152.3
GMCJGJHMZN,170216.0,15:11:41.410,R,46.9,RR,109.4,187.5
GMCJGJHMZN,170216.0,15:11:41.445,R,82.0,RR,109.4,187.5
GMCJGJHMZN,170216.0,15:11:41.832,L,171.9,RL,296.9,214.8
GMCJGJHMZN,170216.0,15:11:42.070,S,144.5,LS,265.6,93.8
GMCJGJHMZN,170216.0,15:11:42.801,R,168.0,SR,707.0,562.5
GMCJGJHMZN,170216.0,15:11:43.340,L,140.6,RL,566.4,398.4
GMCJGJHMZN,170216.0,15:11:43.832,L,152.3,LL,480.5,339.8
GMCJGJHMZN,170216.0,15:11:44.578,R,168.0,LR,730.5,578.1
GMCJGJHMZN,170216.0,15:11:44.816,R,74.2,RR,70.3,164.1
GMCJGJHMZN,170216.0,15:11:44.832,R,89.8,RR,70.3,164.1
GMCJGJHMZN,170216.0,15:11:45.086,R,43.0,RR,117.2,210.9
GMCJGJHMZN,170216.0,15:11:45.117,L,74.2,RL,117.2,210.9
GMCJGJHMZN,170216.0,15:11:45.488,L,144.5,LL,300.8,226.6
GMCJGJHMZN,170216.0,15:11:46.062,R,140.6,LR,578.1,433.6
GMCJGJHMZN,170216.0,15:11:46.613,R,214.8,RR,476.6,335.9
GMCJGJHMZN,170216.0,15:11:47.113,L,164.1,RL,3.9,335.9
GMCJGJHMZN,170216.0,15:11:47.129,L,179.7,LL,3.9,335.9
GMCJGJHMZN,170216.0,15:16:17.012,R,27.3,RR,66.4,378.9
GMCJGJHMZN,170216.0,15:16:17.055,R,70.3,RR,66.4,378.9
GMCJGJHMZN,170216.0,15:16:17.059,R,74.2,RR,66.4,378.9
GMCJGJHMZN,170216.0,15:16:17.559,L,148.4,RL,425.8,351.6
GMCJGJHMZN,170216.0,15:16:17.930,L,152.3,LL,367.2,218.8
GMCJGJHMZN,170216.0,15:16:18.598,L,148.4,LL,671.9,519.5
GMCJGJHMZN,170216.0,15:16:24.363,R,140.6,LR,632.8,503.9
GMCJGJHMZN,170216.0,15:16:24.754,L,43.0,RL,15.6,347.7
GMCJGJHMZN,170216.0,15:16:24.832,L,121.1,LL,15.6,347.7
GMCJGJHMZN,170216.0,15:16:25.574,R,148.4,LR,714.8,593.8
GMCJGJHMZN,170216.0,15:18:07.148,R,152.3,RR,285.2,117.2
GMCJGJHMZN,170216.0,15:18:07.699,L,50.8,RL,7.8,500.0
GMCJGJHMZN,170216.0,15:18:07.773,L,125.0,LL,7.8,500.0
GMCJGJHMZN,170216.0,15:18:08.355,S,78.1,LS,23.4,503.9
GMCJGJHMZN,170216.0,15:18:08.414,L,136.7,SL,23.4,503.9
GMCJGJHMZN,170216.0,15:18:08.801,R,152.3,LR,371.1,234.4
GMCJGJHMZN,170216.0,15:18:30.008,R,164.1,RR,359.4,144.5
GMCJGJHMZN,170216.0,15:18:33.512,R,54.7,LR,3.9,304.7
GMCJGJHMZN,170216.0,15:18:33.598,R,140.6,RR,3.9,304.7
GMCJGJHMZN,170216.0,15:18:41.402,L,152.3,LL,128.9,54.7
GMCJGJHMZN,170216.0,15:18:42.773,R,183.6,LR,320.3,148.4
GMCJGJHMZN,170216.0,15:18:45.445,R,183.6,LR,253.9,113.3
GMCJGJHMZN,170216.0,15:18:45.766,L,140.6,RL,363.3,179.7
GMCJGJHMZN,170216.0,15:18:46.184,R,218.8,LR,339.8,199.2
GMCJGJHMZN,170216.0,15:18:46.863,R,132.8,RR,765.6,546.9
GMCJGJHMZN,170216.0,15:20:41.531,L,140.6,LL,289.1,140.6
GMCJGJHMZN,170216.0,16:18:05.422,S,78.1,RS,31.3,160.2
GMCJGJHMZN,170216.0,16:18:05.465,R,121.1,SR,31.3,160.2
GMCJGJHMZN,170216.0,16:18:05.820,R,160.2,RR,316.4,195.3
GMCJGJHMZN,170216.0,16:18:06.137,S,128.9,RS,347.7,187.5
GMCJGJHMZN,170216.0,16:18:06.773,L,156.3,SL,609.4,480.5
GMCJGJHMZN,170216.0,16:18:07.164,L,148.4,LL,398.4,242.2
GMCJGJHMZN,170216.0,16:18:07.797,L,230.5,LL,550.8,402.3
GMCJGJHMZN,170216.0,16:18:08.164,R,113.3,LR,484.4,253.9
GMCJGJHMZN,170216.0,16:18:08.395,R,175.8,RR,168.0,54.7
GMCJGJHMZN,170216.0,16:18:08.980,S,199.2,RS,562.5,386.7
GMCJGJHMZN,170216.0,16:18:15.465,S,128.9,RS,3.9,234.4
GMCJGJHMZN,170216.0,16:18:15.477,R,140.6,SR,3.9,234.4
GMCJGJHMZN,170216.0,16:18:24.703,R,152.3,RR,277.3,183.6
GMCJGJHMZN,170216.0,16:18:25.188,R,164.1,RR,472.7,320.3
GMCJGJHMZN,170216.0,16:18:25.488,R,152.3,RR,312.5,148.4
GMCJGJHMZN,170216.0,16:18:25.953,L,246.1,RL,371.1,218.8
GMCJGJHMZN,170216.0,16:18:26.266,L,132.8,LL,46.9,179.7
GMCJGJHMZN,170216.0,16:18:26.285,L,152.3,LL,46.9,179.7
GMCJGJHMZN,170216.0,16:18:26.707,L,171.9,LL,39.1,250.0
GMCJGJHMZN,170216.0,16:18:27.062,R,156.3,RR,199.2,39.1
GMCJGJHMZN,170216.0,16:18:41.211,R,168.0,RR,332.0,179.7
GMCJGJHMZN,170216.0,16:18:41.695,R,187.5,RR,464.8,296.9
GMCJGJHMZN,170216.0,16:18:42.066,R,179.7,RR,378.9,191.4
GMCJGJHMZN,170216.0,16:18:45.668,L,246.1,LL,746.1,558.6
GMCJGJHMZN,170216.0,16:18:46.148,R,105.5,LR,621.1,375.0
GMCJGJHMZN,170216.0,16:18:46.336,R,125.0,RR,168.0,62.5
GMCJGJHMZN,170216.0,16:18:47.105,S,168.0,RS,726.6,601.6
GMCJGJHMZN,170216.0,16:18:49.617,L,121.1,LL,27.3,332.0
GMCJGJHMZN,170216.0,16:18:49.637,L,140.6,LL,27.3,332.0
GMCJGJHMZN,170216.0,16:18:49.918,R,140.6,LR,3.9,140.6
GMCJGJHMZN,170216.0,16:18:49.918,R,140.6,RR,3.9,140.6
GMCJGJHMZN,170216.0,16:18:50.156,L,121.1,RL,257.8,117.2
GMCJGJHMZN,170216.0,16:18:50.418,L,179.7,LL,203.1,82.0
GMCJGJHMZN,170216.0,16:18:50.859,L,308.6,LL,312.5,132.8
GMCJGJHMZN,170216.0,16:18:51.152,L,203.1,LL,398.4,89.8
GMCJGJHMZN,170216.0,16:18:58.566,L,152.3,RL,519.5,347.7
GMCJGJHMZN,170216.0,16:18:58.793,L,179.7,LL,199.2,46.9
GMCJGJHMZN,170216.0,16:18:59.199,L,269.5,LL,316.4,136.7
GMCJGJHMZN,170216.0,16:18:59.430,L,199.2,LL,300.8,31.3
GMCJGJHMZN,170216.0,16:19:00.055,S,171.9,LS,652.3,453.1
GMCJGJHMZN,170216.0,16:19:00.535,L,183.6,SL,468.8,296.9
GMCJGJHMZN,170216.0,16:19:00.879,L,171.9,LL,7.8,171.9
GMCJGJHMZN,170216.0,16:19:00.898,L,191.4,LL,7.8,171.9
GMCJGJHMZN,170216.0,16:19:01.449,R,171.9,LR,570.3,378.9
GMCJGJHMZN,170216.0,16:19:07.844,R,160.2,RR,679.7,523.4
GMCJGJHMZN,170216.0,16:19:08.238,S,152.3,RS,402.3,242.2
GMCJGJHMZN,170216.0,16:19:09.047,L,82.0,SL,269.5,726.6
GMCJGJHMZN,170216.0,16:19:09.117,R,152.3,LR,269.5,726.6
GMCJGJHMZN,170216.0,16:19:09.414,L,250.0,RL,199.2,46.9
GMCJGJHMZN,170216.0,16:19:09.613,L,101.6,LL,35.2,97.7
GMCJGJHMZN,170216.0,16:19:09.660,L,148.4,LL,35.2,97.7
GMCJGJHMZN,170216.0,16:19:09.980,L,191.4,LL,277.3,128.9
GMCJGJHMZN,170216.0,16:19:10.684,S,152.3,LS,742.2,550.8
GMCJGJHMZN,170216.0,16:19:12.258,R,85.9,RR,54.7,351.6
GMCJGJHMZN,170216.0,16:19:12.273,R,101.6,RR,54.7,351.6
GMCJGJHMZN,170216.0,16:19:12.852,R,203.1,RR,476.6,375.0
GMCJGJHMZN,170216.0,16:19:13.137,R,23.4,RR,140.6,261.7
GMCJGJHMZN,170216.0,16:19:13.168,R,54.7,RR,140.6,261.7
GMCJGJHMZN,170216.0,16:19:13.699,L,156.3,RL,15.6,375.0
GMCJGJHMZN,170216.0,16:19:13.742,L,199.2,LL,15.6,375.0
GMCJGJHMZN,170216.0,16:20:17.590,R,148.4,RR,347.7,253.9
GMCJGJHMZN,170216.0,16:20:18.203,R,128.9,RR,632.8,484.4
GMCJGJHMZN,170216.0,16:20:18.621,R,183.6,RR,363.3,234.4
GMCJGJHMZN,170216.0,16:20:23.816,R,132.8,RR,421.9,285.2
GMCJGJHMZN,170216.0,16:20:24.402,R,175.8,RR,543.0,410.2
GMCJGJHMZN,170216.0,16:20:24.730,R,168.0,RR,335.9,160.2
GMCJGJHMZN,170216.0,16:20:25.246,L,144.5,RL,539.1,371.1
GMCJGJHMZN,170216.0,16:20:25.887,R,97.7,LR,35.2,543.0
GMCJGJHMZN,170216.0,16:20:25.902,L,113.3,RL,35.2,543.0
GMCJGJHMZN,170216.0,16:20:26.430,L,171.9,LL,468.8,355.5
GMCJGJHMZN,170216.0,16:20:27.656,R,82.0,RR,35.2,144.5
GMCJGJHMZN,170216.0,16:20:27.723,R,148.4,RR,35.2,144.5
GMCJGJHMZN,170216.0,16:20:38.672,R,50.8,RR,85.9,300.8
GMCJGJHMZN,170216.0,16:20:38.688,R,66.4,RR,85.9,300.8
GMCJGJHMZN,170216.0,16:20:39.176,R,179.7,RR,375.0,308.6
GMCJGJHMZN,170216.0,16:20:39.594,R,140.6,RR,457.0,277.3
GMCJGJHMZN,170216.0,16:20:40.180,L,148.4,RL,578.1,437.5
GMCJGJHMZN,170216.0,16:20:40.824,L,179.7,LL,613.3,464.8
GMCJGJHMZN,170216.0,16:20:41.305,L,164.1,LL,496.1,316.4
GMCJGJHMZN,170216.0,16:20:42.461,R,191.4,RR,207.0,70.3
GMCJGJHMZN,170216.0,16:21:07.469,L,148.4,LL,769.5,636.7
GMCJGJHMZN,170216.0,16:21:07.965,R,136.7,LR,507.8,359.4
GMCJGJHMZN,170216.0,16:21:08.520,L,101.6,RL,3.9,453.1
GMCJGJHMZN,170216.0,16:21:08.520,L,101.6,LL,3.9,453.1
GMCJGJHMZN,170216.0,16:21:08.699,L,101.6,LL,15.6,78.1
GMCJGJHMZN,170216.0,16:21:08.703,L,105.5,LL,15.6,78.1
GMCJGJHMZN,170216.0,16:21:08.957,L,136.7,LL,11.7,117.2
GMCJGJHMZN,170216.0,16:21:08.973,L,152.3,LL,11.7,117.2
GMCJGJHMZN,170216.0,16:21:09.270,L,171.9,LL,277.3,125.0
GMCJGJHMZN,170216.0,16:21:15.520,L,144.5,LL,148.4,31.3
GMCJGJHMZN,170216.0,16:21:16.328,L,183.6,LL,769.5,625.0
GMCJGJHMZN,170216.0,16:21:16.719,L,199.2,LL,375.0,191.4
GMCJGJHMZN,170216.0,16:21:25.133,L,113.3,LL,183.6,62.5
GMCJGJHMZN,170216.0,16:21:25.391,L,144.5,LL,226.6,113.3
GMCJGJHMZN,170216.0,16:21:25.672,L,152.3,LL,273.4,128.9
GMCJGJHMZN,170216.0,19:33:28.227,R,179.7,LR,710.9,593.8
GMCJGJHMZN,170216.0,19:33:28.508,R,78.1,RR,23.4,203.1
GMCJGJHMZN,170216.0,19:33:28.562,R,132.8,RR,23.4,203.1
GMCJGJHMZN,170216.0,19:33:29.805,R,148.4,LR,289.1,85.9
GMCJGJHMZN,170216.0,19:33:30.477,L,15.6,RL,265.6,656.3
GMCJGJHMZN,170216.0,19:33:30.633,L,171.9,LL,265.6,656.3
GMCJGJHMZN,170216.0,19:33:31.375,L,312.5,LL,601.6,429.7
GMCJGJHMZN,170216.0,19:33:32.078,R,234.4,LR,781.3,468.8
GMCJGJHMZN,170216.0,19:33:33.641,S,281.3,LS,601.6,312.5
GMCJGJHMZN,170216.0,19:33:35.547,L,234.4,LL,250.0,39.1
GMCJGJHMZN,170216.0,19:33:35.883,L,250.0,LL,320.3,85.9
GMCJGJHMZN,170216.0,19:33:36.469,R,234.4,LR,601.6,351.6
GMCJGJHMZN,170216.0,19:33:38.945,L,132.8,LL,15.6,304.7
GMCJGJHMZN,170216.0,19:33:39.062,L,250.0,LL,15.6,304.7
GMCJGJHMZN,170216.0,19:33:44.398,L,304.7,LL,296.9,101.6
GMCJGJHMZN,170216.0,19:33:44.789,L,218.8,LL,476.6,171.9
GMCJGJHMZN,170216.0,19:33:45.094,L,31.3,LL,257.8,273.4
GMCJGJHMZN,170216.0,19:33:45.281,L,218.8,LL,257.8,273.4
GMCJGJHMZN,170216.0,19:33:45.766,L,335.9,LL,367.2,148.4
GMCJGJHMZN,170216.0,19:36:51.328,L,304.7,RL,484.4,359.4
GMCJGJHMZN,170216.0,19:36:51.906,L,148.4,LL,109.4,429.7
GMCJGJHMZN,170216.0,19:37:19.125,L,445.3,RL,468.8,335.9
GMCJGJHMZN,170216.0,19:37:19.398,L,265.6,LL,453.1,7.8
GMCJGJHMZN,170216.0,19:37:19.961,S,203.1,LS,625.0,359.4
GMCJGJHMZN,170216.0,19:37:20.336,R,179.7,SR,398.4,195.3
GMCJGJHMZN,170216.0,19:37:20.648,L,7.8,RL,234.4,304.7
GMCJGJHMZN,170216.0,19:37:20.961,L,31.3,LL,289.1,281.3
GMCJGJHMZN,170216.0,19:37:21.070,R,140.6,LR,289.1,281.3
GMCJGJHMZN,170216.0,19:38:42.062,R,117.2,SR,796.9,523.4
GMCJGJHMZN,170216.0,19:38:42.609,L,203.1,RL,460.9,343.8
GMCJGJHMZN,170216.0,19:38:43.258,L,226.6,LL,625.0,421.9
GMCJGJHMZN,170216.0,19:38:43.641,R,179.7,LR,429.7,203.1
GMCJGJHMZN,170216.0,19:38:44.008,S,265.6,RS,281.3,101.6
GMCJGJHMZN,170216.0,19:38:44.289,L,164.1,SL,382.8,117.2
GMCJGJHMZN,170216.0,19:38:44.523,L,117.2,LL,281.3,117.2
GMCJGJHMZN,170216.0,19:38:44.812,L,218.8,LL,187.5,70.3
GMCJGJHMZN,170216.0,19:38:45.008,L,164.1,LL,250.0,31.3
GMCJGJHMZN,170216.0,19:38:45.344,S,171.9,LS,328.1,164.1
GMCJGJHMZN,170216.0,19:38:46.672,L,351.6,RL,296.9,93.8
GMCJGJHMZN,170216.0,19:38:46.922,L,218.8,LL,382.8,31.3
GMCJGJHMZN,170216.0,19:39:22.289,L,242.2,RL,648.4,562.5
GMCJGJHMZN,170216.0,19:39:22.812,L,226.6,LL,539.1,296.9
GMCJGJHMZN,170216.0,19:39:23.148,R,156.3,LR,406.3,179.7
GMCJGJHMZN,170216.0,19:39:23.664,S,218.8,RS,453.1,296.9
GMCJGJHMZN,170216.0,19:39:23.953,L,117.2,SL,390.6,171.9
GMCJGJHMZN,170216.0,19:39:24.188,L,125.0,LL,226.6,109.4
GMCJGJHMZN,170216.0,19:39:24.703,L,367.2,LL,273.4,148.4
GMCJGJHMZN,170216.0,19:39:27.172,L,226.6,LL,171.9,78.1
GMCJGJHMZN,170216.0,19:39:27.375,L,15.6,LL,171.9,187.5
GMCJGJHMZN,170216.0,19:39:27.656,S,62.5,LS,234.4,218.8
GMCJGJHMZN,170216.0,19:39:27.742,R,148.4,SR,234.4,218.8
GMCJGJHMZN,170216.0,19:39:28.023,L,15.6,RL,250.0,265.6
GMCJGJHMZN,170216.0,19:39:28.219,L,210.9,LL,250.0,265.6
GMCJGJHMZN,170216.0,19:39:28.414,R,179.7,LR,226.6,15.6
