User_ID,Date,Timestamp,Hand,Hold_Time,Direction,Latency_Time,Flight_Time
GN1CUIPUTJ,170216.0,05:52:23.357,L,103.5,LL,535.2,418.0
GN1CUIPUTJ,170216.0,05:52:47.996,R,99.6,RR,400.4,300.8
GN1CUIPUTJ,170216.0,05:52:49.082,R,78.1,LR,306.6,187.5
GN1CUIPUTJ,170216.0,05:53:45.551,R,130.9,LR,455.1,339.8
GN1CUIPUTJ,170216.0,05:53:47.363,R,152.3,LR,421.9,304.7
GN1CUIPUTJ,170216.0,05:53:47.711,R,99.6,RR,400.4,248.0
GN1CUIPUTJ,170216.0,05:53:48.252,L,117.2,RL,523.4,423.8
GN1CUIPUTJ,170216.0,05:53:48.656,R,152.3,LR,369.1,252.0
GN1CUIPUTJ,170216.0,05:54:02.871,R,103.5,RR,248.0,140.6
GN1CUIPUTJ,170216.0,05:54:03.328,L,115.2,RL,445.3,341.8
GN1CUIPUTJ,170216.0,05:54:03.648,L,89.8,LL,345.7,230.5
GN1CUIPUTJ,170216.0,05:54:04.914,R,152.3,LR,369.1,252.0
GN1CUIPUTJ,170216.0,05:54:05.330,L,84.0,RL,484.4,332.0
GN1CUIPUTJ,170216.0,05:54:05.730,L,117.2,LL,367.2,283.2
