User_ID,Date,Timestamp,Hand,Hold_Time,Direction,Latency_Time,Flight_Time
GN3N4ZNCV9,161018.0,21:15:22.898,R,78.1,RR,421.9,328.1
GN3N4ZNCV9,161018.0,21:15:23.266,L,101.6,RL,343.8,265.6
GN3N4ZNCV9,161018.0,21:15:23.648,S,210.9,LS,273.4,171.9
GN3N4ZNCV9,161018.0,21:15:24.375,L,156.3,SL,781.3,570.3
GN3N4ZNCV9,161018.0,21:15:24.500,R,109.4,LR,171.9,15.6
GN3N4ZNCV9,161018.0,21:15:24.820,R,85.9,RR,343.8,234.4
GN3N4ZNCV9,161018.0,21:15:25.180,R,117.2,RR,328.1,242.2
GN3N4ZNCV9,161018.0,21:15:25.586,S,148.4,RS,375.0,257.8
GN3N4ZNCV9,161018.0,21:15:25.891,L,156.3,SL,296.9,148.4
GN3N4ZNCV9,161018.0,21:15:26.258,R,85.9,LR,437.5,281.3
GN3N4ZNCV9,161018.0,21:15:26.555,L,117.2,RL,265.6,179.7
GN3N4ZNCV9,161018.0,21:15:26.883,S,140.6,LS,304.7,187.5
GN3N4ZNCV9,161018.0,21:15:27.156,R,78.1,SR,335.9,195.3
GN3N4ZNCV9,161018.0,21:15:27.664,L,125.0,RL,460.9,382.8
GN3N4ZNCV9,161018.0,21:15:27.820,R,70.3,LR,210.9,85.9
GN3N4ZNCV9,161018.0,21:15:28.156,R,101.6,RR,304.7,234.4
GN3N4ZNCV9,161018.0,21:15:28.617,L,109.4,RL,453.1,351.6
GN3N4ZNCV9,161018.0,21:15:28.883,S,148.4,LS,226.6,117.2
GN3N4ZNCV9,161018.0,21:15:29.203,L,101.6,SL,367.2,218.8
GN3N4ZNCV9,161018.0,21:15:29.578,L,140.6,LL,335.9,234.4
GN3N4ZNCV9,161018.0,21:15:29.844,L,132.8,LL,273.4,132.8
GN3N4ZNCV9,161018.0,21:15:30.242,R,78.1,LR,453.1,320.3
GN3N4ZNCV9,161018.0,21:15:47.719,R,78.1,RR,625.0,523.4
GN3N4ZNCV9,161018.0,21:15:48.211,L,93.8,RL,476.6,398.4
GN3N4ZNCV9,161018.0,22:08:02.055,L,109.4,RL,406.3,312.5
GN3N4ZNCV9,161018.0,22:08:02.242,L,93.8,LL,203.1,93.8
GN3N4ZNCV9,161018.0,22:08:02.727,S,156.3,LS,421.9,328.1
GN3N4ZNCV9,161018.0,22:08:03.195,R,78.1,SR,546.9,390.6
GN3N4ZNCV9,161018.0,22:08:04.211,R,93.8,RR,156.3,78.1
GN3N4ZNCV9,161018.0,22:08:07.898,L,171.9,RL,421.9,328.1
GN3N4ZNCV9,161018.0,22:08:08.195,R,62.5,LR,406.3,234.4
GN3N4ZNCV9,161018.0,22:08:08.398,R,78.1,RR,187.5,125.0
GN3N4ZNCV9,161018.0,22:08:08.602,R,93.8,RR,187.5,109.4
GN3N4ZNCV9,161018.0,22:08:08.883,R,93.8,RR,281.3,187.5
GN3N4ZNCV9,161018.0,22:08:09.211,L,140.6,RL,281.3,187.5
GN3N4ZNCV9,161018.0,22:08:10.461,L,78.1,SL,500.0,343.8
GN3N4ZNCV9,161018.0,22:08:10.852,L,187.5,LL,281.3,203.1
GN3N4ZNCV9,161018.0,22:08:10.977,R,109.4,LR,203.1,15.6
GN3N4ZNCV9,161018.0,22:08:11.289,R,109.4,RR,312.5,203.1
GN3N4ZNCV9,161018.0,22:08:11.648,L,125.0,RL,343.8,234.4
GN3N4ZNCV9,161018.0,22:08:11.930,L,109.4,LL,296.9,171.9
GN3N4ZNCV9,161018.0,22:08:12.242,L,156.3,LL,265.6,156.3
GN3N4ZNCV9,161018.0,22:08:12.570,L,109.4,LL,375.0,218.8
GN3N4ZNCV9,161018.0,22:08:12.805,R,125.0,LR,218.8,109.4
GN3N4ZNCV9,161018.0,22:08:12.961,L,125.0,RL,156.3,31.3
GN3N4ZNCV9,161018.0,22:12:25.859,R,93.8,RR,382.8,273.4
GN3N4ZNCV9,161018.0,22:12:26.352,L,164.1,RL,414.1,320.3
GN3N4ZNCV9,161018.0,22:12:26.617,S,210.9,LS,226.6,62.5
GN3N4ZNCV9,161018.0,22:12:26.758,L,101.6,SL,250.0,39.1
GN3N4ZNCV9,161018.0,22:12:26.953,R,93.8,LR,203.1,101.6
GN3N4ZNCV9,161018.0,22:12:27.141,S,179.7,RS,101.6,7.8
GN3N4ZNCV9,161018.0,22:12:27.477,L,171.9,SL,343.8,164.1
GN3N4ZNCV9,161018.0,22:12:27.672,R,101.6,LR,265.6,93.8
GN3N4ZNCV9,161018.0,22:12:27.984,L,117.2,RL,296.9,195.3
GN3N4ZNCV9,161018.0,22:12:28.484,S,171.9,LS,445.3,328.1
GN3N4ZNCV9,161018.0,22:12:29.125,L,132.8,SL,679.7,507.8
GN3N4ZNCV9,161018.0,22:12:29.477,R,101.6,LR,382.8,250.0
GN3N4ZNCV9,161018.0,22:12:29.758,L,125.0,RL,257.8,156.3
GN3N4ZNCV9,161018.0,22:12:30.086,S,187.5,LS,265.6,140.6
GN3N4ZNCV9,161018.0,22:12:30.234,L,117.2,SL,218.8,31.3
GN3N4ZNCV9,161018.0,22:12:30.406,R,101.6,LR,187.5,70.3
GN3N4ZNCV9,161018.0,22:12:30.750,L,132.8,RL,312.5,210.9
GN3N4ZNCV9,161018.0,22:12:31.273,S,156.3,LS,500.0,367.2
GN3N4ZNCV9,161018.0,22:12:31.477,R,109.4,SR,250.0,93.8
GN3N4ZNCV9,161018.0,22:12:31.781,L,171.9,RL,242.2,132.8
GN3N4ZNCV9,161018.0,22:12:31.938,R,93.8,LR,234.4,62.5
GN3N4ZNCV9,161018.0,22:12:32.266,R,117.2,RR,304.7,210.9
GN3N4ZNCV9,161018.0,22:12:32.523,L,117.2,RL,257.8,140.6
GN3N4ZNCV9,161018.0,22:12:34.422,R,109.4,SR,265.6,101.6
GN3N4ZNCV9,161018.0,22:12:34.727,L,109.4,RL,304.7,195.3
GN3N4ZNCV9,161018.0,22:12:34.969,R,85.9,LR,265.6,156.3
GN3N4ZNCV9,161018.0,22:12:35.227,R,117.2,RR,226.6,140.6
GN3N4ZNCV9,161018.0,22:12:36.320,L,156.3,LL,250.0,7.8
GN3N4ZNCV9,161018.0,22:17:02.672,L,156.3,LL,312.5,179.7
GN3N4ZNCV9,161018.0,22:17:02.898,R,109.4,LR,273.4,117.2
GN3N4ZNCV9,161018.0,22:17:03.234,R,117.2,RR,328.1,218.8
GN3N4ZNCV9,161018.0,22:17:03.477,L,148.4,RL,210.9,93.8
GN3N4ZNCV9,161018.0,22:17:03.836,L,101.6,LL,406.3,257.8
GN3N4ZNCV9,161018.0,22:17:04.039,L,78.1,LL,226.6,125.0
GN3N4ZNCV9,161018.0,22:18:02.305,R,109.4,LR,242.2,85.9
GN3N4ZNCV9,161018.0,22:18:02.578,L,109.4,RL,273.4,164.1
GN3N4ZNCV9,161018.0,22:18:02.953,S,210.9,LS,273.4,164.1
GN3N4ZNCV9,161018.0,22:18:03.219,R,93.8,SR,382.8,171.9
GN3N4ZNCV9,161018.0,22:18:03.898,R,93.8,RR,679.7,585.9
GN3N4ZNCV9,161018.0,22:26:09.320,L,85.9,LL,218.8,117.2
GN3N4ZNCV9,161018.0,22:26:11.461,R,101.6,LR,390.6,242.2
GN3N4ZNCV9,161018.0,22:26:11.906,R,85.9,RR,460.9,359.4
GN3N4ZNCV9,161018.0,22:26:12.359,L,140.6,RL,398.4,312.5
GN3N4ZNCV9,161018.0,22:26:15.797,R,132.8,RR,484.4,382.8
GN3N4ZNCV9,161018.0,22:26:16.148,L,78.1,RL,406.3,273.4
GN3N4ZNCV9,161018.0,22:26:16.422,L,101.6,LL,250.0,171.9
GN3N4ZNCV9,161018.0,22:26:16.953,R,109.4,LR,523.4,421.9
GN3N4ZNCV9,161018.0,22:26:17.445,L,101.6,RL,500.0,390.6
GN3N4ZNCV9,161018.0,22:26:30.781,L,101.6,LL,195.3,101.6
GN3N4ZNCV9,161018.0,22:26:31.195,L,140.6,LL,375.0,273.4
GN3N4ZNCV9,161018.0,22:26:31.555,R,109.4,LR,390.6,250.0
GN3N4ZNCV9,161018.0,22:26:35.367,L,93.8,LL,257.8,132.8
GN3N4ZNCV9,161018.0,22:26:36.984,R,93.8,LR,351.6,234.4
GN3N4ZNCV9,161018.0,22:26:37.383,R,101.6,RR,390.6,296.9
GN3N4ZNCV9,161018.0,22:26:37.797,L,140.6,RL,375.0,273.4
GN3N4ZNCV9,161018.0,22:26:40.812,R,93.8,RR,445.3,375.0
GN3N4ZNCV9,161018.0,22:26:41.180,L,85.9,RL,375.0,281.3
GN3N4ZNCV9,161018.0,22:26:41.453,L,125.0,LL,234.4,148.4
GN3N4ZNCV9,161018.0,22:26:42.688,L,101.6,RL,343.8,250.0
GN3N4ZNCV9,161018.0,22:27:30.047,L,85.9,LL,179.7,93.8
GN3N4ZNCV9,161018.0,22:27:30.469,L,117.2,LL,390.6,304.7
GN3N4ZNCV9,161018.0,22:27:30.828,R,109.4,LR,367.2,250.0
GN3N4ZNCV9,161018.0,22:27:31.250,R,125.0,RR,406.3,296.9
GN3N4ZNCV9,161018.0,22:27:31.625,L,101.6,RL,398.4,273.4
GN3N4ZNCV9,161018.0,22:27:50.125,L,210.9,LL,320.3,187.5
GN3N4ZNCV9,161018.0,22:27:50.578,L,78.1,LL,585.9,375.0
GN3N4ZNCV9,161018.0,22:28:30.125,L,156.3,LL,312.5,195.3
GN3N4ZNCV9,161018.0,22:28:30.305,R,93.8,LR,242.2,85.9
GN3N4ZNCV9,161018.0,22:28:30.500,R,78.1,RR,210.9,117.2
GN3N4ZNCV9,161018.0,22:28:30.844,R,101.6,RR,320.3,242.2
GN3N4ZNCV9,161018.0,22:28:31.109,L,101.6,RL,265.6,164.1
GN3N4ZNCV9,161018.0,22:28:48.617,R,117.2,RR,382.8,257.8
GN3N4ZNCV9,161018.0,22:28:49.266,L,85.9,RL,679.7,562.5
GN3N4ZNCV9,161018.0,22:28:49.547,L,140.6,LL,226.6,140.6
GN3N4ZNCV9,161018.0,22:28:49.930,R,101.6,LR,421.9,281.3
GN3N4ZNCV9,161018.0,22:28:50.352,L,93.8,RL,429.7,328.1
GN3N4ZNCV9,161018.0,22:28:59.719,R,93.8,RR,367.2,226.6
GN3N4ZNCV9,161018.0,22:29:00.383,L,109.4,RL,648.4,554.7
GN3N4ZNCV9,161018.0,22:29:00.750,L,132.8,LL,343.8,234.4
GN3N4ZNCV9,161018.0,22:29:01.055,R,125.0,LR,312.5,179.7
GN3N4ZNCV9,161018.0,22:29:01.539,L,109.4,RL,500.0,375.0
GN3N4ZNCV9,161018.0,22:36:55.695,R,109.4,RR,265.6,171.9
GN3N4ZNCV9,161018.0,22:36:56.078,R,101.6,RR,390.6,281.3
GN3N4ZNCV9,161018.0,22:36:56.531,L,109.4,RL,445.3,343.8
GN3N4ZNCV9,161018.0,22:36:57.219,R,140.6,LR,656.3,546.9
GN3N4ZNCV9,161018.0,22:36:57.570,L,164.1,RL,328.1,187.5
GN3N4ZNCV9,161018.0,22:36:57.703,R,78.1,LR,218.8,54.7
GN3N4ZNCV9,161018.0,22:36:59.391,L,242.2,RL,367.2,250.0
GN3N4ZNCV9,161018.0,22:36:59.719,R,46.9,LR,218.8,281.3
GN3N4ZNCV9,161018.0,22:36:59.758,R,85.9,RR,218.8,281.3
GN3N4ZNCV9,161018.0,22:39:43.945,L,109.4,LL,203.1,85.9
GN3N4ZNCV9,161018.0,22:39:44.406,L,148.4,LL,421.9,312.5
GN3N4ZNCV9,161018.0,22:39:44.844,R,117.2,LR,468.8,320.3
GN3N4ZNCV9,161018.0,22:39:45.172,R,101.6,RR,343.8,226.6
GN3N4ZNCV9,161018.0,22:39:45.625,L,164.1,RL,390.6,289.1
GN3N4ZNCV9,161018.0,22:45:16.156,L,93.8,LL,203.1,101.6
GN3N4ZNCV9,161018.0,22:47:44.766,R,101.6,RR,390.6,234.4
GN3N4ZNCV9,161018.0,22:47:47.750,R,70.3,LR,445.3,335.9
GN3N4ZNCV9,161018.0,22:47:47.953,R,78.1,RR,195.3,125.0
GN3N4ZNCV9,161018.0,22:47:48.570,L,164.1,RL,531.3,453.1
GN3N4ZNCV9,161018.0,22:50:15.484,R,54.7,LR,531.3,421.9
GN3N4ZNCV9,161018.0,22:50:15.711,R,109.4,RR,171.9,117.2
GN3N4ZNCV9,161018.0,22:50:16.242,L,125.0,RL,515.6,406.3
GN3N4ZNCV9,161018.0,22:50:45.766,L,78.1,LL,742.2,664.1
GN3N4ZNCV9,161018.0,22:50:46.227,R,93.8,LR,445.3,367.2
GN3N4ZNCV9,161018.0,22:50:46.461,R,62.5,RR,265.6,171.9
GN3N4ZNCV9,161018.0,22:50:46.719,L,85.9,RL,234.4,171.9
GN3N4ZNCV9,161018.0,22:56:34.805,L,125.0,RL,367.2,257.8
GN3N4ZNCV9,161018.0,22:56:35.273,R,54.7,LR,539.1,414.1
GN3N4ZNCV9,161018.0,22:56:35.438,R,78.1,RR,140.6,85.9
GN3N4ZNCV9,161018.0,22:56:35.734,R,171.9,RR,203.1,125.0
GN3N4ZNCV9,161018.0,22:56:35.969,S,179.7,RS,226.6,54.7
GN3N4ZNCV9,161018.0,22:56:36.203,L,132.8,SL,281.3,101.6
GN3N4ZNCV9,161018.0,22:56:36.516,R,93.8,LR,351.6,218.8
GN3N4ZNCV9,161018.0,22:56:36.805,L,101.6,RL,281.3,187.5
GN3N4ZNCV9,161018.0,22:56:37.023,L,85.9,LL,234.4,132.8
GN3N4ZNCV9,161018.0,22:56:37.781,L,109.4,LL,734.4,648.4
GN3N4ZNCV9,161018.0,22:56:38.141,L,156.3,LL,312.5,203.1
GN3N4ZNCV9,161018.0,22:56:38.383,R,39.1,LR,359.4,203.1
GN3N4ZNCV9,161018.0,22:56:47.250,L,132.8,RL,382.8,312.5
GN3N4ZNCV9,161018.0,22:56:47.594,R,62.5,LR,414.1,281.3
GN3N4ZNCV9,161018.0,22:56:47.750,R,70.3,RR,148.4,85.9
GN3N4ZNCV9,161018.0,22:56:48.070,R,164.1,RR,226.6,156.3
GN3N4ZNCV9,161018.0,22:56:48.320,S,179.7,RS,234.4,70.3
GN3N4ZNCV9,161018.0,22:56:48.594,L,148.4,SL,304.7,125.0
GN3N4ZNCV9,161018.0,22:56:48.867,R,78.1,LR,343.8,195.3
GN3N4ZNCV9,161018.0,22:56:49.203,L,140.6,RL,273.4,195.3
GN3N4ZNCV9,161018.0,22:56:49.453,L,125.0,LL,265.6,125.0
GN3N4ZNCV9,161018.0,22:56:49.633,R,78.1,LR,226.6,101.6
GN3N4ZNCV9,161018.0,22:56:50.117,L,125.0,RL,437.5,359.4
GN3N4ZNCV9,161018.0,22:56:50.438,L,171.9,LL,273.4,148.4
GN3N4ZNCV9,161018.0,22:56:50.609,R,78.1,LR,265.6,93.8
GN3N4ZNCV9,161018.0,22:56:54.898,L,62.5,LL,367.2,265.6
GN3N4ZNCV9,161018.0,22:56:55.102,L,101.6,LL,164.1,101.6
GN3N4ZNCV9,161018.0,22:56:55.461,L,164.1,LL,296.9,195.3
GN3N4ZNCV9,161018.0,22:56:55.672,S,179.7,LS,195.3,31.3
GN3N4ZNCV9,161018.0,22:56:55.836,R,15.6,SR,85.9,148.4
GN3N4ZNCV9,161018.0,22:56:55.992,L,171.9,RL,85.9,148.4
GN3N4ZNCV9,161018.0,22:56:56.320,L,132.8,LL,367.2,195.3
GN3N4ZNCV9,161018.0,22:56:56.578,R,85.9,LR,304.7,171.9
GN3N4ZNCV9,161018.0,22:56:58.352,L,117.2,RL,437.5,359.4
GN3N4ZNCV9,161018.0,22:56:58.617,R,78.1,LR,304.7,187.5
GN3N4ZNCV9,161018.0,22:56:58.945,R,187.5,RR,218.8,140.6
GN3N4ZNCV9,161018.0,22:56:59.125,R,171.9,RR,195.3,7.8
GN3N4ZNCV9,161018.0,22:56:59.492,R,85.9,RR,453.1,281.3
GN3N4ZNCV9,161018.0,22:57:02.039,R,93.8,RR,351.6,250.0
GN3N4ZNCV9,161018.0,22:57:02.188,R,54.7,RR,187.5,93.8
GN3N4ZNCV9,161018.0,22:57:03.570,R,62.5,LR,242.2,93.8
GN3N4ZNCV9,161018.0,22:57:03.883,L,164.1,RL,210.9,148.4
GN3N4ZNCV9,161018.0,22:57:04.078,S,15.6,LS,117.2,179.7
GN3N4ZNCV9,161018.0,22:57:04.148,R,85.9,SR,117.2,179.7
GN3N4ZNCV9,161018.0,22:57:04.375,L,46.9,RL,101.6,179.7
GN3N4ZNCV9,161018.0,22:57:04.398,R,70.3,LR,101.6,179.7
GN3N4ZNCV9,161018.0,22:57:04.688,R,70.3,RR,289.1,218.8
GN3N4ZNCV9,161018.0,22:57:04.930,S,164.1,RS,148.4,78.1
GN3N4ZNCV9,161018.0,22:57:05.172,R,15.6,SR,203.1,226.6
GN3N4ZNCV9,161018.0,22:57:05.320,R,15.6,RR,148.4,132.8
GN3N4ZNCV9,161018.0,22:57:05.438,L,132.8,RL,148.4,132.8
GN3N4ZNCV9,161018.0,22:57:05.594,L,85.9,LL,203.1,70.3
GN3N4ZNCV9,161018.0,23:05:21.805,R,148.4,RR,335.9,250.0
GN3N4ZNCV9,161018.0,23:05:22.391,L,117.2,RL,617.2,468.8
GN3N4ZNCV9,161018.0,23:05:22.672,L,156.3,LL,242.2,125.0
GN3N4ZNCV9,161018.0,23:05:22.977,R,132.8,LR,328.1,171.9
GN3N4ZNCV9,161018.0,23:05:23.172,L,125.0,RL,203.1,70.3
GN3N4ZNCV9,161018.0,23:05:23.523,R,195.3,LR,281.3,156.3
GN3N4ZNCV9,161018.0,23:05:23.742,R,148.4,RR,265.6,70.3
GN3N4ZNCV9,161018.0,23:05:23.930,L,117.2,RL,218.8,70.3
GN3N4ZNCV9,161018.0,23:05:25.430,L,117.2,RL,335.9,234.4
GN3N4ZNCV9,161018.0,23:05:25.836,R,70.3,LR,453.1,335.9
GN3N4ZNCV9,161018.0,23:05:26.070,R,31.3,RR,273.4,203.1
GN3N4ZNCV9,161018.0,23:34:54.508,L,148.4,RL,367.2,281.3
GN3N4ZNCV9,161018.0,23:34:54.859,R,109.4,LR,390.6,242.2
GN3N4ZNCV9,161018.0,23:34:56.969,R,132.8,SR,351.6,179.7
GN3N4ZNCV9,161018.0,23:34:57.195,R,78.1,RR,281.3,148.4
GN3N4ZNCV9,161018.0,23:34:57.430,R,125.0,RR,187.5,109.4
GN3N4ZNCV9,161018.0,23:34:57.672,L,148.4,RL,218.8,93.8
GN3N4ZNCV9,161018.0,23:34:57.844,S,164.1,LS,156.3,7.8
GN3N4ZNCV9,161018.0,23:34:58.008,L,140.6,SL,187.5,23.4
GN3N4ZNCV9,161018.0,23:34:58.203,R,62.5,LR,273.4,132.8
GN3N4ZNCV9,161018.0,23:34:58.289,R,78.1,RR,70.3,7.8
GN3N4ZNCV9,161018.0,23:34:58.461,R,85.9,RR,164.1,85.9
GN3N4ZNCV9,161018.0,23:35:05.617,S,156.3,LS,648.4,546.9
GN3N4ZNCV9,161018.0,23:35:06.359,L,125.0,SL,773.4,617.2
GN3N4ZNCV9,161018.0,23:35:06.617,R,62.5,LR,320.3,195.3
GN3N4ZNCV9,161018.0,23:35:06.742,R,46.9,RR,140.6,78.1
GN3N4ZNCV9,161018.0,23:35:07.062,L,132.8,RL,234.4,187.5
GN3N4ZNCV9,161018.0,23:35:07.258,S,148.4,LS,179.7,46.9
GN3N4ZNCV9,161018.0,23:35:08.234,R,93.8,LR,187.5,46.9
GN3N4ZNCV9,161018.0,23:35:08.844,L,109.4,RL,593.8,500.0
GN3N4ZNCV9,161018.0,23:35:09.227,R,46.9,LR,445.3,335.9
GN3N4ZNCV9,161018.0,23:35:11.055,R,101.6,SR,265.6,109.4
GN3N4ZNCV9,161018.0,23:35:11.484,S,187.5,RS,343.8,242.2
GN3N4ZNCV9,161018.0,23:35:11.766,L,15.6,SL,109.4,265.6
GN3N4ZNCV9,161018.0,23:35:11.852,R,101.6,LR,109.4,265.6
GN3N4ZNCV9,161018.0,23:35:12.148,L,164.1,RL,234.4,132.8
GN3N4ZNCV9,161018.0,23:35:12.320,S,132.8,LS,203.1,39.1
GN3N4ZNCV9,161018.0,23:35:13.055,L,109.4,SL,757.8,625.0
GN3N4ZNCV9,161018.0,23:35:13.336,L,23.4,LL,132.8,257.8
GN3N4ZNCV9,161018.0,23:35:13.406,R,93.8,LR,132.8,257.8
GN3N4ZNCV9,161018.0,23:35:13.711,R,70.3,RR,328.1,234.4
GN3N4ZNCV9,161018.0,23:35:14.031,R,117.2,RR,273.4,203.1
GN3N4ZNCV9,161018.0,23:35:14.359,R,117.2,RR,328.1,210.9
GN3N4ZNCV9,161018.0,23:35:17.500,L,109.4,RL,242.2,140.6
GN3N4ZNCV9,161018.0,23:35:17.664,L,85.9,LL,187.5,78.1
GN3N4ZNCV9,161018.0,23:35:17.930,L,125.0,LL,226.6,140.6
GN3N4ZNCV9,161018.0,23:35:18.703,S,187.5,LS,710.9,585.9
GN3N4ZNCV9,161018.0,23:35:19.008,L,109.4,SL,382.8,195.3
GN3N4ZNCV9,161018.0,23:35:19.227,R,85.9,LR,242.2,132.8
GN3N4ZNCV9,161018.0,23:35:19.477,S,156.3,RS,179.7,93.8
GN3N4ZNCV9,161018.0,23:35:19.734,R,78.1,SR,335.9,179.7
GN3N4ZNCV9,161018.0,23:35:20.133,L,148.4,RL,328.1,250.0
GN3N4ZNCV9,161018.0,23:35:20.289,L,125.0,LL,179.7,31.3
GN3N4ZNCV9,161018.0,23:35:21.875,S,132.8,LS,484.4,406.3
GN3N4ZNCV9,161018.0,23:35:22.203,R,78.1,SR,382.8,250.0
GN3N4ZNCV9,161018.0,23:35:22.906,R,93.8,RR,687.5,609.4
GN3N4ZNCV9,161018.0,23:35:23.781,S,179.7,RS,789.1,695.3
GN3N4ZNCV9,161018.0,23:35:25.008,S,164.1,RS,273.4,179.7
GN3N4ZNCV9,161018.0,23:35:25.227,R,70.3,SR,312.5,148.4
GN3N4ZNCV9,161018.0,23:35:25.398,L,148.4,RL,93.8,23.4
GN3N4ZNCV9,161018.0,23:35:25.742,L,117.2,LL,375.0,226.6
GN3N4ZNCV9,161018.0,23:35:26.008,L,148.4,LL,234.4,117.2
GN3N4ZNCV9,161018.0,23:35:26.211,S,125.0,LS,226.6,78.1
GN3N4ZNCV9,161018.0,23:35:26.398,L,15.6,SL,164.1,171.9
GN3N4ZNCV9,161018.0,23:35:26.531,S,148.4,LS,164.1,171.9
GN3N4ZNCV9,161018.0,23:35:26.773,L,117.2,SL,273.4,125.0
GN3N4ZNCV9,161018.0,23:35:27.102,L,70.3,LL,375.0,257.8
GN3N4ZNCV9,161018.0,23:35:27.367,L,187.5,LL,148.4,78.1
GN3N4ZNCV9,161018.0,23:35:27.516,L,101.6,LL,234.4,46.9
GN3N4ZNCV9,161018.0,23:35:29.078,R,101.6,SR,242.2,101.6
GN3N4ZNCV9,161018.0,23:35:29.289,L,140.6,RL,171.9,70.3
GN3N4ZNCV9,161018.0,23:35:29.469,S,164.1,LS,156.3,15.6
GN3N4ZNCV9,161018.0,23:35:29.609,L,109.4,SL,195.3,31.3
GN3N4ZNCV9,161018.0,23:35:29.969,L,132.8,LL,335.9,226.6
GN3N4ZNCV9,161018.0,23:35:30.164,R,93.8,LR,234.4,101.6
GN3N4ZNCV9,161018.0,23:35:30.406,S,140.6,RS,195.3,101.6
GN3N4ZNCV9,161018.0,23:35:30.594,R,85.9,SR,242.2,101.6
GN3N4ZNCV9,161018.0,23:35:30.812,L,7.8,RL,156.3,210.9
GN3N4ZNCV9,161018.0,23:35:30.938,S,132.8,LS,156.3,210.9
GN3N4ZNCV9,161018.0,23:35:31.102,R,156.3,SR,140.6,7.8
GN3N4ZNCV9,161018.0,23:35:31.312,R,156.3,RR,210.9,54.7
GN3N4ZNCV9,161018.0,23:35:31.492,L,125.0,RL,210.9,54.7
GN3N4ZNCV9,161018.0,23:35:31.789,L,179.7,LL,242.2,117.2
GN3N4ZNCV9,161018.0,23:35:32.078,S,179.7,LS,289.1,109.4
GN3N4ZNCV9,161018.0,23:35:32.508,R,101.6,SR,507.8,328.1
GN3N4ZNCV9,161018.0,23:35:32.797,R,117.2,RR,273.4,171.9
GN3N4ZNCV9,161018.0,23:35:32.992,R,78.1,RR,234.4,117.2
GN3N4ZNCV9,161018.0,23:35:33.180,R,78.1,RR,187.5,109.4
GN3N4ZNCV9,161018.0,23:35:35.609,L,85.9,SL,281.3,132.8
GN3N4ZNCV9,161018.0,23:35:35.875,L,70.3,LL,281.3,195.3
GN3N4ZNCV9,161018.0,23:35:36.055,R,78.1,LR,171.9,101.6
GN3N4ZNCV9,161018.0,23:35:36.328,L,23.4,RL,148.4,250.0
GN3N4ZNCV9,161018.0,23:35:36.469,S,164.1,LS,148.4,250.0
GN3N4ZNCV9,161018.0,23:35:37.523,L,140.6,LL,257.8,125.0
GN3N4ZNCV9,161018.0,23:35:37.836,L,140.6,LL,312.5,171.9
GN3N4ZNCV9,161018.0,23:35:38.016,L,109.4,LL,210.9,70.3
GN3N4ZNCV9,161018.0,23:41:18.859,L,117.2,RL,312.5,187.5
GN3N4ZNCV9,161018.0,23:41:19.375,L,148.4,LL,484.4,367.2
GN3N4ZNCV9,161018.0,23:41:23.352,L,70.3,LL,335.9,203.1
GN3N4ZNCV9,161018.0,23:41:27.047,L,125.0,LL,671.9,507.8
GN3N4ZNCV9,161018.0,23:41:27.477,R,101.6,LR,453.1,328.1
GN3N4ZNCV9,161018.0,23:41:41.508,R,125.0,RR,335.9,234.4
GN3N4ZNCV9,161018.0,23:41:41.648,L,125.0,RL,140.6,15.6
GN3N4ZNCV9,161018.0,23:41:41.930,R,85.9,LR,320.3,195.3
GN3N4ZNCV9,161018.0,23:41:42.188,R,78.1,RR,265.6,179.7
GN3N4ZNCV9,161018.0,23:41:42.789,R,101.6,RR,578.1,500.0
GN3N4ZNCV9,161018.0,23:41:43.125,L,156.3,RL,281.3,179.7
GN3N4ZNCV9,161018.0,23:41:43.398,R,62.5,LR,164.1,210.9
GN3N4ZNCV9,161018.0,23:41:43.445,R,109.4,RR,164.1,210.9
GN3N4ZNCV9,161018.0,23:41:50.797,R,85.9,RR,625.0,523.4
GN3N4ZNCV9,161018.0,23:41:51.328,L,85.9,RL,531.3,445.3
GN3N4ZNCV9,161018.0,23:41:51.570,L,125.0,LL,203.1,117.2
GN3N4ZNCV9,161018.0,23:41:51.906,R,101.6,LR,359.4,234.4
GN3N4ZNCV9,161018.0,23:42:32.898,L,101.6,LL,687.5,562.5
GN3N4ZNCV9,161018.0,23:42:34.086,R,93.8,LR,289.1,187.5
GN3N4ZNCV9,161018.0,23:42:34.461,R,70.3,RR,398.4,304.7
GN3N4ZNCV9,161018.0,23:42:34.836,L,109.4,RL,335.9,265.6
GN3N4ZNCV9,161018.0,23:42:37.945,L,109.4,RL,242.2,148.4
GN3N4ZNCV9,161018.0,23:42:38.055,R,62.5,LR,156.3,46.9
GN3N4ZNCV9,161018.0,23:42:38.633,R,70.3,RR,570.3,507.8
GN3N4ZNCV9,161018.0,23:42:38.781,R,70.3,RR,148.4,78.1
GN3N4ZNCV9,161018.0,23:42:39.156,R,109.4,RR,335.9,265.6
GN3N4ZNCV9,161018.0,23:42:39.461,L,7.8,RL,156.3,296.9
GN3N4ZNCV9,161018.0,23:42:39.672,R,39.1,LR,179.7,171.9
GN3N4ZNCV9,161018.0,23:42:39.711,R,78.1,RR,179.7,171.9
GN3N4ZNCV9,161020.0,06:52:03.135,S,185.5,RS,312.5,224.6
GN3N4ZNCV9,161020.0,06:52:03.268,R,78.1,SR,240.2,54.7
GN3N4ZNCV9,161020.0,06:52:03.646,L,150.4,RL,306.6,228.5
GN3N4ZNCV9,161020.0,06:52:04.061,L,123.0,LL,441.4,291.0
GN3N4ZNCV9,161020.0,06:52:04.350,L,169.9,LL,242.2,119.1
GN3N4ZNCV9,161020.0,06:52:04.709,S,132.8,LS,396.5,226.6
GN3N4ZNCV9,161020.0,06:52:05.291,L,158.2,SL,556.6,423.8
GN3N4ZNCV9,161020.0,06:52:05.414,R,84.0,LR,197.3,39.1
GN3N4ZNCV9,161020.0,06:52:05.604,L,119.1,RL,154.3,70.3
GN3N4ZNCV9,161020.0,06:52:05.920,L,136.7,LL,298.8,179.7
GN3N4ZNCV9,161020.0,06:52:06.084,R,99.6,LR,201.2,64.5
GN3N4ZNCV9,161020.0,06:52:06.254,L,121.1,RL,148.4,48.8
GN3N4ZNCV9,161020.0,06:52:06.539,L,148.4,LL,257.8,136.7
GN3N4ZNCV9,161020.0,06:52:08.174,L,105.5,SL,394.5,244.1
GN3N4ZNCV9,161020.0,06:52:08.426,L,113.3,LL,244.1,138.7
GN3N4ZNCV9,161020.0,06:52:08.732,L,105.5,LL,314.5,201.2
GN3N4ZNCV9,161020.0,06:52:08.994,L,31.3,LL,152.3,230.5
GN3N4ZNCV9,161020.0,06:52:09.070,L,107.4,LL,152.3,230.5
GN3N4ZNCV9,161020.0,06:52:09.438,L,144.5,LL,330.1,222.7
GN3N4ZNCV9,161020.0,06:52:09.693,R,15.6,LR,99.6,240.2
GN3N4ZNCV9,161020.0,06:52:09.836,S,158.2,RS,99.6,240.2
GN3N4ZNCV9,161020.0,06:52:10.033,L,121.1,SL,234.4,76.2
GN3N4ZNCV9,161020.0,06:52:10.193,R,80.1,LR,201.2,80.1
GN3N4ZNCV9,161020.0,06:52:10.461,R,107.4,RR,240.2,160.2
GN3N4ZNCV9,161020.0,06:52:10.621,L,109.4,RL,158.2,50.8
GN3N4ZNCV9,161020.0,06:52:10.943,L,127.0,LL,304.7,195.3
GN3N4ZNCV9,161020.0,06:52:11.521,S,179.7,LS,525.4,398.4
GN3N4ZNCV9,161020.0,06:52:11.754,L,146.5,SL,265.6,85.9
GN3N4ZNCV9,161020.0,06:52:11.906,R,117.2,LR,181.6,35.2
GN3N4ZNCV9,161020.0,06:52:12.102,L,27.3,RL,101.6,168.0
GN3N4ZNCV9,161020.0,06:52:12.215,S,140.6,LS,101.6,168.0
GN3N4ZNCV9,161020.0,06:52:12.412,L,111.3,SL,226.6,85.9
GN3N4ZNCV9,161020.0,06:52:12.643,R,121.1,LR,220.7,109.4
GN3N4ZNCV9,161020.0,06:52:12.807,L,103.5,RL,181.6,60.5
GN3N4ZNCV9,161020.0,06:52:13.010,R,85.9,LR,220.7,117.2
GN3N4ZNCV9,161020.0,06:52:13.260,S,150.4,RS,185.5,99.6
GN3N4ZNCV9,161020.0,06:52:14.811,L,99.6,RL,656.3,562.5
GN3N4ZNCV9,161020.0,06:52:14.979,R,123.0,LR,144.5,44.9
GN3N4ZNCV9,161020.0,06:52:15.414,L,128.9,RL,429.7,306.6
GN3N4ZNCV9,161020.0,06:52:15.559,R,85.9,LR,187.5,58.6
GN3N4ZNCV9,161020.0,06:52:16.002,L,127.0,RL,402.3,316.4
GN3N4ZNCV9,161020.0,06:52:16.254,R,105.5,LR,273.4,146.5
GN3N4ZNCV9,161020.0,06:52:17.436,L,132.8,LL,314.5,218.8
GN3N4ZNCV9,161020.0,06:52:18.109,S,146.5,LS,660.2,527.3
GN3N4ZNCV9,161020.0,06:52:18.381,R,123.0,SR,294.9,148.4
GN3N4ZNCV9,161020.0,06:52:18.697,R,109.4,RR,330.1,207.0
GN3N4ZNCV9,161020.0,06:52:19.039,S,162.1,RS,289.1,179.7
GN3N4ZNCV9,161020.0,06:52:19.346,R,107.4,SR,361.3,199.2
GN3N4ZNCV9,161020.0,06:52:19.543,L,132.8,RL,171.9,64.5
GN3N4ZNCV9,161020.0,06:52:20.074,L,125.0,LL,539.1,406.3
GN3N4ZNCV9,161020.0,06:52:20.340,R,95.7,LR,294.9,169.9
GN3N4ZNCV9,161020.0,06:52:20.562,L,134.8,RL,183.6,87.9
GN3N4ZNCV9,161020.0,06:52:21.053,L,101.6,LL,523.4,388.7
GN3N4ZNCV9,161020.0,06:52:21.410,L,127.0,LL,332.0,230.5
GN3N4ZNCV9,161020.0,06:52:22.832,L,125.0,SL,482.4,318.4
GN3N4ZNCV9,161020.0,06:52:23.076,L,107.4,LL,261.7,136.7
GN3N4ZNCV9,161020.0,06:52:23.299,R,76.2,LR,253.9,146.5
GN3N4ZNCV9,161020.0,06:52:23.557,R,103.5,RR,230.5,154.3
GN3N4ZNCV9,161020.0,06:52:23.906,L,125.0,RL,328.1,224.6
GN3N4ZNCV9,161020.0,06:52:24.203,L,23.4,LL,169.9,273.4
GN3N4ZNCV9,161020.0,06:52:24.301,L,121.1,LL,169.9,273.4
GN3N4ZNCV9,161020.0,06:52:24.455,L,109.4,LL,166.0,44.9
GN3N4ZNCV9,161020.0,06:52:24.752,L,136.7,LL,269.5,160.2
GN3N4ZNCV9,161020.0,06:52:25.928,L,105.5,SL,332.0,193.4
GN3N4ZNCV9,161020.0,06:52:26.217,R,93.8,LR,300.8,195.3
GN3N4ZNCV9,161020.0,06:52:26.467,S,150.4,RS,193.4,99.6
GN3N4ZNCV9,161020.0,06:52:26.600,R,107.4,SR,175.8,25.4
GN3N4ZNCV9,161020.0,06:52:27.080,R,84.0,RR,503.9,396.5
GN3N4ZNCV9,161020.0,06:52:27.410,S,138.7,RS,275.4,191.4
GN3N4ZNCV9,161020.0,06:52:28.762,R,56.6,LR,281.3,128.9
GN3N4ZNCV9,161020.0,06:52:29.355,L,89.8,RL,560.5,503.9
GN3N4ZNCV9,161020.0,06:52:30.539,R,82.0,SR,228.5,91.8
GN3N4ZNCV9,161020.0,06:52:30.787,L,97.7,RL,232.4,150.4
GN3N4ZNCV9,161020.0,06:52:31.014,S,183.6,LS,140.6,43.0
GN3N4ZNCV9,161020.0,06:52:31.219,L,111.3,SL,277.3,93.8
GN3N4ZNCV9,161020.0,06:52:31.535,R,64.5,LR,363.3,252.0
GN3N4ZNCV9,161020.0,06:52:31.713,R,95.7,RR,146.5,82.0
GN3N4ZNCV9,161020.0,06:52:32.119,L,123.0,RL,378.9,283.2
GN3N4ZNCV9,161020.0,06:52:32.496,S,160.2,LS,339.8,216.8
GN3N4ZNCV9,161020.0,06:52:32.879,L,193.4,SL,349.6,189.5
GN3N4ZNCV9,161020.0,06:52:33.072,R,80.1,LR,306.6,113.3
GN3N4ZNCV9,161020.0,06:52:33.326,L,138.7,RL,195.3,115.2
GN3N4ZNCV9,161020.0,06:52:33.504,S,138.7,LS,177.7,39.1
GN3N4ZNCV9,161020.0,06:52:34.068,R,107.4,SR,595.7,457.0
GN3N4ZNCV9,161020.0,06:52:34.770,R,152.3,RR,656.3,548.8
GN3N4ZNCV9,161020.0,06:52:35.402,S,144.5,RS,640.6,488.3
GN3N4ZNCV9,161020.0,06:52:35.617,R,150.4,SR,209.0,64.5
GN3N4ZNCV9,161020.0,06:52:35.879,R,146.5,RR,265.6,115.2
GN3N4ZNCV9,161020.0,06:52:36.139,L,113.3,RL,293.0,146.5
GN3N4ZNCV9,161020.0,06:52:37.447,S,121.1,LS,484.4,375.0
GN3N4ZNCV9,161020.0,06:52:37.828,R,101.6,SR,400.4,279.3
GN3N4ZNCV9,161020.0,06:52:38.066,L,130.9,RL,209.0,107.4
GN3N4ZNCV9,161020.0,06:52:38.398,L,162.1,LL,300.8,169.9
GN3N4ZNCV9,161020.0,06:52:38.641,L,123.0,LL,281.3,119.1
GN3N4ZNCV9,161020.0,06:52:38.908,S,140.6,LS,250.0,127.0
GN3N4ZNCV9,161020.0,06:52:39.139,R,99.6,SR,271.5,130.9
GN3N4ZNCV9,161020.0,06:52:39.434,R,91.8,RR,302.7,203.1
GN3N4ZNCV9,161020.0,06:52:41.359,L,130.9,SL,617.2,460.9
GN3N4ZNCV9,161020.0,06:52:41.559,R,54.7,LR,275.4,144.5
GN3N4ZNCV9,161020.0,06:52:41.721,R,87.9,RR,128.9,74.2
GN3N4ZNCV9,161020.0,06:52:41.945,L,125.0,RL,187.5,99.6
GN3N4ZNCV9,161020.0,06:52:42.342,S,140.6,LS,380.9,255.9
GN3N4ZNCV9,161020.0,06:52:42.535,R,89.8,SR,244.1,103.5
GN3N4ZNCV9,161020.0,06:52:42.777,L,113.3,RL,218.8,128.9
GN3N4ZNCV9,161020.0,06:52:44.146,R,89.8,SR,533.2,394.5
GN3N4ZNCV9,161020.0,06:52:44.555,L,142.6,RL,355.5,265.6
GN3N4ZNCV9,161020.0,06:52:44.684,R,80.1,LR,191.4,48.8
GN3N4ZNCV9,161020.0,06:52:44.992,R,119.1,RR,269.5,189.5
GN3N4ZNCV9,161020.0,06:52:45.330,L,91.8,RL,365.2,246.1
GN3N4ZNCV9,161020.0,06:52:45.508,R,91.8,LR,177.7,85.9
GN3N4ZNCV9,161021.0,02:06:28.159,L,147.0,LL,331.1,221.2
GN3N4ZNCV9,161021.0,02:06:29.733,R,91.8,RR,414.1,342.3
GN3N4ZNCV9,161021.0,02:06:30.090,L,146.0,RL,303.7,211.9
GN3N4ZNCV9,161021.0,02:06:30.588,L,121.1,LL,522.9,377.0
GN3N4ZNCV9,161021.0,02:06:30.830,L,100.1,LL,263.2,142.1
GN3N4ZNCV9,161021.0,02:06:33.391,L,150.9,RL,308.1,195.3
GN3N4ZNCV9,161021.0,02:06:33.881,R,267.1,LR,373.5,222.7
GN3N4ZNCV9,161021.0,02:06:33.975,R,86.9,RR,274.4,7.3
GN3N4ZNCV9,161021.0,02:06:38.706,L,168.0,RL,352.1,168.9
GN3N4ZNCV9,161021.0,02:06:39.138,R,66.4,LR,217.8,365.7
GN3N4ZNCV9,161021.0,02:06:39.261,R,189.5,RR,217.8,365.7
GN3N4ZNCV9,161021.0,02:07:36.047,R,114.7,LR,349.1,217.3
GN3N4ZNCV9,161021.0,02:07:39.099,R,148.9,LR,420.4,290.0
GN3N4ZNCV9,161021.0,02:07:42.176,R,83.0,LR,545.9,430.7
GN3N4ZNCV9,161021.0,02:07:50.629,L,110.8,LL,379.9,262.2
GN3N4ZNCV9,161021.0,02:07:51.268,L,127.9,LL,622.1,511.2
GN3N4ZNCV9,161021.0,02:07:53.926,L,98.6,RL,540.0,404.3
GN3N4ZNCV9,161021.0,02:07:54.321,L,119.6,LL,374.0,275.4
GN3N4ZNCV9,161021.0,02:07:54.938,R,100.1,LR,636.7,517.1
GN3N4ZNCV9,161021.0,02:07:59.319,L,132.8,LL,559.1,431.2
GN3N4ZNCV9,161021.0,02:07:59.859,R,135.7,LR,537.1,404.3
GN3N4ZNCV9,161021.0,02:08:11.803,L,132.3,SL,289.1,101.1
GN3N4ZNCV9,161021.0,02:08:11.979,R,110.8,LR,197.3,64.9
GN3N4ZNCV9,161021.0,02:08:12.292,L,193.8,RL,230.0,119.1
GN3N4ZNCV9,161021.0,02:08:12.410,S,76.2,LS,235.8,42.0
GN3N4ZNCV9,161021.0,02:08:12.704,L,140.1,SL,230.0,153.8
GN3N4ZNCV9,161021.0,02:08:13.826,L,104.0,RL,316.4,231.9
GN3N4ZNCV9,161021.0,02:08:14.244,L,119.1,LL,402.8,298.8
GN3N4ZNCV9,161021.0,02:08:14.568,L,137.7,LL,305.2,186.0
GN3N4ZNCV9,161021.0,02:08:17.678,R,114.3,RR,273.9,198.7
GN3N4ZNCV9,161021.0,02:08:18.225,L,165.0,RL,496.1,381.8
GN3N4ZNCV9,161021.0,02:08:18.505,L,99.1,LL,345.7,180.7
GN3N4ZNCV9,161021.0,02:08:18.823,L,142.1,LL,275.4,176.3
GN3N4ZNCV9,161021.0,02:12:17.679,R,131.3,RR,404.8,306.6
GN3N4ZNCV9,161021.0,02:12:18.093,L,182.6,RL,362.3,231.0
GN3N4ZNCV9,161021.0,02:12:18.633,L,127.0,LL,595.7,413.1
GN3N4ZNCV9,161021.0,02:58:20.980,L,77.1,LL,650.4,539.1
GN3N4ZNCV9,161021.0,02:58:23.062,R,100.6,LR,591.8,479.5
GN3N4ZNCV9,161021.0,02:58:23.537,R,127.0,RR,449.2,348.6
GN3N4ZNCV9,161021.0,02:58:23.969,L,122.1,RL,436.5,309.6
GN3N4ZNCV9,161021.0,02:58:28.767,L,28.3,RL,116.2,210.0
GN3N4ZNCV9,161021.0,02:58:28.852,R,112.3,LR,116.2,210.0
GN3N4ZNCV9,161021.0,02:58:29.608,R,72.3,RR,797.9,685.5
GN3N4ZNCV9,161021.0,02:58:29.767,R,95.7,RR,134.8,62.5
GN3N4ZNCV9,161021.0,02:58:30.298,R,138.7,RR,488.3,392.6
GN3N4ZNCV9,161021.0,02:58:30.797,L,182.6,RL,455.1,316.4
GN3N4ZNCV9,161021.0,02:58:31.084,R,46.9,LR,233.4,240.2
GN3N4ZNCV9,161021.0,02:58:31.155,R,118.2,RR,233.4,240.2
GN3N4ZNCV9,161021.0,03:02:16.607,L,189.5,LL,430.7,291.0
GN3N4ZNCV9,161021.0,03:02:16.973,R,157.2,LR,397.5,208.0
GN3N4ZNCV9,161021.0,03:02:17.316,L,116.2,RL,384.8,227.5
GN3N4ZNCV9,161021.0,03:02:17.775,R,109.4,LR,465.8,349.6
GN3N4ZNCV9,161021.0,03:02:18.275,R,208.0,RR,401.4,292.0
GN3N4ZNCV9,161021.0,03:02:18.494,R,207.0,RR,218.8,10.7
GN3N4ZNCV9,161021.0,03:02:18.726,L,203.1,RL,236.3,29.3
GN3N4ZNCV9,161021.0,03:02:18.902,L,140.6,LL,239.3,36.1
GN3N4ZNCV9,161021.0,03:02:19.324,S,194.3,LS,368.2,227.5
GN3N4ZNCV9,161021.0,03:02:19.586,R,153.3,SR,302.7,108.4
GN3N4ZNCV9,161021.0,03:02:23.550,L,128.9,RL,502.0,369.1
GN3N4ZNCV9,161021.0,03:02:23.857,R,122.1,LR,314.5,185.5
GN3N4ZNCV9,161021.0,14:03:44.727,L,85.9,LL,507.8,418.0
GN3N4ZNCV9,161021.0,14:03:45.965,R,82.0,LR,289.1,168.0
GN3N4ZNCV9,161021.0,14:03:46.410,R,93.8,RR,433.6,351.6
GN3N4ZNCV9,161021.0,14:03:46.879,L,144.5,RL,418.0,324.2
GN3N4ZNCV9,161021.0,14:03:50.418,L,132.8,RL,347.7,261.7
GN3N4ZNCV9,161021.0,14:03:50.559,R,74.2,LR,199.2,66.4
GN3N4ZNCV9,161021.0,14:03:51.234,R,82.0,RR,668.0,593.8
GN3N4ZNCV9,161021.0,14:03:51.379,R,97.7,RR,128.9,46.9
GN3N4ZNCV9,161021.0,14:03:51.969,R,109.4,RR,578.1,480.5
GN3N4ZNCV9,161021.0,14:03:52.324,L,128.9,RL,335.9,226.6
GN3N4ZNCV9,161021.0,14:03:52.523,R,89.8,LR,238.3,109.4
GN3N4ZNCV9,161021.0,14:03:52.820,R,85.9,RR,300.8,210.9
GN3N4ZNCV9,161021.0,14:11:02.738,L,144.5,LL,507.8,390.6
GN3N4ZNCV9,161021.0,14:11:02.969,R,93.8,LR,281.3,136.7
GN3N4ZNCV9,161021.0,14:11:03.531,L,89.8,RL,566.4,472.7
GN3N4ZNCV9,161021.0,14:11:03.793,R,58.6,LR,293.0,203.1
GN3N4ZNCV9,161021.0,14:11:04.285,L,128.9,RL,421.9,363.3
GN3N4ZNCV9,161021.0,14:11:04.539,L,136.7,LL,246.1,117.2
GN3N4ZNCV9,161021.0,14:13:15.961,L,175.8,LL,293.0,171.9
GN3N4ZNCV9,161021.0,14:13:16.176,R,105.5,LR,285.2,109.4
GN3N4ZNCV9,161021.0,14:13:16.402,L,85.9,RL,246.1,140.6
GN3N4ZNCV9,161021.0,14:13:16.746,R,101.6,LR,328.1,242.2
GN3N4ZNCV9,161021.0,14:13:17.109,L,97.7,RL,367.2,265.6
GN3N4ZNCV9,161021.0,14:13:17.656,L,82.0,LL,562.5,464.8
GN3N4ZNCV9,161021.0,14:15:00.277,S,168.0,RS,156.3,54.7
GN3N4ZNCV9,161021.0,14:15:00.621,L,144.5,SL,367.2,199.2
GN3N4ZNCV9,161021.0,14:15:00.766,R,105.5,LR,183.6,39.1
GN3N4ZNCV9,161021.0,14:15:01.121,R,105.5,RR,355.5,250.0
GN3N4ZNCV9,161021.0,14:15:01.340,L,121.1,RL,203.1,97.7
GN3N4ZNCV9,161021.0,14:15:01.719,L,105.5,LL,394.5,273.4
GN3N4ZNCV9,161021.0,14:15:02.039,L,152.3,LL,273.4,168.0
GN3N4ZNCV9,161021.0,14:15:02.328,L,128.9,LL,312.5,160.2
GN3N4ZNCV9,161021.0,14:15:02.520,L,109.4,LL,210.9,82.0
GN3N4ZNCV9,161021.0,14:15:02.840,L,156.3,LL,273.4,164.1
GN3N4ZNCV9,161021.0,14:15:04.035,R,152.3,SR,375.0,203.1
GN3N4ZNCV9,161021.0,14:15:04.242,R,43.0,RR,136.7,164.1
GN3N4ZNCV9,161021.0,14:15:04.324,R,125.0,RR,136.7,164.1
GN3N4ZNCV9,161021.0,14:15:05.066,S,164.1,RS,703.1,578.1
GN3N4ZNCV9,161021.0,14:15:06.531,L,113.3,LL,519.5,425.8
GN3N4ZNCV9,161021.0,14:15:06.812,L,152.3,LL,242.2,128.9
GN3N4ZNCV9,161021.0,14:15:07.090,S,187.5,LS,242.2,89.8
GN3N4ZNCV9,161021.0,14:15:08.066,L,89.8,LL,273.4,128.9
GN3N4ZNCV9,161021.0,14:15:08.246,R,74.2,LR,195.3,105.5
GN3N4ZNCV9,161021.0,14:15:08.590,L,152.3,RL,265.6,191.4
GN3N4ZNCV9,161021.0,14:15:08.797,S,156.3,LS,203.1,50.8
GN3N4ZNCV9,161021.0,14:15:09.035,R,93.8,SR,300.8,144.5
GN3N4ZNCV9,161021.0,14:15:11.203,L,113.3,LL,457.0,312.5
GN3N4ZNCV9,161021.0,14:15:11.406,R,89.8,LR,226.6,113.3
GN3N4ZNCV9,161021.0,14:15:11.676,S,164.1,RS,195.3,105.5
GN3N4ZNCV9,161021.0,14:15:12.062,L,93.8,SL,457.0,293.0
GN3N4ZNCV9,161021.0,14:15:12.340,L,140.6,LL,230.5,136.7
GN3N4ZNCV9,161021.0,14:15:12.453,R,89.8,LR,164.1,23.4
GN3N4ZNCV9,161021.0,14:15:12.652,L,89.8,RL,199.2,109.4
GN3N4ZNCV9,161021.0,14:15:12.984,L,179.7,LL,242.2,152.3
GN3N4ZNCV9,161021.0,14:15:13.156,S,164.1,LS,187.5,7.8
GN3N4ZNCV9,161021.0,14:15:13.270,R,93.8,SR,183.6,19.5
GN3N4ZNCV9,161021.0,14:15:13.406,L,128.9,RL,101.6,7.8
GN3N4ZNCV9,161021.0,14:15:13.754,L,121.1,LL,355.5,226.6
GN3N4ZNCV9,161021.0,14:15:14.039,R,105.5,LR,300.8,179.7
GN3N4ZNCV9,161021.0,14:15:14.215,L,105.5,RL,175.8,70.3
GN3N4ZNCV9,161021.0,14:15:14.586,L,70.3,LL,406.3,300.8
GN3N4ZNCV9,161021.0,14:15:14.930,L,152.3,LL,261.7,191.4
GN3N4ZNCV9,161021.0,14:15:15.180,S,152.3,LS,250.0,97.7
GN3N4ZNCV9,161021.0,14:15:15.684,R,85.9,SR,570.3,418.0
GN3N4ZNCV9,161021.0,14:15:15.852,L,121.1,RL,132.8,46.9
GN3N4ZNCV9,161021.0,14:15:16.168,L,140.6,LL,296.9,175.8
GN3N4ZNCV9,161021.0,14:15:16.328,S,125.0,LS,175.8,35.2
GN3N4ZNCV9,161021.0,14:15:16.492,L,109.4,SL,179.7,54.7
GN3N4ZNCV9,161021.0,14:15:16.785,L,109.4,LL,293.0,183.6
GN3N4ZNCV9,161021.0,14:15:16.988,R,89.8,LR,222.7,113.3
GN3N4ZNCV9,161021.0,14:15:17.266,L,160.2,RL,207.0,117.2
GN3N4ZNCV9,161021.0,14:15:17.461,S,156.3,LS,199.2,39.1
GN3N4ZNCV9,161021.0,14:15:17.648,L,125.0,SL,218.8,62.5
GN3N4ZNCV9,161021.0,14:15:17.895,L,136.7,LL,234.4,109.4
GN3N4ZNCV9,161021.0,14:15:18.172,R,105.5,LR,308.6,171.9
GN3N4ZNCV9,161021.0,14:15:18.414,R,82.0,RR,265.6,160.2
GN3N4ZNCV9,161021.0,14:15:18.668,L,121.1,RL,214.8,132.8
GN3N4ZNCV9,161021.0,14:15:18.918,L,31.3,LL,105.5,218.8
GN3N4ZNCV9,161021.0,14:15:18.996,L,109.4,LL,105.5,218.8
GN3N4ZNCV9,161021.0,14:15:19.148,L,113.3,LL,148.4,39.1
GN3N4ZNCV9,161021.0,14:15:19.465,L,179.7,LL,250.0,136.7
GN3N4ZNCV9,161021.0,14:15:19.637,S,160.2,LS,191.4,11.7
GN3N4ZNCV9,161021.0,14:15:21.891,R,82.0,LR,226.6,70.3
GN3N4ZNCV9,161021.0,14:15:22.078,L,156.3,RL,113.3,31.3
GN3N4ZNCV9,161021.0,14:15:22.270,S,152.3,LS,195.3,39.1
GN3N4ZNCV9,161021.0,14:15:22.648,R,89.8,SR,441.4,289.1
GN3N4ZNCV9,161021.0,14:15:22.863,L,132.8,RL,171.9,82.0
GN3N4ZNCV9,161021.0,14:15:23.102,S,156.3,LS,214.8,82.0
GN3N4ZNCV9,161021.0,14:15:23.551,R,85.9,SR,519.5,363.3
GN3N4ZNCV9,161021.0,14:15:23.801,L,148.4,RL,187.5,101.6
GN3N4ZNCV9,161021.0,14:15:24.223,L,121.1,LL,449.2,300.8
GN3N4ZNCV9,161021.0,14:15:24.480,S,164.1,LS,214.8,93.8
GN3N4ZNCV9,161021.0,14:15:24.621,R,132.8,SR,171.9,7.8
GN3N4ZNCV9,161021.0,14:15:24.867,R,140.6,RR,238.3,105.5
GN3N4ZNCV9,161021.0,14:15:24.992,L,117.2,RL,148.4,7.8
GN3N4ZNCV9,161021.0,14:15:25.086,S,82.0,LS,128.9,11.7
GN3N4ZNCV9,161021.0,14:15:25.266,L,93.8,SL,168.0,85.9
GN3N4ZNCV9,161021.0,14:15:25.621,L,105.5,LL,343.8,250.0
GN3N4ZNCV9,161021.0,14:15:25.820,L,109.4,LL,195.3,89.8
GN3N4ZNCV9,161021.0,14:15:26.008,R,89.8,LR,207.0,97.7
GN3N4ZNCV9,161021.0,14:15:29.164,L,109.4,RL,484.4,367.2
GN3N4ZNCV9,161021.0,14:15:29.344,R,89.8,LR,199.2,89.8
GN3N4ZNCV9,161021.0,14:15:29.598,L,113.3,RL,230.5,140.6
GN3N4ZNCV9,161021.0,14:15:30.930,R,85.9,SR,453.1,312.5
GN3N4ZNCV9,161021.0,14:15:31.172,L,93.8,RL,234.4,148.4
GN3N4ZNCV9,161021.0,14:15:31.578,S,160.2,LS,339.8,246.1
GN3N4ZNCV9,161021.0,14:15:32.062,L,109.4,SL,535.2,375.0
GN3N4ZNCV9,161021.0,14:15:32.215,R,82.0,LR,179.7,70.3
GN3N4ZNCV9,161021.0,14:15:32.414,L,148.4,RL,132.8,50.8
GN3N4ZNCV9,161021.0,14:15:32.586,S,140.6,LS,179.7,31.3
GN3N4ZNCV9,161021.0,14:15:32.824,L,113.3,SL,265.6,125.0
GN3N4ZNCV9,161021.0,14:15:33.102,L,74.2,LL,316.4,203.1
GN3N4ZNCV9,161021.0,14:15:33.266,L,93.8,LL,144.5,70.3
GN3N4ZNCV9,161021.0,14:15:33.434,R,93.8,LR,168.0,74.2
GN3N4ZNCV9,161021.0,14:15:33.719,L,109.4,RL,269.5,175.8
GN3N4ZNCV9,161021.0,14:15:34.074,L,27.3,LL,175.8,328.1
GN3N4ZNCV9,161021.0,14:15:34.172,S,125.0,LS,175.8,328.1
GN3N4ZNCV9,161021.0,14:15:34.305,L,121.1,SL,136.7,11.7
GN3N4ZNCV9,161021.0,14:15:34.477,R,128.9,LR,164.1,43.0
GN3N4ZNCV9,161021.0,14:15:34.754,R,125.0,RR,281.3,152.3
GN3N4ZNCV9,161021.0,14:15:35.004,L,160.2,RL,214.8,89.8
GN3N4ZNCV9,161021.0,14:15:35.184,S,156.3,LS,183.6,23.4
GN3N4ZNCV9,161021.0,14:15:35.566,R,85.9,SR,453.1,296.9
GN3N4ZNCV9,161021.0,14:15:35.742,L,121.1,RL,140.6,54.7
GN3N4ZNCV9,161021.0,14:15:36.055,L,121.1,LL,312.5,191.4
GN3N4ZNCV9,161021.0,14:15:36.387,L,97.7,LL,355.5,234.4
GN3N4ZNCV9,161021.0,14:15:36.676,S,175.8,LS,210.9,113.3
GN3N4ZNCV9,161021.0,14:15:36.961,L,121.1,SL,339.8,164.1
GN3N4ZNCV9,161021.0,14:15:37.215,L,23.4,LL,121.1,230.5
GN3N4ZNCV9,161021.0,14:15:37.254,R,62.5,LR,121.1,230.5
GN3N4ZNCV9,161021.0,14:15:37.539,S,144.5,RS,203.1,140.6
GN3N4ZNCV9,161021.0,14:15:39.254,R,89.8,LR,168.0,27.3
GN3N4ZNCV9,161021.0,14:15:39.535,L,140.6,RL,230.5,140.6
GN3N4ZNCV9,161021.0,14:15:39.676,L,128.9,LL,152.3,11.7
GN3N4ZNCV9,161021.0,14:15:39.793,L,109.4,LL,136.7,7.8
GN3N4ZNCV9,161021.0,14:15:40.188,S,144.5,LS,359.4,250.0
GN3N4ZNCV9,161021.0,14:15:40.332,L,89.8,SL,199.2,54.7
GN3N4ZNCV9,161021.0,14:15:41.617,L,136.7,LL,339.8,199.2
GN3N4ZNCV9,161021.0,14:15:41.840,S,136.7,LS,222.7,85.9
GN3N4ZNCV9,161021.0,14:15:42.516,L,140.6,SL,671.9,535.2
GN3N4ZNCV9,161021.0,14:15:42.637,R,93.8,LR,168.0,27.3
GN3N4ZNCV9,161021.0,14:15:43.156,S,187.5,RS,425.8,332.0
GN3N4ZNCV9,161021.0,14:15:43.398,L,136.7,SL,293.0,105.5
GN3N4ZNCV9,161021.0,14:15:43.691,L,121.1,LL,308.6,171.9
GN3N4ZNCV9,161021.0,14:15:43.996,L,164.1,LL,261.7,140.6
GN3N4ZNCV9,161021.0,14:15:44.211,L,136.7,LL,242.2,78.1
GN3N4ZNCV9,161021.0,14:15:44.477,L,97.7,LL,304.7,168.0
GN3N4ZNCV9,161021.0,14:15:44.648,L,82.0,LL,187.5,89.8
GN3N4ZNCV9,161021.0,14:15:45.066,S,136.7,LS,363.3,281.3
GN3N4ZNCV9,161021.0,14:15:45.520,L,132.8,SL,457.0,320.3
GN3N4ZNCV9,161021.0,14:15:45.711,L,82.0,LL,242.2,109.4
GN3N4ZNCV9,161021.0,14:15:45.906,L,89.8,LL,187.5,105.5
GN3N4ZNCV9,161021.0,14:15:46.246,R,89.8,LR,339.8,250.0
GN3N4ZNCV9,161021.0,14:15:46.504,L,85.9,RL,261.7,171.9
GN3N4ZNCV9,161021.0,14:15:47.750,R,97.7,SR,312.5,152.3
GN3N4ZNCV9,161021.0,14:15:48.008,R,132.8,RR,222.7,125.0
GN3N4ZNCV9,161021.0,14:15:48.258,S,11.7,RS,203.1,238.3
GN3N4ZNCV9,161021.0,14:15:48.402,L,156.3,SL,203.1,238.3
GN3N4ZNCV9,161021.0,14:15:48.543,R,97.7,LR,199.2,43.0
GN3N4ZNCV9,161021.0,14:15:48.785,L,78.1,RL,261.7,164.1
GN3N4ZNCV9,161021.0,14:15:49.477,S,121.1,LS,648.4,570.3
GN3N4ZNCV9,161021.0,14:15:49.621,R,101.6,SR,164.1,43.0
GN3N4ZNCV9,161021.0,14:15:49.883,R,82.0,RR,281.3,179.7
GN3N4ZNCV9,161021.0,14:15:50.211,R,97.7,RR,312.5,230.5
GN3N4ZNCV9,161021.0,14:15:50.535,L,62.5,RL,359.4,261.7
GN3N4ZNCV9,161021.0,14:15:50.891,L,11.7,LL,136.7,343.8
GN3N4ZNCV9,161021.0,14:15:51.043,L,160.2,LL,136.7,343.8
GN3N4ZNCV9,161021.0,14:15:51.199,S,35.2,LS,101.6,125.0
GN3N4ZNCV9,161021.0,14:15:51.297,L,132.8,SL,101.6,125.0
GN3N4ZNCV9,161021.0,14:15:51.602,L,144.5,LL,293.0,160.2
GN3N4ZNCV9,161021.0,14:15:53.348,S,136.7,LS,707.0,593.8
GN3N4ZNCV9,161021.0,14:15:53.742,R,148.4,SR,382.8,246.1
GN3N4ZNCV9,161021.0,14:15:53.996,R,156.3,RR,246.1,97.7
GN3N4ZNCV9,161021.0,14:15:54.176,L,160.2,RL,175.8,19.5
GN3N4ZNCV9,161021.0,14:15:54.340,S,144.5,LS,179.7,19.5
GN3N4ZNCV9,161021.0,14:15:54.664,R,85.9,SR,382.8,238.3
GN3N4ZNCV9,161021.0,14:15:54.961,R,78.1,RR,304.7,218.8
GN3N4ZNCV9,161021.0,14:15:55.188,S,132.8,RS,171.9,93.8
GN3N4ZNCV9,161021.0,14:15:55.359,L,117.2,SL,187.5,54.7
GN3N4ZNCV9,161021.0,14:15:55.715,R,74.2,LR,398.4,281.3
GN3N4ZNCV9,161021.0,14:15:56.012,R,78.1,RR,293.0,218.8
GN3N4ZNCV9,161021.0,14:15:56.395,R,62.5,RR,398.4,320.3
GN3N4ZNCV9,161021.0,14:15:56.516,R,35.2,RR,148.4,85.9
GN3N4ZNCV9,161021.0,14:15:56.781,R,70.3,RR,230.5,195.3
GN3N4ZNCV9,161021.0,14:15:57.039,R,89.8,RR,238.3,168.0
GN3N4ZNCV9,161021.0,14:15:57.289,L,140.6,RL,199.2,109.4
GN3N4ZNCV9,161021.0,14:15:57.496,S,140.6,LS,207.0,66.4
GN3N4ZNCV9,161021.0,14:15:57.789,R,97.7,SR,335.9,195.3
GN3N4ZNCV9,161021.0,14:15:57.996,L,89.8,RL,214.8,117.2
GN3N4ZNCV9,161021.0,14:15:58.387,L,78.1,LL,402.3,312.5
GN3N4ZNCV9,161021.0,14:15:58.695,L,128.9,LL,257.8,179.7
GN3N4ZNCV9,161021.0,14:15:58.906,R,78.1,LR,261.7,132.8
GN3N4ZNCV9,161021.0,14:16:04.828,R,78.1,LR,187.5,35.2
GN3N4ZNCV9,161021.0,14:16:05.082,L,97.7,RL,234.4,156.3
GN3N4ZNCV9,161021.0,14:16:05.539,S,136.7,LS,418.0,320.3
GN3N4ZNCV9,161021.0,14:16:06.793,R,82.0,LR,250.0,113.3
GN3N4ZNCV9,161021.0,14:16:07.023,L,11.7,RL,125.0,218.8
GN3N4ZNCV9,161021.0,14:16:07.086,R,74.2,LR,125.0,218.8
GN3N4ZNCV9,161021.0,14:16:07.516,S,125.0,RS,378.9,304.7
GN3N4ZNCV9,161021.0,14:16:11.320,R,105.5,RR,503.9,378.9
GN3N4ZNCV9,161021.0,14:16:11.539,R,78.1,RR,246.1,140.6
GN3N4ZNCV9,161021.0,14:16:12.980,R,97.7,LR,195.3,78.1
GN3N4ZNCV9,161021.0,14:16:13.195,L,128.9,RL,183.6,85.9
GN3N4ZNCV9,161021.0,14:16:13.465,L,121.1,LL,277.3,148.4
GN3N4ZNCV9,161021.0,14:16:13.762,R,89.8,LR,328.1,207.0
GN3N4ZNCV9,161021.0,14:16:15.527,R,97.7,RR,230.5,125.0
GN3N4ZNCV9,161021.0,14:16:15.934,S,152.3,RS,351.6,253.9
GN3N4ZNCV9,161021.0,14:16:16.215,L,113.3,SL,320.3,168.0
GN3N4ZNCV9,161021.0,14:16:16.441,L,132.8,LL,207.0,93.8
GN3N4ZNCV9,161021.0,14:16:16.660,R,171.9,LR,179.7,46.9
GN3N4ZNCV9,161021.0,14:16:16.848,R,121.1,RR,238.3,66.4
GN3N4ZNCV9,161021.0,14:16:17.023,L,136.7,RL,160.2,39.1
GN3N4ZNCV9,161021.0,14:16:17.242,L,117.2,LL,238.3,101.6
GN3N4ZNCV9,161021.0,14:16:17.574,L,191.4,LL,257.8,140.6
GN3N4ZNCV9,161021.0,14:16:17.773,S,152.3,LS,238.3,46.9
GN3N4ZNCV9,161021.0,14:16:18.211,L,109.4,SL,480.5,328.1
GN3N4ZNCV9,161021.0,14:16:18.398,R,78.1,LR,218.8,109.4
GN3N4ZNCV9,161021.0,14:16:18.590,L,132.8,RL,136.7,58.6
GN3N4ZNCV9,161021.0,14:16:18.730,R,97.7,LR,175.8,43.0
GN3N4ZNCV9,161021.0,14:16:20.391,L,148.4,SL,316.4,121.1
GN3N4ZNCV9,161021.0,14:16:20.641,L,144.5,LL,257.8,109.4
GN3N4ZNCV9,161021.0,14:16:20.922,R,199.2,LR,226.6,82.0
GN3N4ZNCV9,161021.0,14:16:21.059,R,11.7,RR,85.9,125.0
GN3N4ZNCV9,161021.0,14:16:21.215,S,168.0,RS,85.9,125.0
GN3N4ZNCV9,161021.0,14:16:21.434,L,132.8,SL,253.9,85.9
GN3N4ZNCV9,161021.0,14:16:21.742,R,82.0,LR,359.4,226.6
GN3N4ZNCV9,161021.0,14:16:21.898,R,78.1,RR,160.2,78.1
GN3N4ZNCV9,161021.0,14:16:22.230,S,152.3,RS,257.8,179.7
GN3N4ZNCV9,161021.0,14:16:22.602,L,85.9,SL,437.5,285.2
GN3N4ZNCV9,161021.0,14:16:22.816,R,74.2,LR,226.6,140.6
GN3N4ZNCV9,161021.0,14:16:23.496,L,93.8,RL,660.2,585.9
GN3N4ZNCV9,161021.0,14:16:23.863,L,105.5,LL,355.5,261.7
GN3N4ZNCV9,161021.0,14:16:24.297,L,125.0,LL,414.1,308.6
GN3N4ZNCV9,161021.0,14:16:25.844,L,82.0,SL,718.8,566.4
GN3N4ZNCV9,161021.0,14:16:26.113,R,101.6,LR,250.0,168.0
GN3N4ZNCV9,161021.0,14:16:26.414,L,125.0,RL,277.3,175.8
GN3N4ZNCV9,161021.0,14:16:26.695,L,58.6,LL,117.2,222.7
GN3N4ZNCV9,161021.0,14:16:26.707,R,70.3,LR,117.2,222.7
GN3N4ZNCV9,161021.0,14:16:26.938,S,148.4,RS,152.3,82.0
GN3N4ZNCV9,161021.0,14:16:27.219,L,156.3,SL,273.4,125.0
GN3N4ZNCV9,161021.0,14:16:27.379,R,101.6,LR,214.8,58.6
GN3N4ZNCV9,161021.0,14:16:27.527,L,89.8,RL,160.2,58.6
GN3N4ZNCV9,161021.0,14:16:27.652,R,89.8,LR,125.0,35.2
GN3N4ZNCV9,161021.0,14:16:27.883,S,27.3,RS,128.9,203.1
GN3N4ZNCV9,161021.0,14:16:27.953,R,97.7,SR,128.9,203.1
GN3N4ZNCV9,161021.0,14:16:28.168,R,101.6,RR,210.9,113.3
GN3N4ZNCV9,161021.0,14:16:28.422,S,175.8,RS,179.7,78.1
GN3N4ZNCV9,161021.0,14:16:28.738,L,101.6,SL,390.6,214.8
GN3N4ZNCV9,161021.0,14:16:28.996,L,35.2,LL,113.3,222.7
GN3N4ZNCV9,161021.0,14:16:29.047,R,85.9,LR,113.3,222.7
GN3N4ZNCV9,161021.0,14:16:29.332,L,132.8,RL,238.3,152.3
GN3N4ZNCV9,161021.0,14:16:29.418,R,78.1,LR,140.6,7.8
GN3N4ZNCV9,161021.0,14:16:29.645,L,121.1,RL,183.6,105.5
GN3N4ZNCV9,161021.0,14:16:30.016,L,62.5,LL,183.6,308.6
GN3N4ZNCV9,161021.0,14:16:30.059,L,105.5,LL,183.6,308.6
GN3N4ZNCV9,161021.0,14:16:34.336,L,109.4,SL,343.8,218.8
GN3N4ZNCV9,161021.0,14:16:34.430,R,78.1,LR,125.0,15.6
GN3N4ZNCV9,161021.0,14:16:34.633,L,125.0,RL,156.3,78.1
GN3N4ZNCV9,161021.0,14:16:34.789,S,125.0,LS,156.3,31.3
GN3N4ZNCV9,161021.0,14:16:35.055,L,125.0,SL,265.6,140.6
GN3N4ZNCV9,161021.0,14:16:35.414,L,140.6,LL,343.8,218.8
GN3N4ZNCV9,161021.0,14:16:35.648,R,93.8,LR,281.3,140.6
GN3N4ZNCV9,161021.0,14:16:35.945,L,93.8,RL,296.9,203.1
GN3N4ZNCV9,161021.0,14:16:36.258,L,109.4,LL,296.9,203.1
GN3N4ZNCV9,161021.0,14:16:38.305,R,78.1,SR,796.9,656.3
GN3N4ZNCV9,161021.0,14:16:38.586,R,78.1,RR,281.3,203.1
GN3N4ZNCV9,161021.0,14:16:38.883,L,140.6,RL,234.4,156.3
GN3N4ZNCV9,161021.0,14:16:39.023,S,125.0,LS,156.3,15.6
GN3N4ZNCV9,161021.0,14:16:39.180,R,109.4,SR,171.9,46.9
GN3N4ZNCV9,161021.0,14:16:39.336,L,125.0,RL,140.6,31.3
GN3N4ZNCV9,161021.0,14:16:39.539,R,78.1,LR,250.0,125.0
GN3N4ZNCV9,161021.0,14:16:39.930,L,125.0,RL,343.8,265.6
GN3N4ZNCV9,161021.0,14:16:40.164,R,93.8,LR,265.6,140.6
GN3N4ZNCV9,161021.0,14:16:40.367,R,93.8,RR,203.1,109.4
GN3N4ZNCV9,161021.0,14:16:40.680,R,93.8,RR,312.5,218.8
GN3N4ZNCV9,161021.0,14:16:40.961,L,125.0,RL,250.0,156.3
GN3N4ZNCV9,161021.0,14:16:41.258,L,156.3,LL,265.6,140.6
GN3N4ZNCV9,161021.0,14:16:41.633,S,125.0,LS,406.3,250.0
GN3N4ZNCV9,161021.0,14:16:42.008,R,93.8,SR,406.3,281.3
GN3N4ZNCV9,161021.0,14:16:42.648,L,140.6,RL,593.8,500.0
GN3N4ZNCV9,161021.0,14:16:42.820,S,125.0,LS,187.5,46.9
GN3N4ZNCV9,161021.0,14:16:43.008,L,156.3,SL,156.3,31.3
GN3N4ZNCV9,161021.0,14:16:43.242,L,109.4,LL,281.3,125.0
GN3N4ZNCV9,161021.0,14:16:43.367,R,109.4,LR,125.0,15.6
GN3N4ZNCV9,161021.0,14:16:43.570,L,156.3,RL,156.3,46.9
GN3N4ZNCV9,161021.0,14:16:43.977,L,93.8,LL,468.8,312.5
GN3N4ZNCV9,161021.0,14:16:44.242,L,140.6,LL,218.8,125.0
GN3N4ZNCV9,161021.0,14:16:44.508,L,93.8,LL,312.5,171.9
GN3N4ZNCV9,161021.0,14:16:46.414,R,109.4,SR,546.9,406.3
GN3N4ZNCV9,161021.0,14:16:46.664,S,156.3,RS,203.1,93.8
GN3N4ZNCV9,161021.0,14:16:46.789,R,62.5,SR,218.8,62.5
GN3N4ZNCV9,161021.0,14:16:46.965,L,144.5,RL,93.8,31.3
GN3N4ZNCV9,161021.0,14:16:47.258,L,109.4,LL,328.1,183.6
GN3N4ZNCV9,161021.0,14:16:47.555,L,156.3,LL,250.0,140.6
GN3N4ZNCV9,161021.0,14:16:47.727,S,136.7,LS,191.4,35.2
GN3N4ZNCV9,161021.0,14:16:47.848,R,105.5,SR,152.3,15.6
GN3N4ZNCV9,161021.0,14:16:48.113,R,93.8,RR,277.3,171.9
GN3N4ZNCV9,161021.0,14:16:48.410,L,125.0,RL,265.6,171.9
GN3N4ZNCV9,161021.0,14:16:48.738,L,93.8,LL,359.4,234.4
GN3N4ZNCV9,161021.0,14:16:51.004,R,78.1,SR,437.5,312.5
GN3N4ZNCV9,161021.0,14:16:51.379,L,140.6,RL,312.5,234.4
GN3N4ZNCV9,161021.0,14:16:51.551,S,140.6,LS,171.9,31.3
GN3N4ZNCV9,161021.0,14:16:51.707,R,78.1,SR,218.8,78.1
GN3N4ZNCV9,161021.0,14:16:51.895,L,140.6,RL,125.0,46.9
GN3N4ZNCV9,161021.0,14:16:53.332,L,125.0,SL,437.5,296.9
GN3N4ZNCV9,161021.0,14:16:53.598,L,109.4,LL,281.3,156.3
GN3N4ZNCV9,161021.0,14:16:53.883,L,19.5,LL,152.3,265.6
GN3N4ZNCV9,161021.0,14:16:53.973,S,109.4,LS,152.3,265.6
GN3N4ZNCV9,161021.0,14:16:54.461,L,113.3,SL,484.4,375.0
GN3N4ZNCV9,161021.0,14:16:54.598,R,46.9,LR,203.1,89.8
GN3N4ZNCV9,161021.0,14:16:54.785,R,46.9,RR,187.5,140.6
GN3N4ZNCV9,161021.0,14:16:55.035,R,93.8,RR,203.1,156.3
GN3N4ZNCV9,161021.0,14:16:55.238,L,125.0,RL,171.9,78.1
GN3N4ZNCV9,161021.0,14:16:55.441,S,15.6,LS,109.4,187.5
GN3N4ZNCV9,161021.0,14:16:55.535,L,109.4,SL,109.4,187.5
GN3N4ZNCV9,161021.0,14:16:55.660,R,93.8,LR,140.6,31.3
GN3N4ZNCV9,161021.0,14:16:55.895,S,156.3,RS,171.9,78.1
GN3N4ZNCV9,161021.0,14:16:56.180,L,144.5,SL,296.9,140.6
GN3N4ZNCV9,161021.0,14:16:56.691,L,89.8,LL,566.4,421.9
GN3N4ZNCV9,161021.0,14:16:56.863,L,78.1,LL,183.6,93.8
GN3N4ZNCV9,161021.0,14:16:57.180,L,113.3,LL,281.3,203.1
GN3N4ZNCV9,161021.0,14:16:57.410,R,125.0,LR,218.8,105.5
GN3N4ZNCV9,161021.0,14:16:57.664,R,109.4,RR,269.5,144.5
GN3N4ZNCV9,161021.0,14:16:57.883,L,78.1,RL,250.0,140.6
GN3N4ZNCV9,161021.0,14:16:58.227,S,140.6,LS,281.3,203.1
GN3N4ZNCV9,161021.0,14:16:58.367,L,93.8,SL,187.5,46.9
GN3N4ZNCV9,161021.0,14:16:59.523,S,140.6,RS,218.8,140.6
GN3N4ZNCV9,161021.0,14:17:00.055,L,93.8,SL,578.1,437.5
GN3N4ZNCV9,161021.0,14:17:00.273,R,93.8,LR,218.8,125.0
GN3N4ZNCV9,161021.0,14:17:01.352,L,93.8,RL,250.0,171.9
GN3N4ZNCV9,161021.0,14:17:02.727,L,93.8,SL,406.3,265.6
GN3N4ZNCV9,161021.0,14:17:02.883,R,62.5,LR,187.5,93.8
GN3N4ZNCV9,161021.0,14:17:03.102,L,78.1,RL,203.1,140.6
GN3N4ZNCV9,161021.0,14:17:03.430,S,156.3,LS,250.0,171.9
GN3N4ZNCV9,161021.0,14:17:04.102,L,140.6,SL,687.5,531.3
GN3N4ZNCV9,161021.0,14:17:04.227,R,93.8,LR,171.9,31.3
GN3N4ZNCV9,161021.0,14:17:04.398,S,140.6,RS,125.0,31.3
GN3N4ZNCV9,161021.0,14:17:04.539,R,109.4,SR,171.9,31.3
GN3N4ZNCV9,161021.0,14:17:04.758,R,46.9,RR,62.5,171.9
GN3N4ZNCV9,161021.0,14:17:04.836,L,125.0,RL,62.5,171.9
GN3N4ZNCV9,161021.0,14:17:05.008,S,125.0,LS,171.9,46.9
GN3N4ZNCV9,161021.0,14:17:05.180,L,125.0,SL,171.9,46.9
GN3N4ZNCV9,161021.0,14:17:05.305,R,62.5,LR,187.5,62.5
GN3N4ZNCV9,161021.0,14:17:05.602,R,15.6,RR,109.4,281.3
GN3N4ZNCV9,161021.0,14:17:05.742,R,156.3,RR,109.4,281.3
GN3N4ZNCV9,161021.0,14:17:05.992,R,109.4,RR,296.9,140.6
GN3N4ZNCV9,161021.0,14:17:06.273,S,125.0,RS,265.6,156.3
GN3N4ZNCV9,161021.0,14:17:07.164,R,62.5,LR,125.0,15.6
GN3N4ZNCV9,161021.0,14:17:07.430,R,31.3,RR,296.9,234.4
GN3N4ZNCV9,161021.0,14:17:07.586,R,78.1,RR,109.4,78.1
GN3N4ZNCV9,161021.0,14:17:07.789,S,140.6,RS,140.6,62.5
GN3N4ZNCV9,161021.0,14:17:07.930,R,31.3,SR,62.5,109.4
GN3N4ZNCV9,161021.0,14:17:08.055,L,156.3,RL,62.5,109.4
GN3N4ZNCV9,161021.0,14:17:08.273,L,93.8,LL,281.3,125.0
GN3N4ZNCV9,161021.0,14:17:08.430,R,78.1,LR,171.9,78.1
GN3N4ZNCV9,161021.0,14:17:08.680,S,156.3,RS,171.9,93.8
GN3N4ZNCV9,161021.0,14:17:09.211,R,78.1,SR,609.4,453.1
GN3N4ZNCV9,161021.0,14:17:09.445,R,78.1,RR,234.4,156.3
GN3N4ZNCV9,161021.0,14:17:09.758,R,93.8,RR,296.9,218.8
GN3N4ZNCV9,161021.0,14:17:10.148,L,109.4,RL,375.0,281.3
GN3N4ZNCV9,161021.0,14:17:10.352,S,125.0,LS,187.5,78.1
GN3N4ZNCV9,161021.0,14:17:10.492,L,109.4,SL,156.3,31.3
GN3N4ZNCV9,161021.0,14:17:10.664,R,78.1,LR,203.1,93.8
GN3N4ZNCV9,161021.0,14:17:10.930,R,78.1,RR,265.6,187.5
GN3N4ZNCV9,161021.0,14:17:11.070,R,78.1,RR,140.6,62.5
GN3N4ZNCV9,161021.0,14:17:11.367,S,109.4,RS,62.5,187.5
GN3N4ZNCV9,161021.0,14:17:11.383,R,125.0,SR,62.5,187.5
GN3N4ZNCV9,161021.0,14:17:11.586,R,15.6,RR,93.8,187.5
GN3N4ZNCV9,161021.0,14:17:11.680,L,109.4,RL,93.8,187.5
GN3N4ZNCV9,161021.0,14:17:11.961,S,125.0,LS,265.6,156.3
GN3N4ZNCV9,161021.0,14:17:12.117,R,93.8,SR,187.5,62.5
GN3N4ZNCV9,161021.0,14:17:12.383,R,46.9,RR,312.5,218.8
GN3N4ZNCV9,161021.0,14:17:12.539,R,62.5,RR,140.6,93.8
GN3N4ZNCV9,161021.0,14:17:12.758,R,78.1,RR,203.1,140.6
GN3N4ZNCV9,161021.0,14:17:12.961,S,109.4,RS,171.9,93.8
GN3N4ZNCV9,161021.0,14:17:13.227,L,125.0,SL,250.0,140.6
GN3N4ZNCV9,161021.0,14:17:13.398,R,140.6,LR,156.3,31.3
GN3N4ZNCV9,161021.0,14:17:13.758,L,171.9,RL,328.1,187.5
GN3N4ZNCV9,161021.0,14:17:13.914,R,62.5,LR,265.6,93.8
GN3N4ZNCV9,161021.0,14:17:14.086,L,93.8,RL,140.6,78.1
GN3N4ZNCV9,161021.0,14:17:14.445,S,125.0,LS,328.1,234.4
GN3N4ZNCV9,161021.0,14:17:14.883,L,15.6,SL,156.3,421.9
GN3N4ZNCV9,161021.0,14:17:14.945,R,78.1,LR,156.3,421.9
GN3N4ZNCV9,161021.0,14:17:15.195,L,15.6,RL,156.3,234.4
GN3N4ZNCV9,161021.0,14:17:15.289,S,109.4,LS,156.3,234.4
GN3N4ZNCV9,161021.0,14:17:16.789,R,93.8,LR,234.4,109.4
GN3N4ZNCV9,161021.0,14:17:19.148,R,46.9,LR,250.0,136.7
GN3N4ZNCV9,161021.0,14:17:19.664,S,156.3,RS,406.3,359.4
GN3N4ZNCV9,161021.0,14:17:19.883,L,156.3,SL,218.8,62.5
GN3N4ZNCV9,161021.0,14:17:20.148,L,31.3,LL,78.1,234.4
GN3N4ZNCV9,161021.0,14:17:20.289,L,171.9,LL,78.1,234.4
GN3N4ZNCV9,161021.0,14:17:20.430,S,109.4,LS,203.1,31.3
GN3N4ZNCV9,161021.0,14:17:20.715,R,109.4,SR,285.2,175.8
GN3N4ZNCV9,161021.0,14:17:20.980,R,113.3,RR,261.7,152.3
GN3N4ZNCV9,161021.0,14:17:21.242,S,136.7,RS,238.3,125.0
GN3N4ZNCV9,161021.0,14:17:21.605,L,113.3,SL,386.7,250.0
GN3N4ZNCV9,161021.0,14:17:21.855,L,140.6,LL,222.7,109.4
GN3N4ZNCV9,161021.0,14:17:22.059,R,93.8,LR,250.0,109.4
GN3N4ZNCV9,161021.0,14:17:22.527,L,113.3,RL,449.2,355.5
GN3N4ZNCV9,161021.0,14:17:22.664,R,89.8,LR,160.2,46.9
GN3N4ZNCV9,161021.0,14:17:22.914,L,152.3,RL,187.5,97.7
GN3N4ZNCV9,161021.0,14:17:23.242,L,27.3,LL,140.6,300.8
GN3N4ZNCV9,161021.0,14:17:23.340,L,125.0,LL,140.6,300.8
GN3N4ZNCV9,161021.0,14:17:23.652,L,140.6,LL,296.9,171.9
GN3N4ZNCV9,161021.0,14:17:25.418,L,109.4,SL,562.5,453.1
GN3N4ZNCV9,161021.0,14:17:25.590,R,78.1,LR,203.1,93.8
GN3N4ZNCV9,161021.0,14:17:25.809,L,15.6,RL,140.6,203.1
GN3N4ZNCV9,161021.0,14:17:25.949,S,156.3,LS,140.6,203.1
GN3N4ZNCV9,161021.0,14:17:26.184,L,109.4,SL,281.3,125.0
GN3N4ZNCV9,161021.0,14:17:26.449,R,93.8,LR,281.3,171.9
GN3N4ZNCV9,161021.0,14:17:26.715,R,78.1,RR,281.3,187.5
GN3N4ZNCV9,161021.0,14:17:26.871,R,93.8,RR,140.6,62.5
GN3N4ZNCV9,161021.0,14:17:27.043,L,140.6,RL,125.0,31.3
GN3N4ZNCV9,161021.0,14:17:27.324,L,125.0,LL,296.9,156.3
GN3N4ZNCV9,161021.0,14:17:27.637,L,109.4,LL,328.1,203.1
GN3N4ZNCV9,161021.0,14:17:28.074,R,78.1,LR,468.8,359.4
GN3N4ZNCV9,161021.0,14:17:31.902,S,125.0,LS,406.3,312.5
GN3N4ZNCV9,161021.0,14:17:33.121,L,125.0,LL,265.6,187.5
GN3N4ZNCV9,161021.0,14:17:33.387,L,62.5,LL,328.1,203.1
GN3N4ZNCV9,161021.0,14:17:33.684,L,125.0,LL,234.4,171.9
GN3N4ZNCV9,161021.0,14:17:33.824,R,93.8,LR,171.9,46.9
GN3N4ZNCV9,161021.0,14:17:33.996,S,125.0,RS,140.6,46.9
GN3N4ZNCV9,161021.0,14:17:34.184,L,125.0,SL,187.5,62.5
GN3N4ZNCV9,161021.0,14:17:34.293,R,93.8,LR,140.6,15.6
GN3N4ZNCV9,161021.0,14:17:34.496,L,140.6,RL,156.3,62.5
GN3N4ZNCV9,161021.0,14:17:34.777,L,109.4,SL,171.9,46.9
GN3N4ZNCV9,161021.0,14:17:35.043,L,93.8,LL,281.3,171.9
GN3N4ZNCV9,161021.0,14:17:35.309,R,62.5,LR,296.9,203.1
GN3N4ZNCV9,161021.0,14:17:35.637,R,93.8,RR,296.9,234.4
GN3N4ZNCV9,161021.0,14:17:35.871,L,93.8,RL,234.4,140.6
GN3N4ZNCV9,161021.0,14:17:36.152,L,140.6,LL,234.4,140.6
GN3N4ZNCV9,161021.0,14:17:36.293,R,93.8,LR,187.5,46.9
GN3N4ZNCV9,161021.0,14:17:36.496,L,156.3,RL,140.6,46.9
GN3N4ZNCV9,161021.0,14:17:36.699,S,109.4,LS,250.0,93.8
GN3N4ZNCV9,161021.0,14:17:41.516,R,128.9,LR,296.9,187.5
GN3N4ZNCV9,161021.0,14:17:42.094,R,160.2,RR,546.9,418.0
GN3N4ZNCV9,161021.0,14:17:42.277,R,105.5,RR,238.3,78.1
GN3N4ZNCV9,161021.0,14:17:42.516,L,82.0,RL,261.7,156.3
GN3N4ZNCV9,161021.0,14:17:42.824,L,125.0,LL,265.6,183.6
GN3N4ZNCV9,161021.0,14:17:43.949,L,152.3,SL,265.6,109.4
GN3N4ZNCV9,161021.0,14:17:44.188,R,15.6,LR,97.7,222.7
GN3N4ZNCV9,161021.0,14:17:44.359,L,187.5,RL,97.7,222.7
GN3N4ZNCV9,161021.0,14:17:44.531,S,125.0,LS,234.4,46.9
GN3N4ZNCV9,161021.0,14:17:44.781,L,160.2,SL,214.8,89.8
GN3N4ZNCV9,161021.0,14:17:44.938,R,78.1,LR,238.3,78.1
GN3N4ZNCV9,161021.0,14:17:45.219,L,144.5,RL,214.8,136.7
GN3N4ZNCV9,161021.0,14:17:45.438,R,78.1,LR,285.2,140.6
GN3N4ZNCV9,161021.0,14:17:49.047,R,78.1,LR,218.8,78.1
GN3N4ZNCV9,161021.0,14:17:49.188,S,109.4,RS,109.4,31.3
GN3N4ZNCV9,161021.0,14:17:49.453,L,125.0,SL,250.0,140.6
GN3N4ZNCV9,161021.0,14:17:49.703,L,109.4,LL,265.6,140.6
GN3N4ZNCV9,161021.0,14:17:50.016,L,15.6,LL,171.9,296.9
GN3N4ZNCV9,161021.0,14:17:50.125,S,125.0,LS,171.9,296.9
GN3N4ZNCV9,161021.0,14:17:50.688,R,93.8,SR,593.8,468.8
GN3N4ZNCV9,161021.0,14:17:50.875,R,93.8,RR,187.5,93.8
GN3N4ZNCV9,161021.0,14:17:51.062,R,78.1,RR,203.1,109.4
GN3N4ZNCV9,161021.0,14:17:51.312,R,93.8,RR,234.4,156.3
GN3N4ZNCV9,161021.0,14:17:51.547,R,109.4,RR,218.8,125.0
GN3N4ZNCV9,161021.0,14:17:51.812,L,125.0,RL,250.0,140.6
GN3N4ZNCV9,161021.0,14:17:52.094,S,187.5,LS,218.8,93.8
GN3N4ZNCV9,161021.0,14:17:52.203,L,31.3,SL,62.5,78.1
GN3N4ZNCV9,161021.0,14:17:52.281,R,109.4,LR,62.5,78.1
GN3N4ZNCV9,161021.0,14:17:52.547,L,125.0,RL,250.0,140.6
GN3N4ZNCV9,161021.0,14:17:52.844,L,93.8,LL,328.1,203.1
GN3N4ZNCV9,161021.0,14:17:53.266,S,203.1,LS,312.5,218.8
GN3N4ZNCV9,161021.0,14:17:55.312,R,78.1,LR,125.0,15.6
GN3N4ZNCV9,161021.0,14:17:55.609,L,156.3,RL,218.8,140.6
GN3N4ZNCV9,161021.0,14:17:57.359,L,93.8,SL,406.3,265.6
GN3N4ZNCV9,161021.0,14:17:57.594,L,140.6,LL,187.5,93.8
GN3N4ZNCV9,161021.0,14:17:57.969,L,140.6,LL,375.0,234.4
GN3N4ZNCV9,161021.0,14:17:58.172,R,46.9,LR,296.9,156.3
GN3N4ZNCV9,161021.0,14:17:58.453,R,93.8,RR,234.4,187.5
GN3N4ZNCV9,161021.0,14:17:58.734,L,109.4,RL,265.6,171.9
GN3N4ZNCV9,161021.0,14:17:59.000,L,125.0,LL,250.0,140.6
GN3N4ZNCV9,161021.0,14:17:59.281,L,140.6,LL,265.6,140.6
GN3N4ZNCV9,161021.0,14:18:00.719,R,78.1,SR,515.6,390.6
GN3N4ZNCV9,161021.0,14:18:00.969,L,109.4,RL,218.8,140.6
GN3N4ZNCV9,161021.0,14:18:01.375,L,140.6,LL,375.0,265.6
GN3N4ZNCV9,161021.0,14:18:01.719,L,93.8,LL,140.6,250.0
GN3N4ZNCV9,161021.0,14:18:01.734,L,109.4,LL,140.6,250.0
GN3N4ZNCV9,161021.0,14:18:03.094,R,140.6,SR,421.9,312.5
GN3N4ZNCV9,161021.0,14:18:03.312,R,46.9,RR,125.0,171.9
GN3N4ZNCV9,161021.0,14:18:03.391,R,31.3,RR,93.8,46.9
GN3N4ZNCV9,161021.0,14:18:03.406,R,46.9,RR,93.8,46.9
GN3N4ZNCV9,161021.0,14:18:03.750,S,140.6,RS,250.0,203.1
GN3N4ZNCV9,161021.0,14:18:03.922,L,78.1,SL,234.4,93.8
GN3N4ZNCV9,161021.0,14:18:05.734,L,125.0,SL,296.9,171.9
GN3N4ZNCV9,161021.0,14:18:05.938,R,78.1,LR,250.0,125.0
GN3N4ZNCV9,161021.0,14:18:06.141,L,156.3,RL,125.0,46.9
GN3N4ZNCV9,161021.0,14:18:06.281,L,15.6,LL,125.0,125.0
GN3N4ZNCV9,161021.0,14:18:06.422,L,156.3,LL,125.0,125.0
GN3N4ZNCV9,161021.0,14:18:06.688,S,156.3,LS,265.6,109.4
GN3N4ZNCV9,161021.0,14:18:07.281,L,93.8,SL,656.3,500.0
GN3N4ZNCV9,161021.0,14:18:07.547,L,93.8,LL,265.6,171.9
GN3N4ZNCV9,161021.0,14:18:07.766,R,93.8,LR,218.8,125.0
GN3N4ZNCV9,161021.0,14:18:08.004,L,175.8,RL,156.3,62.5
GN3N4ZNCV9,161021.0,14:18:08.172,R,31.3,LR,125.0,136.7
GN3N4ZNCV9,161021.0,14:18:08.254,R,113.3,RR,125.0,136.7
GN3N4ZNCV9,161021.0,14:18:08.391,L,125.0,RL,125.0,11.7
GN3N4ZNCV9,161021.0,14:18:08.629,S,113.3,LS,250.0,125.0
GN3N4ZNCV9,161021.0,14:18:09.234,L,105.5,SL,613.3,500.0
GN3N4ZNCV9,161021.0,14:18:09.531,L,109.4,LL,293.0,187.5
GN3N4ZNCV9,161021.0,14:18:09.703,R,74.2,LR,207.0,97.7
GN3N4ZNCV9,161021.0,14:18:10.004,R,78.1,RR,296.9,222.7
GN3N4ZNCV9,161021.0,14:18:10.156,R,93.8,RR,136.7,58.6
GN3N4ZNCV9,161021.0,14:18:10.688,S,125.0,RS,500.0,406.3
GN3N4ZNCV9,161021.0,14:18:11.031,L,152.3,SL,316.4,191.4
GN3N4ZNCV9,161021.0,14:18:11.723,L,144.5,LL,699.2,546.9
GN3N4ZNCV9,161021.0,14:18:11.863,R,93.8,LR,191.4,46.9
GN3N4ZNCV9,161021.0,14:18:11.988,L,109.4,RL,109.4,15.6
GN3N4ZNCV9,161021.0,14:18:12.254,S,31.3,LS,93.8,234.4
GN3N4ZNCV9,161021.0,14:18:12.348,R,125.0,SR,93.8,234.4
GN3N4ZNCV9,161021.0,14:18:12.613,R,109.4,RR,281.3,156.3
GN3N4ZNCV9,161021.0,14:18:12.941,L,78.1,RL,359.4,250.0
GN3N4ZNCV9,161021.0,14:18:15.316,R,93.8,SR,640.6,484.4
GN3N4ZNCV9,161021.0,14:18:15.520,S,171.9,RS,125.0,31.3
GN3N4ZNCV9,161021.0,14:18:15.723,L,109.4,SL,265.6,93.8
GN3N4ZNCV9,161021.0,14:18:15.848,R,78.1,LR,156.3,46.9
GN3N4ZNCV9,161021.0,14:18:16.207,R,62.5,RR,375.0,296.9
GN3N4ZNCV9,161021.0,14:18:16.316,R,62.5,RR,109.4,46.9
GN3N4ZNCV9,161021.0,14:18:16.551,S,140.6,RS,156.3,93.8
GN3N4ZNCV9,161021.0,14:18:16.723,L,125.0,SL,187.5,46.9
GN3N4ZNCV9,161021.0,14:18:16.895,L,109.4,LL,187.5,62.5
GN3N4ZNCV9,161021.0,14:18:17.051,L,109.4,LL,156.3,46.9
GN3N4ZNCV9,161021.0,14:18:17.238,R,31.3,LR,265.6,156.3
GN3N4ZNCV9,161021.0,14:18:19.848,L,125.0,RL,234.4,156.3
GN3N4ZNCV9,161021.0,14:18:20.004,R,78.1,LR,203.1,78.1
GN3N4ZNCV9,161021.0,14:18:20.191,S,125.0,RS,140.6,62.5
GN3N4ZNCV9,161021.0,14:18:20.410,R,109.4,SR,31.3,109.4
GN3N4ZNCV9,161021.0,14:18:20.426,L,125.0,RL,31.3,109.4
GN3N4ZNCV9,161021.0,14:18:20.941,L,140.6,LL,500.0,375.0
GN3N4ZNCV9,161021.0,14:18:21.113,S,109.4,LS,203.1,62.5
GN3N4ZNCV9,161021.0,14:18:21.301,L,109.4,SL,187.5,78.1
GN3N4ZNCV9,161021.0,14:18:21.863,L,93.8,LL,578.1,468.8
GN3N4ZNCV9,161021.0,14:18:22.176,L,93.8,LL,312.5,218.8
GN3N4ZNCV9,161021.0,14:18:22.426,L,140.6,LL,203.1,109.4
GN3N4ZNCV9,161021.0,14:18:22.754,L,109.4,LL,359.4,218.8
GN3N4ZNCV9,161021.0,14:18:24.285,R,93.8,SR,437.5,328.1
GN3N4ZNCV9,161021.0,14:18:24.598,L,109.4,RL,296.9,203.1
GN3N4ZNCV9,161021.0,14:18:24.738,R,78.1,LR,171.9,62.5
GN3N4ZNCV9,161021.0,14:18:24.957,L,31.3,RL,140.6,187.5
GN3N4ZNCV9,161021.0,14:18:25.066,L,140.6,LL,140.6,187.5
GN3N4ZNCV9,161021.0,14:18:25.348,S,171.9,LS,250.0,109.4
GN3N4ZNCV9,161021.0,14:18:25.879,L,93.8,SL,609.4,437.5
GN3N4ZNCV9,161021.0,14:18:26.223,R,93.8,LR,343.8,250.0
GN3N4ZNCV9,161021.0,14:18:26.691,R,109.4,RR,453.1,359.4
GN3N4ZNCV9,161021.0,14:18:26.973,R,62.5,RR,328.1,218.8
GN3N4ZNCV9,161021.0,14:18:27.332,L,140.6,RL,281.3,218.8
GN3N4ZNCV9,161021.0,14:18:28.801,L,187.5,SL,234.4,93.8
GN3N4ZNCV9,161021.0,14:18:29.129,L,15.6,RL,171.9,203.1
GN3N4ZNCV9,161021.0,14:18:29.301,S,187.5,LS,171.9,203.1
GN3N4ZNCV9,161021.0,14:18:29.426,L,109.4,SL,203.1,15.6
GN3N4ZNCV9,161021.0,14:18:29.535,R,93.8,LR,125.0,15.6
GN3N4ZNCV9,161021.0,14:18:29.738,L,15.6,RL,140.6,187.5
GN3N4ZNCV9,161021.0,14:18:29.879,S,156.3,LS,140.6,187.5
GN3N4ZNCV9,161021.0,14:18:30.551,L,109.4,SL,718.8,562.5
GN3N4ZNCV9,161021.0,14:18:30.988,L,140.6,LL,406.3,296.9
GN3N4ZNCV9,161021.0,14:18:31.191,R,78.1,LR,265.6,125.0
GN3N4ZNCV9,161021.0,14:18:31.473,R,93.8,RR,265.6,187.5
GN3N4ZNCV9,161021.0,14:18:31.754,L,140.6,RL,234.4,140.6
GN3N4ZNCV9,161021.0,14:18:31.941,R,78.1,LR,250.0,109.4
GN3N4ZNCV9,161021.0,14:18:32.223,S,156.3,RS,203.1,125.0
GN3N4ZNCV9,161021.0,14:18:32.426,R,156.3,SR,203.1,46.9
GN3N4ZNCV9,161021.0,14:18:32.645,R,93.8,RR,281.3,125.0
GN3N4ZNCV9,161021.0,14:18:32.879,L,125.0,RL,203.1,109.4
GN3N4ZNCV9,161021.0,14:18:33.082,S,125.0,LS,203.1,78.1
GN3N4ZNCV9,161021.0,14:18:33.441,L,171.9,SL,312.5,187.5
GN3N4ZNCV9,161021.0,14:18:35.738,R,78.1,RR,265.6,218.8
GN3N4ZNCV9,161021.0,14:18:36.066,L,125.0,RL,281.3,203.1
GN3N4ZNCV9,161021.0,14:18:36.316,L,125.0,LL,250.0,125.0
GN3N4ZNCV9,161021.0,14:18:36.613,S,152.3,LS,269.5,144.5
GN3N4ZNCV9,161021.0,14:18:36.836,R,66.4,SR,308.6,156.3
GN3N4ZNCV9,161021.0,14:18:36.977,L,113.3,RL,93.8,27.3
GN3N4ZNCV9,161021.0,14:18:37.336,L,109.4,LL,363.3,250.0
GN3N4ZNCV9,161021.0,14:18:37.680,L,191.4,LL,261.7,152.3
GN3N4ZNCV9,161021.0,14:18:37.883,S,156.3,LS,238.3,46.9
GN3N4ZNCV9,161021.0,14:18:38.066,L,125.0,SL,214.8,58.6
GN3N4ZNCV9,161021.0,14:18:38.180,R,93.8,LR,144.5,19.5
GN3N4ZNCV9,161021.0,14:18:38.383,L,19.5,RL,125.0,183.6
GN3N4ZNCV9,161021.0,14:18:38.488,S,125.0,LS,125.0,183.6
GN3N4ZNCV9,161021.0,14:18:38.680,R,62.5,SR,253.9,128.9
GN3N4ZNCV9,161021.0,14:18:38.992,L,125.0,RL,250.0,187.5
GN3N4ZNCV9,161021.0,14:18:39.227,L,125.0,LL,234.4,109.4
GN3N4ZNCV9,161021.0,14:18:39.352,S,109.4,LS,140.6,15.6
GN3N4ZNCV9,161021.0,14:18:39.758,R,78.1,SR,437.5,328.1
GN3N4ZNCV9,161021.0,14:18:40.023,R,93.8,RR,250.0,171.9
GN3N4ZNCV9,161021.0,14:18:40.289,L,156.3,RL,203.1,109.4
GN3N4ZNCV9,161021.0,14:18:40.867,R,62.5,SR,515.6,390.6
GN3N4ZNCV9,161021.0,14:18:41.117,R,78.1,RR,234.4,171.9
GN3N4ZNCV9,161021.0,14:18:41.320,S,125.0,RS,156.3,78.1
GN3N4ZNCV9,161021.0,14:18:41.648,L,109.4,SL,343.8,218.8
GN3N4ZNCV9,161021.0,14:18:41.867,R,78.1,LR,250.0,140.6
GN3N4ZNCV9,161021.0,14:18:42.039,R,93.8,RR,156.3,78.1
GN3N4ZNCV9,161021.0,14:18:42.273,L,125.0,RL,203.1,109.4
GN3N4ZNCV9,161021.0,14:18:42.695,L,156.3,SL,265.6,109.4
GN3N4ZNCV9,161021.0,14:18:42.914,R,78.1,LR,296.9,140.6
GN3N4ZNCV9,161021.0,14:18:43.211,R,93.8,RR,281.3,203.1
GN3N4ZNCV9,161021.0,14:18:43.602,L,109.4,RL,375.0,281.3
GN3N4ZNCV9,161021.0,14:18:43.898,R,78.1,LR,328.1,218.8
GN3N4ZNCV9,161021.0,14:18:44.242,L,93.8,RL,328.1,250.0
GN3N4ZNCV9,161021.0,14:18:44.461,R,62.5,LR,250.0,156.3
GN3N4ZNCV9,161021.0,14:18:44.648,R,93.8,RR,156.3,93.8
GN3N4ZNCV9,161021.0,14:18:44.930,R,62.5,RR,312.5,218.8
GN3N4ZNCV9,161021.0,14:18:45.352,S,171.9,RS,312.5,250.0
GN3N4ZNCV9,161021.0,14:18:45.617,L,140.6,SL,296.9,125.0
GN3N4ZNCV9,161021.0,14:18:45.711,R,78.1,LR,156.3,15.6
GN3N4ZNCV9,161021.0,14:18:45.961,L,31.3,RL,125.0,218.8
GN3N4ZNCV9,161021.0,14:18:46.227,R,296.9,LR,125.0,218.8
GN3N4ZNCV9,161021.0,14:18:46.695,S,140.6,RS,328.1,265.6
GN3N4ZNCV9,161021.0,14:18:47.070,R,140.6,SR,375.0,234.4
GN3N4ZNCV9,161021.0,14:18:47.336,R,93.8,RR,125.0,171.9
GN3N4ZNCV9,161021.0,14:18:47.352,R,109.4,RR,125.0,171.9
GN3N4ZNCV9,161021.0,14:18:49.148,R,109.4,RR,781.3,671.9
GN3N4ZNCV9,161021.0,14:18:49.336,R,46.9,RR,109.4,140.6
GN3N4ZNCV9,161021.0,14:18:49.383,R,93.8,RR,109.4,140.6
GN3N4ZNCV9,161021.0,14:18:49.633,L,109.4,RL,234.4,140.6
GN3N4ZNCV9,161021.0,14:18:51.617,L,78.1,SL,671.9,531.3
GN3N4ZNCV9,161021.0,14:18:52.039,L,15.6,LL,218.8,406.3
GN3N4ZNCV9,161021.0,14:18:52.133,L,109.4,LL,218.8,406.3
GN3N4ZNCV9,161021.0,14:18:52.461,L,109.4,LL,328.1,218.8
GN3N4ZNCV9,161021.0,14:18:52.617,R,78.1,LR,187.5,78.1
GN3N4ZNCV9,161021.0,14:18:52.883,L,171.9,RL,171.9,93.8
GN3N4ZNCV9,161021.0,14:18:53.180,L,15.6,LL,187.5,281.3
GN3N4ZNCV9,161021.0,14:18:53.289,S,15.6,LS,109.4,93.8
GN3N4ZNCV9,161021.0,14:18:53.398,L,125.0,SL,109.4,93.8
GN3N4ZNCV9,161021.0,14:18:53.602,R,171.9,LR,156.3,31.3
GN3N4ZNCV9,161021.0,14:18:53.727,R,93.8,RR,203.1,31.3
GN3N4ZNCV9,161021.0,14:18:53.945,L,156.3,RL,156.3,62.5
GN3N4ZNCV9,161021.0,14:18:54.727,L,109.4,SL,671.9,562.5
GN3N4ZNCV9,161021.0,14:18:54.977,L,125.0,LL,234.4,125.0
GN3N4ZNCV9,161021.0,14:18:55.211,L,140.6,LL,218.8,93.8
GN3N4ZNCV9,161021.0,14:18:55.523,L,109.4,SL,203.1,62.5
GN3N4ZNCV9,161021.0,14:18:55.898,L,11.7,LL,171.9,363.3
GN3N4ZNCV9,161021.0,14:18:55.992,S,105.5,LS,171.9,363.3
GN3N4ZNCV9,161021.0,14:18:56.398,L,93.8,SL,418.0,312.5
GN3N4ZNCV9,161021.0,14:18:56.820,L,105.5,LL,410.2,316.4
GN3N4ZNCV9,161021.0,14:18:56.992,L,93.8,LL,183.6,78.1
GN3N4ZNCV9,161021.0,14:18:57.242,R,15.6,LR,89.8,234.4
GN3N4ZNCV9,161021.0,14:18:57.352,S,125.0,RS,89.8,234.4
GN3N4ZNCV9,161021.0,14:18:58.070,R,105.5,SR,738.3,613.3
GN3N4ZNCV9,161021.0,14:18:58.355,R,93.8,RR,296.9,191.4
GN3N4ZNCV9,161021.0,14:18:58.840,L,78.1,RL,500.0,406.3
GN3N4ZNCV9,161021.0,14:18:59.230,L,113.3,LL,355.5,277.3
GN3N4ZNCV9,161021.0,14:18:59.402,L,113.3,LL,171.9,58.6
GN3N4ZNCV9,161021.0,14:18:59.715,L,171.9,LL,253.9,140.6
GN3N4ZNCV9,161021.0,14:18:59.965,R,93.8,LR,328.1,156.3
GN3N4ZNCV9,161021.0,14:19:00.184,L,109.4,RL,203.1,109.4
GN3N4ZNCV9,161021.0,14:19:00.324,R,125.0,LR,125.0,15.6
GN3N4ZNCV9,161021.0,14:19:00.559,L,93.8,RL,265.6,140.6
GN3N4ZNCV9,161021.0,14:58:12.664,L,121.1,RL,250.0,164.1
GN3N4ZNCV9,161021.0,14:58:12.832,R,89.8,LR,199.2,78.1
GN3N4ZNCV9,161021.0,14:59:40.754,L,117.2,RL,222.7,128.9
GN3N4ZNCV9,161021.0,14:59:41.059,L,136.7,LL,285.2,168.0
GN3N4ZNCV9,161021.0,14:59:41.332,R,78.1,LR,332.0,195.3
GN3N4ZNCV9,161021.0,14:59:41.684,L,125.0,RL,304.7,226.6
GN3N4ZNCV9,161021.0,14:59:42.008,L,160.2,LL,289.1,164.1
GN3N4ZNCV9,161021.0,14:59:42.402,L,140.6,LL,414.1,253.9
GN3N4ZNCV9,161021.0,14:59:42.711,L,140.6,LL,308.6,168.0
GN3N4ZNCV9,161021.0,14:59:44.594,R,105.5,SR,648.4,503.9
GN3N4ZNCV9,161021.0,14:59:44.906,L,97.7,RL,320.3,214.8
GN3N4ZNCV9,161021.0,14:59:45.160,L,93.8,LL,257.8,160.2
GN3N4ZNCV9,161021.0,14:59:45.836,L,105.5,LL,664.1,570.3
GN3N4ZNCV9,161021.0,14:59:46.535,L,121.1,LL,683.6,578.1
GN3N4ZNCV9,161021.0,14:59:46.852,L,109.4,LL,328.1,207.0
GN3N4ZNCV9,161021.0,14:59:47.262,R,82.0,LR,437.5,328.1
GN3N4ZNCV9,161021.0,14:59:47.562,R,85.9,RR,296.9,214.8
GN3N4ZNCV9,161021.0,14:59:48.059,L,101.6,RL,480.5,394.5
GN3N4ZNCV9,161021.0,14:59:48.305,R,105.5,LR,242.2,140.6
GN3N4ZNCV9,161021.0,14:59:48.480,R,93.8,RR,187.5,82.0
GN3N4ZNCV9,161021.0,14:59:48.797,R,101.6,RR,308.6,214.8
GN3N4ZNCV9,161021.0,14:59:49.414,S,144.5,RS,574.2,472.7
GN3N4ZNCV9,161021.0,14:59:50.516,R,101.6,RR,277.3,191.4
GN3N4ZNCV9,161021.0,14:59:50.871,L,152.3,RL,304.7,203.1
GN3N4ZNCV9,161021.0,14:59:51.051,R,85.9,LR,246.1,93.8
GN3N4ZNCV9,161021.0,14:59:51.434,L,164.1,RL,304.7,218.8
GN3N4ZNCV9,161021.0,14:59:51.750,S,164.1,LS,316.4,152.3
GN3N4ZNCV9,161021.0,15:22:12.262,R,128.9,LR,617.2,484.4
GN3N4ZNCV9,161021.0,15:22:13.797,R,125.0,LR,589.8,468.8
GN3N4ZNCV9,161021.0,15:22:16.156,R,117.2,LR,460.9,347.7
GN3N4ZNCV9,161021.0,15:25:24.125,L,97.7,RL,265.6,183.6
GN3N4ZNCV9,161021.0,15:25:29.270,L,117.2,RL,234.4,132.8
GN3N4ZNCV9,161021.0,15:25:29.430,R,78.1,LR,199.2,82.0
GN3N4ZNCV9,161022.0,08:45:47.637,L,103.5,LL,496.1,412.1
GN3N4ZNCV9,161022.0,08:45:47.994,R,101.6,LR,359.4,255.9
GN3N4ZNCV9,161022.0,08:45:48.400,R,103.5,RR,404.3,302.7
GN3N4ZNCV9,161022.0,08:45:48.748,L,97.7,RL,353.5,250.0
GN3N4ZNCV9,161022.0,08:45:51.686,L,113.3,RL,195.3,125.0
GN3N4ZNCV9,161022.0,08:45:52.320,R,72.3,LR,675.8,562.5
GN3N4ZNCV9,161022.0,08:45:52.953,R,91.8,RR,613.3,541.0
GN3N4ZNCV9,161022.0,08:45:53.107,R,74.2,RR,171.9,80.1
GN3N4ZNCV9,161022.0,08:45:53.605,R,125.0,RR,447.3,373.0
GN3N4ZNCV9,161022.0,08:45:53.959,L,152.3,RL,326.2,201.2
GN3N4ZNCV9,161022.0,08:45:54.279,R,35.2,LR,212.9,285.2
GN3N4ZNCV9,161022.0,08:45:54.369,R,125.0,RR,212.9,285.2
GN3N4ZNCV9,161022.0,08:45:58.455,R,95.7,RR,339.8,234.4
GN3N4ZNCV9,161022.0,08:45:59.213,L,99.6,RL,753.9,658.2
GN3N4ZNCV9,161022.0,08:45:59.477,L,107.4,LL,255.9,156.3
GN3N4ZNCV9,161022.0,08:46:00.068,R,109.4,LR,589.8,482.4
GN3N4ZNCV9,161022.0,08:46:00.418,L,87.9,RL,371.1,261.7
GN3N4ZNCV9,161022.0,08:46:14.457,R,103.5,RR,310.5,193.4
GN3N4ZNCV9,161022.0,08:46:15.092,L,91.8,RL,646.5,543.0
GN3N4ZNCV9,161022.0,08:46:15.391,L,142.6,LL,248.0,156.3
GN3N4ZNCV9,161022.0,08:46:15.779,R,105.5,LR,425.8,283.2
GN3N4ZNCV9,161022.0,08:46:16.180,L,95.7,RL,408.2,302.7
GN3N4ZNCV9,161022.0,08:49:50.184,L,95.7,RL,273.4,193.4
GN3N4ZNCV9,161022.0,08:49:50.936,R,103.5,LR,744.1,648.4
GN3N4ZNCV9,161022.0,08:49:51.143,R,97.7,RR,212.9,109.4
GN3N4ZNCV9,161022.0,08:49:51.539,R,105.5,RR,388.7,291.0
GN3N4ZNCV9,161022.0,08:49:54.328,R,93.8,LR,242.2,132.8
GN3N4ZNCV9,161022.0,08:49:54.732,L,95.7,RL,402.3,308.6
GN3N4ZNCV9,161022.0,08:49:54.969,L,115.2,LL,216.8,121.1
GN3N4ZNCV9,161022.0,08:49:55.207,R,84.0,LR,269.5,154.3
GN3N4ZNCV9,161022.0,08:49:55.539,L,119.1,RL,296.9,212.9
GN3N4ZNCV9,161022.0,08:49:55.812,L,158.2,LL,234.4,115.2
GN3N4ZNCV9,161022.0,08:49:55.918,R,97.7,LR,166.0,7.8
GN3N4ZNCV9,161022.0,08:49:57.855,R,87.9,SR,435.5,289.1
GN3N4ZNCV9,161022.0,08:49:57.996,L,132.8,RL,95.7,7.8
GN3N4ZNCV9,161022.0,08:49:58.422,L,154.3,LL,404.3,271.5
GN3N4ZNCV9,161022.0,08:49:58.711,L,183.6,LL,259.8,105.5
GN3N4ZNCV9,161022.0,08:49:58.938,S,154.3,LS,255.9,72.3
GN3N4ZNCV9,161022.0,08:49:59.145,L,39.1,SL,160.2,168.0
GN3N4ZNCV9,161022.0,08:49:59.264,S,158.2,LS,160.2,168.0
GN3N4ZNCV9,161022.0,08:49:59.555,L,130.9,SL,318.4,160.2
GN3N4ZNCV9,161022.0,08:49:59.775,L,117.2,LL,234.4,103.5
GN3N4ZNCV9,161022.0,08:50:00.088,L,150.4,LL,279.3,162.1
GN3N4ZNCV9,161022.0,08:50:00.387,L,138.7,LL,310.5,160.2
GN3N4ZNCV9,161022.0,08:50:00.775,L,15.6,LL,166.0,373.0
GN3N4ZNCV9,161022.0,08:50:00.949,S,189.5,LS,166.0,373.0
GN3N4ZNCV9,161022.0,08:50:01.250,R,265.6,SR,224.6,35.2
GN3N4ZNCV9,161022.0,08:50:01.361,R,66.4,RR,310.5,44.9
GN3N4ZNCV9,161022.0,08:50:01.643,L,140.6,RL,207.0,140.6
GN3N4ZNCV9,161022.0,08:50:47.521,L,115.2,LL,291.0,144.5
GN3N4ZNCV9,161022.0,08:50:47.869,L,201.2,LL,261.7,146.5
GN3N4ZNCV9,161022.0,08:50:48.293,L,201.2,LL,423.8,222.7
GN3N4ZNCV9,161022.0,08:50:48.482,L,125.0,LL,265.6,64.5
GN3N4ZNCV9,161024.0,07:10:05.443,L,168.0,LL,326.2,253.9
GN3N4ZNCV9,161024.0,07:10:05.662,R,109.4,LR,277.3,109.4
GN3N4ZNCV9,161024.0,07:10:05.926,L,107.4,RL,265.6,156.3
GN3N4ZNCV9,161024.0,07:10:06.234,R,82.0,LR,334.0,226.6
GN3N4ZNCV9,161024.0,07:10:06.658,R,181.6,RR,324.2,242.2
GN3N4ZNCV9,161024.0,07:10:06.814,R,142.6,RR,195.3,13.7
GN3N4ZNCV9,161024.0,07:10:07.014,L,171.9,RL,169.9,27.3
GN3N4ZNCV9,161024.0,07:10:07.164,L,82.0,LL,240.2,68.4
GN3N4ZNCV9,161024.0,07:10:52.035,R,99.6,RR,382.8,267.6
GN3N4ZNCV9,161024.0,07:10:52.656,L,85.9,RL,634.8,535.2
GN3N4ZNCV9,161024.0,07:10:52.896,L,113.3,LL,212.9,127.0
GN3N4ZNCV9,161024.0,07:10:53.168,R,99.6,LR,285.2,171.9
GN3N4ZNCV9,161024.0,07:10:53.605,L,113.3,RL,423.8,324.2
GN3N4ZNCV9,161024.0,07:11:39.760,R,70.3,RR,773.4,658.2
GN3N4ZNCV9,161024.0,07:11:40.531,L,76.2,RL,765.6,695.3
GN3N4ZNCV9,161024.0,07:11:40.744,L,107.4,LL,181.6,105.5
GN3N4ZNCV9,161024.0,07:11:41.178,R,105.5,LR,435.5,328.1
GN3N4ZNCV9,161024.0,07:11:41.508,L,91.8,RL,341.8,236.3
GN3N4ZNCV9,161024.0,07:12:04.629,L,105.5,LL,392.6,304.7
GN3N4ZNCV9,161024.0,07:12:04.928,R,109.4,LR,294.9,189.5
GN3N4ZNCV9,161024.0,07:12:05.201,L,125.0,RL,257.8,148.4
GN3N4ZNCV9,161024.0,07:12:05.420,R,58.6,LR,285.2,160.2
GN3N4ZNCV9,161024.0,07:12:05.852,R,17.6,RR,210.9,414.1
GN3N4ZNCV9,161024.0,07:12:05.973,R,138.7,RR,210.9,414.1
GN3N4ZNCV9,161024.0,07:12:06.148,L,152.3,RL,162.1,23.4
GN3N4ZNCV9,161024.0,07:12:06.352,L,107.4,LL,248.0,95.7
GN3N4ZNCV9,161024.0,07:13:00.148,R,109.4,RR,318.4,220.7
GN3N4ZNCV9,161024.0,07:13:00.729,L,97.7,RL,591.8,482.4
GN3N4ZNCV9,161024.0,07:13:00.994,L,117.2,LL,246.1,148.4
GN3N4ZNCV9,161024.0,07:13:01.293,R,93.8,LR,322.3,205.1
GN3N4ZNCV9,161024.0,07:13:14.852,L,48.8,LL,375.0,277.3
GN3N4ZNCV9,161024.0,07:13:15.205,R,119.1,LR,283.2,234.4
GN3N4ZNCV9,161024.0,07:13:15.529,L,101.6,RL,341.8,222.7
GN3N4ZNCV9,161024.0,07:13:15.760,R,68.4,LR,263.7,162.1
GN3N4ZNCV9,161024.0,07:13:16.260,R,66.4,RR,261.7,433.6
GN3N4ZNCV9,161024.0,07:13:16.336,R,142.6,RR,261.7,433.6
GN3N4ZNCV9,161024.0,07:13:16.635,L,209.0,RL,232.4,89.8
GN3N4ZNCV9,161024.0,07:13:16.793,L,119.1,LL,248.0,39.1
GN3N4ZNCV9,161024.0,07:13:40.537,L,103.5,LL,177.7,89.8
GN3N4ZNCV9,161024.0,07:13:41.021,L,113.3,LL,474.6,371.1
GN3N4ZNCV9,161024.0,07:13:41.299,R,101.6,LR,289.1,175.8
GN3N4ZNCV9,161024.0,07:13:41.695,R,105.5,RR,392.6,291.0
GN3N4ZNCV9,161024.0,07:13:48.430,L,109.4,LL,224.6,121.1
GN3N4ZNCV9,161024.0,07:13:48.760,R,97.7,LR,341.8,232.4
GN3N4ZNCV9,161024.0,07:13:49.191,L,93.8,RL,435.5,337.9
GN3N4ZNCV9,161024.0,07:14:27.465,L,109.4,RL,388.7,310.5
GN3N4ZNCV9,161024.0,07:14:27.752,L,119.1,LL,277.3,168.0
GN3N4ZNCV9,161024.0,07:14:28.514,R,93.8,LR,787.1,668.0
GN3N4ZNCV9,161024.0,07:14:28.834,L,115.2,RL,298.8,205.1
GN3N4ZNCV9,161024.0,07:15:42.510,R,105.5,LR,572.3,494.1
GN3N4ZNCV9,161024.0,07:15:44.119,L,82.0,RL,732.4,619.1
GN3N4ZNCV9,161024.0,07:15:51.463,L,85.9,RL,732.4,615.2
GN3N4ZNCV9,161024.0,07:15:52.982,R,84.0,RR,404.3,382.8
GN3N4ZNCV9,161024.0,07:15:53.137,R,84.0,RR,154.3,70.3
GN3N4ZNCV9,161024.0,07:15:55.504,R,111.3,LR,466.8,361.3
GN3N4ZNCV9,161024.0,07:15:56.207,R,115.2,RR,699.2,587.9
GN3N4ZNCV9,161024.0,07:16:21.473,L,164.1,LL,191.4,89.8
GN3N4ZNCV9,161024.0,07:16:21.955,L,123.0,LL,523.4,359.4
GN3N4ZNCV9,161024.0,07:16:22.260,R,91.8,LR,335.9,212.9
GN3N4ZNCV9,161024.0,07:16:22.600,R,97.7,RR,334.0,242.2
GN3N4ZNCV9,161024.0,07:16:22.939,L,84.0,RL,353.5,255.9
GN3N4ZNCV9,161024.0,07:16:31.268,R,107.4,LR,394.5,294.9
GN3N4ZNCV9,161024.0,07:16:32.574,R,78.1,LR,263.7,203.1
GN3N4ZNCV9,161024.0,07:16:32.943,R,113.3,RR,334.0,255.9
GN3N4ZNCV9,161024.0,07:16:33.432,R,99.6,RR,502.0,388.7
GN3N4ZNCV9,161024.0,07:16:33.822,L,154.3,RL,335.9,236.3
GN3N4ZNCV9,161024.0,07:16:34.115,R,52.7,LR,191.4,240.2
GN3N4ZNCV9,161024.0,07:16:34.178,R,115.2,RR,191.4,240.2
GN3N4ZNCV9,161024.0,07:18:20.449,R,123.0,RR,371.1,273.4
GN3N4ZNCV9,161024.0,07:18:21.080,L,105.5,RL,648.4,525.4
GN3N4ZNCV9,161024.0,07:18:21.316,L,125.0,LL,216.8,111.3
GN3N4ZNCV9,161024.0,07:18:21.646,R,87.9,LR,367.2,242.2
GN3N4ZNCV9,161024.0,07:18:22.113,L,93.8,RL,460.9,373.0
GN3N4ZNCV9,161024.0,07:18:25.637,R,91.8,RR,429.7,324.2
GN3N4ZNCV9,161024.0,07:18:26.215,L,93.8,RL,576.2,484.4
GN3N4ZNCV9,161024.0,07:18:26.434,L,97.7,LL,214.8,121.1
GN3N4ZNCV9,161024.0,07:18:26.736,R,97.7,LR,302.7,205.1
GN3N4ZNCV9,161024.0,07:18:27.029,L,95.7,RL,294.9,197.3
GN3N4ZNCV9,161024.0,07:19:23.303,L,107.4,LL,160.2,62.5
GN3N4ZNCV9,161024.0,07:19:23.854,L,105.5,LL,552.7,445.3
GN3N4ZNCV9,161024.0,07:19:24.117,R,101.6,LR,267.6,162.1
GN3N4ZNCV9,161024.0,07:19:24.463,R,93.8,RR,353.5,252.0
GN3N4ZNCV9,161024.0,07:19:31.232,R,101.6,RR,308.6,187.5
GN3N4ZNCV9,161024.0,07:19:31.951,L,111.3,RL,709.0,607.4
GN3N4ZNCV9,161024.0,07:19:32.199,L,97.7,LL,261.7,150.4
GN3N4ZNCV9,161024.0,07:19:32.428,R,85.9,LR,240.2,142.6
GN3N4ZNCV9,161024.0,07:19:33.037,L,117.2,RL,578.1,492.2
GN3N4ZNCV9,161024.0,07:29:52.568,L,146.5,LL,314.5,173.8
GN3N4ZNCV9,161024.0,07:29:52.742,R,99.6,LR,220.7,74.2
GN3N4ZNCV9,161024.0,07:29:53.152,R,97.7,RR,412.1,312.5
GN3N4ZNCV9,161024.0,07:29:53.441,L,183.6,RL,203.1,105.5
GN3N4ZNCV9,161024.0,07:29:53.836,L,121.1,LL,457.0,273.4
GN3N4ZNCV9,161024.0,07:29:54.064,L,109.4,LL,240.2,119.1
GN3N4ZNCV9,161024.0,07:31:24.916,L,177.7,LL,279.3,179.7
GN3N4ZNCV9,161024.0,07:31:25.287,L,103.5,LL,445.3,267.6
GN3N4ZNCV9,161024.0,07:31:26.844,L,197.3,RL,273.4,175.8
GN3N4ZNCV9,161024.0,07:31:27.064,L,105.5,LL,312.5,115.2
GN3N4ZNCV9,161024.0,07:31:27.414,S,142.6,LS,312.5,207.0
GN3N4ZNCV9,161024.0,07:31:27.695,L,50.8,SL,373.0,230.5
GN3N4ZNCV9,161024.0,07:31:28.369,R,162.1,LR,562.5,511.7
GN3N4ZNCV9,161024.0,07:31:28.795,L,158.2,RL,429.7,267.6
GN3N4ZNCV9,161024.0,07:31:51.420,L,179.7,LL,293.0,177.7
GN3N4ZNCV9,161024.0,07:31:51.893,L,66.4,LL,585.9,406.3
GN3N4ZNCV9,161024.0,07:31:52.303,R,103.5,LR,373.0,306.6
GN3N4ZNCV9,161024.0,07:31:52.611,L,199.2,RL,212.9,109.4
GN3N4ZNCV9,161024.0,07:31:52.859,L,78.1,LL,369.1,169.9
GN3N4ZNCV9,161024.0,07:31:53.158,S,179.7,LS,197.3,119.1
GN3N4ZNCV9,161024.0,07:31:53.439,L,111.3,SL,349.6,169.9
GN3N4ZNCV9,161024.0,07:31:53.705,R,11.7,LR,103.5,253.9
GN3N4ZNCV9,161024.0,07:31:53.795,L,101.6,RL,103.5,253.9
GN3N4ZNCV9,161024.0,07:31:54.131,L,136.7,LL,300.8,199.2
GN3N4ZNCV9,161024.0,07:31:54.387,R,111.3,LR,281.3,144.5
GN3N4ZNCV9,161024.0,07:31:54.713,L,27.3,RL,240.2,298.8
GN3N4ZNCV9,161024.0,07:31:54.783,L,97.7,LL,240.2,298.8
GN3N4ZNCV9,161024.0,07:47:56.756,L,164.1,RL,400.4,289.1
GN3N4ZNCV9,161024.0,07:47:59.824,R,97.7,RR,677.7,560.5
GN3N4ZNCV9,161024.0,07:48:00.348,L,154.3,RL,466.8,369.1
GN3N4ZNCV9,161024.0,07:48:00.998,R,95.7,LR,709.0,554.7
GN3N4ZNCV9,161024.0,07:48:02.215,L,150.4,SL,308.6,134.8
GN3N4ZNCV9,161024.0,07:48:02.367,R,113.3,LR,189.5,39.1
GN3N4ZNCV9,161024.0,07:48:02.752,L,130.9,RL,367.2,253.9
GN3N4ZNCV9,161024.0,07:48:02.996,S,152.3,LS,222.7,91.8
GN3N4ZNCV9,161024.0,07:48:03.258,R,117.2,SR,296.9,144.5
GN3N4ZNCV9,161024.0,07:48:03.398,L,101.6,RL,156.3,39.1
GN3N4ZNCV9,161024.0,07:48:03.834,L,39.1,LL,212.9,396.5
GN3N4ZNCV9,161024.0,07:48:03.930,L,134.8,LL,212.9,396.5
GN3N4ZNCV9,161024.0,07:48:04.139,S,173.8,LS,169.9,35.2
GN3N4ZNCV9,161024.0,07:48:05.244,R,95.7,LR,193.4,68.4
GN3N4ZNCV9,161024.0,07:48:05.486,R,101.6,RR,236.3,140.6
GN3N4ZNCV9,161024.0,07:48:05.879,L,140.6,RL,353.5,252.0
GN3N4ZNCV9,161024.0,07:48:06.133,L,138.7,LL,255.9,115.2
GN3N4ZNCV9,161024.0,07:48:57.770,R,123.0,RR,441.4,281.3
GN3N4ZNCV9,161024.0,07:48:59.438,L,115.2,LL,712.9,625.0
GN3N4ZNCV9,161024.0,07:48:59.811,R,44.9,LR,443.4,328.1
GN3N4ZNCV9,161024.0,07:48:59.998,R,85.9,RR,146.5,101.6
GN3N4ZNCV9,161024.0,07:49:00.340,L,148.4,RL,279.3,193.4
GN3N4ZNCV9,161024.0,07:50:11.805,L,119.1,SL,345.7,105.5
GN3N4ZNCV9,161024.0,07:50:12.037,R,107.4,LR,244.1,125.0
GN3N4ZNCV9,161024.0,07:50:12.289,L,134.8,RL,224.6,117.2
GN3N4ZNCV9,161024.0,07:50:12.619,S,173.8,LS,291.0,156.3
GN3N4ZNCV9,161026.0,10:40:41.777,R,128.9,LR,253.9,136.7
GN3N4ZNCV9,161026.0,10:40:42.531,R,140.6,RR,742.2,613.3
GN3N4ZNCV9,161026.0,10:40:43.148,L,93.8,RL,664.1,523.4
GN3N4ZNCV9,161026.0,10:40:43.457,R,101.6,LR,300.8,207.0
GN3N4ZNCV9,161026.0,10:40:43.684,L,160.2,RL,168.0,66.4
GN3N4ZNCV9,161026.0,10:40:44.148,L,132.8,LL,492.2,332.0
GN3N4ZNCV9,161026.0,10:40:44.273,R,78.1,LR,179.7,46.9
GN3N4ZNCV9,161026.0,10:40:44.441,R,93.8,RR,152.3,74.2
GN3N4ZNCV9,161026.0,10:40:44.785,R,97.7,RR,339.8,246.1
GN3N4ZNCV9,161026.0,10:41:22.594,L,109.4,LL,214.8,117.2
GN3N4ZNCV9,161026.0,10:41:23.008,L,199.2,LL,324.2,214.8
GN3N4ZNCV9,161026.0,10:41:23.402,L,97.7,LL,496.1,296.9
GN3N4ZNCV9,161026.0,10:41:23.660,R,89.8,LR,265.6,168.0
GN3N4ZNCV9,161026.0,10:41:23.984,L,31.3,RL,187.5,293.0
GN3N4ZNCV9,161026.0,10:41:24.094,L,140.6,LL,187.5,293.0
GN3N4ZNCV9,161026.0,10:42:01.863,R,82.0,LR,437.5,308.6
GN3N4ZNCV9,161026.0,10:42:02.273,R,93.8,RR,402.3,320.3
GN3N4ZNCV9,161026.0,10:42:02.461,R,82.0,RR,199.2,105.5
GN3N4ZNCV9,161026.0,10:42:02.723,L,101.6,RL,242.2,160.2
GN3N4ZNCV9,161026.0,10:42:03.020,S,191.4,LS,207.0,105.5
GN3N4ZNCV9,161026.0,10:42:03.141,L,105.5,SL,207.0,15.6
GN3N4ZNCV9,161026.0,10:42:03.453,R,62.5,LR,355.5,250.0
GN3N4ZNCV9,161026.0,10:42:03.676,L,164.1,RL,121.1,58.6
GN3N4ZNCV9,161026.0,10:42:03.867,S,171.9,LS,183.6,19.5
GN3N4ZNCV9,161026.0,10:42:04.000,R,89.8,SR,214.8,43.0
GN3N4ZNCV9,161026.0,10:42:04.336,L,113.3,RL,312.5,222.7
GN3N4ZNCV9,161026.0,10:42:04.766,L,85.9,LL,457.0,343.8
GN3N4ZNCV9,161026.0,10:42:04.926,L,89.8,LL,156.3,70.3
GN3N4ZNCV9,161026.0,10:42:05.289,L,132.8,LL,320.3,230.5
GN3N4ZNCV9,161026.0,10:42:05.641,R,97.7,LR,386.7,253.9
GN3N4ZNCV9,161026.0,10:42:05.910,L,89.8,RL,277.3,179.7
GN3N4ZNCV9,161026.0,10:42:06.238,L,43.0,LL,156.3,285.2
GN3N4ZNCV9,161026.0,10:42:06.285,L,89.8,LL,156.3,285.2
GN3N4ZNCV9,161026.0,10:52:26.402,R,97.7,LR,214.8,85.9
GN3N4ZNCV9,161026.0,10:52:26.898,R,105.5,RR,488.3,390.6
GN3N4ZNCV9,161026.0,10:52:29.336,R,97.7,LR,269.5,175.8
GN3N4ZNCV9,161026.0,10:52:29.543,L,148.4,RL,156.3,58.6
GN3N4ZNCV9,161026.0,10:52:29.957,L,121.1,LL,441.4,293.0
GN3N4ZNCV9,161026.0,10:52:30.148,R,89.8,LR,222.7,101.6
GN3N4ZNCV9,161026.0,10:52:30.320,R,70.3,RR,191.4,101.6
GN3N4ZNCV9,161026.0,10:52:30.684,R,101.6,RR,332.0,261.7
GN3N4ZNCV9,161026.0,10:52:30.902,S,144.5,RS,175.8,74.2
GN3N4ZNCV9,161026.0,10:52:31.223,L,144.5,SL,320.3,175.8
GN3N4ZNCV9,161026.0,10:52:36.129,L,15.6,LL,183.6,398.4
GN3N4ZNCV9,161026.0,10:52:36.188,R,74.2,LR,183.6,398.4
GN3N4ZNCV9,161026.0,10:52:36.566,R,109.4,RR,343.8,269.5
GN3N4ZNCV9,161026.0,10:52:36.836,L,117.2,RL,261.7,152.3
GN3N4ZNCV9,161026.0,10:52:37.082,L,85.9,LL,277.3,160.2
GN3N4ZNCV9,161026.0,10:52:37.371,L,132.8,LL,242.2,156.3
GN3N4ZNCV9,161026.0,10:52:37.676,L,93.8,LL,343.8,210.9
GN3N4ZNCV9,161026.0,10:52:37.902,R,74.2,LR,246.1,152.3
GN3N4ZNCV9,161026.0,10:52:38.102,L,113.3,RL,160.2,85.9
GN3N4ZNCV9,161026.0,10:55:47.910,R,121.1,LR,402.3,257.8
GN3N4ZNCV9,161026.0,10:55:50.633,L,117.2,RL,464.8,371.1
GN3N4ZNCV9,161026.0,10:55:51.281,R,109.4,LR,656.3,539.1
GN3N4ZNCV9,161026.0,10:55:51.566,L,164.1,RL,230.5,121.1
GN3N4ZNCV9,161026.0,10:58:16.871,R,82.0,LR,191.4,85.9
GN3N4ZNCV9,161026.0,10:58:17.156,R,109.4,RR,257.8,175.8
GN3N4ZNCV9,161026.0,10:58:17.371,L,148.4,RL,175.8,66.4
GN3N4ZNCV9,161026.0,10:58:17.566,L,109.4,LL,234.4,85.9
GN3N4ZNCV9,161026.0,10:58:17.867,L,152.3,LL,257.8,148.4
GN3N4ZNCV9,161026.0,10:58:18.152,L,113.3,LL,324.2,171.9
GN3N4ZNCV9,161026.0,10:58:18.527,L,66.4,LL,421.9,308.6
GN3N4ZNCV9,161026.0,10:58:18.773,R,70.3,LR,242.2,175.8
GN3N4ZNCV9,161026.0,10:58:18.922,L,128.9,RL,89.8,19.5
GN3N4ZNCV9,161026.0,10:58:19.262,R,93.8,LR,375.0,246.1
GN3N4ZNCV9,161026.0,11:02:43.887,L,89.8,LL,238.3,125.0
GN3N4ZNCV9,161026.0,11:02:44.562,R,101.6,LR,664.1,574.2
GN3N4ZNCV9,161026.0,11:02:45.070,R,89.8,RR,519.5,418.0
GN3N4ZNCV9,161026.0,11:02:45.742,L,187.5,RL,574.2,484.4
GN3N4ZNCV9,161026.0,11:02:46.051,L,93.8,LL,402.3,214.8
GN3N4ZNCV9,161026.0,11:02:46.285,L,109.4,LL,218.8,125.0
GN3N4ZNCV9,161026.0,11:03:57.148,L,183.6,LL,480.5,382.8
GN3N4ZNCV9,161026.0,11:03:57.539,L,132.8,LL,441.4,257.8
GN3N4ZNCV9,161026.0,11:03:57.797,R,93.8,LR,296.9,164.1
GN3N4ZNCV9,161026.0,11:03:58.090,R,89.8,RR,296.9,203.1
GN3N4ZNCV9,161026.0,11:03:58.434,S,171.9,RS,261.7,171.9
GN3N4ZNCV9,161026.0,11:03:58.648,R,125.0,SR,261.7,89.8
GN3N4ZNCV9,161026.0,11:03:58.887,L,109.4,RL,253.9,128.9
GN3N4ZNCV9,161026.0,11:03:59.094,L,101.6,LL,214.8,105.5
GN3N4ZNCV9,161026.0,11:03:59.453,L,136.7,LL,324.2,222.7
GN3N4ZNCV9,161026.0,11:03:59.637,L,125.0,LL,195.3,58.6
GN3N4ZNCV9,161026.0,11:03:59.875,R,97.7,LR,265.6,140.6
GN3N4ZNCV9,161026.0,11:04:00.152,L,132.8,RL,242.2,144.5
GN3N4ZNCV9,161026.0,11:04:00.324,L,140.6,LL,164.1,31.3
GN3N4ZNCV9,161026.0,11:04:02.234,L,125.0,SL,445.3,273.4
GN3N4ZNCV9,161026.0,11:04:02.629,R,78.1,LR,441.4,316.4
GN3N4ZNCV9,161026.0,11:04:02.785,R,66.4,RR,168.0,89.8
GN3N4ZNCV9,161026.0,11:04:03.094,R,113.3,RR,261.7,195.3
GN3N4ZNCV9,161026.0,11:04:03.508,L,43.0,RL,226.6,371.1
GN3N4ZNCV9,161026.0,11:04:03.562,L,97.7,LL,226.6,371.1
GN3N4ZNCV9,161026.0,11:04:04.781,L,105.5,SL,261.7,82.0
GN3N4ZNCV9,161026.0,11:04:04.961,R,89.8,LR,195.3,89.8
GN3N4ZNCV9,161026.0,11:04:05.121,L,140.6,RL,109.4,19.5
GN3N4ZNCV9,161026.0,11:04:05.277,S,140.6,LS,156.3,15.6
GN3N4ZNCV9,161026.0,11:04:05.480,R,171.9,SR,171.9,31.3
GN3N4ZNCV9,161026.0,11:04:05.684,R,121.1,RR,253.9,82.0
GN3N4ZNCV9,161026.0,11:04:05.996,L,136.7,RL,296.9,175.8
GN3N4ZNCV9,161026.0,11:04:06.355,L,160.2,LL,335.9,199.2
GN3N4ZNCV9,161026.0,11:04:06.801,R,78.1,LR,527.3,367.2
GN3N4ZNCV9,161026.0,11:04:07.137,L,109.4,RL,304.7,226.6
GN3N4ZNCV9,161026.0,11:04:07.375,L,89.8,LL,257.8,148.4
GN3N4ZNCV9,161026.0,11:04:07.770,L,109.4,LL,375.0,285.2
GN3N4ZNCV9,161026.0,11:04:08.020,L,125.0,LL,234.4,125.0
GN3N4ZNCV9,161026.0,11:06:33.672,L,187.5,LL,425.8,324.2
GN3N4ZNCV9,161026.0,11:06:33.977,L,156.3,LL,335.9,148.4
GN3N4ZNCV9,161026.0,11:06:34.254,R,97.7,LR,335.9,179.7
GN3N4ZNCV9,161026.0,11:06:34.613,R,101.6,RR,355.5,257.8
GN3N4ZNCV9,161026.0,11:06:35.023,S,160.2,RS,351.6,250.0
GN3N4ZNCV9,161026.0,11:06:35.230,R,140.6,SR,226.6,66.4
GN3N4ZNCV9,161026.0,11:06:35.379,L,105.5,RL,183.6,43.0
GN3N4ZNCV9,161026.0,11:06:35.633,L,128.9,LL,230.5,125.0
GN3N4ZNCV9,161026.0,11:06:36.172,L,89.8,LL,578.1,449.2
GN3N4ZNCV9,161026.0,11:06:36.398,L,125.0,LL,191.4,101.6
GN3N4ZNCV9,161026.0,11:06:36.590,R,117.2,LR,199.2,74.2
GN3N4ZNCV9,161026.0,11:06:36.895,L,132.8,RL,289.1,171.9
GN3N4ZNCV9,161026.0,11:06:37.098,L,144.5,LL,191.4,58.6
GN3N4ZNCV9,161026.0,11:06:38.848,L,144.5,SL,281.3,78.1
GN3N4ZNCV9,161026.0,11:06:39.102,R,89.8,LR,308.6,164.1
GN3N4ZNCV9,161026.0,11:06:39.332,L,179.7,RL,140.6,50.8
GN3N4ZNCV9,161026.0,11:06:39.566,S,187.5,LS,226.6,46.9
GN3N4ZNCV9,161026.0,11:06:39.832,R,160.2,SR,293.0,105.5
GN3N4ZNCV9,161026.0,11:06:40.086,R,117.2,RR,296.9,136.7
GN3N4ZNCV9,161026.0,11:06:40.430,L,132.8,RL,328.1,210.9
GN3N4ZNCV9,161026.0,11:06:40.738,L,113.3,LL,328.1,195.3
GN3N4ZNCV9,161026.0,11:06:43.348,L,160.2,RL,753.9,644.5
GN3N4ZNCV9,161026.0,11:06:43.652,L,148.4,LL,316.4,156.3
GN3N4ZNCV9,161026.0,11:06:43.984,L,121.1,LL,359.4,210.9
GN3N4ZNCV9,161026.0,11:06:44.238,L,140.6,LL,234.4,113.3
GN3N4ZNCV9,161026.0,11:11:03.918,L,101.6,LL,628.9,539.1
GN3N4ZNCV9,161026.0,11:11:04.273,R,85.9,LR,371.1,269.5
GN3N4ZNCV9,161026.0,11:11:04.453,R,101.6,RR,164.1,78.1
GN3N4ZNCV9,161026.0,11:11:04.832,L,156.3,RL,324.2,222.7
GN3N4ZNCV9,161026.0,11:12:54.434,L,128.9,LL,566.4,484.4
GN3N4ZNCV9,161026.0,11:12:54.832,L,164.1,LL,363.3,234.4
GN3N4ZNCV9,161026.0,11:12:55.285,R,101.6,LR,515.6,351.6
GN3N4ZNCV9,161026.0,11:12:55.902,R,121.1,RR,597.7,496.1
GN3N4ZNCV9,161026.0,11:12:56.262,S,160.2,RS,320.3,199.2
GN3N4ZNCV9,161026.0,11:12:56.660,R,109.4,SR,449.2,289.1
GN3N4ZNCV9,161026.0,11:12:57.355,L,117.2,RL,687.5,578.1
GN3N4ZNCV9,161026.0,11:12:57.594,L,105.5,LL,250.0,132.8
GN3N4ZNCV9,161026.0,11:12:58.051,L,97.7,LL,464.8,359.4
GN3N4ZNCV9,161026.0,11:12:58.258,L,125.0,LL,179.7,82.0
GN3N4ZNCV9,161026.0,11:12:58.703,R,89.8,LR,480.5,355.5
GN3N4ZNCV9,161026.0,11:12:59.355,L,160.2,RL,582.0,492.2
GN3N4ZNCV9,161026.0,11:12:59.574,L,132.8,LL,246.1,85.9
GN3N4ZNCV9,161026.0,11:14:04.172,R,109.4,RR,367.2,253.9
GN3N4ZNCV9,161026.0,11:14:07.707,R,109.4,LR,468.8,363.3
GN3N4ZNCV9,161026.0,11:14:08.398,L,128.9,RL,671.9,562.5
GN3N4ZNCV9,161026.0,11:14:08.777,L,191.4,LL,316.4,187.5
GN3N4ZNCV9,161026.0,11:14:09.215,L,152.3,LL,476.6,285.2
GN3N4ZNCV9,161026.0,11:14:09.672,L,140.6,LL,468.8,316.4
GN3N4ZNCV9,161026.0,11:14:57.695,L,132.8,LL,269.5,168.0
GN3N4ZNCV9,161026.0,11:14:58.289,R,105.5,LR,621.1,488.3
GN3N4ZNCV9,161026.0,11:14:59.020,L,113.3,RL,722.7,617.2
GN3N4ZNCV9,161026.0,11:14:59.441,L,121.1,LL,414.1,300.8
GN3N4ZNCV9,161026.0,11:14:59.711,L,78.1,LL,312.5,191.4
GN3N4ZNCV9,161026.0,11:14:59.887,L,101.6,LL,152.3,74.2
GN3N4ZNCV9,161026.0,11:15:00.203,R,93.8,LR,324.2,222.7
GN3N4ZNCV9,161026.0,11:15:00.781,L,105.5,RL,566.4,472.7
GN3N4ZNCV9,161026.0,11:15:10.895,L,128.9,LL,253.9,128.9
GN3N4ZNCV9,161026.0,11:15:15.363,L,179.7,LL,261.7,144.5
GN3N4ZNCV9,161026.0,11:15:15.621,S,160.2,LS,277.3,97.7
GN3N4ZNCV9,161026.0,11:15:16.004,L,101.6,SL,441.4,281.3
GN3N4ZNCV9,161026.0,11:15:16.379,L,164.1,LL,312.5,210.9
GN3N4ZNCV9,161026.0,11:15:16.711,L,93.8,LL,398.4,234.4
GN3N4ZNCV9,161026.0,11:15:16.965,R,109.4,LR,242.2,148.4
GN3N4ZNCV9,161026.0,11:15:17.359,S,218.8,RS,285.2,175.8
GN3N4ZNCV9,161026.0,11:15:17.941,L,101.6,SL,699.2,480.5
GN3N4ZNCV9,161026.0,11:15:18.340,R,85.9,LR,414.1,312.5
GN3N4ZNCV9,161026.0,11:15:19.043,L,164.1,RL,625.0,539.1
GN3N4ZNCV9,161026.0,11:15:19.258,S,199.2,LS,179.7,15.6
GN3N4ZNCV9,161026.0,11:15:19.578,L,85.9,SL,433.6,234.4
GN3N4ZNCV9,161026.0,11:15:20.047,L,136.7,LL,418.0,332.0
GN3N4ZNCV9,161026.0,11:15:20.379,R,113.3,LR,355.5,218.8
GN3N4ZNCV9,161026.0,11:15:20.664,R,93.8,RR,304.7,191.4
GN3N4ZNCV9,161026.0,11:15:21.414,R,82.0,RR,761.7,668.0
GN3N4ZNCV9,161026.0,11:15:22.066,L,121.1,RL,613.3,531.3
GN3N4ZNCV9,161026.0,11:15:34.043,R,97.7,LR,425.8,308.6
GN3N4ZNCV9,161026.0,11:15:34.770,L,82.0,RL,742.2,644.5
GN3N4ZNCV9,161026.0,11:15:35.051,S,164.1,LS,199.2,117.2
GN3N4ZNCV9,161026.0,11:15:36.629,R,136.7,RR,343.8,210.9
GN3N4ZNCV9,161026.0,11:15:37.758,L,93.8,LL,363.3,218.8
GN3N4ZNCV9,161026.0,11:15:38.203,R,89.8,LR,449.2,355.5
GN3N4ZNCV9,161026.0,11:15:38.812,L,128.9,RL,570.3,480.5
GN3N4ZNCV9,161026.0,11:15:39.113,L,144.5,LL,285.2,156.3
GN3N4ZNCV9,161026.0,11:15:39.516,L,156.3,LL,390.6,246.1
GN3N4ZNCV9,161026.0,11:15:39.867,L,140.6,LL,367.2,210.9
GN3N4ZNCV9,161026.0,11:17:54.195,L,179.7,LL,289.1,191.4
GN3N4ZNCV9,161026.0,11:17:54.543,L,136.7,LL,390.6,210.9
GN3N4ZNCV9,161026.0,11:17:54.867,R,109.4,LR,351.6,214.8
GN3N4ZNCV9,161026.0,11:17:55.449,R,109.4,RR,582.0,472.7
GN3N4ZNCV9,161026.0,11:17:57.016,R,207.0,SR,230.5,62.5
GN3N4ZNCV9,161026.0,11:17:57.219,R,148.4,RR,261.7,54.7
GN3N4ZNCV9,161026.0,11:17:57.559,L,144.5,RL,343.8,195.3
GN3N4ZNCV9,161026.0,11:17:57.883,L,109.4,LL,359.4,214.8
GN3N4ZNCV9,161026.0,11:17:58.168,R,105.5,LR,289.1,179.7
GN3N4ZNCV9,161026.0,11:17:58.926,L,113.3,RL,750.0,644.5
GN3N4ZNCV9,161026.0,11:17:59.270,L,168.0,LL,289.1,175.8
GN3N4ZNCV9,161026.0,11:17:59.590,L,121.1,LL,367.2,199.2
GN3N4ZNCV9,161026.0,11:17:59.887,L,148.4,LL,269.5,148.4
GN3N4ZNCV9,161026.0,11:18:14.527,L,187.5,LL,296.9,187.5
GN3N4ZNCV9,161026.0,11:18:14.863,L,128.9,LL,394.5,207.0
GN3N4ZNCV9,161026.0,11:18:15.125,R,97.7,LR,293.0,164.1
GN3N4ZNCV9,161026.0,11:18:15.461,R,101.6,RR,332.0,234.4
GN3N4ZNCV9,161026.0,11:18:15.770,S,23.4,RS,132.8,285.2
GN3N4ZNCV9,161026.0,11:18:15.930,R,183.6,SR,132.8,285.2
GN3N4ZNCV9,161026.0,11:18:16.168,R,168.0,RR,253.9,70.3
GN3N4ZNCV9,161026.0,11:18:16.438,L,136.7,RL,300.8,132.8
GN3N4ZNCV9,161026.0,11:18:16.730,L,101.6,LL,328.1,191.4
GN3N4ZNCV9,161026.0,11:18:16.000,R,113.3,LR,257.8,156.3
GN3N4ZNCV9,161026.0,11:18:17.441,L,93.8,RL,460.9,347.7
GN3N4ZNCV9,161026.0,11:18:17.672,L,85.9,LL,238.3,144.5
GN3N4ZNCV9,161026.0,11:18:18.172,L,148.4,LL,437.5,351.6
GN3N4ZNCV9,161026.0,11:18:18.395,L,113.3,LL,257.8,109.4
GN3N4ZNCV9,161026.0,11:18:36.219,L,222.7,LL,281.3,164.1
GN3N4ZNCV9,161026.0,11:18:36.516,L,97.7,LL,421.9,199.2
GN3N4ZNCV9,161026.0,11:18:36.879,S,175.8,LS,285.2,187.5
GN3N4ZNCV9,161026.0,11:18:37.586,R,93.8,SR,789.1,613.3
GN3N4ZNCV9,161026.0,11:18:37.852,R,93.8,RR,265.6,171.9
GN3N4ZNCV9,161026.0,11:18:38.359,S,171.9,RS,429.7,335.9
GN3N4ZNCV9,161026.0,11:18:39.566,L,109.4,LL,433.6,351.6
GN3N4ZNCV9,161026.0,11:18:39.867,R,58.6,LR,351.6,242.2
GN3N4ZNCV9,161026.0,11:18:40.027,R,89.8,RR,128.9,70.3
GN3N4ZNCV9,161026.0,11:18:40.324,R,74.2,RR,312.5,222.7
GN3N4ZNCV9,161026.0,11:18:40.582,R,101.6,RR,230.5,156.3
GN3N4ZNCV9,161026.0,11:18:41.031,R,117.2,RR,433.6,332.0
GN3N4ZNCV9,161026.0,11:18:41.328,R,97.7,RR,316.4,199.2
GN3N4ZNCV9,161026.0,11:18:41.613,S,74.2,RS,97.7,210.9
GN3N4ZNCV9,161026.0,11:18:41.656,R,117.2,SR,97.7,210.9
GN3N4ZNCV9,161026.0,11:18:41.996,L,136.7,RL,320.3,203.1
GN3N4ZNCV9,161026.0,11:19:08.293,L,117.2,RL,285.2,175.8
GN3N4ZNCV9,161026.0,11:19:08.492,L,97.7,LL,218.8,101.6
GN3N4ZNCV9,161026.0,11:19:09.062,L,93.8,LL,574.2,476.6
GN3N4ZNCV9,161026.0,11:19:09.285,L,144.5,LL,171.9,78.1
GN3N4ZNCV9,161026.0,11:19:09.605,L,128.9,LL,335.9,191.4
GN3N4ZNCV9,161026.0,11:19:09.840,L,113.3,LL,250.0,121.1
GN3N4ZNCV9,161026.0,11:20:33.230,L,132.8,LL,296.9,191.4
GN3N4ZNCV9,161026.0,11:20:33.664,R,97.7,LR,468.8,335.9
GN3N4ZNCV9,161026.0,11:33:39.344,R,93.8,LR,515.6,402.3
GN3N4ZNCV9,161026.0,11:33:39.770,R,128.9,RR,390.6,296.9
GN3N4ZNCV9,161026.0,11:33:40.105,L,144.5,RL,320.3,191.4
GN3N4ZNCV9,161026.0,11:33:43.496,L,11.7,RL,128.9,234.4
GN3N4ZNCV9,161026.0,11:33:43.559,R,74.2,LR,128.9,234.4
GN3N4ZNCV9,161026.0,11:33:43.996,R,54.7,RR,457.0,382.8
GN3N4ZNCV9,161026.0,11:33:46.180,R,82.0,RR,160.2,82.0
GN3N4ZNCV9,161026.0,11:33:46.688,R,113.3,RR,476.6,394.5
GN3N4ZNCV9,161026.0,11:33:47.137,L,125.0,RL,437.5,324.2
GN3N4ZNCV9,161026.0,11:33:47.434,R,43.0,LR,203.1,253.9
GN3N4ZNCV9,161026.0,11:33:47.500,R,109.4,RR,203.1,253.9
GN3N4ZNCV9,161026.0,11:33:50.605,R,89.8,RR,281.3,175.8
GN3N4ZNCV9,161026.0,11:33:51.191,L,89.8,RL,585.9,496.1
GN3N4ZNCV9,161026.0,11:33:51.418,L,105.5,LL,210.9,121.1
GN3N4ZNCV9,161026.0,11:33:51.691,R,89.8,LR,289.1,183.6
GN3N4ZNCV9,161026.0,11:33:52.035,L,93.8,RL,339.8,250.0
GN3N4ZNCV9,161026.0,11:34:14.969,L,85.9,LL,476.6,371.1
GN3N4ZNCV9,161026.0,11:34:16.590,R,85.9,LR,386.7,269.5
GN3N4ZNCV9,161026.0,11:34:16.945,R,89.8,RR,351.6,265.6
GN3N4ZNCV9,161026.0,11:34:17.273,L,109.4,RL,308.6,218.8
GN3N4ZNCV9,161026.0,11:34:20.238,L,15.6,RL,125.0,238.3
GN3N4ZNCV9,161026.0,11:34:20.293,R,70.3,LR,125.0,238.3
GN3N4ZNCV9,161026.0,11:34:20.941,R,70.3,RR,648.4,578.1
GN3N4ZNCV9,161026.0,11:34:21.086,R,78.1,RR,136.7,66.4
GN3N4ZNCV9,161026.0,11:34:21.508,R,117.2,RR,382.8,304.7
GN3N4ZNCV9,161026.0,11:34:21.734,L,121.1,RL,222.7,105.5
GN3N4ZNCV9,161026.0,11:34:21.965,R,39.1,LR,179.7,191.4
GN3N4ZNCV9,161026.0,11:34:22.020,R,93.8,RR,179.7,191.4
GN3N4ZNCV9,161026.0,11:34:29.852,L,121.1,RL,738.3,652.3
GN3N4ZNCV9,161026.0,11:34:30.133,L,125.0,LL,277.3,156.3
GN3N4ZNCV9,161026.0,11:35:02.652,L,171.9,LL,257.8,140.6
GN3N4ZNCV9,161026.0,11:35:02.891,R,85.9,LR,324.2,152.3
GN3N4ZNCV9,161026.0,11:35:03.152,R,93.8,RR,253.9,168.0
GN3N4ZNCV9,161026.0,11:35:03.496,R,97.7,RR,339.8,246.1
GN3N4ZNCV9,161026.0,11:35:03.758,L,93.8,RL,265.6,168.0
GN3N4ZNCV9,161026.0,11:35:07.398,L,160.2,LL,226.6,136.7
GN3N4ZNCV9,161026.0,11:35:07.605,R,82.0,LR,285.2,125.0
GN3N4ZNCV9,161026.0,11:35:07.844,R,97.7,RR,222.7,140.6
GN3N4ZNCV9,161026.0,11:35:08.160,R,105.5,RR,308.6,210.9
GN3N4ZNCV9,161026.0,11:35:08.422,L,101.6,RL,265.6,160.2
GN3N4ZNCV9,161026.0,11:35:12.473,R,93.8,LR,300.8,183.6
GN3N4ZNCV9,161026.0,11:35:12.738,R,97.7,RR,261.7,168.0
GN3N4ZNCV9,161026.0,11:35:13.094,L,93.8,RL,359.4,261.7
GN3N4ZNCV9,161026.0,11:35:13.543,L,144.5,LL,398.4,304.7
GN3N4ZNCV9,161026.0,11:35:13.688,R,70.3,LR,218.8,74.2
GN3N4ZNCV9,161026.0,11:35:35.469,R,97.7,RR,335.9,207.0
GN3N4ZNCV9,161026.0,11:35:36.145,L,74.2,RL,699.2,601.6
GN3N4ZNCV9,161026.0,11:35:36.391,L,125.0,LL,195.3,121.1
GN3N4ZNCV9,161026.0,11:35:36.723,R,89.8,LR,367.2,242.2
GN3N4ZNCV9,161026.0,11:35:37.098,L,121.1,RL,343.8,253.9
GN3N4ZNCV9,161026.0,11:35:43.891,R,97.7,RR,261.7,164.1
GN3N4ZNCV9,161026.0,11:35:44.453,L,85.9,RL,574.2,476.6
GN3N4ZNCV9,161026.0,11:35:44.680,L,113.3,LL,199.2,113.3
GN3N4ZNCV9,161026.0,11:35:44.953,R,85.9,LR,300.8,187.5
GN3N4ZNCV9,161026.0,11:35:45.301,L,128.9,RL,304.7,218.8
GN3N4ZNCV9,161026.0,11:36:05.555,R,82.0,RR,378.9,273.4
GN3N4ZNCV9,161026.0,11:36:06.156,L,93.8,RL,589.8,507.8
GN3N4ZNCV9,161026.0,11:36:06.391,L,109.4,LL,218.8,125.0
GN3N4ZNCV9,161026.0,11:36:06.652,R,85.9,LR,285.2,175.8
GN3N4ZNCV9,161026.0,11:36:07.004,L,97.7,RL,339.8,253.9
GN3N4ZNCV9,161026.0,11:39:51.531,R,121.1,RR,449.2,304.7
GN3N4ZNCV9,161026.0,11:39:53.387,L,97.7,LL,644.5,519.5
GN3N4ZNCV9,161026.0,11:39:53.777,R,74.2,LR,414.1,316.4
GN3N4ZNCV9,161026.0,11:39:53.957,R,101.6,RR,152.3,78.1
GN3N4ZNCV9,161026.0,11:39:54.258,L,140.6,RL,261.7,160.2
GN3N4ZNCV9,161026.0,11:40:05.746,R,101.6,RR,671.9,566.4
GN3N4ZNCV9,161026.0,11:40:06.270,L,54.7,RL,570.3,468.8
GN3N4ZNCV9,161026.0,11:40:06.836,L,105.5,LL,515.6,460.9
GN3N4ZNCV9,161026.0,11:40:07.180,R,66.4,LR,382.8,277.3
GN3N4ZNCV9,161026.0,11:40:07.348,R,97.7,RR,136.7,70.3
GN3N4ZNCV9,161026.0,11:40:07.770,L,140.6,RL,378.9,281.3
GN3N4ZNCV9,161026.0,11:40:26.656,R,89.8,LR,386.7,250.0
GN3N4ZNCV9,161026.0,11:40:26.980,R,89.8,RR,324.2,234.4
GN3N4ZNCV9,161026.0,11:40:27.359,L,121.1,RL,347.7,257.8
GN3N4ZNCV9,161026.0,11:40:27.664,L,152.3,LL,273.4,152.3
GN3N4ZNCV9,161026.0,11:40:27.988,L,105.5,LL,371.1,218.8
GN3N4ZNCV9,161026.0,11:40:28.258,R,89.8,LR,285.2,179.7
GN3N4ZNCV9,161026.0,11:40:28.547,S,168.0,RS,210.9,121.1
GN3N4ZNCV9,161026.0,11:40:28.742,L,117.2,SL,246.1,78.1
GN3N4ZNCV9,161026.0,11:40:28.934,R,89.8,LR,218.8,101.6
GN3N4ZNCV9,161026.0,11:40:29.223,L,187.5,RL,191.4,101.6
GN3N4ZNCV9,161026.0,11:40:29.445,L,164.1,LL,246.1,58.6
GN3N4ZNCV9,161026.0,11:40:29.887,S,195.3,LS,410.2,246.1
GN3N4ZNCV9,161026.0,11:40:30.188,L,113.3,SL,382.8,187.5
GN3N4ZNCV9,161026.0,11:40:48.797,L,101.6,SL,476.6,285.2
GN3N4ZNCV9,161026.0,11:40:49.145,L,171.9,LL,277.3,175.8
GN3N4ZNCV9,161026.0,11:40:50.766,R,113.3,RR,332.0,250.0
GN3N4ZNCV9,161026.0,11:40:51.035,L,152.3,RL,230.5,117.2
GN3N4ZNCV9,161026.0,11:40:51.227,L,89.8,LL,253.9,101.6
GN3N4ZNCV9,161026.0,11:40:51.484,L,125.0,LL,222.7,132.8
GN3N4ZNCV9,161026.0,11:40:51.762,L,78.1,LL,324.2,199.2
GN3N4ZNCV9,161026.0,11:40:51.984,R,97.7,LR,203.1,125.0
GN3N4ZNCV9,161026.0,11:40:52.141,L,89.8,RL,164.1,66.4
GN3N4ZNCV9,161102.0,18:47:38.586,R,78.1,RR,328.1,218.8
GN3N4ZNCV9,161102.0,18:47:39.047,L,171.9,RL,367.2,289.1
GN3N4ZNCV9,161102.0,18:47:39.266,S,203.1,LS,187.5,15.6
GN3N4ZNCV9,161102.0,18:47:39.484,L,109.4,SL,312.5,109.4
GN3N4ZNCV9,161102.0,18:47:39.727,R,93.8,LR,257.8,148.4
GN3N4ZNCV9,161102.0,18:47:39.961,S,218.8,RS,109.4,15.6
GN3N4ZNCV9,161102.0,18:47:40.148,L,164.1,SL,242.2,23.4
GN3N4ZNCV9,161102.0,18:47:41.203,R,101.6,RR,312.5,218.8
GN3N4ZNCV9,161102.0,18:47:41.531,S,171.9,RS,257.8,156.3
GN3N4ZNCV9,161102.0,18:47:41.797,R,93.8,SR,343.8,171.9
GN3N4ZNCV9,161102.0,18:47:43.266,L,109.4,RL,203.1,101.6
GN3N4ZNCV9,161102.0,18:47:43.508,L,85.9,LL,265.6,156.3
GN3N4ZNCV9,161102.0,18:47:43.805,L,140.6,LL,242.2,156.3
GN3N4ZNCV9,161102.0,18:47:47.336,R,93.8,RR,296.9,210.9
GN3N4ZNCV9,161102.0,18:47:47.609,L,93.8,RL,273.4,179.7
GN3N4ZNCV9,161102.0,18:47:47.859,L,93.8,LL,250.0,156.3
GN3N4ZNCV9,161102.0,18:47:47.977,L,93.8,LL,117.2,23.4
