User_ID,Date,Timestamp,Hand,Hold_Time,Direction,Latency_Time,Flight_Time
GOCJ4TNPII,160622.0,10:28:54.238,R,70.3,RR,300.8,195.3
GOCJ4TNPII,160622.0,10:28:56.383,S,105.5,RS,250.0,179.7
GOCJ4TNPII,160622.0,10:28:56.863,L,105.5,SL,480.5,375.0
GOCJ4TNPII,160622.0,10:28:57.055,L,70.3,LL,226.6,121.1
GOCJ4TNPII,160622.0,10:28:57.316,L,70.3,LL,261.7,191.4
GOCJ4TNPII,160622.0,10:28:57.609,L,70.3,LL,293.0,222.7
GOCJ4TNPII,160622.0,10:28:59.086,L,70.3,LL,386.7,316.4
GOCJ4TNPII,160622.0,10:29:21.121,S,105.5,RS,425.8,320.3
GOCJ4TNPII,160622.0,10:29:22.801,S,105.5,RS,277.3,171.9
GOCJ4TNPII,160622.0,10:29:23.184,R,105.5,SR,382.8,277.3
GOCJ4TNPII,160622.0,10:29:23.613,R,105.5,RR,429.7,324.2
GOCJ4TNPII,160622.0,10:29:24.027,L,70.3,RL,449.2,343.8
GOCJ4TNPII,160622.0,10:29:24.402,S,105.5,LS,339.8,269.5
GOCJ4TNPII,160622.0,10:29:24.863,L,105.5,SL,460.9,355.5
GOCJ4TNPII,160622.0,10:29:25.891,L,70.3,RL,375.0,308.6
GOCJ4TNPII,160622.0,10:29:26.102,L,70.3,LL,210.9,140.6
GOCJ4TNPII,160622.0,10:29:26.473,S,70.3,LS,371.1,300.8
GOCJ4TNPII,160622.0,10:29:27.469,L,70.3,RL,437.5,367.2
GOCJ4TNPII,160622.0,10:29:27.824,S,105.5,LS,320.3,250.0
GOCJ4TNPII,160622.0,10:29:28.914,S,105.5,RS,367.2,296.9
GOCJ4TNPII,160622.0,10:29:35.508,L,70.3,LL,406.3,335.9
GOCJ4TNPII,160622.0,10:29:35.727,L,70.3,LL,218.8,148.4
GOCJ4TNPII,160622.0,10:29:36.102,S,109.4,LS,335.9,265.6
GOCJ4TNPII,160622.0,10:29:48.828,R,105.5,RR,296.9,230.5
GOCJ4TNPII,160622.0,10:29:49.066,R,136.7,RR,207.0,101.6
GOCJ4TNPII,160622.0,10:29:49.383,R,74.2,RR,378.9,242.2
GOCJ4TNPII,160622.0,10:29:50.281,L,105.5,LL,250.0,179.7
GOCJ4TNPII,160622.0,10:29:50.512,L,70.3,LL,265.6,160.2
GOCJ4TNPII,160622.0,10:29:50.949,S,101.6,LS,406.3,335.9
GOCJ4TNPII,160622.0,10:29:51.352,L,101.6,SL,402.3,300.8
GOCJ4TNPII,160622.0,10:29:51.617,R,101.6,LR,265.6,164.1
GOCJ4TNPII,160622.0,10:29:51.980,L,70.3,RL,394.5,293.0
GOCJ4TNPII,160622.0,10:29:52.449,S,105.5,LS,433.6,363.3
GOCJ4TNPII,160622.0,10:30:09.980,R,70.3,RR,175.8,70.3
GOCJ4TNPII,160622.0,10:30:10.312,R,105.5,RR,296.9,226.6
GOCJ4TNPII,160622.0,10:30:10.539,R,70.3,RR,261.7,156.3
GOCJ4TNPII,160622.0,10:30:10.969,L,105.5,RL,394.5,324.2
GOCJ4TNPII,160622.0,10:30:11.391,L,105.5,LL,421.9,316.4
GOCJ4TNPII,160622.0,10:30:12.668,R,70.3,RR,199.2,125.0
GOCJ4TNPII,160622.0,10:30:13.020,R,105.5,RR,316.4,246.1
GOCJ4TNPII,160622.0,10:46:56.422,L,109.4,LL,488.3,347.7
GOCJ4TNPII,160622.0,10:46:57.410,S,105.5,LS,367.2,265.6
GOCJ4TNPII,160622.0,10:46:58.945,L,66.4,LL,246.1,144.5
GOCJ4TNPII,160622.0,10:46:59.199,L,70.3,LL,250.0,183.6
GOCJ4TNPII,160622.0,10:48:08.016,R,101.6,LR,265.6,128.9
GOCJ4TNPII,160622.0,10:48:08.277,L,101.6,RL,261.7,160.2
GOCJ4TNPII,160622.0,10:48:08.527,L,70.3,LL,281.3,179.7
GOCJ4TNPII,160622.0,10:48:08.898,L,140.6,LL,300.8,230.5
GOCJ4TNPII,160622.0,10:48:09.250,R,101.6,LR,390.6,250.0
GOCJ4TNPII,160622.0,10:48:09.652,R,97.7,RR,406.3,304.7
GOCJ4TNPII,160622.0,10:48:18.633,L,105.5,LL,273.4,168.0
GOCJ4TNPII,160622.0,10:48:18.836,L,74.2,LL,234.4,128.9
GOCJ4TNPII,160622.0,10:48:19.227,L,175.8,LL,289.1,214.8
GOCJ4TNPII,160622.0,10:48:19.344,L,70.3,LL,222.7,46.9
GOCJ4TNPII,160622.0,10:48:20.816,L,70.3,LL,293.0,187.5
GOCJ4TNPII,160622.0,10:48:21.043,L,105.5,LL,191.4,121.1
GOCJ4TNPII,160622.0,10:49:26.707,R,70.3,LR,335.9,160.2
GOCJ4TNPII,160622.0,10:49:27.086,L,140.6,RL,308.6,238.3
GOCJ4TNPII,160622.0,10:49:27.496,L,105.5,LL,445.3,304.7
GOCJ4TNPII,160622.0,10:49:27.758,L,105.5,LL,261.7,156.3
GOCJ4TNPII,160622.0,10:49:28.102,L,140.6,LL,308.6,203.1
GOCJ4TNPII,160622.0,10:49:28.465,R,70.3,LR,433.6,293.0
GOCJ4TNPII,160622.0,10:49:28.742,R,66.4,RR,281.3,210.9
GOCJ4TNPII,160622.0,10:49:28.988,L,175.8,RL,136.7,70.3
GOCJ4TNPII,160622.0,10:49:29.285,R,105.5,LR,367.2,191.4
GOCJ4TNPII,160622.0,10:51:47.254,L,140.6,LL,453.1,312.5
GOCJ4TNPII,160622.0,10:51:47.691,R,101.6,LR,476.6,335.9
GOCJ4TNPII,160622.0,10:51:48.340,L,66.4,LL,179.7,74.2
GOCJ4TNPII,160622.0,10:51:48.824,S,101.6,LS,449.2,382.8
GOCJ4TNPII,160622.0,10:51:49.648,R,70.3,LR,230.5,93.8
GOCJ4TNPII,160622.0,10:51:49.867,L,101.6,RL,187.5,117.2
GOCJ4TNPII,160622.0,10:51:50.191,L,70.3,LL,355.5,253.9
GOCJ4TNPII,160622.0,10:51:50.488,L,101.6,LL,265.6,195.3
GOCJ4TNPII,160622.0,10:51:50.941,R,74.2,LR,480.5,378.9
GOCJ4TNPII,160622.0,10:51:51.266,R,70.3,RR,328.1,253.9
GOCJ4TNPII,160622.0,10:51:51.574,S,144.5,RS,234.4,164.1
GOCJ4TNPII,160622.0,10:51:51.824,R,105.5,SR,289.1,144.5
GOCJ4TNPII,160622.0,10:51:52.273,L,70.3,RL,484.4,378.9
GOCJ4TNPII,160622.0,10:51:52.500,L,101.6,LL,191.4,121.1
GOCJ4TNPII,160622.0,10:51:52.738,L,105.5,LL,238.3,136.7
GOCJ4TNPII,160622.0,10:51:53.156,S,70.3,LS,453.1,347.7
GOCJ4TNPII,160622.0,10:52:07.680,R,105.5,LR,394.5,253.9
GOCJ4TNPII,160622.0,10:52:08.070,L,105.5,RL,390.6,285.2
GOCJ4TNPII,160622.0,10:52:08.203,L,70.3,LL,168.0,62.5
GOCJ4TNPII,160622.0,10:52:08.609,L,105.5,LL,371.1,300.8
GOCJ4TNPII,160622.0,10:52:08.859,R,105.5,LR,250.0,144.5
GOCJ4TNPII,160622.0,10:52:09.250,L,105.5,RL,390.6,285.2
GOCJ4TNPII,160622.0,10:52:13.996,L,66.4,RL,328.1,187.5
GOCJ4TNPII,160622.0,10:52:14.250,L,105.5,LL,214.8,148.4
GOCJ4TNPII,160622.0,10:52:14.508,L,105.5,LL,257.8,152.3
GOCJ4TNPII,160622.0,10:52:15.453,R,70.3,RR,293.0,226.6
GOCJ4TNPII,160622.0,10:52:15.805,L,105.5,RL,316.4,246.1
GOCJ4TNPII,160622.0,14:35:55.117,R,171.9,LR,371.1,281.3
GOCJ4TNPII,160622.0,14:35:55.461,L,78.1,RL,437.5,265.6
GOCJ4TNPII,160622.0,14:35:55.727,R,78.1,LR,265.6,187.5
GOCJ4TNPII,160622.0,14:35:56.133,S,62.5,RS,421.9,343.8
GOCJ4TNPII,160622.0,14:35:56.586,L,78.1,SL,437.5,375.0
GOCJ4TNPII,160622.0,14:35:56.852,L,78.1,LL,265.6,187.5
GOCJ4TNPII,160622.0,14:35:57.305,R,78.1,LR,453.1,375.0
GOCJ4TNPII,160622.0,14:36:05.992,R,109.4,RR,390.6,281.3
GOCJ4TNPII,160622.0,14:36:06.289,S,109.4,RS,296.9,187.5
GOCJ4TNPII,160622.0,14:36:06.617,L,109.4,SL,328.1,218.8
GOCJ4TNPII,160622.0,14:36:07.023,L,113.3,LL,402.3,293.0
GOCJ4TNPII,160622.0,14:36:09.004,R,140.6,LR,343.8,203.1
GOCJ4TNPII,160622.0,14:36:09.316,L,109.4,RL,343.8,203.1
GOCJ4TNPII,160622.0,14:36:10.953,R,93.8,LR,281.3,234.4
GOCJ4TNPII,160622.0,14:36:17.145,R,136.7,RR,359.4,269.5
GOCJ4TNPII,160622.0,14:36:17.426,L,109.4,RL,308.6,171.9
GOCJ4TNPII,160622.0,14:36:17.645,S,78.1,LS,250.0,140.6
GOCJ4TNPII,160622.0,14:36:18.738,R,140.6,RR,234.4,125.0
GOCJ4TNPII,160622.0,14:36:18.926,R,109.4,RR,218.8,78.1
GOCJ4TNPII,160622.0,14:36:19.234,S,89.8,RS,328.1,218.8
GOCJ4TNPII,160622.0,14:36:22.277,L,109.4,LL,402.3,265.6
GOCJ4TNPII,160622.0,14:36:22.543,L,109.4,LL,265.6,156.3
GOCJ4TNPII,160622.0,14:36:22.855,S,140.6,LS,281.3,171.9
GOCJ4TNPII,160622.0,14:36:25.648,L,62.5,RL,390.6,296.9
GOCJ4TNPII,160622.0,14:36:25.820,L,31.3,LL,203.1,140.6
GOCJ4TNPII,160622.0,14:36:27.504,R,109.4,RR,312.5,203.1
GOCJ4TNPII,160622.0,14:36:27.832,L,109.4,RL,328.1,218.8
GOCJ4TNPII,160622.0,14:36:28.004,S,62.5,LS,218.8,109.4
GOCJ4TNPII,160622.0,14:36:28.488,L,93.8,SL,453.1,390.6
GOCJ4TNPII,160622.0,14:36:28.707,L,62.5,LL,250.0,156.3
GOCJ4TNPII,160622.0,14:36:29.156,R,58.6,LR,453.1,390.6
GOCJ4TNPII,160622.0,14:36:29.344,R,62.5,RR,183.6,125.0
GOCJ4TNPII,160622.0,14:36:29.672,S,78.1,RS,312.5,250.0
GOCJ4TNPII,160622.0,14:36:30.562,R,125.0,LR,187.5,78.1
GOCJ4TNPII,160622.0,14:36:30.703,L,62.5,RL,203.1,78.1
GOCJ4TNPII,160622.0,14:36:30.938,S,93.8,LS,203.1,140.6
GOCJ4TNPII,160622.0,14:36:31.324,R,89.8,SR,390.6,296.9
GOCJ4TNPII,160622.0,14:36:31.547,R,109.4,RR,203.1,113.3
GOCJ4TNPII,160622.0,14:36:31.746,R,109.4,RR,199.2,89.8
GOCJ4TNPII,160622.0,14:36:32.121,L,109.4,RL,375.0,265.6
GOCJ4TNPII,160622.0,14:36:32.371,S,62.5,LS,296.9,187.5
GOCJ4TNPII,160622.0,14:36:34.398,R,93.8,RR,312.5,203.1
GOCJ4TNPII,160622.0,14:36:34.852,L,62.5,RL,484.4,390.6
GOCJ4TNPII,160622.0,14:36:35.305,L,62.5,LL,453.1,390.6
GOCJ4TNPII,160622.0,14:36:35.648,S,109.4,LS,296.9,234.4
GOCJ4TNPII,160622.0,14:36:36.676,L,62.5,RL,296.9,183.6
GOCJ4TNPII,160622.0,14:36:36.941,S,78.1,LS,250.0,187.5
GOCJ4TNPII,160622.0,14:36:38.113,L,109.4,LL,265.6,203.1
GOCJ4TNPII,160622.0,14:36:38.598,L,109.4,LL,484.4,375.0
GOCJ4TNPII,160622.0,14:36:38.859,R,105.5,LR,265.6,156.3
GOCJ4TNPII,160622.0,14:37:06.988,R,140.6,LR,265.6,156.3
GOCJ4TNPII,160622.0,14:37:07.953,L,105.5,RL,296.9,203.1
GOCJ4TNPII,160622.0,14:37:08.672,S,31.3,LS,250.0,156.3
GOCJ4TNPII,160622.0,14:37:10.047,L,62.5,LL,406.3,296.9
GOCJ4TNPII,160622.0,14:37:10.266,R,93.8,LR,187.5,125.0
GOCJ4TNPII,160622.0,14:37:13.367,R,171.9,SR,406.3,261.7
GOCJ4TNPII,160622.0,14:37:13.523,L,78.1,RL,250.0,78.1
GOCJ4TNPII,160622.0,14:37:13.727,S,78.1,LS,203.1,125.0
GOCJ4TNPII,160622.0,14:37:17.457,L,93.8,RL,203.1,62.5
GOCJ4TNPII,160622.0,14:37:17.703,S,105.5,LS,234.4,140.6
GOCJ4TNPII,160622.0,14:37:18.016,L,109.4,SL,308.6,203.1
GOCJ4TNPII,160622.0,14:37:18.328,S,109.4,LS,312.5,203.1
GOCJ4TNPII,160622.0,14:37:21.559,R,78.1,RR,250.0,140.6
GOCJ4TNPII,160622.0,14:37:22.059,L,109.4,RL,468.8,390.6
GOCJ4TNPII,160622.0,14:37:29.641,S,93.8,LS,234.4,171.9
GOCJ4TNPII,160622.0,14:37:32.355,L,78.1,LL,250.0,140.6
GOCJ4TNPII,160622.0,14:37:32.711,S,109.4,LS,324.2,246.1
GOCJ4TNPII,160622.0,14:37:35.086,R,113.3,RR,312.5,168.0
GOCJ4TNPII,160622.0,14:37:35.473,R,93.8,RR,406.3,293.0
GOCJ4TNPII,160622.0,14:37:36.285,L,109.4,RL,281.3,171.9
GOCJ4TNPII,160622.0,14:37:36.770,S,109.4,LS,484.4,375.0
GOCJ4TNPII,160622.0,14:37:41.496,R,62.5,LR,359.4,281.3
GOCJ4TNPII,160622.0,14:37:41.684,R,78.1,RR,171.9,109.4
GOCJ4TNPII,160622.0,14:37:42.695,S,109.4,LS,421.9,312.5
GOCJ4TNPII,160622.0,14:37:43.711,R,109.4,LR,203.1,93.8
GOCJ4TNPII,160622.0,14:37:43.930,L,78.1,RL,250.0,140.6
GOCJ4TNPII,160622.0,14:37:44.320,S,93.8,LS,375.0,296.9
GOCJ4TNPII,160622.0,14:37:47.344,R,62.5,LR,418.0,339.8
GOCJ4TNPII,160622.0,14:37:47.656,L,62.5,RL,312.5,250.0
GOCJ4TNPII,160622.0,14:37:47.844,L,62.5,LL,187.5,125.0
GOCJ4TNPII,160622.0,14:37:48.203,S,78.1,LS,343.8,281.3
GOCJ4TNPII,160622.0,14:37:49.871,L,78.1,RL,355.5,277.3
GOCJ4TNPII,160622.0,14:37:50.027,L,78.1,LL,156.3,78.1
GOCJ4TNPII,160622.0,14:37:56.441,R,62.5,LR,171.9,62.5
GOCJ4TNPII,160622.0,14:37:56.703,L,105.5,RL,218.8,156.3
GOCJ4TNPII,160622.0,14:37:56.906,R,93.8,LR,214.8,109.4
GOCJ4TNPII,160622.0,14:37:57.328,S,93.8,RS,421.9,328.1
GOCJ4TNPII,160622.0,14:37:58.125,R,62.5,LR,265.6,203.1
GOCJ4TNPII,160622.0,14:37:58.312,R,62.5,RR,187.5,125.0
GOCJ4TNPII,160622.0,14:38:00.855,R,93.8,RR,171.9,109.4
GOCJ4TNPII,160622.0,14:38:02.070,S,78.1,RS,343.8,230.5
GOCJ4TNPII,160622.0,14:38:03.367,R,78.1,LR,187.5,93.8
GOCJ4TNPII,160622.0,14:38:03.711,S,109.4,RS,312.5,234.4
GOCJ4TNPII,160622.0,14:38:04.754,L,78.1,LL,359.4,281.3
GOCJ4TNPII,160622.0,14:38:08.125,L,62.5,RL,343.8,234.4
GOCJ4TNPII,160622.0,14:38:08.391,R,109.4,LR,218.8,156.3
GOCJ4TNPII,160622.0,14:38:09.965,R,109.4,RR,468.8,406.3
GOCJ4TNPII,160622.0,14:38:12.555,R,78.1,LR,125.0,15.6
GOCJ4TNPII,160622.0,14:38:12.883,L,140.6,RL,265.6,187.5
GOCJ4TNPII,160622.0,14:38:13.117,L,62.5,LL,312.5,171.9
GOCJ4TNPII,160622.0,14:38:13.430,S,109.4,LS,265.6,203.1
GOCJ4TNPII,160622.0,14:38:14.270,L,109.4,RL,199.2,62.5
GOCJ4TNPII,160622.0,14:38:14.426,S,62.5,LS,203.1,93.8
GOCJ4TNPII,160622.0,14:38:15.223,R,109.4,RR,171.9,109.4
GOCJ4TNPII,160622.0,14:38:15.488,R,109.4,RR,265.6,156.3
GOCJ4TNPII,160622.0,14:38:15.895,L,109.4,RL,406.3,296.9
GOCJ4TNPII,160622.0,14:38:16.098,S,109.4,LS,203.1,93.8
GOCJ4TNPII,160622.0,14:38:17.609,L,109.4,SL,468.8,375.0
GOCJ4TNPII,160622.0,14:38:18.047,R,109.4,LR,437.5,328.1
GOCJ4TNPII,160622.0,14:38:18.438,L,109.4,RL,390.6,281.3
GOCJ4TNPII,160622.0,14:38:18.641,R,144.5,LR,168.0,58.6
GOCJ4TNPII,160622.0,14:38:18.922,L,78.1,RL,347.7,203.1
GOCJ4TNPII,160622.0,14:38:24.098,S,109.4,LS,343.8,250.0
GOCJ4TNPII,160622.0,14:38:24.973,L,93.8,RL,250.0,109.4
GOCJ4TNPII,160622.0,14:38:25.113,S,78.1,LS,156.3,62.5
GOCJ4TNPII,160622.0,14:38:25.941,S,113.3,LS,293.0,183.6
GOCJ4TNPII,160622.0,14:38:28.266,R,46.9,LR,484.4,421.9
GOCJ4TNPII,160622.0,14:38:28.684,L,78.1,RL,386.7,339.8
GOCJ4TNPII,160622.0,14:38:30.637,R,78.1,LR,234.4,125.0
GOCJ4TNPII,160622.0,14:38:30.934,L,78.1,RL,296.9,218.8
GOCJ4TNPII,160622.0,14:38:31.430,R,140.6,LR,433.6,355.5
GOCJ4TNPII,160622.0,14:38:31.555,L,78.1,RL,187.5,46.9
GOCJ4TNPII,160622.0,14:38:31.836,S,109.4,LS,250.0,171.9
GOCJ4TNPII,160622.0,14:38:32.633,R,109.4,RR,171.9,109.4
GOCJ4TNPII,160622.0,14:38:32.820,R,109.4,RR,187.5,78.1
GOCJ4TNPII,160622.0,14:38:34.613,R,109.4,LR,203.1,109.4
GOCJ4TNPII,160622.0,14:38:35.004,R,140.6,RR,359.4,250.0
GOCJ4TNPII,160622.0,14:38:37.953,L,93.8,LL,281.3,156.3
GOCJ4TNPII,160622.0,14:38:38.230,S,89.8,LS,281.3,187.5
GOCJ4TNPII,160622.0,14:38:38.668,R,140.6,SR,386.7,296.9
GOCJ4TNPII,160622.0,14:38:38.855,R,109.4,RR,218.8,78.1
GOCJ4TNPII,160622.0,14:38:39.137,L,78.1,RL,312.5,203.1
GOCJ4TNPII,160622.0,14:38:39.434,S,62.5,LS,312.5,234.4
GOCJ4TNPII,160622.0,14:38:39.949,R,109.4,SR,468.8,406.3
GOCJ4TNPII,160622.0,14:38:40.121,L,93.8,RL,187.5,78.1
GOCJ4TNPII,160622.0,14:38:40.371,L,93.8,LL,250.0,156.3
GOCJ4TNPII,160622.0,14:38:40.805,S,62.5,LS,464.8,371.1
GOCJ4TNPII,160622.0,14:38:41.633,R,31.3,LR,234.4,156.3
GOCJ4TNPII,160622.0,14:38:41.758,L,62.5,RL,93.8,62.5
GOCJ4TNPII,160622.0,14:38:42.117,S,62.5,LS,359.4,296.9
GOCJ4TNPII,160622.0,14:38:42.805,R,109.4,LR,125.0,46.9
GOCJ4TNPII,160622.0,14:38:42.988,L,78.1,RL,214.8,105.5
GOCJ4TNPII,160622.0,14:38:43.285,S,105.5,LS,269.5,191.4
GOCJ4TNPII,160622.0,14:38:44.348,R,93.8,RR,265.6,156.3
GOCJ4TNPII,160622.0,14:38:44.848,L,109.4,RL,484.4,390.6
GOCJ4TNPII,160622.0,14:38:45.129,L,109.4,LL,281.3,171.9
GOCJ4TNPII,160622.0,14:38:45.316,L,109.4,LL,187.5,78.1
GOCJ4TNPII,160622.0,14:38:46.875,R,109.4,LR,218.8,125.0
GOCJ4TNPII,160622.0,14:38:47.234,L,78.1,RL,390.6,281.3
GOCJ4TNPII,160622.0,14:38:50.090,R,109.4,RR,187.5,125.0
GOCJ4TNPII,160622.0,14:38:50.242,R,58.6,RR,203.1,93.8
GOCJ4TNPII,160622.0,14:38:50.633,S,109.4,RS,339.8,281.3
GOCJ4TNPII,160622.0,14:38:50.977,R,109.4,SR,343.8,234.4
GOCJ4TNPII,160622.0,14:38:51.195,L,78.1,RL,250.0,140.6
GOCJ4TNPII,160622.0,14:38:52.117,L,78.1,LL,265.6,187.5
GOCJ4TNPII,160622.0,14:38:52.461,S,109.4,LS,312.5,234.4
GOCJ4TNPII,160622.0,14:38:53.723,R,140.6,LR,421.9,359.4
GOCJ4TNPII,160622.0,14:38:54.004,R,62.5,RR,359.4,218.8
GOCJ4TNPII,160622.0,14:39:02.957,L,109.4,SL,418.0,312.5
GOCJ4TNPII,160622.0,14:39:03.770,L,93.8,LL,312.5,203.1
GOCJ4TNPII,160622.0,14:39:10.117,L,62.5,LL,449.2,371.1
GOCJ4TNPII,160622.0,14:39:10.539,L,31.3,LL,453.1,390.6
GOCJ4TNPII,160622.0,14:39:11.430,R,62.5,LR,281.3,203.1
GOCJ4TNPII,160622.0,14:39:11.727,L,140.6,RL,218.8,156.3
GOCJ4TNPII,160622.0,14:39:11.977,L,109.4,LL,281.3,140.6
GOCJ4TNPII,160622.0,14:39:12.227,S,66.4,LS,293.0,183.6
GOCJ4TNPII,160622.0,14:39:12.598,R,78.1,SR,359.4,293.0
GOCJ4TNPII,160622.0,14:39:12.832,R,109.4,RR,203.1,125.0
GOCJ4TNPII,160622.0,14:39:12.941,R,62.5,RR,156.3,46.9
GOCJ4TNPII,160622.0,14:39:13.363,S,93.8,RS,390.6,328.1
GOCJ4TNPII,160622.0,14:39:15.188,R,109.4,RR,218.8,74.2
GOCJ4TNPII,160622.0,14:39:15.344,L,62.5,RL,203.1,93.8
GOCJ4TNPII,160622.0,14:39:15.625,S,109.4,LS,234.4,171.9
GOCJ4TNPII,160622.0,14:39:16.375,R,78.1,LR,203.1,109.4
GOCJ4TNPII,160622.0,14:39:16.688,S,62.5,RS,328.1,250.0
GOCJ4TNPII,160622.0,14:39:17.230,R,136.7,SR,468.8,406.3
GOCJ4TNPII,160622.0,14:39:25.016,R,140.6,LR,265.6,187.5
GOCJ4TNPII,160622.0,14:39:25.219,R,78.1,RR,265.6,125.0
GOCJ4TNPII,160622.0,14:39:25.531,L,78.1,RL,312.5,234.4
GOCJ4TNPII,160622.0,14:39:25.875,S,62.5,LS,359.4,281.3
GOCJ4TNPII,160622.0,14:39:26.938,L,113.3,LL,496.1,418.0
GOCJ4TNPII,160622.0,14:39:27.246,L,109.4,LL,312.5,199.2
GOCJ4TNPII,160622.0,14:39:27.465,L,109.4,LL,218.8,109.4
GOCJ4TNPII,160622.0,14:39:27.793,R,109.4,LR,328.1,218.8
GOCJ4TNPII,160622.0,14:39:28.590,R,78.1,LR,125.0,62.5
GOCJ4TNPII,160622.0,14:39:28.871,R,62.5,RR,296.9,218.8
GOCJ4TNPII,160622.0,14:39:29.152,R,109.4,RR,234.4,171.9
GOCJ4TNPII,160622.0,14:39:29.309,L,78.1,RL,187.5,78.1
GOCJ4TNPII,160622.0,14:39:29.789,S,62.5,LS,496.1,418.0
GOCJ4TNPII,160622.0,14:41:07.602,L,78.1,LL,468.8,375.0
GOCJ4TNPII,160622.0,14:41:07.805,R,109.4,LR,171.9,93.8
GOCJ4TNPII,160622.0,14:41:12.031,S,62.5,RS,277.3,199.2
GOCJ4TNPII,160622.0,14:41:15.605,R,109.4,LR,156.3,62.5
GOCJ4TNPII,160622.0,14:41:16.059,R,93.8,RR,468.8,359.4
GOCJ4TNPII,160622.0,14:41:16.898,R,109.4,LR,250.0,183.6
GOCJ4TNPII,160622.0,14:41:17.055,L,31.3,RL,234.4,125.0
GOCJ4TNPII,160622.0,14:41:17.414,L,109.4,LL,281.3,250.0
GOCJ4TNPII,160622.0,14:41:22.188,R,78.1,RR,343.8,265.6
GOCJ4TNPII,160622.0,14:41:22.469,R,109.4,RR,250.0,171.9
GOCJ4TNPII,160622.0,14:41:22.828,L,78.1,RL,390.6,281.3
GOCJ4TNPII,160622.0,14:41:23.172,R,140.6,LR,281.3,203.1
GOCJ4TNPII,160622.0,14:41:23.406,R,140.6,RR,234.4,93.8
GOCJ4TNPII,160622.0,14:41:28.680,L,62.5,LL,171.9,109.4
GOCJ4TNPII,160622.0,14:41:33.484,L,31.3,LL,359.4,281.3
GOCJ4TNPII,160622.0,14:41:34.965,S,93.8,LS,250.0,187.5
GOCJ4TNPII,160622.0,14:41:35.793,R,93.8,LR,156.3,46.9
GOCJ4TNPII,160622.0,14:41:35.914,L,58.6,RL,156.3,62.5
GOCJ4TNPII,160622.0,14:41:36.117,S,105.5,LS,156.3,97.7
GOCJ4TNPII,160622.0,14:41:39.098,L,93.8,LL,293.0,187.5
GOCJ4TNPII,160622.0,14:41:39.270,L,78.1,LL,187.5,93.8
GOCJ4TNPII,160622.0,14:41:39.535,S,109.4,LS,234.4,156.3
GOCJ4TNPII,160622.0,14:41:39.863,L,78.1,SL,359.4,250.0
GOCJ4TNPII,160622.0,14:41:40.020,R,109.4,LR,125.0,46.9
GOCJ4TNPII,160622.0,14:41:40.316,S,109.4,RS,296.9,187.5
GOCJ4TNPII,160622.0,14:41:41.406,L,78.1,RL,433.6,324.2
GOCJ4TNPII,160622.0,14:41:41.672,R,93.8,LR,250.0,171.9
GOCJ4TNPII,160622.0,14:41:41.875,R,78.1,RR,218.8,125.0
GOCJ4TNPII,160622.0,14:41:42.297,R,62.5,RR,437.5,359.4
GOCJ4TNPII,160622.0,14:41:42.766,L,62.5,RL,468.8,406.3
GOCJ4TNPII,160622.0,14:41:43.031,S,109.4,LS,218.8,156.3
GOCJ4TNPII,160622.0,14:41:43.359,R,78.1,SR,359.4,250.0
GOCJ4TNPII,160622.0,14:41:43.547,L,31.3,RL,234.4,156.3
GOCJ4TNPII,160622.0,14:41:43.996,S,62.5,LS,418.0,386.7
GOCJ4TNPII,160622.0,14:41:44.434,R,62.5,SR,437.5,375.0
GOCJ4TNPII,160622.0,14:41:44.621,R,78.1,RR,171.9,109.4
GOCJ4TNPII,160622.0,14:41:44.949,R,78.1,RR,328.1,250.0
GOCJ4TNPII,160622.0,14:41:50.066,L,78.1,RL,468.8,359.4
GOCJ4TNPII,160622.0,14:41:50.348,L,78.1,LL,281.3,203.1
GOCJ4TNPII,160622.0,14:41:50.703,R,58.6,LR,375.0,296.9
GOCJ4TNPII,160622.0,14:41:51.016,S,89.8,RS,281.3,222.7
GOCJ4TNPII,160622.0,14:41:52.094,R,109.4,RR,234.4,140.6
GOCJ4TNPII,160622.0,14:41:52.391,S,78.1,RS,328.1,218.8
GOCJ4TNPII,160622.0,14:41:52.844,L,62.5,SL,468.8,390.6
GOCJ4TNPII,160622.0,14:41:53.031,R,109.4,LR,140.6,78.1
GOCJ4TNPII,160622.0,14:41:53.172,L,62.5,RL,187.5,78.1
GOCJ4TNPII,160622.0,14:41:53.480,S,58.6,LS,312.5,250.0
GOCJ4TNPII,160622.0,14:41:53.918,L,109.4,SL,386.7,328.1
GOCJ4TNPII,160622.0,14:41:54.074,R,93.8,LR,171.9,62.5
GOCJ4TNPII,160622.0,14:41:54.480,R,109.4,RR,390.6,296.9
GOCJ4TNPII,160622.0,14:41:54.746,L,78.1,RL,296.9,187.5
GOCJ4TNPII,160622.0,14:41:55.043,L,109.4,LL,265.6,187.5
GOCJ4TNPII,160622.0,14:41:55.215,L,109.4,LL,171.9,62.5
GOCJ4TNPII,160622.0,14:41:56.102,R,62.5,LR,277.3,199.2
GOCJ4TNPII,160622.0,14:41:56.414,R,109.4,RR,265.6,203.1
GOCJ4TNPII,160622.0,14:41:56.711,S,62.5,RS,343.8,234.4
GOCJ4TNPII,160622.0,14:41:58.008,R,109.4,RR,218.8,109.4
GOCJ4TNPII,160622.0,14:42:00.984,R,78.1,SR,433.6,328.1
GOCJ4TNPII,160622.0,14:42:01.219,R,109.4,RR,203.1,125.0
GOCJ4TNPII,160622.0,14:42:01.406,R,109.4,RR,187.5,78.1
GOCJ4TNPII,160622.0,14:42:01.703,S,62.5,RS,343.8,234.4
GOCJ4TNPII,160622.0,14:42:02.547,L,78.1,LL,296.9,187.5
GOCJ4TNPII,160622.0,14:42:02.734,L,78.1,LL,187.5,109.4
GOCJ4TNPII,160622.0,14:42:03.199,S,78.1,LS,464.8,386.7
GOCJ4TNPII,160622.0,14:42:03.637,L,109.4,SL,406.3,328.1
GOCJ4TNPII,160622.0,14:42:03.840,R,62.5,LR,250.0,140.6
GOCJ4TNPII,160622.0,14:42:04.230,R,78.1,RR,375.0,312.5
GOCJ4TNPII,160622.0,14:42:06.133,R,78.1,RR,281.3,171.9
GOCJ4TNPII,160622.0,14:42:06.445,L,78.1,RL,312.5,234.4
GOCJ4TNPII,160622.0,14:42:17.039,L,62.5,LL,234.4,125.0
GOCJ4TNPII,160622.0,14:42:17.352,S,109.4,LS,265.6,203.1
GOCJ4TNPII,160622.0,14:42:17.879,R,140.6,SR,496.1,386.7
GOCJ4TNPII,160622.0,14:42:18.191,R,109.4,RR,343.8,203.1
GOCJ4TNPII,160622.0,14:42:18.457,L,78.1,RL,296.9,187.5
GOCJ4TNPII,160622.0,14:42:18.645,L,62.5,LL,203.1,125.0
GOCJ4TNPII,160622.0,14:42:18.910,S,140.6,LS,187.5,125.0
GOCJ4TNPII,160622.0,14:42:19.285,R,78.1,SR,437.5,296.9
GOCJ4TNPII,160622.0,14:42:19.504,R,109.4,RR,187.5,109.4
GOCJ4TNPII,160622.0,14:42:19.707,R,109.4,RR,203.1,93.8
GOCJ4TNPII,160622.0,14:42:24.137,L,78.1,SL,406.3,296.9
GOCJ4TNPII,160622.0,14:42:24.434,R,140.6,LR,234.4,156.3
GOCJ4TNPII,160622.0,14:42:24.730,S,78.1,RS,359.4,218.8
GOCJ4TNPII,160622.0,14:42:25.789,L,109.4,LL,250.0,187.5
GOCJ4TNPII,160622.0,14:42:26.086,L,78.1,LL,328.1,218.8
GOCJ4TNPII,160622.0,14:42:27.148,L,109.4,RL,453.1,375.0
GOCJ4TNPII,160622.0,14:42:27.645,R,109.4,LR,496.1,386.7
GOCJ4TNPII,160622.0,14:42:27.926,L,78.1,RL,312.5,203.1
GOCJ4TNPII,160622.0,14:42:28.082,L,62.5,LL,171.9,93.8
GOCJ4TNPII,160622.0,14:42:28.316,R,109.4,LR,187.5,125.0
GOCJ4TNPII,160622.0,14:42:28.645,R,109.4,RR,328.1,218.8
GOCJ4TNPII,160622.0,14:42:29.473,S,109.4,LS,171.9,93.8
GOCJ4TNPII,160622.0,14:42:29.723,L,66.4,SL,293.0,183.6
GOCJ4TNPII,160622.0,14:42:29.859,R,105.5,LR,97.7,31.3
GOCJ4TNPII,160622.0,14:42:30.094,L,89.8,RL,250.0,144.5
GOCJ4TNPII,160622.0,14:42:30.375,S,109.4,LS,261.7,171.9
GOCJ4TNPII,160622.0,14:42:31.109,R,109.4,LR,203.1,125.0
GOCJ4TNPII,160622.0,14:42:32.109,R,113.3,LR,168.0,105.5
GOCJ4TNPII,160622.0,14:42:32.434,L,136.7,RL,300.8,187.5
GOCJ4TNPII,160622.0,14:42:32.715,S,109.4,LS,308.6,171.9
GOCJ4TNPII,160622.0,14:42:33.059,R,93.8,SR,359.4,250.0
GOCJ4TNPII,160622.0,14:42:33.277,L,62.5,RL,250.0,156.3
GOCJ4TNPII,160622.0,14:42:34.414,L,74.2,LL,484.4,375.0
GOCJ4TNPII,160622.0,14:42:34.773,S,78.1,LS,355.5,281.3
GOCJ4TNPII,160622.0,14:42:35.680,L,62.5,LL,234.4,140.6
GOCJ4TNPII,160622.0,14:42:36.617,S,109.4,LS,312.5,234.4
GOCJ4TNPII,160622.0,14:42:39.348,R,78.1,LR,171.9,93.8
GOCJ4TNPII,160622.0,14:42:43.637,L,140.6,LL,406.3,343.8
GOCJ4TNPII,160622.0,14:42:43.777,R,93.8,LR,187.5,46.9
GOCJ4TNPII,160622.0,14:42:44.164,L,74.2,RL,406.3,312.5
GOCJ4TNPII,160622.0,14:42:44.492,S,105.5,LS,296.9,222.7
GOCJ4TNPII,160622.0,14:42:46.555,L,78.1,LL,234.4,140.6
GOCJ4TNPII,160622.0,14:42:46.816,R,89.8,LR,250.0,171.9
GOCJ4TNPII,160622.0,14:42:47.145,L,78.1,RL,339.8,250.0
GOCJ4TNPII,160622.0,14:42:52.605,R,78.1,RR,234.4,125.0
GOCJ4TNPII,160622.0,14:42:53.074,L,78.1,RL,468.8,390.6
GOCJ4TNPII,160622.0,14:42:53.293,L,62.5,LL,234.4,156.3
GOCJ4TNPII,160622.0,14:42:53.605,S,140.6,LS,234.4,171.9
GOCJ4TNPII,160622.0,14:42:53.902,R,62.5,SR,375.0,234.4
GOCJ4TNPII,160622.0,14:42:54.117,R,89.8,RR,187.5,125.0
GOCJ4TNPII,160622.0,14:42:54.273,R,78.1,RR,168.0,78.1
GOCJ4TNPII,160622.0,14:42:54.602,S,62.5,RS,343.8,265.6
GOCJ4TNPII,160622.0,14:42:55.086,L,109.4,SL,437.5,375.0
GOCJ4TNPII,160622.0,14:42:55.383,L,109.4,LL,296.9,187.5
GOCJ4TNPII,160622.0,14:42:55.602,L,109.4,LL,218.8,109.4
GOCJ4TNPII,160622.0,14:42:55.961,R,93.8,LR,375.0,265.6
GOCJ4TNPII,160622.0,14:42:56.211,S,62.5,RS,281.3,187.5
GOCJ4TNPII,160622.0,14:42:56.723,R,109.4,SR,464.8,402.3
GOCJ4TNPII,160622.0,14:42:57.035,R,78.1,RR,343.8,234.4
GOCJ4TNPII,160622.0,14:42:57.754,R,62.5,LR,234.4,171.9
GOCJ4TNPII,160622.0,14:43:13.355,L,62.5,LL,250.0,140.6
GOCJ4TNPII,160622.0,14:43:13.570,S,89.8,LS,187.5,125.0
GOCJ4TNPII,160622.0,14:43:14.039,S,140.6,SS,418.0,328.1
GOCJ4TNPII,160622.0,14:43:15.102,S,109.4,LS,375.0,281.3
GOCJ4TNPII,160622.0,14:43:16.102,L,66.4,LL,246.1,183.6
GOCJ4TNPII,160622.0,14:43:17.113,L,109.4,LL,359.4,296.9
GOCJ4TNPII,160622.0,14:43:17.348,L,78.1,LL,265.6,156.3
GOCJ4TNPII,160622.0,14:43:17.660,S,93.8,LS,296.9,218.8
GOCJ4TNPII,160622.0,14:43:18.578,L,58.6,LL,390.6,296.9
GOCJ4TNPII,160622.0,14:43:18.828,R,62.5,LR,246.1,187.5
GOCJ4TNPII,160622.0,14:43:30.547,L,78.1,RL,406.3,328.1
GOCJ4TNPII,160622.0,14:43:30.844,L,113.3,LL,261.7,183.6
GOCJ4TNPII,160622.0,14:43:31.184,S,109.4,LS,343.8,230.5
GOCJ4TNPII,160622.0,14:43:31.699,R,62.5,SR,281.3,453.1
GOCJ4TNPII,160622.0,14:43:32.012,R,62.5,RR,312.5,250.0
GOCJ4TNPII,160622.0,14:43:32.480,R,78.1,RR,453.1,390.6
GOCJ4TNPII,160622.0,14:43:32.762,S,46.9,RS,312.5,234.4
GOCJ4TNPII,160622.0,14:43:35.367,L,78.1,LL,281.3,203.1
GOCJ4TNPII,160622.0,14:43:35.602,L,35.2,LL,277.3,199.2
GOCJ4TNPII,160622.0,14:51:51.836,R,78.1,RR,453.1,359.4
GOCJ4TNPII,160622.0,14:51:52.930,L,66.4,RL,496.1,433.6
GOCJ4TNPII,160622.0,14:52:25.281,L,109.4,LL,187.5,78.1
GOCJ4TNPII,160622.0,14:52:25.406,L,62.5,LL,171.9,62.5
GOCJ4TNPII,160622.0,18:20:44.891,R,70.3,RR,320.3,250.0
GOCJ4TNPII,160622.0,18:20:45.641,R,109.4,RR,171.9,62.5
GOCJ4TNPII,160622.0,18:21:18.461,R,70.3,RR,375.0,273.4
GOCJ4TNPII,160622.0,18:21:18.914,R,70.3,RR,453.1,382.8
GOCJ4TNPII,160622.0,18:21:30.812,R,101.6,RR,375.0,273.4
GOCJ4TNPII,160622.0,18:21:31.219,R,109.4,RR,398.4,296.9
GOCJ4TNPII,160622.0,18:21:31.344,R,70.3,RR,164.1,54.7
GOCJ4TNPII,160622.0,18:22:39.273,R,140.6,LR,304.7,234.4
GOCJ4TNPII,160622.0,18:22:40.266,L,70.3,LL,398.4,296.9
GOCJ4TNPII,160622.0,18:23:32.258,L,101.6,LL,351.6,250.0
GOCJ4TNPII,160622.0,18:23:32.555,L,70.3,LL,328.1,226.6
GOCJ4TNPII,160622.0,18:23:32.703,L,70.3,LL,148.4,78.1
GOCJ4TNPII,160622.0,18:23:41.516,L,70.3,LL,164.1,93.8
GOCJ4TNPII,160623.0,19:28:28.633,R,78.1,RR,445.3,343.8
GOCJ4TNPII,160623.0,19:28:29.023,R,101.6,RR,367.2,289.1
GOCJ4TNPII,160623.0,19:28:29.188,R,109.4,RR,156.3,54.7
GOCJ4TNPII,160623.0,19:28:29.523,R,78.1,RR,367.2,257.8
GOCJ4TNPII,160623.0,19:30:47.852,R,70.3,LR,390.6,328.1
GOCJ4TNPII,160623.0,19:30:48.258,L,70.3,RL,406.3,335.9
GOCJ4TNPII,160623.0,19:30:48.555,L,31.3,LL,335.9,265.6
GOCJ4TNPII,160623.0,19:37:08.594,R,109.4,RR,328.1,250.0
GOCJ4TNPII,160623.0,19:37:24.578,R,109.4,RR,359.4,250.0
GOCJ4TNPII,160624.0,06:05:20.707,R,62.5,RR,375.0,265.6
GOCJ4TNPII,160624.0,06:05:23.234,L,62.5,LL,312.5,234.4
GOCJ4TNPII,160624.0,06:13:43.660,L,105.5,LL,367.2,166.0
GOCJ4TNPII,160624.0,06:13:46.092,S,72.3,LS,457.0,384.8
GOCJ4TNPII,160624.0,06:13:48.150,L,68.4,LL,380.9,310.5
GOCJ4TNPII,160624.0,06:13:49.186,L,68.4,LL,414.1,341.8
GOCJ4TNPII,160624.0,06:13:49.654,L,72.3,LL,464.8,396.5
GOCJ4TNPII,160624.0,06:14:55.061,R,105.5,RR,179.7,74.2
GOCJ4TNPII,160624.0,06:14:55.541,R,103.5,RR,482.4,377.0
GOCJ4TNPII,160624.0,06:14:55.826,R,70.3,RR,318.4,214.8
GOCJ4TNPII,160624.0,06:14:56.006,R,68.4,RR,181.6,111.3
GOCJ4TNPII,160624.0,06:16:24.049,L,103.5,LL,255.9,150.4
GOCJ4TNPII,160624.0,06:16:24.338,L,68.4,LL,324.2,220.7
GOCJ4TNPII,160624.0,06:16:24.486,L,72.3,LL,144.5,76.2
GOCJ4TNPII,160624.0,06:16:27.213,R,105.5,RR,433.6,363.3
GOCJ4TNPII,160624.0,06:16:29.381,L,70.3,LL,253.9,183.6
GOCJ4TNPII,160624.0,06:16:29.811,S,105.5,LS,394.5,324.2
GOCJ4TNPII,160624.0,06:16:32.426,L,31.3,LL,375.0,267.6
GOCJ4TNPII,160624.0,06:16:32.920,L,68.4,LL,455.1,423.8
GOCJ4TNPII,160624.0,06:16:33.312,L,68.4,LL,394.5,326.2
GOCJ4TNPII,160624.0,06:16:33.781,L,70.3,LL,466.8,398.4
GOCJ4TNPII,160624.0,06:20:14.086,R,103.5,RR,404.3,334.0
GOCJ4TNPII,160624.0,06:24:29.764,R,66.4,RR,404.3,335.9
GOCJ4TNPII,160624.0,06:24:30.227,L,68.4,RL,460.9,394.5
GOCJ4TNPII,160624.0,06:24:32.898,R,70.3,RR,429.7,359.4
GOCJ4TNPII,160624.0,06:35:10.201,R,68.4,RR,320.3,250.0
GOCJ4TNPII,160624.0,06:35:10.600,L,103.5,RL,363.3,294.9
GOCJ4TNPII,160624.0,06:35:11.090,S,107.4,LS,486.3,382.8
GOCJ4TNPII,160624.0,06:35:12.668,R,105.5,RR,320.3,252.0
GOCJ4TNPII,160624.0,06:35:13.072,L,68.4,RL,441.4,335.9
GOCJ4TNPII,160624.0,06:35:13.641,S,140.6,LS,496.1,427.7
GOCJ4TNPII,160624.0,06:41:45.176,L,68.4,LL,287.1,146.5
GOCJ4TNPII,160624.0,06:41:45.514,L,70.3,LL,334.0,265.6
GOCJ4TNPII,160624.0,06:41:45.652,L,70.3,LL,140.6,70.3
GOCJ4TNPII,160624.0,06:41:49.273,L,70.3,LL,343.8,273.4
GOCJ4TNPII,160624.0,06:41:49.723,L,35.2,LL,484.4,414.1
GOCJ4TNPII,160624.0,06:41:50.689,L,68.4,LL,416.0,380.9
GOCJ4TNPII,160624.0,06:42:14.754,S,105.5,RS,408.2,302.7
GOCJ4TNPII,160624.0,06:42:16.775,R,68.4,RR,392.6,322.3
GOCJ4TNPII,160624.0,06:42:19.875,L,68.4,LL,412.1,377.0
