User_ID,Date,Timestamp,Hand,Hold_Time,Direction,Latency_Time,Flight_Time
JDWYGP605O,160919.0,18:51:15.172,R,78.1,RR,343.8,265.6
JDWYGP605O,160919.0,18:51:15.734,L,46.9,RL,593.8,515.6
JDWYGP605O,160919.0,18:51:16.500,R,62.5,LR,750.0,703.1
JDWYGP605O,160919.0,18:51:30.391,R,62.5,RR,625.0,531.3
JDWYGP605O,160919.0,18:51:30.672,R,62.5,RR,281.3,218.8
JDWYGP605O,160919.0,18:51:35.672,L,78.1,SL,656.3,468.8
JDWYGP605O,160919.0,18:51:36.828,R,78.1,RR,343.8,265.6
JDWYGP605O,160919.0,18:51:37.359,L,93.8,RL,515.6,437.5
JDWYGP605O,160919.0,18:51:37.891,L,46.9,LL,578.1,484.4
