User_ID,Date,Timestamp,Hand,Hold_Time,Direction,Latency_Time,Flight_Time
JIRZDKEJQN,170127.0,16:51:42.047,R,93.8,LR,453.1,312.5
JIRZDKEJQN,170127.0,16:51:42.734,R,78.1,RR,703.1,609.4
JIRZDKEJQN,170127.0,16:51:43.047,R,62.5,RR,328.1,250.0
JIRZDKEJQN,170127.0,16:51:43.703,R,109.4,RR,609.4,546.9
JIRZDKEJQN,170127.0,16:51:44.062,R,125.0,RR,343.8,234.4
JIRZDKEJQN,170127.0,16:51:44.453,L,156.3,RL,359.4,234.4
JIRZDKEJQN,170127.0,16:51:49.812,L,187.5,LL,687.5,484.4
JIRZDKEJQN,170127.0,16:51:52.516,R,109.4,RR,546.9,390.6
JIRZDKEJQN,170127.0,16:51:52.906,L,109.4,RL,390.6,281.3
JIRZDKEJQN,170127.0,16:51:53.500,L,78.1,LL,625.0,515.6
JIRZDKEJQN,170127.0,16:51:59.969,R,156.3,RR,500.0,343.8
JIRZDKEJQN,170127.0,16:52:00.391,L,109.4,RL,468.8,312.5
JIRZDKEJQN,170127.0,16:52:00.734,L,140.6,LL,312.5,203.1
JIRZDKEJQN,170127.0,16:52:00.953,L,93.8,LL,265.6,125.0
JIRZDKEJQN,170127.0,16:52:01.562,R,93.8,LR,609.4,515.6
JIRZDKEJQN,170127.0,16:52:01.828,L,140.6,RL,218.8,125.0
JIRZDKEJQN,170127.0,16:52:02.219,L,125.0,LL,406.3,265.6
JIRZDKEJQN,170127.0,16:52:05.219,L,203.1,RL,718.8,593.8
JIRZDKEJQN,170127.0,16:52:05.562,R,109.4,LR,437.5,234.4
JIRZDKEJQN,170127.0,16:52:05.922,R,62.5,RR,406.3,296.9
JIRZDKEJQN,170127.0,16:52:14.781,R,109.4,LR,453.1,265.6
JIRZDKEJQN,170127.0,16:52:15.188,R,93.8,RR,421.9,312.5
JIRZDKEJQN,170129.0,08:48:32.109,L,140.6,RL,437.5,296.9
JIRZDKEJQN,170129.0,08:48:32.500,R,109.4,LR,421.9,281.3
JIRZDKEJQN,170129.0,08:48:40.734,L,140.6,RL,531.3,437.5
JIRZDKEJQN,170129.0,08:48:40.922,R,78.1,LR,250.0,109.4
JIRZDKEJQN,170129.0,08:48:41.484,L,109.4,RL,531.3,453.1
JIRZDKEJQN,170129.0,08:48:41.906,L,109.4,LL,421.9,312.5
JIRZDKEJQN,170129.0,08:48:42.234,L,78.1,LL,359.4,250.0
JIRZDKEJQN,170129.0,08:49:26.641,L,109.4,RL,328.1,203.1
JIRZDKEJQN,170129.0,08:49:27.406,R,93.8,LR,781.3,671.9
JIRZDKEJQN,170129.0,08:49:33.750,R,78.1,LR,484.4,390.6
JIRZDKEJQN,170129.0,08:49:34.531,L,203.1,RL,656.3,578.1
JIRZDKEJQN,170129.0,08:49:35.797,L,109.4,LL,484.4,359.4
JIRZDKEJQN,170129.0,08:55:19.625,R,140.6,LR,609.4,437.5
JIRZDKEJQN,170129.0,08:55:22.828,L,140.6,RL,312.5,203.1
JIRZDKEJQN,170129.0,08:55:23.469,R,31.3,LR,750.0,609.4
JIRZDKEJQN,170129.0,08:55:35.844,R,171.9,RR,453.1,312.5
JIRZDKEJQN,170129.0,08:55:36.328,L,109.4,RL,546.9,375.0
JIRZDKEJQN,170129.0,08:55:36.859,L,78.1,LL,562.5,453.1
JIRZDKEJQN,170129.0,08:55:37.266,L,78.1,LL,406.3,328.1
JIRZDKEJQN,170129.0,08:55:38.031,L,140.6,LL,703.1,625.0
JIRZDKEJQN,170129.0,08:55:38.406,R,78.1,LR,437.5,296.9
JIRZDKEJQN,170129.0,08:55:38.562,R,78.1,RR,156.3,78.1
JIRZDKEJQN,170129.0,08:55:52.266,R,140.6,LR,750.0,562.5
JIRZDKEJQN,170129.0,08:55:52.734,R,125.0,RR,484.4,343.8
JIRZDKEJQN,170129.0,08:56:45.422,R,171.9,LR,796.9,718.8
JIRZDKEJQN,170129.0,08:56:45.750,L,62.5,RL,437.5,265.6
JIRZDKEJQN,170129.0,08:56:46.031,S,171.9,LS,171.9,109.4
JIRZDKEJQN,170129.0,08:56:47.031,S,109.4,RS,406.3,328.1
JIRZDKEJQN,170129.0,08:56:47.766,L,62.5,SL,390.6,671.9
JIRZDKEJQN,170129.0,08:56:47.938,L,62.5,LL,171.9,109.4
JIRZDKEJQN,170129.0,08:57:02.375,S,218.8,RS,640.6,546.9
JIRZDKEJQN,170129.0,08:57:13.297,L,109.4,RL,156.3,15.6
JIRZDKEJQN,170129.0,08:57:13.797,R,78.1,LR,531.3,421.9
JIRZDKEJQN,170129.0,08:57:15.609,S,140.6,RS,296.9,234.4
JIRZDKEJQN,170129.0,08:57:17.000,R,109.4,RR,562.5,421.9
JIRZDKEJQN,170129.0,08:57:17.406,R,109.4,RR,406.3,296.9
JIRZDKEJQN,170129.0,08:57:17.797,S,93.8,RS,406.3,296.9
JIRZDKEJQN,170129.0,08:57:18.062,L,62.5,SL,296.9,203.1
JIRZDKEJQN,170129.0,08:57:18.156,L,78.1,LL,78.1,15.6
JIRZDKEJQN,170129.0,08:57:18.609,R,140.6,LR,390.6,312.5
JIRZDKEJQN,170129.0,08:57:18.859,L,78.1,RL,312.5,171.9
JIRZDKEJQN,170129.0,08:57:19.078,S,109.4,LS,187.5,109.4
JIRZDKEJQN,170129.0,08:57:19.328,L,140.6,SL,218.8,109.4
JIRZDKEJQN,170129.0,08:57:19.469,R,109.4,LR,171.9,31.3
JIRZDKEJQN,170129.0,08:57:19.812,L,171.9,RL,281.3,171.9
JIRZDKEJQN,170129.0,08:57:20.234,S,78.1,LS,515.6,343.8
JIRZDKEJQN,170129.0,08:57:27.500,L,140.6,RL,312.5,171.9
JIRZDKEJQN,170129.0,08:57:27.812,S,171.9,LS,281.3,140.6
JIRZDKEJQN,170129.0,08:57:27.969,L,109.4,SL,218.8,46.9
JIRZDKEJQN,170129.0,08:57:28.172,R,109.4,LR,203.1,93.8
JIRZDKEJQN,170129.0,08:57:28.438,L,140.6,RL,234.4,125.0
JIRZDKEJQN,170129.0,08:57:28.984,S,109.4,LS,578.1,437.5
JIRZDKEJQN,170129.0,08:57:31.062,L,171.9,LL,406.3,296.9
JIRZDKEJQN,170129.0,08:57:32.969,R,125.0,RR,359.4,250.0
JIRZDKEJQN,170129.0,08:57:33.297,L,62.5,RL,390.6,265.6
JIRZDKEJQN,170129.0,08:57:33.531,S,109.4,LS,187.5,125.0
JIRZDKEJQN,170129.0,08:57:33.828,L,62.5,SL,343.8,234.4
JIRZDKEJQN,170129.0,08:57:34.141,L,78.1,LL,296.9,234.4
JIRZDKEJQN,170129.0,08:57:34.719,L,109.4,LL,546.9,468.8
JIRZDKEJQN,170129.0,08:57:35.484,R,78.1,LR,796.9,687.5
JIRZDKEJQN,170129.0,08:57:35.750,R,78.1,RR,265.6,187.5
JIRZDKEJQN,170129.0,08:57:36.234,R,93.8,RR,468.8,390.6
JIRZDKEJQN,170129.0,08:57:36.703,L,62.5,RL,500.0,406.3
JIRZDKEJQN,170129.0,08:57:40.938,L,46.9,SL,171.9,359.4
JIRZDKEJQN,170129.0,08:57:40.938,R,46.9,LR,171.9,359.4
JIRZDKEJQN,170129.0,08:57:41.438,S,140.6,RS,406.3,359.4
JIRZDKEJQN,170129.0,08:57:43.297,R,140.6,RR,453.1,343.8
JIRZDKEJQN,170129.0,08:57:43.672,S,109.4,RS,406.3,265.6
JIRZDKEJQN,170129.0,08:57:43.906,L,62.5,SL,281.3,171.9
JIRZDKEJQN,170129.0,08:57:46.328,R,93.8,LR,500.0,328.1
JIRZDKEJQN,170129.0,08:57:46.625,L,78.1,RL,312.5,218.8
JIRZDKEJQN,170129.0,08:57:47.000,L,109.4,LL,343.8,265.6
JIRZDKEJQN,170129.0,08:57:47.250,L,78.1,LL,281.3,171.9
JIRZDKEJQN,170129.0,08:57:47.672,S,109.4,LS,390.6,312.5
JIRZDKEJQN,170129.0,08:57:48.172,L,140.6,SL,468.8,359.4
JIRZDKEJQN,170129.0,08:57:48.953,R,140.6,LR,781.3,640.6
JIRZDKEJQN,170129.0,08:57:49.391,L,78.1,RL,500.0,359.4
JIRZDKEJQN,170129.0,08:57:49.719,S,93.8,LS,312.5,234.4
JIRZDKEJQN,170129.0,08:57:55.547,R,109.4,RR,453.1,343.8
JIRZDKEJQN,170129.0,08:57:56.156,L,140.6,RL,578.1,468.8
JIRZDKEJQN,170129.0,08:57:56.625,R,93.8,LR,515.6,375.0
JIRZDKEJQN,170129.0,08:57:57.312,L,78.1,RL,703.1,609.4
JIRZDKEJQN,170129.0,08:57:57.688,R,109.4,LR,343.8,265.6
JIRZDKEJQN,170129.0,08:57:59.609,R,78.1,LR,203.1,31.3
JIRZDKEJQN,170129.0,08:58:00.000,R,62.5,RR,406.3,328.1
JIRZDKEJQN,170129.0,08:58:00.484,R,140.6,RR,406.3,343.8
JIRZDKEJQN,170129.0,08:58:04.109,R,78.1,SR,515.6,406.3
JIRZDKEJQN,170129.0,08:58:04.781,L,140.6,RL,609.4,531.3
JIRZDKEJQN,170129.0,08:58:04.984,S,171.9,LS,171.9,31.3
JIRZDKEJQN,170129.0,08:58:06.469,L,78.1,LL,421.9,281.3
JIRZDKEJQN,170129.0,08:58:06.625,L,62.5,LL,171.9,93.8
JIRZDKEJQN,170129.0,08:58:06.750,L,31.3,LL,156.3,93.8
JIRZDKEJQN,170129.0,08:58:07.078,L,78.1,LL,281.3,250.0
JIRZDKEJQN,170129.0,08:58:07.328,L,62.5,LL,265.6,187.5
JIRZDKEJQN,170129.0,08:58:07.672,L,62.5,LL,343.8,281.3
JIRZDKEJQN,170129.0,08:58:07.859,L,109.4,LL,140.6,78.1
JIRZDKEJQN,170129.0,08:58:36.906,L,78.1,LL,218.8,156.3
JIRZDKEJQN,170129.0,08:58:37.109,L,109.4,LL,171.9,93.8
JIRZDKEJQN,170129.0,08:58:37.594,S,78.1,LS,515.6,406.3
JIRZDKEJQN,170129.0,08:58:45.812,S,203.1,RS,375.0,296.9
JIRZDKEJQN,170129.0,08:58:49.031,L,62.5,RL,359.4,265.6
JIRZDKEJQN,170129.0,08:58:49.281,S,109.4,LS,203.1,140.6
JIRZDKEJQN,170129.0,08:58:50.516,R,93.8,RR,328.1,218.8
JIRZDKEJQN,170129.0,08:58:50.969,R,109.4,RR,437.5,343.8
JIRZDKEJQN,170129.0,08:58:51.797,L,140.6,RL,796.9,687.5
JIRZDKEJQN,170129.0,08:58:51.875,S,62.5,LS,156.3,15.6
JIRZDKEJQN,170129.0,08:58:52.578,L,140.6,SL,625.0,562.5
JIRZDKEJQN,170129.0,08:58:53.062,R,140.6,LR,484.4,343.8
JIRZDKEJQN,170129.0,08:58:53.438,S,140.6,RS,375.0,234.4
JIRZDKEJQN,170129.0,08:58:53.844,R,31.3,SR,515.6,375.0
JIRZDKEJQN,170129.0,08:58:58.062,S,140.6,RS,390.6,296.9
JIRZDKEJQN,170129.0,08:58:58.484,L,140.6,SL,421.9,281.3
JIRZDKEJQN,170129.0,08:59:00.109,L,140.6,RL,265.6,125.0
JIRZDKEJQN,170129.0,08:59:00.500,R,109.4,LR,421.9,281.3
JIRZDKEJQN,170129.0,08:59:01.234,S,140.6,RS,703.1,593.8
JIRZDKEJQN,170129.0,08:59:02.844,R,140.6,LR,593.8,453.1
JIRZDKEJQN,170129.0,08:59:03.281,S,140.6,RS,437.5,296.9
JIRZDKEJQN,170129.0,08:59:03.812,L,93.8,SL,578.1,437.5
JIRZDKEJQN,170129.0,08:59:05.078,R,109.4,LR,343.8,203.1
JIRZDKEJQN,170129.0,08:59:06.500,S,140.6,RS,343.8,234.4
JIRZDKEJQN,170129.0,08:59:06.828,L,109.4,SL,359.4,218.8
JIRZDKEJQN,170129.0,08:59:07.328,R,93.8,LR,515.6,406.3
JIRZDKEJQN,170129.0,08:59:07.547,L,62.5,RL,250.0,156.3
JIRZDKEJQN,170129.0,08:59:08.297,S,218.8,LS,593.8,531.3
JIRZDKEJQN,170129.0,08:59:10.625,L,31.3,LL,421.9,312.5
JIRZDKEJQN,170129.0,08:59:10.828,L,78.1,LL,156.3,125.0
JIRZDKEJQN,170129.0,08:59:10.969,L,46.9,LL,171.9,93.8
JIRZDKEJQN,170129.0,08:59:16.750,L,93.8,LL,296.9,234.4
JIRZDKEJQN,170129.0,08:59:17.328,L,78.1,LL,593.8,500.0
JIRZDKEJQN,170129.0,08:59:18.094,R,125.0,LR,640.6,562.5
JIRZDKEJQN,170129.0,08:59:18.688,S,109.4,RS,609.4,484.4
JIRZDKEJQN,170129.0,08:59:18.922,L,109.4,SL,234.4,125.0
JIRZDKEJQN,170129.0,08:59:19.594,L,140.6,LL,640.6,531.3
JIRZDKEJQN,170129.0,08:59:20.016,L,140.6,LL,421.9,281.3
JIRZDKEJQN,170129.0,08:59:20.188,L,140.6,LL,171.9,31.3
JIRZDKEJQN,170129.0,08:59:20.297,L,93.8,LL,156.3,15.6
JIRZDKEJQN,170129.0,08:59:20.578,L,109.4,LL,265.6,171.9
JIRZDKEJQN,170129.0,08:59:20.891,S,93.8,LS,328.1,218.8
JIRZDKEJQN,170129.0,08:59:31.547,S,140.6,RS,390.6,281.3
JIRZDKEJQN,170129.0,08:59:32.172,L,93.8,SL,671.9,531.3
JIRZDKEJQN,170129.0,08:59:32.703,L,218.8,RL,312.5,203.1
JIRZDKEJQN,170129.0,08:59:33.375,R,140.6,LR,750.0,531.3
JIRZDKEJQN,170129.0,08:59:33.875,S,109.4,RS,531.3,390.6
JIRZDKEJQN,170129.0,08:59:35.438,L,187.5,LL,546.9,359.4
JIRZDKEJQN,170129.0,08:59:35.594,L,31.3,LL,312.5,125.0
JIRZDKEJQN,170129.0,08:59:36.219,S,187.5,LS,468.8,437.5
JIRZDKEJQN,170129.0,08:59:36.906,L,125.0,SL,750.0,562.5
JIRZDKEJQN,170129.0,08:59:40.219,L,62.5,LL,765.6,687.5
JIRZDKEJQN,170129.0,08:59:40.531,L,78.1,LL,296.9,234.4
JIRZDKEJQN,170129.0,08:59:40.875,L,140.6,LL,281.3,203.1
JIRZDKEJQN,170129.0,08:59:41.984,L,78.1,RL,296.9,156.3
JIRZDKEJQN,170129.0,08:59:43.781,R,109.4,RR,93.8,31.3
JIRZDKEJQN,170129.0,08:59:52.609,R,109.4,LR,562.5,421.9
JIRZDKEJQN,170129.0,09:00:00.844,S,140.6,RS,796.9,734.4
JIRZDKEJQN,170129.0,09:00:26.969,S,140.6,RS,750.0,640.6
JIRZDKEJQN,170129.0,09:00:29.234,L,109.4,RL,343.8,234.4
JIRZDKEJQN,170129.0,09:00:30.625,L,140.6,LL,343.8,250.0
JIRZDKEJQN,170129.0,09:00:30.891,L,78.1,LL,328.1,187.5
JIRZDKEJQN,170129.0,09:00:31.312,S,218.8,LS,281.3,203.1
JIRZDKEJQN,170129.0,09:00:31.625,L,109.4,SL,421.9,203.1
JIRZDKEJQN,170129.0,09:00:32.094,S,109.4,LS,468.8,359.4
JIRZDKEJQN,170129.0,09:00:38.641,L,93.8,RL,703.1,593.8
JIRZDKEJQN,170129.0,09:00:38.938,S,140.6,LS,250.0,156.3
JIRZDKEJQN,170129.0,09:00:40.094,L,140.6,LL,218.8,78.1
JIRZDKEJQN,170129.0,09:00:40.312,L,78.1,LL,281.3,140.6
JIRZDKEJQN,170129.0,09:00:40.828,R,78.1,LR,515.6,437.5
JIRZDKEJQN,170129.0,09:00:41.297,S,171.9,RS,375.0,296.9
JIRZDKEJQN,170129.0,09:00:42.984,L,109.4,LL,531.3,453.1
JIRZDKEJQN,170129.0,09:00:43.391,L,62.5,LL,453.1,343.8
JIRZDKEJQN,170129.0,09:00:44.031,R,140.6,LR,562.5,500.0
JIRZDKEJQN,170129.0,09:00:44.391,L,109.4,RL,390.6,250.0
JIRZDKEJQN,170129.0,09:00:50.891,S,187.5,RS,390.6,296.9
JIRZDKEJQN,170129.0,09:00:58.047,R,140.6,LR,484.4,375.0
JIRZDKEJQN,170129.0,09:01:01.438,S,78.1,RS,390.6,281.3
JIRZDKEJQN,170129.0,09:01:01.797,L,62.5,SL,31.3,296.9
JIRZDKEJQN,170129.0,09:01:01.828,R,93.8,LR,31.3,296.9
JIRZDKEJQN,170129.0,09:01:02.203,L,140.6,RL,328.1,234.4
JIRZDKEJQN,170129.0,09:01:02.578,R,78.1,LR,437.5,296.9
JIRZDKEJQN,170129.0,09:01:02.953,S,140.6,RS,312.5,234.4
JIRZDKEJQN,170129.0,09:01:03.234,L,156.3,SL,265.6,125.0
JIRZDKEJQN,170129.0,09:01:03.594,R,62.5,LR,453.1,296.9
JIRZDKEJQN,170129.0,09:01:03.734,R,93.8,RR,109.4,46.9
JIRZDKEJQN,170129.0,09:01:03.953,R,109.4,RR,203.1,109.4
JIRZDKEJQN,170129.0,09:01:04.312,S,109.4,RS,359.4,250.0
JIRZDKEJQN,170129.0,09:01:04.734,L,109.4,SL,421.9,312.5
JIRZDKEJQN,170129.0,09:01:05.234,R,62.5,LR,546.9,437.5
JIRZDKEJQN,170129.0,09:01:05.625,R,93.8,RR,359.4,296.9
JIRZDKEJQN,170129.0,09:01:07.297,L,140.6,RL,500.0,390.6
JIRZDKEJQN,170129.0,09:01:10.016,L,109.4,LL,281.3,125.0
JIRZDKEJQN,170129.0,09:01:10.312,S,140.6,LS,265.6,156.3
JIRZDKEJQN,170129.0,09:01:11.406,S,140.6,LS,203.1,62.5
JIRZDKEJQN,170129.0,09:01:12.703,L,31.3,LL,62.5,250.0
JIRZDKEJQN,170129.0,09:01:12.750,R,78.1,LR,62.5,250.0
JIRZDKEJQN,170129.0,09:01:13.094,L,109.4,RL,312.5,234.4
JIRZDKEJQN,170129.0,09:01:13.438,L,62.5,LL,390.6,281.3
JIRZDKEJQN,170129.0,09:01:18.359,R,93.8,RR,671.9,546.9
JIRZDKEJQN,170129.0,09:01:19.156,R,140.6,RR,750.0,656.3
JIRZDKEJQN,170129.0,09:01:19.734,L,109.4,RL,609.4,468.8
JIRZDKEJQN,170129.0,09:01:20.016,R,109.4,LR,281.3,171.9
JIRZDKEJQN,170129.0,09:01:20.484,S,171.9,RS,406.3,296.9
JIRZDKEJQN,170129.0,09:01:20.750,L,62.5,SL,375.0,203.1
JIRZDKEJQN,170129.0,09:01:21.062,L,109.4,LL,265.6,203.1
JIRZDKEJQN,170129.0,09:01:21.578,R,62.5,LR,562.5,453.1
JIRZDKEJQN,170129.0,09:02:05.328,L,93.8,RL,421.9,281.3
JIRZDKEJQN,170129.0,09:02:05.562,L,62.5,LL,265.6,171.9
JIRZDKEJQN,170129.0,09:02:06.203,L,140.6,LL,562.5,500.0
JIRZDKEJQN,170129.0,09:02:06.391,L,171.9,LL,156.3,15.6
JIRZDKEJQN,170129.0,09:02:06.609,L,78.1,LL,312.5,140.6
JIRZDKEJQN,170129.0,09:02:07.094,S,140.6,LS,421.9,343.8
JIRZDKEJQN,170129.0,09:02:09.844,S,93.8,RS,406.3,328.1
JIRZDKEJQN,170129.0,09:02:12.484,L,93.8,LL,281.3,218.8
JIRZDKEJQN,170129.0,09:02:12.828,L,62.5,LL,375.0,281.3
JIRZDKEJQN,170129.0,09:02:15.875,R,62.5,LR,296.9,218.8
JIRZDKEJQN,170129.0,09:02:16.234,L,140.6,RL,281.3,218.8
JIRZDKEJQN,170129.0,09:02:16.625,R,140.6,LR,390.6,250.0
JIRZDKEJQN,170129.0,09:02:17.359,L,140.6,RL,734.4,593.8
JIRZDKEJQN,170129.0,09:02:25.734,S,31.3,SS,218.8,187.5
JIRZDKEJQN,170129.0,09:02:25.953,S,31.3,SS,218.8,187.5
JIRZDKEJQN,170129.0,09:02:42.203,R,31.3,RR,203.1,171.9
JIRZDKEJQN,170129.0,09:02:42.766,R,31.3,RR,453.1,531.3
JIRZDKEJQN,170129.0,09:02:43.500,R,31.3,RR,734.4,703.1
JIRZDKEJQN,170129.0,09:02:43.719,R,78.1,RR,171.9,140.6
JIRZDKEJQN,170129.0,09:02:49.375,S,109.4,LS,343.8,156.3
JIRZDKEJQN,170129.0,09:02:51.312,L,93.8,RL,296.9,156.3
JIRZDKEJQN,170129.0,09:02:51.609,S,125.0,LS,265.6,171.9
JIRZDKEJQN,170129.0,09:02:52.203,R,140.6,SR,578.1,453.1
JIRZDKEJQN,170129.0,09:02:52.500,L,109.4,RL,328.1,187.5
JIRZDKEJQN,170129.0,09:02:52.688,S,93.8,LS,203.1,93.8
JIRZDKEJQN,170129.0,09:02:54.625,R,109.4,RR,343.8,234.4
JIRZDKEJQN,170129.0,09:02:54.938,L,140.6,RL,281.3,171.9
JIRZDKEJQN,170129.0,09:02:55.203,L,93.8,LL,312.5,171.9
JIRZDKEJQN,170129.0,09:02:56.000,S,78.1,SS,93.8,375.0
JIRZDKEJQN,170129.0,09:02:56.031,L,109.4,SL,93.8,375.0
JIRZDKEJQN,170129.0,09:02:56.562,L,62.5,LL,578.1,468.8
JIRZDKEJQN,170129.0,09:02:57.047,L,171.9,LL,375.0,312.5
JIRZDKEJQN,170129.0,09:02:59.625,S,140.6,RS,406.3,296.9
JIRZDKEJQN,170129.0,09:02:59.922,L,109.4,SL,328.1,187.5
JIRZDKEJQN,170129.0,09:03:00.156,L,78.1,LL,265.6,156.3
JIRZDKEJQN,170129.0,09:03:00.281,L,78.1,LL,125.0,46.9
JIRZDKEJQN,170129.0,09:03:01.031,R,62.5,LR,765.6,687.5
JIRZDKEJQN,170129.0,09:03:01.422,S,140.6,RS,312.5,250.0
JIRZDKEJQN,170129.0,09:03:01.875,L,109.4,SL,484.4,343.8
JIRZDKEJQN,170129.0,09:03:02.125,L,93.8,LL,265.6,156.3
JIRZDKEJQN,170129.0,09:03:02.453,R,109.4,LR,312.5,218.8
JIRZDKEJQN,170129.0,09:03:03.781,S,109.4,RS,453.1,312.5
JIRZDKEJQN,170129.0,09:03:04.406,R,140.6,SR,593.8,484.4
JIRZDKEJQN,170129.0,09:03:04.828,L,171.9,RL,390.6,250.0
JIRZDKEJQN,170129.0,09:03:08.109,L,93.8,RL,343.8,250.0
JIRZDKEJQN,170129.0,09:03:08.469,L,109.4,LL,343.8,250.0
JIRZDKEJQN,170129.0,09:03:08.625,S,109.4,LS,156.3,46.9
JIRZDKEJQN,170129.0,09:03:09.406,L,93.8,SL,796.9,687.5
JIRZDKEJQN,170129.0,09:03:10.125,R,125.0,LR,687.5,593.8
JIRZDKEJQN,170129.0,09:03:10.312,L,125.0,RL,187.5,62.5
JIRZDKEJQN,170129.0,09:03:10.641,L,93.8,LL,359.4,234.4
JIRZDKEJQN,170129.0,09:03:10.844,L,78.1,LL,218.8,125.0
JIRZDKEJQN,170129.0,09:03:11.188,S,93.8,LS,328.1,250.0
JIRZDKEJQN,170129.0,09:03:11.594,L,140.6,SL,359.4,265.6
JIRZDKEJQN,170129.0,09:03:11.812,L,62.5,LL,296.9,156.3
JIRZDKEJQN,170129.0,09:03:14.516,S,140.6,RS,531.3,421.9
JIRZDKEJQN,170129.0,09:03:15.719,R,125.0,LR,265.6,156.3
JIRZDKEJQN,170129.0,09:03:15.984,L,171.9,RL,218.8,93.8
JIRZDKEJQN,170129.0,09:03:16.406,R,109.4,LR,484.4,312.5
JIRZDKEJQN,170129.0,09:03:16.688,S,78.1,RS,312.5,203.1
JIRZDKEJQN,170129.0,09:04:09.516,R,62.5,SR,328.1,218.8
JIRZDKEJQN,170129.0,09:04:10.156,R,93.8,RR,609.4,546.9
JIRZDKEJQN,170129.0,09:04:10.672,L,78.1,RL,531.3,437.5
JIRZDKEJQN,170129.0,09:04:10.875,R,78.1,LR,203.1,125.0
JIRZDKEJQN,170129.0,09:04:15.516,S,187.5,RS,593.8,453.1
JIRZDKEJQN,170129.0,09:04:15.969,L,109.4,SL,531.3,343.8
JIRZDKEJQN,170129.0,09:04:16.250,L,109.4,LL,281.3,171.9
JIRZDKEJQN,170129.0,09:04:16.625,L,109.4,LL,375.0,265.6
JIRZDKEJQN,170129.0,09:04:18.016,L,109.4,RL,421.9,312.5
JIRZDKEJQN,170129.0,09:04:18.375,R,78.1,LR,390.6,281.3
JIRZDKEJQN,170129.0,09:04:18.766,L,125.0,RL,343.8,265.6
JIRZDKEJQN,170129.0,09:04:19.094,R,125.0,LR,328.1,203.1
JIRZDKEJQN,170129.0,09:04:19.406,L,78.1,RL,359.4,234.4
JIRZDKEJQN,170129.0,09:04:19.812,S,140.6,LS,343.8,265.6
JIRZDKEJQN,170129.0,09:04:28.016,R,156.3,LR,250.0,109.4
JIRZDKEJQN,170129.0,09:04:28.203,L,140.6,RL,203.1,46.9
JIRZDKEJQN,170129.0,09:04:28.500,S,140.6,LS,296.9,156.3
JIRZDKEJQN,170129.0,09:04:38.531,R,125.0,RR,640.6,468.8
JIRZDKEJQN,170129.0,09:04:39.281,L,187.5,RL,687.5,562.5
JIRZDKEJQN,170129.0,09:04:39.594,R,140.6,LR,359.4,171.9
JIRZDKEJQN,170129.0,09:04:40.047,S,187.5,RS,406.3,265.6
JIRZDKEJQN,170129.0,09:04:56.938,L,187.5,LL,265.6,203.1
JIRZDKEJQN,170129.0,09:05:03.938,R,140.6,RR,328.1,234.4
JIRZDKEJQN,170129.0,09:05:06.359,R,140.6,LR,343.8,250.0
JIRZDKEJQN,170129.0,09:05:06.750,L,62.5,RL,468.8,328.1
JIRZDKEJQN,170129.0,09:05:07.172,R,140.6,LR,343.8,281.3
JIRZDKEJQN,170129.0,09:05:07.625,S,218.8,RS,375.0,234.4
JIRZDKEJQN,170129.0,09:05:11.047,L,218.8,RL,578.1,437.5
JIRZDKEJQN,170129.0,09:05:25.719,L,93.8,SL,359.4,171.9
JIRZDKEJQN,170129.0,09:05:26.078,L,109.4,RL,125.0,15.6
JIRZDKEJQN,170129.0,09:05:26.281,S,109.4,LS,203.1,93.8
JIRZDKEJQN,170129.0,09:05:27.094,R,62.5,RR,500.0,453.1
JIRZDKEJQN,170129.0,09:05:27.156,R,46.9,RR,78.1,15.6
JIRZDKEJQN,170129.0,09:05:27.391,L,31.3,RL,250.0,203.1
JIRZDKEJQN,170129.0,09:05:27.547,S,62.5,LS,125.0,93.8
JIRZDKEJQN,170129.0,09:05:31.938,R,31.3,LR,343.8,265.6
JIRZDKEJQN,170129.0,09:05:32.141,R,31.3,RR,203.1,171.9
JIRZDKEJQN,170129.0,09:05:57.422,L,109.4,LL,281.3,171.9
JIRZDKEJQN,170129.0,09:05:58.531,S,109.4,RS,250.0,156.3
JIRZDKEJQN,170129.0,09:05:58.812,L,93.8,SL,296.9,187.5
JIRZDKEJQN,170129.0,09:05:59.328,R,78.1,LR,531.3,437.5
JIRZDKEJQN,170129.0,09:06:01.781,L,78.1,RL,31.3,562.5
JIRZDKEJQN,170129.0,09:06:01.812,S,109.4,LS,31.3,562.5
JIRZDKEJQN,170129.0,09:06:10.000,S,156.3,LS,250.0,140.6
JIRZDKEJQN,170129.0,09:06:13.219,S,187.5,RS,312.5,203.1
JIRZDKEJQN,170129.0,09:06:13.578,L,109.4,SL,437.5,250.0
JIRZDKEJQN,170129.0,09:06:13.922,R,109.4,LR,343.8,234.4
JIRZDKEJQN,170129.0,09:06:14.172,L,109.4,RL,250.0,140.6
JIRZDKEJQN,170129.0,09:06:14.406,S,109.4,LS,234.4,125.0
JIRZDKEJQN,170129.0,09:06:15.172,L,93.8,SL,781.3,671.9
JIRZDKEJQN,170129.0,09:06:15.578,R,109.4,LR,390.6,296.9
JIRZDKEJQN,170129.0,09:06:16.031,L,109.4,RL,453.1,343.8
JIRZDKEJQN,170129.0,09:06:16.266,R,78.1,LR,265.6,156.3
JIRZDKEJQN,170129.0,09:06:16.594,S,78.1,RS,328.1,250.0
JIRZDKEJQN,170129.0,09:06:17.172,R,125.0,SR,531.3,453.1
JIRZDKEJQN,170129.0,09:06:17.672,L,78.1,RL,546.9,421.9
JIRZDKEJQN,170129.0,09:06:18.172,S,109.4,LS,468.8,390.6
JIRZDKEJQN,170129.0,09:06:43.188,R,62.5,RR,328.1,218.8
JIRZDKEJQN,170129.0,09:06:43.688,S,203.1,RS,359.4,296.9
JIRZDKEJQN,170129.0,09:06:43.859,L,93.8,SL,281.3,78.1
JIRZDKEJQN,170129.0,09:06:44.234,R,62.5,LR,406.3,312.5
JIRZDKEJQN,170129.0,09:06:44.906,R,46.9,RR,687.5,625.0
JIRZDKEJQN,170129.0,09:06:45.078,R,78.1,RR,140.6,93.8
JIRZDKEJQN,170129.0,09:06:45.703,R,31.3,RR,671.9,593.8
JIRZDKEJQN,170129.0,09:06:48.703,L,62.5,SL,546.9,437.5
JIRZDKEJQN,170129.0,09:06:49.016,L,109.4,LL,265.6,203.1
JIRZDKEJQN,170129.0,09:06:49.109,L,62.5,LL,140.6,31.3
JIRZDKEJQN,170129.0,09:06:49.516,S,109.4,LS,359.4,296.9
JIRZDKEJQN,170129.0,09:06:49.922,L,62.5,SL,453.1,343.8
JIRZDKEJQN,170129.0,09:06:50.656,R,78.1,LR,718.8,656.3
JIRZDKEJQN,170129.0,09:06:50.812,R,62.5,RR,171.9,93.8
JIRZDKEJQN,170129.0,09:06:50.922,R,31.3,RR,140.6,78.1
JIRZDKEJQN,170129.0,09:06:51.234,L,78.1,RL,265.6,234.4
JIRZDKEJQN,170129.0,09:06:51.359,S,62.5,LS,140.6,62.5
JIRZDKEJQN,170129.0,09:06:52.109,L,78.1,SL,734.4,671.9
JIRZDKEJQN,170129.0,09:06:52.422,L,93.8,LL,296.9,218.8
JIRZDKEJQN,170129.0,09:06:53.828,R,62.5,RR,359.4,281.3
JIRZDKEJQN,170129.0,09:06:54.266,R,78.1,RR,421.9,359.4
JIRZDKEJQN,170129.0,09:06:55.984,S,171.9,LS,359.4,312.5
JIRZDKEJQN,170129.0,09:06:56.578,S,140.6,SS,625.0,453.1
JIRZDKEJQN,170129.0,09:07:20.953,R,140.6,LR,500.0,390.6
JIRZDKEJQN,170129.0,09:07:21.203,L,62.5,RL,328.1,187.5
JIRZDKEJQN,170129.0,09:07:21.375,S,109.4,LS,125.0,62.5
JIRZDKEJQN,170129.0,09:07:23.594,L,140.6,RL,781.3,687.5
JIRZDKEJQN,170129.0,09:07:24.156,S,250.0,LS,453.1,312.5
JIRZDKEJQN,170129.0,09:07:25.734,R,62.5,RR,93.8,31.3
JIRZDKEJQN,170129.0,09:07:25.953,L,93.8,RL,187.5,125.0
JIRZDKEJQN,170129.0,09:07:26.188,S,109.4,LS,218.8,125.0
JIRZDKEJQN,170129.0,09:07:27.953,L,62.5,LL,515.6,484.4
JIRZDKEJQN,170129.0,09:07:28.234,L,78.1,LL,265.6,203.1
JIRZDKEJQN,170129.0,09:07:28.422,L,78.1,LL,187.5,109.4
JIRZDKEJQN,170129.0,09:07:28.922,L,62.5,LL,515.6,437.5
JIRZDKEJQN,170129.0,09:07:29.219,L,78.1,LL,281.3,218.8
JIRZDKEJQN,170129.0,09:07:29.484,S,109.4,LS,234.4,156.3
JIRZDKEJQN,170129.0,09:07:29.781,L,140.6,SL,265.6,156.3
JIRZDKEJQN,170129.0,09:07:30.031,L,78.1,LL,312.5,171.9
JIRZDKEJQN,170129.0,09:07:30.391,S,93.8,LS,343.8,265.6
JIRZDKEJQN,170129.0,09:07:30.703,R,78.1,SR,328.1,234.4
JIRZDKEJQN,170129.0,09:07:31.516,L,109.4,RL,781.3,703.1
JIRZDKEJQN,170129.0,09:07:32.047,L,62.5,LL,578.1,468.8
JIRZDKEJQN,170129.0,09:07:32.203,S,78.1,LS,140.6,78.1
JIRZDKEJQN,170129.0,09:07:32.375,S,62.5,SS,187.5,109.4
JIRZDKEJQN,170129.0,09:07:32.719,L,62.5,SL,343.8,281.3
JIRZDKEJQN,170129.0,09:07:33.047,L,31.3,LL,359.4,296.9
JIRZDKEJQN,170129.0,09:07:33.391,L,109.4,LL,265.6,234.4
JIRZDKEJQN,170129.0,09:07:33.766,R,31.3,LR,453.1,343.8
JIRZDKEJQN,170129.0,09:08:21.391,L,62.5,LL,156.3,15.6
JIRZDKEJQN,170129.0,09:08:33.562,L,109.4,SL,171.9,671.9
JIRZDKEJQN,170129.0,09:08:34.328,L,78.1,RL,375.0,296.9
JIRZDKEJQN,170129.0,09:08:34.750,S,109.4,LS,390.6,312.5
JIRZDKEJQN,170129.0,09:08:39.891,L,93.8,RL,500.0,328.1
JIRZDKEJQN,170129.0,09:08:40.094,S,140.6,LS,156.3,62.5
JIRZDKEJQN,170129.0,09:08:40.500,R,109.4,SR,437.5,296.9
JIRZDKEJQN,170129.0,09:08:40.719,R,140.6,RR,187.5,78.1
JIRZDKEJQN,170129.0,09:08:41.094,R,78.1,RR,437.5,296.9
JIRZDKEJQN,170129.0,09:08:41.516,R,109.4,RR,390.6,312.5
JIRZDKEJQN,170129.0,09:08:41.906,S,109.4,RS,390.6,281.3
JIRZDKEJQN,170129.0,09:08:42.500,L,140.6,SL,562.5,453.1
JIRZDKEJQN,170129.0,09:08:42.750,R,62.5,LR,328.1,187.5
JIRZDKEJQN,170129.0,09:08:43.172,R,78.1,RR,406.3,343.8
JIRZDKEJQN,170129.0,09:08:44.438,L,78.1,LL,62.5,312.5
JIRZDKEJQN,170129.0,09:08:44.438,L,78.1,LL,62.5,312.5
JIRZDKEJQN,170129.0,09:08:44.750,L,78.1,LL,312.5,234.4
JIRZDKEJQN,170129.0,09:08:45.141,S,93.8,LS,375.0,296.9
JIRZDKEJQN,170129.0,09:08:45.484,L,78.1,SL,359.4,265.6
JIRZDKEJQN,170129.0,09:08:45.734,L,62.5,LL,265.6,187.5
JIRZDKEJQN,170129.0,09:08:46.141,R,62.5,LR,406.3,343.8
JIRZDKEJQN,170129.0,09:08:46.812,R,109.4,RR,625.0,562.5
JIRZDKEJQN,170129.0,09:08:47.359,R,109.4,RR,546.9,437.5
JIRZDKEJQN,170129.0,09:08:47.719,R,78.1,RR,390.6,281.3
JIRZDKEJQN,170129.0,09:08:49.172,S,140.6,LS,156.3,93.8
JIRZDKEJQN,170129.0,09:09:35.266,R,62.5,RR,500.0,359.4
JIRZDKEJQN,170129.0,09:09:35.578,R,62.5,RR,312.5,250.0
JIRZDKEJQN,170129.0,09:09:36.250,L,78.1,RL,656.3,593.8
JIRZDKEJQN,170129.0,09:09:36.375,S,93.8,LS,109.4,31.3
JIRZDKEJQN,170129.0,09:09:36.453,S,31.3,SS,140.6,46.9
JIRZDKEJQN,170129.0,09:09:36.938,R,31.3,SR,484.4,453.1
JIRZDKEJQN,170129.0,09:09:37.641,R,140.6,RR,593.8,562.5
JIRZDKEJQN,170129.0,09:09:38.281,R,78.1,RR,703.1,562.5
JIRZDKEJQN,170129.0,09:09:38.906,R,109.4,RR,593.8,515.6
JIRZDKEJQN,170129.0,09:09:39.281,L,62.5,RL,421.9,312.5
JIRZDKEJQN,170129.0,09:09:40.719,L,109.4,RL,468.8,406.3
JIRZDKEJQN,170129.0,09:09:40.875,S,62.5,LS,203.1,93.8
JIRZDKEJQN,170129.0,09:09:41.359,L,109.4,SL,437.5,375.0
JIRZDKEJQN,170129.0,09:09:41.484,R,46.9,LR,187.5,78.1
JIRZDKEJQN,170129.0,09:09:41.688,L,109.4,RL,140.6,93.8
JIRZDKEJQN,170129.0,09:09:41.859,R,62.5,LR,218.8,109.4
JIRZDKEJQN,170129.0,09:09:42.203,S,62.5,RS,343.8,281.3
JIRZDKEJQN,170129.0,09:09:43.047,R,109.4,SR,796.9,734.4
JIRZDKEJQN,170129.0,09:09:44.828,R,62.5,LR,656.3,515.6
JIRZDKEJQN,170129.0,09:09:50.547,L,62.5,LL,296.9,187.5
JIRZDKEJQN,170129.0,09:09:51.109,R,62.5,LR,562.5,500.0
JIRZDKEJQN,170129.0,09:09:51.219,R,31.3,RR,140.6,78.1
JIRZDKEJQN,170129.0,09:09:51.547,L,109.4,RL,250.0,218.8
JIRZDKEJQN,170129.0,09:09:52.172,R,140.6,SR,484.4,390.6
JIRZDKEJQN,170129.0,09:09:52.359,R,78.1,RR,250.0,109.4
JIRZDKEJQN,170129.0,09:09:52.672,R,46.9,RR,343.8,265.6
JIRZDKEJQN,170129.0,09:09:53.078,S,109.4,RS,343.8,296.9
JIRZDKEJQN,170129.0,09:09:53.438,L,78.1,SL,390.6,281.3
JIRZDKEJQN,170129.0,09:10:32.109,R,93.8,LR,296.9,187.5
JIRZDKEJQN,170129.0,09:10:32.312,L,140.6,RL,156.3,62.5
JIRZDKEJQN,170129.0,09:10:32.625,S,140.6,LS,312.5,171.9
JIRZDKEJQN,170129.0,09:10:33.359,L,109.4,SL,765.6,625.0
JIRZDKEJQN,170129.0,09:10:36.797,L,31.3,LL,156.3,109.4
JIRZDKEJQN,170129.0,09:10:38.438,R,109.4,RR,375.0,234.4
JIRZDKEJQN,170129.0,09:10:38.781,L,62.5,RL,390.6,281.3
JIRZDKEJQN,170129.0,09:10:39.031,L,78.1,LL,234.4,171.9
JIRZDKEJQN,170129.0,09:10:42.000,S,140.6,LS,281.3,187.5
JIRZDKEJQN,170129.0,09:10:43.594,L,62.5,RL,375.0,296.9
JIRZDKEJQN,170129.0,09:10:43.703,S,93.8,LS,78.1,15.6
JIRZDKEJQN,170129.0,09:10:44.359,R,62.5,SR,687.5,593.8
JIRZDKEJQN,170129.0,09:10:44.734,R,93.8,RR,343.8,281.3
JIRZDKEJQN,170129.0,09:10:45.094,L,78.1,RL,375.0,281.3
JIRZDKEJQN,170129.0,09:10:45.281,S,109.4,LS,156.3,78.1
JIRZDKEJQN,170129.0,09:10:47.297,L,109.4,SL,500.0,406.3
JIRZDKEJQN,170129.0,09:10:47.422,L,62.5,LL,171.9,62.5
JIRZDKEJQN,170129.0,09:10:48.656,S,109.4,RS,281.3,203.1
JIRZDKEJQN,170129.0,09:10:51.234,R,140.6,LR,437.5,359.4
JIRZDKEJQN,170129.0,09:10:51.656,L,93.8,RL,468.8,328.1
JIRZDKEJQN,170129.0,09:10:51.953,S,140.6,LS,250.0,156.3
JIRZDKEJQN,170129.0,09:10:52.219,L,62.5,SL,343.8,203.1
JIRZDKEJQN,170129.0,09:11:30.984,S,140.6,LS,437.5,375.0
JIRZDKEJQN,170129.0,09:11:31.109,S,109.4,SS,156.3,15.6
JIRZDKEJQN,170129.0,09:11:31.359,L,93.8,SL,265.6,156.3
JIRZDKEJQN,170129.0,09:11:31.625,R,109.4,LR,250.0,156.3
JIRZDKEJQN,170129.0,09:11:31.891,L,109.4,RL,265.6,156.3
JIRZDKEJQN,170129.0,09:11:32.453,R,109.4,LR,562.5,453.1
JIRZDKEJQN,170129.0,09:11:32.859,S,187.5,RS,328.1,218.8
JIRZDKEJQN,170129.0,09:11:33.312,L,109.4,SL,531.3,343.8
JIRZDKEJQN,170129.0,09:11:33.703,L,109.4,LL,390.6,281.3
JIRZDKEJQN,170129.0,09:11:34.094,R,93.8,LR,406.3,296.9
JIRZDKEJQN,170129.0,09:11:34.500,R,78.1,RR,421.9,328.1
JIRZDKEJQN,170129.0,09:11:34.797,S,125.0,RS,250.0,171.9
JIRZDKEJQN,170129.0,09:11:35.484,R,109.4,SR,703.1,578.1
JIRZDKEJQN,170129.0,09:11:35.844,L,109.4,RL,359.4,250.0
JIRZDKEJQN,170129.0,09:11:38.094,L,78.1,LL,234.4,171.9
JIRZDKEJQN,170129.0,09:11:38.297,S,109.4,LS,171.9,93.8
JIRZDKEJQN,170129.0,09:11:39.031,R,140.6,SR,703.1,593.8
JIRZDKEJQN,170129.0,09:11:39.609,L,62.5,RL,656.3,515.6
JIRZDKEJQN,170129.0,09:11:39.797,S,171.9,LS,78.1,15.6
JIRZDKEJQN,170129.0,09:11:40.094,L,109.4,SL,359.4,187.5
JIRZDKEJQN,170129.0,09:11:40.922,L,156.3,RL,671.9,546.9
JIRZDKEJQN,170129.0,09:11:40.984,R,46.9,LR,171.9,15.6
JIRZDKEJQN,170129.0,09:11:41.391,S,140.6,RS,312.5,265.6
JIRZDKEJQN,170129.0,09:11:41.578,L,109.4,SL,218.8,78.1
JIRZDKEJQN,170129.0,09:11:42.828,R,109.4,RR,359.4,250.0
JIRZDKEJQN,170129.0,09:11:43.250,L,109.4,RL,421.9,312.5
JIRZDKEJQN,170129.0,09:11:43.453,S,140.6,LS,171.9,62.5
JIRZDKEJQN,170129.0,09:11:43.750,L,62.5,SL,375.0,234.4
JIRZDKEJQN,170129.0,09:11:44.312,R,93.8,LR,531.3,468.8
JIRZDKEJQN,170129.0,09:11:44.797,S,140.6,RS,437.5,343.8
JIRZDKEJQN,170129.0,09:11:48.266,L,78.1,RL,343.8,234.4
JIRZDKEJQN,170129.0,09:11:48.969,R,171.9,LR,609.4,531.3
JIRZDKEJQN,170129.0,09:11:49.156,L,62.5,RL,296.9,125.0
JIRZDKEJQN,170129.0,09:11:49.828,L,78.1,LL,656.3,593.8
JIRZDKEJQN,170129.0,09:11:50.219,R,78.1,LR,390.6,312.5
JIRZDKEJQN,170129.0,09:11:50.516,S,93.8,RS,281.3,203.1
JIRZDKEJQN,170129.0,09:11:52.078,R,140.6,RR,640.6,531.3
JIRZDKEJQN,170129.0,09:11:52.297,L,109.4,RL,250.0,109.4
JIRZDKEJQN,170129.0,09:11:52.766,L,109.4,LL,468.8,359.4
JIRZDKEJQN,170129.0,09:12:29.906,S,281.3,RS,765.6,625.0
JIRZDKEJQN,170129.0,09:12:35.141,S,109.4,RS,375.0,234.4
JIRZDKEJQN,170129.0,09:12:35.375,L,78.1,SL,265.6,156.3
JIRZDKEJQN,170129.0,09:12:35.969,R,93.8,LR,578.1,500.0
JIRZDKEJQN,170129.0,09:12:36.234,L,78.1,RL,281.3,187.5
JIRZDKEJQN,170129.0,09:12:36.641,R,78.1,LR,406.3,328.1
JIRZDKEJQN,170129.0,09:12:36.922,S,109.4,RS,250.0,171.9
JIRZDKEJQN,170129.0,09:12:37.297,L,62.5,SL,421.9,312.5
JIRZDKEJQN,170129.0,09:12:37.703,R,109.4,LR,359.4,296.9
JIRZDKEJQN,170129.0,09:12:38.078,S,109.4,RS,375.0,265.6
JIRZDKEJQN,170129.0,09:12:38.734,R,93.8,SR,671.9,562.5
JIRZDKEJQN,170129.0,09:12:38.984,R,140.6,RR,203.1,109.4
JIRZDKEJQN,170129.0,09:12:39.312,R,62.5,RR,406.3,265.6
JIRZDKEJQN,170129.0,09:12:39.734,S,93.8,RS,390.6,328.1
JIRZDKEJQN,170129.0,09:12:40.312,L,109.4,SL,562.5,468.8
JIRZDKEJQN,170129.0,09:12:40.969,L,62.5,LL,703.1,593.8
JIRZDKEJQN,170129.0,09:12:41.250,R,93.8,LR,250.0,187.5
JIRZDKEJQN,170129.0,09:12:41.484,R,125.0,RR,203.1,109.4
JIRZDKEJQN,170129.0,09:12:41.984,L,78.1,RL,546.9,421.9
JIRZDKEJQN,170129.0,09:12:46.203,S,93.8,LS,296.9,218.8
JIRZDKEJQN,170129.0,09:12:46.453,L,62.5,SL,281.3,187.5
JIRZDKEJQN,170129.0,09:12:46.734,R,62.5,LR,281.3,218.8
JIRZDKEJQN,170129.0,09:12:47.125,S,109.4,RS,343.8,281.3
JIRZDKEJQN,170129.0,09:12:47.375,L,78.1,SL,281.3,171.9
JIRZDKEJQN,170129.0,09:12:47.656,R,93.8,LR,265.6,187.5
JIRZDKEJQN,170129.0,09:12:48.031,S,93.8,RS,375.0,281.3
JIRZDKEJQN,170129.0,09:12:48.203,L,62.5,SL,203.1,109.4
JIRZDKEJQN,170129.0,09:12:48.359,R,62.5,LR,156.3,93.8
JIRZDKEJQN,170129.0,09:12:48.578,L,109.4,RL,171.9,109.4
JIRZDKEJQN,170129.0,09:12:48.719,S,78.1,LS,171.9,62.5
JIRZDKEJQN,170129.0,09:12:49.078,L,78.1,SL,359.4,281.3
JIRZDKEJQN,170129.0,09:12:49.312,L,78.1,LL,234.4,156.3
JIRZDKEJQN,170129.0,09:12:49.641,R,78.1,LR,328.1,250.0
JIRZDKEJQN,170129.0,09:12:50.031,R,109.4,RR,359.4,281.3
JIRZDKEJQN,170129.0,09:12:50.438,S,78.1,RS,437.5,328.1
JIRZDKEJQN,170129.0,09:12:50.953,R,62.5,SR,31.3,453.1
JIRZDKEJQN,170129.0,09:12:50.969,R,78.1,RR,31.3,453.1
JIRZDKEJQN,170129.0,09:12:51.281,L,62.5,RL,328.1,250.0
JIRZDKEJQN,170129.0,09:12:51.984,S,109.4,LS,656.3,593.8
JIRZDKEJQN,170129.0,09:12:59.141,L,109.4,LL,390.6,296.9
JIRZDKEJQN,170129.0,09:13:01.922,L,140.6,RL,250.0,109.4
JIRZDKEJQN,170129.0,09:13:02.250,S,156.3,LS,312.5,171.9
JIRZDKEJQN,170129.0,09:13:03.672,L,62.5,LL,281.3,171.9
JIRZDKEJQN,170129.0,09:13:04.078,R,62.5,LR,406.3,343.8
JIRZDKEJQN,170129.0,09:13:05.625,S,171.9,RS,546.9,484.4
JIRZDKEJQN,170129.0,09:13:06.719,R,140.6,RR,265.6,93.8
JIRZDKEJQN,170129.0,09:13:07.453,R,93.8,RR,781.3,640.6
JIRZDKEJQN,170129.0,09:13:07.969,S,140.6,RS,468.8,375.0
JIRZDKEJQN,170129.0,09:13:08.422,L,109.4,SL,484.4,343.8
JIRZDKEJQN,170129.0,09:13:08.719,L,62.5,LL,343.8,234.4
JIRZDKEJQN,170129.0,09:13:08.984,L,62.5,LL,265.6,203.1
JIRZDKEJQN,170129.0,09:13:09.375,S,203.1,LS,250.0,187.5
JIRZDKEJQN,170129.0,09:13:09.547,L,109.4,SL,265.6,62.5
JIRZDKEJQN,170129.0,09:13:10.078,L,109.4,LL,421.9,375.0
JIRZDKEJQN,170129.0,09:13:10.719,R,140.6,LR,609.4,500.0
JIRZDKEJQN,170129.0,09:13:10.891,L,78.1,RL,234.4,93.8
JIRZDKEJQN,170129.0,09:13:11.125,S,62.5,LS,250.0,171.9
JIRZDKEJQN,170129.0,09:13:12.719,L,109.4,RL,250.0,78.1
JIRZDKEJQN,170129.0,09:13:13.188,L,78.1,LL,500.0,390.6
JIRZDKEJQN,170129.0,09:13:13.453,L,78.1,LL,265.6,187.5
JIRZDKEJQN,170129.0,09:13:13.688,S,140.6,LS,171.9,93.8
JIRZDKEJQN,170129.0,09:13:13.875,L,78.1,SL,250.0,109.4
JIRZDKEJQN,170129.0,09:13:14.438,R,140.6,LR,500.0,421.9
JIRZDKEJQN,170129.0,09:13:16.094,S,109.4,LS,281.3,203.1
JIRZDKEJQN,170129.0,09:13:16.406,L,140.6,SL,281.3,171.9
JIRZDKEJQN,170129.0,09:13:16.609,R,109.4,LR,234.4,93.8
JIRZDKEJQN,170129.0,09:13:17.125,R,140.6,RR,484.4,375.0
JIRZDKEJQN,170129.0,09:13:17.375,L,140.6,RL,250.0,109.4
JIRZDKEJQN,170129.0,09:13:17.609,S,78.1,LS,296.9,156.3
JIRZDKEJQN,170129.0,09:13:20.141,L,78.1,LL,390.6,312.5
JIRZDKEJQN,170129.0,09:13:22.078,L,109.4,LL,546.9,515.6
JIRZDKEJQN,170129.0,09:13:27.344,L,93.8,LL,421.9,250.0
JIRZDKEJQN,170129.0,09:15:33.266,S,62.5,RS,656.3,593.8
JIRZDKEJQN,170129.0,09:15:33.547,L,93.8,SL,250.0,187.5
JIRZDKEJQN,170129.0,09:15:33.703,R,78.1,LR,171.9,78.1
JIRZDKEJQN,170129.0,09:15:34.031,S,78.1,RS,328.1,250.0
JIRZDKEJQN,170129.0,09:15:35.281,R,62.5,RR,437.5,359.4
JIRZDKEJQN,170129.0,09:15:35.562,L,62.5,RL,281.3,218.8
JIRZDKEJQN,170129.0,09:15:35.953,R,62.5,LR,390.6,328.1
JIRZDKEJQN,170129.0,09:15:36.094,R,62.5,RR,140.6,78.1
JIRZDKEJQN,170129.0,09:15:36.516,R,78.1,RR,406.3,343.8
JIRZDKEJQN,170129.0,09:15:36.938,R,140.6,RR,359.4,281.3
JIRZDKEJQN,170129.0,09:15:37.422,L,109.4,RL,515.6,375.0
JIRZDKEJQN,170129.0,09:15:37.531,S,62.5,LS,156.3,46.9
JIRZDKEJQN,170129.0,09:15:37.969,L,62.5,SL,437.5,375.0
JIRZDKEJQN,170129.0,09:15:38.094,S,78.1,LS,109.4,46.9
JIRZDKEJQN,170129.0,09:15:38.516,L,78.1,SL,421.9,343.8
JIRZDKEJQN,170129.0,09:15:38.750,L,78.1,LL,234.4,156.3
JIRZDKEJQN,170129.0,09:15:39.000,R,46.9,LR,281.3,203.1
JIRZDKEJQN,170129.0,09:15:39.734,R,109.4,RR,671.9,625.0
JIRZDKEJQN,170129.0,09:15:40.188,S,109.4,RS,453.1,343.8
JIRZDKEJQN,170129.0,09:15:43.203,L,140.6,LL,250.0,109.4
JIRZDKEJQN,170129.0,09:15:43.359,L,78.1,LL,218.8,78.1
JIRZDKEJQN,170129.0,09:15:43.812,S,109.4,LS,421.9,343.8
JIRZDKEJQN,170129.0,09:15:44.516,L,93.8,SL,718.8,609.4
JIRZDKEJQN,170129.0,09:15:44.969,R,109.4,LR,437.5,343.8
JIRZDKEJQN,170129.0,09:15:45.375,S,109.4,RS,406.3,296.9
JIRZDKEJQN,170129.0,09:15:45.781,L,93.8,SL,406.3,296.9
JIRZDKEJQN,170129.0,09:15:46.203,L,218.8,LL,312.5,218.8
JIRZDKEJQN,170129.0,09:15:46.328,R,62.5,LR,281.3,62.5
JIRZDKEJQN,170129.0,09:15:46.906,R,109.4,RR,531.3,468.8
JIRZDKEJQN,170129.0,09:15:47.453,S,171.9,RS,484.4,375.0
JIRZDKEJQN,170129.0,09:15:52.406,L,109.4,RL,296.9,187.5
JIRZDKEJQN,170129.0,09:15:52.938,L,187.5,LL,453.1,343.8
JIRZDKEJQN,170129.0,09:15:53.297,L,78.1,LL,468.8,281.3
JIRZDKEJQN,170129.0,09:15:53.688,S,109.4,LS,359.4,281.3
JIRZDKEJQN,170129.0,09:15:54.047,R,93.8,SR,375.0,265.6
JIRZDKEJQN,170129.0,09:15:54.297,L,62.5,RL,281.3,187.5
JIRZDKEJQN,170129.0,09:15:54.875,L,171.9,LL,468.8,406.3
JIRZDKEJQN,170129.0,09:15:54.953,L,62.5,LL,187.5,15.6
JIRZDKEJQN,170129.0,09:15:55.375,S,62.5,LS,421.9,359.4
JIRZDKEJQN,170129.0,09:15:56.188,R,78.1,SR,796.9,734.4
JIRZDKEJQN,170129.0,09:15:56.797,L,62.5,RL,625.0,546.9
JIRZDKEJQN,170129.0,09:15:57.156,S,109.4,LS,312.5,250.0
JIRZDKEJQN,170129.0,09:15:57.719,L,62.5,SL,609.4,500.0
JIRZDKEJQN,170129.0,09:15:58.078,R,109.4,LR,312.5,250.0
JIRZDKEJQN,170129.0,09:15:58.797,L,31.3,RL,171.9,687.5
JIRZDKEJQN,170129.0,09:15:58.812,L,46.9,LL,171.9,687.5
JIRZDKEJQN,170129.0,09:15:59.281,S,109.4,LS,406.3,359.4
JIRZDKEJQN,170129.0,09:15:59.641,L,140.6,SL,328.1,218.8
JIRZDKEJQN,170129.0,09:16:00.266,R,109.4,LR,656.3,515.6
JIRZDKEJQN,170129.0,09:16:00.547,R,46.9,RR,343.8,234.4
JIRZDKEJQN,170129.0,09:16:00.891,R,31.3,RR,359.4,312.5
JIRZDKEJQN,170129.0,09:16:01.297,L,62.5,RL,375.0,343.8
JIRZDKEJQN,170129.0,09:16:01.391,S,78.1,LS,78.1,15.6
JIRZDKEJQN,170129.0,09:16:02.625,R,62.5,LR,437.5,312.5
JIRZDKEJQN,170129.0,09:16:04.984,S,109.4,LS,453.1,421.9
JIRZDKEJQN,170129.0,09:16:11.453,S,187.5,RS,515.6,375.0
JIRZDKEJQN,170129.0,09:16:11.766,L,218.8,SL,281.3,93.8
JIRZDKEJQN,170129.0,09:16:12.203,R,93.8,LR,562.5,343.8
JIRZDKEJQN,170129.0,09:16:12.562,R,62.5,RR,390.6,296.9
JIRZDKEJQN,170129.0,09:16:13.250,R,140.6,RR,609.4,546.9
JIRZDKEJQN,170129.0,09:16:13.562,L,140.6,RL,312.5,171.9
JIRZDKEJQN,170129.0,09:16:13.922,S,93.8,LS,406.3,265.6
JIRZDKEJQN,170129.0,09:16:14.703,L,109.4,SL,765.6,671.9
JIRZDKEJQN,170129.0,09:16:14.969,L,109.4,LL,265.6,156.3
JIRZDKEJQN,170129.0,09:16:18.172,R,93.8,LR,281.3,218.8
JIRZDKEJQN,170129.0,09:16:18.688,L,140.6,RL,468.8,375.0
JIRZDKEJQN,170129.0,09:16:19.109,L,62.5,LL,500.0,359.4
JIRZDKEJQN,170129.0,09:16:19.484,S,140.6,LS,296.9,234.4
JIRZDKEJQN,170129.0,09:16:19.953,L,156.3,SL,453.1,312.5
JIRZDKEJQN,170129.0,09:16:20.859,S,203.1,RS,703.1,640.6
JIRZDKEJQN,170129.0,09:16:24.203,R,109.4,LR,718.8,609.4
JIRZDKEJQN,170129.0,09:16:24.578,R,109.4,RR,375.0,265.6
JIRZDKEJQN,170129.0,09:16:25.328,R,78.1,RR,781.3,671.9
JIRZDKEJQN,170129.0,09:16:25.500,R,78.1,RR,171.9,93.8
JIRZDKEJQN,170129.0,09:16:25.859,L,140.6,RL,296.9,218.8
JIRZDKEJQN,170129.0,09:16:26.219,L,62.5,LL,437.5,296.9
JIRZDKEJQN,170129.0,09:16:26.656,S,93.8,LS,406.3,343.8
JIRZDKEJQN,170129.0,09:16:27.109,R,109.4,SR,437.5,343.8
JIRZDKEJQN,170129.0,09:16:29.609,R,78.1,RR,296.9,234.4
JIRZDKEJQN,170129.0,09:16:30.141,S,140.6,RS,468.8,390.6
JIRZDKEJQN,170129.0,09:16:30.547,L,140.6,SL,406.3,265.6
JIRZDKEJQN,170129.0,09:16:31.031,R,171.9,LR,453.1,312.5
JIRZDKEJQN,170129.0,09:16:31.375,L,187.5,RL,328.1,156.3
JIRZDKEJQN,170129.0,09:16:31.531,S,109.4,LS,234.4,46.9
JIRZDKEJQN,170129.0,09:16:31.703,L,62.5,SL,218.8,109.4
JIRZDKEJQN,170129.0,09:16:31.859,R,109.4,LR,109.4,46.9
JIRZDKEJQN,170129.0,09:16:32.125,L,187.5,RL,187.5,78.1
JIRZDKEJQN,170129.0,09:16:32.438,S,218.8,LS,281.3,93.8
JIRZDKEJQN,170129.0,09:16:34.969,L,171.9,LL,765.6,703.1
JIRZDKEJQN,170129.0,09:16:35.672,R,140.6,LR,734.4,562.5
JIRZDKEJQN,170129.0,09:16:42.141,R,78.1,LR,312.5,203.1
JIRZDKEJQN,170129.0,09:16:42.422,L,62.5,RL,296.9,218.8
JIRZDKEJQN,170129.0,09:16:42.688,L,62.5,LL,265.6,203.1
JIRZDKEJQN,170129.0,09:16:43.156,L,62.5,LL,468.8,406.3
JIRZDKEJQN,170129.0,09:16:43.781,S,93.8,LS,593.8,531.3
JIRZDKEJQN,170129.0,09:16:44.062,L,78.1,SL,296.9,203.1
JIRZDKEJQN,170129.0,09:16:44.328,L,78.1,LL,265.6,187.5
JIRZDKEJQN,170129.0,09:16:44.500,L,78.1,LL,171.9,93.8
JIRZDKEJQN,170129.0,09:16:46.000,L,62.5,RL,359.4,250.0
JIRZDKEJQN,170129.0,09:16:46.297,S,93.8,LS,265.6,203.1
JIRZDKEJQN,170129.0,09:16:48.719,R,78.1,RR,312.5,250.0
JIRZDKEJQN,170129.0,09:16:49.125,L,62.5,RL,421.9,343.8
JIRZDKEJQN,170129.0,09:16:49.391,S,109.4,LS,218.8,156.3
JIRZDKEJQN,170129.0,09:16:50.734,S,140.6,RS,437.5,328.1
JIRZDKEJQN,170129.0,09:16:50.891,L,93.8,SL,203.1,62.5
JIRZDKEJQN,170129.0,09:16:51.656,R,156.3,LR,703.1,609.4
JIRZDKEJQN,170129.0,09:16:51.875,L,109.4,RL,265.6,109.4
JIRZDKEJQN,170129.0,09:16:52.156,S,156.3,LS,234.4,125.0
JIRZDKEJQN,170129.0,09:16:52.828,L,109.4,SL,718.8,562.5
JIRZDKEJQN,170129.0,09:16:53.219,R,140.6,LR,359.4,250.0
JIRZDKEJQN,170129.0,09:16:53.438,L,140.6,RL,218.8,78.1
JIRZDKEJQN,170129.0,09:16:53.688,S,93.8,LS,296.9,156.3
JIRZDKEJQN,170129.0,09:16:56.484,L,171.9,LL,296.9,234.4
JIRZDKEJQN,170129.0,09:16:56.812,R,93.8,LR,406.3,234.4
JIRZDKEJQN,170129.0,09:16:57.109,S,109.4,RS,281.3,187.5
JIRZDKEJQN,170129.0,09:16:57.688,L,109.4,SL,578.1,468.8
JIRZDKEJQN,170129.0,09:16:58.312,R,78.1,LR,656.3,546.9
JIRZDKEJQN,170129.0,09:16:58.594,L,78.1,RL,281.3,203.1
JIRZDKEJQN,170129.0,09:16:58.688,R,31.3,LR,31.3,62.5
JIRZDKEJQN,170129.0,09:16:58.734,S,78.1,RS,31.3,62.5
JIRZDKEJQN,170129.0,09:17:00.500,R,93.8,RR,187.5,78.1
JIRZDKEJQN,170129.0,09:18:04.438,S,140.6,RS,468.8,375.0
JIRZDKEJQN,170129.0,09:18:16.234,L,78.1,RL,343.8,234.4
JIRZDKEJQN,170129.0,09:18:16.844,S,109.4,LS,578.1,500.0
JIRZDKEJQN,170129.0,09:18:17.312,L,78.1,SL,62.5,390.6
JIRZDKEJQN,170129.0,09:18:17.344,R,109.4,LR,62.5,390.6
JIRZDKEJQN,170129.0,09:18:17.750,L,109.4,RL,406.3,296.9
JIRZDKEJQN,170129.0,09:18:17.906,L,140.6,LL,125.0,15.6
JIRZDKEJQN,170129.0,09:18:18.141,S,93.8,LS,281.3,140.6
JIRZDKEJQN,170129.0,09:18:18.891,R,109.4,SR,734.4,640.6
JIRZDKEJQN,170129.0,09:18:19.172,L,62.5,RL,328.1,218.8
JIRZDKEJQN,170129.0,09:18:19.359,S,109.4,LS,140.6,78.1
JIRZDKEJQN,170129.0,09:18:19.562,L,62.5,SL,250.0,140.6
JIRZDKEJQN,170129.0,09:18:19.828,L,62.5,LL,265.6,203.1
JIRZDKEJQN,170129.0,09:18:20.203,R,62.5,LR,375.0,312.5
JIRZDKEJQN,170129.0,09:18:20.531,S,93.8,RS,296.9,234.4
JIRZDKEJQN,170129.0,09:18:20.781,L,62.5,SL,281.3,187.5
JIRZDKEJQN,170129.0,09:18:21.203,R,93.8,LR,390.6,328.1
JIRZDKEJQN,170129.0,09:18:21.781,L,140.6,RL,531.3,437.5
JIRZDKEJQN,170129.0,09:18:22.062,R,78.1,LR,343.8,203.1
JIRZDKEJQN,170129.0,09:18:22.328,S,93.8,RS,250.0,171.9
JIRZDKEJQN,170129.0,09:18:22.578,L,62.5,SL,281.3,187.5
JIRZDKEJQN,170129.0,09:18:22.734,R,78.1,LR,140.6,78.1
JIRZDKEJQN,170129.0,09:18:22.938,L,62.5,RL,218.8,140.6
JIRZDKEJQN,170129.0,09:18:23.094,S,62.5,LS,156.3,93.8
JIRZDKEJQN,170129.0,09:18:25.344,R,93.8,RR,312.5,218.8
JIRZDKEJQN,170129.0,09:18:25.781,R,93.8,RR,437.5,343.8
JIRZDKEJQN,170129.0,09:18:26.062,L,109.4,RL,265.6,171.9
JIRZDKEJQN,170129.0,09:18:26.281,S,109.4,LS,218.8,109.4
JIRZDKEJQN,170129.0,09:18:26.719,L,78.1,SL,468.8,359.4
JIRZDKEJQN,170129.0,09:18:27.297,L,78.1,LL,578.1,500.0
JIRZDKEJQN,170129.0,09:18:27.672,S,171.9,LS,281.3,203.1
JIRZDKEJQN,170129.0,09:18:32.438,L,109.4,RL,328.1,218.8
JIRZDKEJQN,170129.0,09:18:32.625,S,109.4,LS,187.5,78.1
JIRZDKEJQN,170129.0,09:18:33.938,L,109.4,RL,343.8,265.6
JIRZDKEJQN,170129.0,09:18:34.312,L,78.1,LL,406.3,296.9
JIRZDKEJQN,170129.0,09:18:34.641,S,62.5,LS,343.8,265.6
JIRZDKEJQN,170129.0,09:18:35.250,R,140.6,SR,531.3,468.8
JIRZDKEJQN,170129.0,09:18:35.453,L,109.4,RL,234.4,93.8
JIRZDKEJQN,170129.0,09:18:36.156,R,109.4,SR,593.8,531.3
JIRZDKEJQN,170129.0,09:18:36.391,R,78.1,RR,265.6,156.3
JIRZDKEJQN,170129.0,09:18:37.094,R,140.6,RR,640.6,562.5
JIRZDKEJQN,170129.0,09:18:37.531,L,109.4,RL,468.8,328.1
JIRZDKEJQN,170129.0,09:18:38.297,R,62.5,SR,703.1,562.5
JIRZDKEJQN,170129.0,09:18:38.578,R,109.4,RR,234.4,171.9
JIRZDKEJQN,170129.0,09:18:39.312,R,93.8,RR,750.0,640.6
JIRZDKEJQN,170129.0,09:18:39.469,L,93.8,RL,156.3,62.5
JIRZDKEJQN,170129.0,09:18:39.781,S,140.6,LS,265.6,171.9
JIRZDKEJQN,170129.0,09:18:40.312,L,93.8,SL,578.1,437.5
JIRZDKEJQN,170129.0,09:18:40.562,L,62.5,LL,281.3,187.5
JIRZDKEJQN,170129.0,09:18:40.688,L,46.9,LL,140.6,78.1
JIRZDKEJQN,170129.0,09:18:42.234,R,62.5,RR,343.8,250.0
JIRZDKEJQN,170129.0,09:18:42.594,R,93.8,RR,328.1,265.6
JIRZDKEJQN,170129.0,09:18:43.062,L,78.1,RL,484.4,390.6
JIRZDKEJQN,170129.0,09:18:43.766,L,171.9,LL,609.4,531.3
JIRZDKEJQN,170129.0,09:18:44.438,S,62.5,LS,781.3,609.4
JIRZDKEJQN,170129.0,09:18:44.766,S,31.3,SS,31.3,296.9
JIRZDKEJQN,170129.0,09:18:44.875,L,140.6,SL,31.3,296.9
JIRZDKEJQN,170129.0,09:18:45.125,R,109.4,LR,281.3,140.6
JIRZDKEJQN,170129.0,09:18:45.391,L,46.9,RL,93.8,218.8
JIRZDKEJQN,170129.0,09:18:45.422,S,78.1,LS,93.8,218.8
JIRZDKEJQN,170129.0,09:18:45.594,S,78.1,SS,171.9,93.8
JIRZDKEJQN,170129.0,09:18:46.141,L,93.8,SL,531.3,453.1
JIRZDKEJQN,170129.0,09:18:46.391,L,78.1,LL,265.6,171.9
JIRZDKEJQN,170129.0,09:18:46.484,S,78.1,LS,93.8,15.6
JIRZDKEJQN,170129.0,09:18:47.094,L,78.1,SL,609.4,531.3
JIRZDKEJQN,170129.0,09:18:47.609,L,171.9,LL,421.9,343.8
JIRZDKEJQN,170129.0,09:18:48.328,R,109.4,LR,781.3,609.4
JIRZDKEJQN,170129.0,09:18:48.578,S,109.4,RS,250.0,140.6
JIRZDKEJQN,170129.0,09:18:49.656,R,93.8,LR,265.6,15.6
JIRZDKEJQN,170129.0,09:18:50.141,L,140.6,RL,437.5,343.8
JIRZDKEJQN,170129.0,09:18:50.531,L,109.4,LL,421.9,281.3
JIRZDKEJQN,170129.0,09:18:50.953,S,109.4,LS,421.9,312.5
JIRZDKEJQN,170129.0,09:18:51.219,L,93.8,SL,281.3,171.9
JIRZDKEJQN,170129.0,09:18:51.672,R,93.8,LR,453.1,359.4
JIRZDKEJQN,170129.0,09:18:52.047,R,78.1,RR,390.6,296.9
JIRZDKEJQN,170129.0,09:18:52.672,L,109.4,RL,593.8,515.6
JIRZDKEJQN,170129.0,09:18:53.156,L,78.1,LL,109.4,406.3
JIRZDKEJQN,170129.0,09:18:53.156,R,78.1,LR,109.4,406.3
JIRZDKEJQN,170129.0,09:18:53.703,R,140.6,RR,484.4,406.3
JIRZDKEJQN,170129.0,09:18:54.172,R,109.4,RR,500.0,359.4
JIRZDKEJQN,170129.0,09:18:54.469,L,78.1,RL,328.1,218.8
JIRZDKEJQN,170129.0,09:18:56.719,S,140.6,LS,265.6,156.3
JIRZDKEJQN,170129.0,09:18:57.281,R,140.6,SR,562.5,421.9
JIRZDKEJQN,170129.0,09:18:57.641,R,62.5,RR,437.5,296.9
JIRZDKEJQN,170129.0,09:18:58.078,L,109.4,RL,390.6,328.1
JIRZDKEJQN,170129.0,09:19:03.250,S,156.3,RS,453.1,343.8
JIRZDKEJQN,170129.0,09:19:05.000,L,140.6,SL,359.4,218.8
JIRZDKEJQN,170129.0,09:19:05.469,R,62.5,LR,546.9,406.3
JIRZDKEJQN,170129.0,09:19:06.750,L,78.1,RL,437.5,296.9
JIRZDKEJQN,170129.0,09:19:06.953,S,140.6,LS,140.6,62.5
JIRZDKEJQN,170129.0,09:19:07.375,L,109.4,SL,453.1,312.5
JIRZDKEJQN,170129.0,09:19:07.703,L,156.3,LL,281.3,171.9
JIRZDKEJQN,170129.0,09:19:11.812,L,62.5,LL,218.8,109.4
JIRZDKEJQN,170129.0,09:19:12.156,L,140.6,LL,265.6,203.1
JIRZDKEJQN,170129.0,09:19:12.406,R,109.4,LR,281.3,140.6
JIRZDKEJQN,170129.0,09:19:12.781,L,78.1,RL,406.3,296.9
JIRZDKEJQN,170129.0,09:19:13.047,L,31.3,LL,312.5,234.4
JIRZDKEJQN,170129.0,09:19:13.844,L,62.5,LL,765.6,734.4
JIRZDKEJQN,170129.0,09:19:14.125,S,140.6,LS,203.1,140.6
JIRZDKEJQN,170129.0,09:19:15.578,L,62.5,RL,109.4,546.9
JIRZDKEJQN,170129.0,09:19:15.609,S,93.8,LS,109.4,546.9
JIRZDKEJQN,170129.0,09:19:16.422,R,31.3,SR,140.6,781.3
JIRZDKEJQN,170129.0,09:19:16.531,R,140.6,RR,140.6,781.3
JIRZDKEJQN,170129.0,09:19:17.000,R,93.8,RR,515.6,375.0
JIRZDKEJQN,170129.0,09:19:17.484,S,140.6,RS,437.5,343.8
JIRZDKEJQN,170129.0,09:19:18.062,L,78.1,SL,640.6,500.0
JIRZDKEJQN,170129.0,09:19:18.359,L,78.1,LL,296.9,218.8
JIRZDKEJQN,170129.0,09:19:18.703,R,109.4,LR,312.5,234.4
JIRZDKEJQN,170129.0,09:19:19.109,L,109.4,RL,406.3,296.9
JIRZDKEJQN,170129.0,09:19:19.312,S,140.6,LS,171.9,62.5
JIRZDKEJQN,170129.0,09:19:19.734,L,62.5,SL,500.0,359.4
JIRZDKEJQN,170129.0,09:19:21.109,L,109.4,SL,296.9,203.1
JIRZDKEJQN,170129.0,09:19:21.469,R,109.4,LR,359.4,250.0
JIRZDKEJQN,170129.0,09:19:21.891,S,78.1,RS,453.1,343.8
JIRZDKEJQN,170129.0,09:19:22.578,R,171.9,SR,593.8,515.6
JIRZDKEJQN,170129.0,09:19:22.703,R,109.4,RR,187.5,15.6
JIRZDKEJQN,170129.0,09:19:23.156,R,93.8,RR,468.8,359.4
JIRZDKEJQN,170129.0,09:19:23.375,L,62.5,RL,250.0,156.3
JIRZDKEJQN,170129.0,09:19:23.703,S,109.4,LS,281.3,218.8
JIRZDKEJQN,170129.0,09:19:24.453,R,171.9,SR,687.5,578.1
JIRZDKEJQN,170129.0,09:19:25.109,L,218.8,RL,609.4,437.5
JIRZDKEJQN,170129.0,09:19:25.344,R,109.4,LR,343.8,125.0
JIRZDKEJQN,170129.0,09:19:25.688,S,109.4,RS,343.8,234.4
JIRZDKEJQN,170129.0,09:19:26.125,L,31.3,SL,140.6,406.3
JIRZDKEJQN,170129.0,09:19:26.156,R,62.5,LR,140.6,406.3
JIRZDKEJQN,170129.0,09:19:26.688,R,140.6,RR,453.1,390.6
JIRZDKEJQN,170129.0,09:19:27.188,R,93.8,RR,546.9,406.3
JIRZDKEJQN,170129.0,09:19:28.500,S,31.3,LS,31.3,437.5
JIRZDKEJQN,170129.0,09:19:28.516,R,46.9,SR,31.3,437.5
JIRZDKEJQN,170129.0,09:19:29.016,L,109.4,RL,437.5,390.6
JIRZDKEJQN,170129.0,09:19:29.531,R,140.6,LR,484.4,375.0
JIRZDKEJQN,170129.0,09:19:29.828,L,187.5,RL,250.0,109.4
JIRZDKEJQN,170129.0,09:19:30.281,S,62.5,LS,578.1,390.6
JIRZDKEJQN,170129.0,09:19:30.375,S,78.1,SS,78.1,15.6
JIRZDKEJQN,170129.0,09:19:30.672,L,109.4,SL,265.6,187.5
JIRZDKEJQN,170129.0,09:19:30.766,R,78.1,LR,125.0,15.6
JIRZDKEJQN,170129.0,09:19:31.125,L,140.6,RL,296.9,218.8
JIRZDKEJQN,170129.0,09:19:31.484,R,109.4,LR,390.6,250.0
JIRZDKEJQN,170129.0,09:19:32.125,S,171.9,RS,578.1,468.8
JIRZDKEJQN,170129.0,09:19:32.484,L,93.8,SL,437.5,265.6
JIRZDKEJQN,170129.0,09:19:32.891,L,31.3,LL,468.8,375.0
JIRZDKEJQN,170129.0,09:19:33.141,L,62.5,LL,218.8,187.5
JIRZDKEJQN,170129.0,09:19:33.391,S,109.4,LS,203.1,140.6
JIRZDKEJQN,170129.0,09:19:35.047,L,109.4,RL,468.8,328.1
JIRZDKEJQN,170129.0,09:19:35.297,R,62.5,LR,296.9,187.5
JIRZDKEJQN,170129.0,09:19:35.734,R,62.5,RR,437.5,375.0
JIRZDKEJQN,170129.0,09:19:36.141,S,109.4,RS,359.4,296.9
JIRZDKEJQN,170129.0,09:19:37.828,R,93.8,RR,359.4,250.0
JIRZDKEJQN,170129.0,09:19:38.531,L,109.4,RL,703.1,609.4
JIRZDKEJQN,170129.0,09:19:39.078,L,31.3,LL,625.0,515.6
JIRZDKEJQN,170129.0,09:19:42.094,L,140.6,LL,609.4,531.3
JIRZDKEJQN,170129.0,09:19:42.391,R,62.5,LR,375.0,234.4
JIRZDKEJQN,170129.0,09:19:42.562,R,78.1,RR,156.3,93.8
JIRZDKEJQN,170129.0,09:19:43.109,S,140.6,RS,484.4,406.3
JIRZDKEJQN,170129.0,09:19:44.797,R,109.4,RR,750.0,593.8
JIRZDKEJQN,170129.0,09:19:45.078,S,109.4,RS,281.3,171.9
JIRZDKEJQN,170129.0,09:19:45.438,L,62.5,SL,406.3,296.9
JIRZDKEJQN,170129.0,09:19:46.062,R,140.6,LR,546.9,484.4
JIRZDKEJQN,170129.0,09:19:46.281,R,62.5,RR,296.9,156.3
JIRZDKEJQN,170129.0,09:19:46.703,R,109.4,RR,375.0,312.5
JIRZDKEJQN,170129.0,09:19:47.234,L,78.1,RL,562.5,453.1
JIRZDKEJQN,170129.0,09:19:47.859,S,140.6,LS,562.5,484.4
JIRZDKEJQN,170129.0,09:19:48.125,L,171.9,SL,234.4,93.8
JIRZDKEJQN,170129.0,09:19:48.656,R,140.6,LR,562.5,390.6
JIRZDKEJQN,170129.0,09:19:49.234,S,140.6,RS,578.1,437.5
JIRZDKEJQN,170129.0,09:21:22.969,R,109.4,RR,328.1,218.8
JIRZDKEJQN,170129.0,09:21:23.250,L,62.5,RL,328.1,218.8
JIRZDKEJQN,170129.0,09:21:23.547,L,62.5,LL,296.9,234.4
JIRZDKEJQN,170129.0,09:21:23.984,S,140.6,LS,359.4,296.9
JIRZDKEJQN,170129.0,09:21:25.312,L,62.5,LL,234.4,125.0
JIRZDKEJQN,170129.0,09:21:25.469,S,109.4,LS,109.4,46.9
JIRZDKEJQN,170129.0,09:21:26.953,L,78.1,LL,531.3,453.1
JIRZDKEJQN,170129.0,09:21:27.266,L,62.5,LL,328.1,250.0
JIRZDKEJQN,170129.0,09:21:27.797,L,62.5,LL,531.3,468.8
JIRZDKEJQN,170129.0,09:21:27.969,L,78.1,LL,156.3,93.8
JIRZDKEJQN,170129.0,09:21:28.281,S,140.6,LS,250.0,171.9
JIRZDKEJQN,170129.0,09:21:29.062,R,140.6,SR,781.3,640.6
JIRZDKEJQN,170129.0,09:21:29.453,L,93.8,RL,437.5,296.9
JIRZDKEJQN,170129.0,09:21:29.609,S,109.4,LS,140.6,46.9
JIRZDKEJQN,170129.0,09:21:29.797,L,62.5,SL,234.4,125.0
JIRZDKEJQN,170129.0,09:21:29.922,R,78.1,LR,109.4,46.9
JIRZDKEJQN,170129.0,09:21:30.203,L,156.3,RL,203.1,125.0
JIRZDKEJQN,170129.0,09:21:30.625,R,109.4,LR,468.8,312.5
JIRZDKEJQN,170129.0,09:21:30.922,S,109.4,RS,296.9,187.5
JIRZDKEJQN,170129.0,09:21:31.344,L,109.4,SL,421.9,312.5
JIRZDKEJQN,170129.0,09:21:31.578,R,31.3,LR,312.5,203.1
JIRZDKEJQN,170129.0,09:21:31.969,L,109.4,RL,312.5,281.3
JIRZDKEJQN,170129.0,09:21:36.766,R,62.5,RR,546.9,406.3
JIRZDKEJQN,170129.0,09:21:39.062,S,140.6,RS,531.3,343.8
JIRZDKEJQN,170129.0,09:21:41.766,R,78.1,LR,453.1,390.6
JIRZDKEJQN,170129.0,09:21:42.156,R,31.3,RR,437.5,359.4
JIRZDKEJQN,170129.0,09:21:42.344,R,78.1,RR,140.6,109.4
JIRZDKEJQN,170129.0,09:21:42.656,S,62.5,RS,328.1,250.0
JIRZDKEJQN,170129.0,09:21:43.062,L,78.1,SL,390.6,328.1
JIRZDKEJQN,170129.0,09:21:43.547,L,78.1,LL,484.4,406.3
JIRZDKEJQN,170129.0,09:21:44.391,R,109.4,SR,734.4,703.1
JIRZDKEJQN,170129.0,09:21:44.797,R,78.1,RR,437.5,328.1
JIRZDKEJQN,170129.0,09:21:45.281,L,187.5,RL,375.0,296.9
JIRZDKEJQN,170129.0,09:21:45.609,R,109.4,LR,406.3,218.8
JIRZDKEJQN,170129.0,09:21:46.047,S,109.4,RS,437.5,328.1
JIRZDKEJQN,170129.0,09:21:46.328,L,78.1,SL,312.5,203.1
JIRZDKEJQN,170129.0,09:21:46.812,R,109.4,LR,453.1,375.0
JIRZDKEJQN,170129.0,09:21:47.156,L,78.1,RL,375.0,265.6
JIRZDKEJQN,170129.0,09:21:47.516,S,109.4,LS,328.1,250.0
JIRZDKEJQN,170129.0,09:21:47.828,R,78.1,SR,343.8,234.4
JIRZDKEJQN,170129.0,09:21:49.328,R,62.5,RR,328.1,187.5
JIRZDKEJQN,170129.0,09:21:49.688,S,78.1,RS,343.8,281.3
JIRZDKEJQN,170129.0,09:21:50.000,R,62.5,SR,328.1,250.0
JIRZDKEJQN,170129.0,09:21:50.422,L,62.5,RL,421.9,359.4
JIRZDKEJQN,170129.0,09:21:51.188,L,78.1,LL,750.0,687.5
JIRZDKEJQN,170129.0,09:21:51.484,L,109.4,LL,265.6,187.5
JIRZDKEJQN,170129.0,09:21:53.875,S,250.0,LS,484.4,343.8
JIRZDKEJQN,170129.0,09:21:56.000,R,109.4,RR,375.0,296.9
JIRZDKEJQN,170129.0,09:21:56.250,R,62.5,RR,296.9,187.5
JIRZDKEJQN,170129.0,09:21:56.906,R,46.9,RR,671.9,609.4
JIRZDKEJQN,170129.0,09:21:57.484,L,93.8,RL,531.3,484.4
JIRZDKEJQN,170129.0,09:22:02.938,R,140.6,RR,359.4,218.8
JIRZDKEJQN,170129.0,09:22:04.547,L,140.6,RL,625.0,484.4
JIRZDKEJQN,170129.0,09:22:05.953,R,78.1,LR,421.9,281.3
JIRZDKEJQN,170129.0,09:22:06.438,R,93.8,RR,468.8,390.6
JIRZDKEJQN,170129.0,09:22:06.906,S,140.6,RS,421.9,328.1
JIRZDKEJQN,170129.0,09:22:07.969,R,93.8,RR,203.1,31.3
JIRZDKEJQN,170129.0,09:22:08.297,R,78.1,RR,343.8,250.0
JIRZDKEJQN,170129.0,09:22:08.719,S,140.6,RS,359.4,281.3
JIRZDKEJQN,170129.0,09:22:08.922,L,109.4,SL,234.4,93.8
JIRZDKEJQN,170129.0,09:22:09.453,L,31.3,LL,109.4,500.0
JIRZDKEJQN,170129.0,09:22:09.469,L,46.9,LL,109.4,500.0
JIRZDKEJQN,170129.0,09:22:09.891,S,109.4,LS,359.4,312.5
JIRZDKEJQN,170129.0,09:22:10.625,R,93.8,SR,750.0,640.6
JIRZDKEJQN,170129.0,09:22:16.391,R,93.8,RR,671.9,531.3
JIRZDKEJQN,170129.0,09:22:16.719,S,93.8,RS,328.1,234.4
JIRZDKEJQN,170129.0,09:22:17.562,L,140.6,SL,62.5,703.1
JIRZDKEJQN,170129.0,09:22:17.562,S,140.6,LS,62.5,703.1
JIRZDKEJQN,170129.0,09:22:20.438,L,140.6,RL,796.9,734.4
JIRZDKEJQN,170129.0,09:22:20.828,S,140.6,LS,390.6,250.0
JIRZDKEJQN,170129.0,09:22:25.438,S,140.6,RS,468.8,421.9
JIRZDKEJQN,170129.0,09:22:29.984,L,62.5,LL,281.3,187.5
JIRZDKEJQN,170129.0,09:22:30.359,R,62.5,LR,375.0,312.5
JIRZDKEJQN,170129.0,09:22:31.125,R,140.6,RR,687.5,625.0
JIRZDKEJQN,170129.0,09:22:33.625,S,187.5,SS,234.4,93.8
JIRZDKEJQN,170129.0,09:22:43.031,R,93.8,LR,562.5,453.1
JIRZDKEJQN,170129.0,09:22:43.406,L,62.5,RL,406.3,312.5
JIRZDKEJQN,170129.0,09:22:43.859,S,109.4,LS,406.3,343.8
JIRZDKEJQN,170129.0,09:22:48.625,R,109.4,LR,359.4,296.9
JIRZDKEJQN,170129.0,09:22:49.000,L,93.8,RL,390.6,281.3
JIRZDKEJQN,170129.0,09:22:49.344,L,109.4,LL,328.1,234.4
JIRZDKEJQN,170129.0,09:22:49.688,L,62.5,LL,390.6,281.3
JIRZDKEJQN,170129.0,09:22:50.109,L,109.4,LL,375.0,312.5
JIRZDKEJQN,170129.0,09:22:50.219,L,93.8,LL,125.0,15.6
JIRZDKEJQN,170129.0,09:22:50.891,S,93.8,LS,671.9,578.1
JIRZDKEJQN,170129.0,09:22:52.516,L,78.1,RL,296.9,218.8
JIRZDKEJQN,170129.0,09:22:52.656,L,62.5,LL,156.3,78.1
JIRZDKEJQN,170129.0,09:22:53.344,R,62.5,LR,687.5,625.0
JIRZDKEJQN,170129.0,09:22:53.734,S,109.4,RS,343.8,281.3
JIRZDKEJQN,170129.0,09:22:54.125,R,93.8,SR,406.3,296.9
JIRZDKEJQN,170129.0,09:22:54.500,R,62.5,RR,406.3,312.5
JIRZDKEJQN,170129.0,09:22:54.766,S,93.8,RS,234.4,171.9
JIRZDKEJQN,170129.0,09:22:55.375,L,140.6,SL,562.5,468.8
JIRZDKEJQN,170129.0,09:22:55.609,R,109.4,LR,265.6,125.0
JIRZDKEJQN,170129.0,09:22:55.891,R,62.5,RR,328.1,218.8
JIRZDKEJQN,170129.0,09:22:56.500,L,140.6,RL,531.3,468.8
JIRZDKEJQN,170129.0,09:22:56.938,R,31.3,LR,546.9,406.3
JIRZDKEJQN,170129.0,09:23:26.922,R,109.4,LR,421.9,171.9
JIRZDKEJQN,170129.0,09:23:27.000,R,62.5,RR,125.0,15.6
JIRZDKEJQN,170129.0,09:23:27.234,L,93.8,RL,203.1,140.6
JIRZDKEJQN,170129.0,09:23:27.406,S,156.3,LS,109.4,15.6
JIRZDKEJQN,170129.0,09:23:28.906,L,140.6,RL,390.6,328.1
JIRZDKEJQN,170129.0,09:23:29.266,L,78.1,LL,421.9,281.3
JIRZDKEJQN,170129.0,09:23:29.594,S,78.1,LS,328.1,250.0
JIRZDKEJQN,170129.0,09:23:30.266,R,78.1,SR,671.9,593.8
JIRZDKEJQN,170129.0,09:23:30.609,L,125.0,RL,296.9,218.8
JIRZDKEJQN,170129.0,09:23:32.266,R,109.4,RR,453.1,343.8
JIRZDKEJQN,170129.0,09:23:32.891,R,140.6,RR,593.8,484.4
JIRZDKEJQN,170129.0,09:23:33.578,L,31.3,RL,109.4,656.3
JIRZDKEJQN,170129.0,09:23:33.719,S,171.9,LS,109.4,656.3
JIRZDKEJQN,170129.0,09:23:34.250,R,62.5,SR,640.6,468.8
JIRZDKEJQN,170129.0,09:23:34.781,R,109.4,RR,484.4,421.9
JIRZDKEJQN,170129.0,09:23:35.094,R,62.5,RR,359.4,250.0
JIRZDKEJQN,170129.0,09:23:36.594,S,109.4,LS,359.4,281.3
JIRZDKEJQN,170129.0,09:23:37.062,L,109.4,SL,468.8,359.4
JIRZDKEJQN,170129.0,09:23:37.312,L,109.4,LL,250.0,140.6
JIRZDKEJQN,170129.0,09:23:38.156,L,187.5,LL,765.6,656.3
JIRZDKEJQN,170129.0,09:23:38.547,R,78.1,LR,500.0,312.5
JIRZDKEJQN,170129.0,09:23:38.875,R,93.8,RR,312.5,234.4
JIRZDKEJQN,170129.0,09:23:39.156,L,62.5,RL,312.5,218.8
JIRZDKEJQN,170129.0,09:23:39.547,L,109.4,LL,343.8,281.3
JIRZDKEJQN,170129.0,09:24:45.672,L,109.4,RL,328.1,234.4
JIRZDKEJQN,170129.0,09:24:45.891,S,93.8,LS,234.4,125.0
JIRZDKEJQN,170129.0,09:24:46.359,R,62.5,SR,109.4,406.3
JIRZDKEJQN,170129.0,09:24:47.250,R,62.5,RR,359.4,218.8
JIRZDKEJQN,170129.0,09:24:47.703,L,93.8,RL,421.9,359.4
JIRZDKEJQN,170129.0,09:24:47.953,L,62.5,LL,281.3,187.5
JIRZDKEJQN,170129.0,09:24:48.281,S,140.6,LS,250.0,187.5
JIRZDKEJQN,170129.0,09:24:48.641,S,140.6,SS,359.4,218.8
JIRZDKEJQN,170129.0,09:24:51.016,L,140.6,RL,625.0,484.4
JIRZDKEJQN,170129.0,09:24:51.234,R,93.8,LR,265.6,125.0
JIRZDKEJQN,170129.0,09:24:51.406,L,109.4,RL,156.3,62.5
JIRZDKEJQN,170129.0,09:24:51.688,S,109.4,LS,281.3,171.9
JIRZDKEJQN,170129.0,09:24:52.312,L,78.1,SL,281.3,546.9
JIRZDKEJQN,170129.0,09:24:52.453,L,62.5,LL,156.3,78.1
JIRZDKEJQN,170129.0,15:03:42.344,S,171.9,SS,31.3,31.3
JIRZDKEJQN,170129.0,15:03:42.594,S,140.6,SS,281.3,109.4
JIRZDKEJQN,170129.0,15:03:42.766,S,109.4,SS,203.1,62.5
JIRZDKEJQN,170129.0,15:03:43.062,S,62.5,SS,343.8,234.4
JIRZDKEJQN,170129.0,15:03:43.156,S,78.1,SS,78.1,15.6
JIRZDKEJQN,170129.0,15:03:43.312,S,62.5,SS,171.9,93.8
JIRZDKEJQN,170129.0,15:03:43.453,S,62.5,SS,140.6,78.1
JIRZDKEJQN,170129.0,15:04:27.125,R,125.0,RR,187.5,109.4
JIRZDKEJQN,170129.0,15:04:27.594,L,140.6,RL,453.1,328.1
JIRZDKEJQN,170129.0,15:04:28.328,L,78.1,LL,796.9,656.3
JIRZDKEJQN,170129.0,15:04:29.703,L,140.6,RL,500.0,312.5
JIRZDKEJQN,170129.0,15:04:34.156,R,109.4,RR,500.0,359.4
JIRZDKEJQN,170129.0,15:04:34.750,R,203.1,RR,500.0,390.6
JIRZDKEJQN,170129.0,15:08:22.676,R,66.4,RR,578.1,453.1
JIRZDKEJQN,170129.0,15:08:22.973,L,93.8,RL,269.5,203.1
JIRZDKEJQN,170129.0,15:08:23.270,L,93.8,LL,296.9,203.1
JIRZDKEJQN,170129.0,15:08:23.520,L,113.3,LL,230.5,136.7
JIRZDKEJQN,170129.0,15:08:23.781,L,105.5,LL,269.5,156.3
JIRZDKEJQN,170129.0,15:08:23.953,R,74.2,LR,203.1,97.7
JIRZDKEJQN,170129.0,15:08:24.484,L,78.1,RL,527.3,453.1
JIRZDKEJQN,170129.0,15:08:24.859,R,105.5,LR,347.7,269.5
JIRZDKEJQN,170129.0,15:08:25.191,L,113.3,RL,324.2,218.8
JIRZDKEJQN,170129.0,15:08:45.676,L,66.4,LL,625.0,453.1
JIRZDKEJQN,170129.0,15:08:45.906,R,58.6,LR,238.3,171.9
JIRZDKEJQN,170129.0,15:08:46.301,L,78.1,RL,375.0,316.4
JIRZDKEJQN,170129.0,15:08:46.531,R,78.1,LR,230.5,152.3
JIRZDKEJQN,170129.0,15:08:46.859,L,105.5,RL,300.8,222.7
JIRZDKEJQN,170129.0,15:11:43.504,R,62.5,RR,218.8,125.0
JIRZDKEJQN,170129.0,15:11:43.895,R,93.8,RR,359.4,296.9
JIRZDKEJQN,170129.0,15:11:44.395,R,93.8,RR,500.0,406.3
JIRZDKEJQN,170129.0,15:11:44.703,L,74.2,RL,328.1,234.4
JIRZDKEJQN,170129.0,15:11:45.020,L,66.4,LL,324.2,250.0
JIRZDKEJQN,170129.0,15:11:45.520,L,113.3,LL,453.1,386.7
JIRZDKEJQN,170129.0,15:11:45.691,R,62.5,LR,222.7,109.4
JIRZDKEJQN,170129.0,15:11:48.504,L,109.4,RL,238.3,160.2
JIRZDKEJQN,170129.0,15:11:48.691,R,62.5,LR,234.4,125.0
JIRZDKEJQN,170129.0,15:11:49.176,R,78.1,RR,468.8,406.3
JIRZDKEJQN,170129.0,15:11:49.316,R,82.0,RR,136.7,58.6
JIRZDKEJQN,170129.0,15:11:51.441,L,140.6,RL,406.3,347.7
JIRZDKEJQN,170129.0,15:11:51.551,R,78.1,LR,171.9,31.3
JIRZDKEJQN,170129.0,15:11:52.203,R,74.2,RR,656.3,578.1
JIRZDKEJQN,170129.0,15:11:52.609,R,58.6,RR,421.9,347.7
JIRZDKEJQN,170129.0,15:11:52.828,R,46.9,RR,230.5,171.9
JIRZDKEJQN,170129.0,15:11:56.531,R,78.1,LR,261.7,152.3
JIRZDKEJQN,170129.0,15:11:57.191,L,62.5,RL,675.8,597.7
JIRZDKEJQN,170129.0,15:11:57.484,R,78.1,LR,277.3,214.8
JIRZDKEJQN,170129.0,15:11:58.203,R,74.2,RR,722.7,644.5
JIRZDKEJQN,170129.0,15:12:09.109,L,89.8,LL,343.8,238.3
JIRZDKEJQN,170129.0,15:12:09.473,R,66.4,LR,386.7,296.9
JIRZDKEJQN,170129.0,15:12:09.723,L,66.4,RL,250.0,183.6
JIRZDKEJQN,170129.0,15:12:10.004,L,62.5,LL,285.2,218.8
JIRZDKEJQN,170129.0,15:12:10.328,R,74.2,LR,312.5,250.0
JIRZDKEJQN,170129.0,15:12:10.609,L,89.8,RL,265.6,191.4
JIRZDKEJQN,170129.0,15:12:11.004,S,78.1,LS,406.3,316.4
JIRZDKEJQN,170129.0,15:12:55.848,L,113.3,LL,375.0,281.3
JIRZDKEJQN,170129.0,15:12:56.203,L,105.5,LL,363.3,250.0
JIRZDKEJQN,170129.0,15:12:56.531,S,78.1,LS,355.5,250.0
JIRZDKEJQN,170129.0,15:12:56.859,R,78.1,SR,328.1,250.0
JIRZDKEJQN,170129.0,15:12:57.176,L,66.4,RL,328.1,250.0
JIRZDKEJQN,170129.0,15:12:57.453,R,74.2,LR,269.5,203.1
JIRZDKEJQN,170129.0,15:12:57.906,R,105.5,RR,421.9,347.7
JIRZDKEJQN,170129.0,15:13:20.926,L,66.4,LL,281.3,168.0
JIRZDKEJQN,170129.0,15:13:21.066,L,82.0,LL,125.0,58.6
JIRZDKEJQN,170129.0,15:13:21.316,L,82.0,LL,250.0,168.0
JIRZDKEJQN,170129.0,15:13:21.859,S,58.6,LS,566.4,484.4
JIRZDKEJQN,170129.0,15:14:11.609,L,78.1,RL,671.9,589.8
JIRZDKEJQN,170129.0,15:14:12.004,L,109.4,LL,363.3,285.2
JIRZDKEJQN,170129.0,15:14:12.203,R,74.2,LR,234.4,125.0
JIRZDKEJQN,170129.0,15:14:12.328,R,58.6,RR,140.6,66.4
JIRZDKEJQN,170129.0,15:14:12.441,L,62.5,RL,109.4,50.8
JIRZDKEJQN,170129.0,15:14:12.691,L,82.0,LL,230.5,168.0
JIRZDKEJQN,170129.0,15:14:12.828,R,74.2,LR,144.5,62.5
JIRZDKEJQN,170129.0,15:14:13.453,L,136.7,RL,562.5,488.3
JIRZDKEJQN,170130.0,14:21:18.078,L,93.8,RL,765.6,609.4
JIRZDKEJQN,170130.0,14:21:18.312,L,93.8,LL,234.4,140.6
JIRZDKEJQN,170130.0,14:21:18.578,L,125.0,LL,234.4,140.6
JIRZDKEJQN,170130.0,14:21:19.344,S,187.5,LS,703.1,578.1
JIRZDKEJQN,170130.0,14:21:21.672,L,140.6,RL,312.5,218.8
JIRZDKEJQN,170130.0,14:21:22.141,L,78.1,LL,531.3,390.6
JIRZDKEJQN,170130.0,14:21:27.453,L,31.3,LL,62.5,218.8
JIRZDKEJQN,170130.0,14:21:29.297,R,109.4,LR,531.3,343.8
JIRZDKEJQN,170130.0,14:21:29.766,R,156.3,RR,421.9,312.5
JIRZDKEJQN,170130.0,14:21:30.125,L,93.8,RL,421.9,265.6
JIRZDKEJQN,170130.0,14:21:30.547,S,156.3,LS,359.4,265.6
JIRZDKEJQN,170130.0,14:21:34.844,R,93.8,RR,250.0,156.3
JIRZDKEJQN,170130.0,14:21:36.328,R,140.6,RR,453.1,296.9
JIRZDKEJQN,170130.0,14:21:37.047,L,109.4,RL,750.0,609.4
JIRZDKEJQN,170130.0,14:21:37.250,R,78.1,LR,234.4,125.0
JIRZDKEJQN,170130.0,14:21:37.750,L,140.6,RL,437.5,359.4
JIRZDKEJQN,170130.0,14:21:53.859,R,156.3,RR,468.8,312.5
JIRZDKEJQN,170130.0,14:28:12.828,L,140.6,RL,484.4,343.8
JIRZDKEJQN,170130.0,14:28:14.531,L,187.5,RL,484.4,312.5
JIRZDKEJQN,170130.0,14:28:14.891,R,156.3,LR,390.6,203.1
JIRZDKEJQN,170130.0,14:28:15.453,R,187.5,RR,531.3,375.0
JIRZDKEJQN,170130.0,14:28:32.094,L,187.5,RL,406.3,250.0
JIRZDKEJQN,170130.0,14:28:32.844,R,140.6,LR,796.9,609.4
JIRZDKEJQN,170130.0,14:28:33.375,L,203.1,RL,468.8,328.1
JIRZDKEJQN,170130.0,14:28:33.750,R,140.6,LR,437.5,234.4
JIRZDKEJQN,170130.0,14:28:34.188,R,93.8,RR,484.4,343.8
JIRZDKEJQN,170130.0,14:28:50.625,L,140.6,RL,468.8,312.5
JIRZDKEJQN,170130.0,14:28:50.969,R,125.0,LR,359.4,218.8
JIRZDKEJQN,170130.0,14:28:51.328,R,78.1,RR,406.3,281.3
JIRZDKEJQN,170130.0,14:29:48.234,R,187.5,LR,671.9,515.6
JIRZDKEJQN,170130.0,14:29:48.781,L,156.3,RL,578.1,390.6
JIRZDKEJQN,170130.0,14:29:49.422,R,187.5,LR,609.4,453.1
JIRZDKEJQN,170131.0,12:49:52.891,S,93.8,SS,171.9,93.8
