User_ID,Date,Timestamp,Hand,Hold_Time,Direction,Latency_Time,Flight_Time
KKTY9PC9XM,170201.0,12:53:56.305,L,125.0,LL,453.1,359.4
KKTY9PC9XM,170201.0,12:54:02.602,L,109.4,RL,484.4,343.8
KKTY9PC9XM,170201.0,12:54:04.211,R,93.8,RR,296.9,234.4
KKTY9PC9XM,170201.0,12:54:17.867,R,62.5,RR,421.9,375.0
KKTY9PC9XM,170211.0,09:01:05.893,L,125.0,LL,669.9,531.3
KKTY9PC9XM,170211.0,09:01:06.348,L,158.2,LL,421.9,296.9
KKTY9PC9XM,170211.0,09:01:08.283,S,140.6,LS,716.8,591.8
KKTY9PC9XM,170211.0,09:01:11.801,R,111.3,RR,531.3,484.4
KKTY9PC9XM,170211.0,09:01:12.080,R,76.2,RR,314.5,203.1
KKTY9PC9XM,170211.0,09:01:12.473,R,125.0,RR,343.8,267.6
KKTY9PC9XM,170211.0,09:01:12.973,R,142.6,RR,482.4,357.4
KKTY9PC9XM,170211.0,09:01:13.426,L,111.3,RL,484.4,341.8
KKTY9PC9XM,170211.0,10:37:12.094,R,125.0,RR,437.5,312.5
KKTY9PC9XM,170211.0,10:37:12.672,R,109.4,RR,593.8,468.8
KKTY9PC9XM,170211.0,10:37:13.406,L,109.4,RL,734.4,625.0
KKTY9PC9XM,170211.0,10:37:27.234,L,62.5,LL,531.3,453.1
KKTY9PC9XM,170211.0,10:37:27.547,L,46.9,LL,328.1,265.6
KKTY9PC9XM,170211.0,10:37:27.781,L,62.5,LL,218.8,171.9
KKTY9PC9XM,170211.0,10:41:58.781,L,62.5,LL,625.0,500.0
KKTY9PC9XM,170211.0,10:41:59.266,L,78.1,LL,468.8,406.3
KKTY9PC9XM,170211.0,10:41:59.500,L,62.5,LL,250.0,171.9
KKTY9PC9XM,170211.0,10:43:07.938,L,93.8,LL,375.0,234.4
KKTY9PC9XM,170211.0,10:43:08.172,L,78.1,LL,250.0,156.3
KKTY9PC9XM,170211.0,10:43:11.281,L,125.0,RL,671.9,562.5
KKTY9PC9XM,170211.0,10:46:23.188,L,156.3,LL,359.4,265.6
KKTY9PC9XM,170211.0,10:46:23.609,R,125.0,LR,453.1,296.9
KKTY9PC9XM,170211.0,10:46:28.594,L,109.4,RL,343.8,234.4
KKTY9PC9XM,170211.0,10:46:28.859,R,62.5,LR,312.5,203.1
KKTY9PC9XM,170211.0,10:46:29.484,R,93.8,RR,593.8,531.3
KKTY9PC9XM,170211.0,10:46:29.688,R,46.9,RR,250.0,156.3
KKTY9PC9XM,170211.0,10:46:31.812,L,140.6,RL,609.4,531.3
KKTY9PC9XM,170211.0,10:46:32.094,R,78.1,LR,343.8,203.1
KKTY9PC9XM,170211.0,10:46:32.516,R,78.1,RR,421.9,343.8
KKTY9PC9XM,170211.0,10:46:39.781,L,187.5,RL,609.4,453.1
KKTY9PC9XM,170211.0,10:46:40.109,R,125.0,LR,390.6,203.1
KKTY9PC9XM,170211.0,10:47:00.125,R,156.3,LR,484.4,296.9
KKTY9PC9XM,170211.0,10:47:01.688,R,171.9,LR,656.3,421.9
KKTY9PC9XM,170211.0,21:11:23.781,L,140.6,LL,468.8,312.5
KKTY9PC9XM,170211.0,21:11:24.531,R,140.6,LR,750.0,609.4
KKTY9PC9XM,170211.0,21:11:32.906,L,156.3,RL,500.0,375.0
KKTY9PC9XM,170211.0,21:11:33.516,R,93.8,LR,671.9,515.6
KKTY9PC9XM,170211.0,21:11:34.266,R,78.1,RR,765.6,671.9
KKTY9PC9XM,170211.0,21:11:34.609,R,78.1,RR,343.8,265.6
KKTY9PC9XM,170211.0,21:11:37.500,R,93.8,LR,453.1,296.9
KKTY9PC9XM,170211.0,21:11:38.016,R,125.0,RR,484.4,390.6
KKTY9PC9XM,170211.0,21:11:58.875,R,171.9,LR,515.6,328.1
KKTY9PC9XM,170211.0,21:11:59.312,L,140.6,RL,468.8,296.9
KKTY9PC9XM,170211.0,21:11:59.688,R,125.0,LR,390.6,250.0
KKTY9PC9XM,170211.0,21:12:35.234,R,125.0,LR,453.1,281.3
KKTY9PC9XM,170211.0,21:12:35.625,L,156.3,RL,359.4,234.4
KKTY9PC9XM,170211.0,21:12:35.969,R,140.6,LR,359.4,203.1
KKTY9PC9XM,170211.0,21:13:19.891,L,187.5,RL,750.0,625.0
KKTY9PC9XM,170211.0,21:13:25.625,L,187.5,RL,781.3,640.6
KKTY9PC9XM,170211.0,21:13:29.609,R,140.6,LR,359.4,171.9
KKTY9PC9XM,170211.0,21:13:30.297,L,156.3,RL,671.9,531.3
KKTY9PC9XM,170211.0,21:13:30.938,R,125.0,LR,671.9,515.6
KKTY9PC9XM,170211.0,21:16:12.625,L,140.6,LL,390.6,234.4
KKTY9PC9XM,170211.0,21:16:13.078,R,140.6,LR,453.1,312.5
KKTY9PC9XM,170211.0,21:16:21.516,R,93.8,RR,750.0,671.9
KKTY9PC9XM,170211.0,21:16:21.766,R,93.8,RR,250.0,156.3
KKTY9PC9XM,170211.0,21:16:22.578,R,156.3,RR,750.0,656.3
KKTY9PC9XM,170211.0,21:16:23.094,L,156.3,RL,515.6,359.4
KKTY9PC9XM,170211.0,21:16:23.516,R,125.0,LR,453.1,296.9
KKTY9PC9XM,170211.0,21:16:24.031,R,140.6,RR,500.0,375.0
KKTY9PC9XM,170211.0,21:17:53.016,R,125.0,LR,500.0,312.5
KKTY9PC9XM,170211.0,21:17:53.500,L,140.6,RL,468.8,343.8
KKTY9PC9XM,170211.0,21:17:53.750,R,140.6,LR,250.0,109.4
KKTY9PC9XM,170211.0,21:18:00.156,R,140.6,LR,437.5,250.0
KKTY9PC9XM,170211.0,21:18:00.719,L,203.1,RL,500.0,359.4
KKTY9PC9XM,170211.0,21:18:01.047,R,140.6,LR,390.6,187.5
KKTY9PC9XM,170211.0,21:19:57.406,L,109.4,LL,546.9,421.9
KKTY9PC9XM,170211.0,21:19:57.828,R,109.4,LR,421.9,312.5
KKTY9PC9XM,170211.0,21:20:05.078,L,171.9,RL,546.9,421.9
KKTY9PC9XM,170211.0,21:20:05.438,R,93.8,LR,437.5,265.6
KKTY9PC9XM,170211.0,21:20:07.016,R,78.1,RR,312.5,218.8
KKTY9PC9XM,170211.0,21:20:08.641,L,234.4,RL,656.3,578.1
KKTY9PC9XM,170211.0,21:20:08.828,R,93.8,LR,328.1,93.8
KKTY9PC9XM,170211.0,21:20:09.328,R,125.0,RR,468.8,375.0
KKTY9PC9XM,170211.0,21:20:17.953,R,140.6,LR,359.4,203.1
KKTY9PC9XM,170211.0,21:20:18.422,L,187.5,RL,421.9,281.3
KKTY9PC9XM,170211.0,21:20:18.719,R,93.8,LR,390.6,203.1
KKTY9PC9XM,170211.0,21:20:36.609,L,140.6,RL,671.9,562.5
KKTY9PC9XM,170211.0,21:20:36.953,L,156.3,LL,328.1,187.5
KKTY9PC9XM,170211.0,21:20:37.625,L,109.4,LL,718.8,562.5
KKTY9PC9XM,170211.0,21:20:38.109,L,156.3,LL,437.5,328.1
KKTY9PC9XM,170211.0,21:20:38.688,L,187.5,LL,546.9,390.6
KKTY9PC9XM,170211.0,21:20:43.234,S,140.6,SS,468.8,281.3
KKTY9PC9XM,170211.0,21:20:45.125,L,125.0,LL,500.0,328.1
KKTY9PC9XM,170211.0,21:20:45.625,L,156.3,LL,468.8,343.8
KKTY9PC9XM,170211.0,21:20:52.297,L,125.0,RL,687.5,562.5
KKTY9PC9XM,170212.0,17:30:45.734,S,140.6,SS,531.3,406.3
KKTY9PC9XM,170212.0,17:30:46.094,S,171.9,SS,328.1,187.5
KKTY9PC9XM,170212.0,17:30:46.391,S,93.8,SS,375.0,203.1
KKTY9PC9XM,170213.0,11:17:52.812,S,312.5,SS,531.3,359.4
KKTY9PC9XM,170213.0,11:17:57.797,S,203.1,SS,515.6,171.9
KKTY9PC9XM,170213.0,22:51:47.922,L,171.9,LL,640.6,531.3
KKTY9PC9XM,170213.0,22:51:48.453,L,140.6,LL,562.5,390.6
KKTY9PC9XM,170213.0,22:51:49.141,L,156.3,LL,671.9,531.3
KKTY9PC9XM,170213.0,22:51:49.672,R,125.0,LR,562.5,406.3
KKTY9PC9XM,170213.0,22:51:50.250,R,140.6,RR,562.5,437.5
KKTY9PC9XM,170213.0,22:51:50.938,L,109.4,RL,718.8,578.1
KKTY9PC9XM,170213.0,22:52:00.266,R,93.8,LR,562.5,375.0
KKTY9PC9XM,170213.0,22:59:42.031,L,109.4,LL,593.8,453.1
KKTY9PC9XM,170213.0,22:59:48.734,L,171.9,RL,609.4,484.4
KKTY9PC9XM,170213.0,22:59:49.250,R,125.0,LR,562.5,390.6
KKTY9PC9XM,170213.0,22:59:50.672,R,125.0,RR,453.1,281.3
KKTY9PC9XM,170213.0,22:59:52.656,L,156.3,RL,718.8,562.5
KKTY9PC9XM,170213.0,22:59:53.062,R,109.4,LR,453.1,296.9
KKTY9PC9XM,170213.0,22:59:53.812,R,156.3,RR,703.1,593.8
KKTY9PC9XM,170213.0,23:00:36.281,R,156.3,LR,390.6,203.1
KKTY9PC9XM,170213.0,23:00:36.859,L,234.4,RL,500.0,343.8
KKTY9PC9XM,170213.0,23:00:37.266,R,187.5,LR,453.1,218.8
KKTY9PC9XM,170213.0,23:00:37.781,L,203.1,RL,500.0,312.5
KKTY9PC9XM,170213.0,23:00:38.109,R,171.9,LR,359.4,156.3
KKTY9PC9XM,170213.0,23:00:38.688,L,31.3,RL,250.0,546.9
KKTY9PC9XM,170213.0,23:00:38.859,R,203.1,LR,250.0,546.9
KKTY9PC9XM,170213.0,23:01:03.594,L,125.0,LL,468.8,359.4
KKTY9PC9XM,170213.0,23:01:12.375,R,140.6,LR,343.8,140.6
KKTY9PC9XM,170213.0,23:01:13.516,R,125.0,RR,312.5,203.1
KKTY9PC9XM,170213.0,23:01:14.328,R,156.3,RR,781.3,656.3
KKTY9PC9XM,170213.0,23:01:16.156,R,187.5,LR,750.0,500.0
KKTY9PC9XM,170216.0,10:29:56.234,L,125.0,LL,750.0,609.4
KKTY9PC9XM,170216.0,10:30:00.359,L,125.0,RL,750.0,625.0
KKTY9PC9XM,170216.0,10:30:01.062,L,125.0,LL,703.1,578.1
KKTY9PC9XM,170216.0,10:30:54.031,L,171.9,RL,671.9,562.5
KKTY9PC9XM,170216.0,10:30:54.484,R,140.6,LR,484.4,312.5
KKTY9PC9XM,170216.0,10:30:54.969,R,156.3,RR,468.8,328.1
KKTY9PC9XM,170216.0,10:31:49.547,L,156.3,RL,500.0,328.1
KKTY9PC9XM,170216.0,10:31:50.031,R,125.0,LR,515.6,359.4
KKTY9PC9XM,170216.0,10:32:32.406,L,93.8,LL,421.9,281.3
KKTY9PC9XM,170216.0,10:32:33.203,R,109.4,LR,781.3,687.5
KKTY9PC9XM,170216.0,10:32:39.781,L,156.3,RL,500.0,390.6
KKTY9PC9XM,170216.0,10:32:40.188,R,78.1,LR,484.4,328.1
KKTY9PC9XM,170216.0,10:32:40.922,R,125.0,RR,687.5,609.4
KKTY9PC9XM,170216.0,10:32:41.219,R,156.3,RR,265.6,140.6
KKTY9PC9XM,170216.0,10:32:43.812,L,125.0,RL,796.9,656.3
KKTY9PC9XM,170216.0,10:32:44.203,R,140.6,LR,390.6,265.6
KKTY9PC9XM,170216.0,10:32:44.688,R,156.3,RR,468.8,328.1
KKTY9PC9XM,170216.0,10:32:57.047,R,140.6,LR,718.8,484.4
KKTY9PC9XM,170216.0,10:32:57.516,L,171.9,RL,437.5,296.9
KKTY9PC9XM,170216.0,10:32:58.000,R,156.3,LR,500.0,328.1
KKTY9PC9XM,170216.0,10:34:05.578,L,187.5,RL,406.3,281.3
KKTY9PC9XM,170216.0,10:34:06.156,R,93.8,LR,671.9,484.4
KKTY9PC9XM,170216.0,10:34:06.844,R,93.8,RR,687.5,593.8
KKTY9PC9XM,170216.0,10:34:07.219,R,78.1,RR,390.6,296.9
KKTY9PC9XM,170216.0,10:34:10.938,L,187.5,RL,546.9,406.3
KKTY9PC9XM,170216.0,10:34:11.531,R,78.1,LR,703.1,515.6
KKTY9PC9XM,170216.0,10:34:12.266,R,93.8,RR,718.8,640.6
KKTY9PC9XM,170216.0,10:35:53.562,R,140.6,LR,640.6,437.5
KKTY9PC9XM,170216.0,10:35:54.156,L,203.1,RL,531.3,390.6
KKTY9PC9XM,170216.0,10:35:54.562,R,140.6,LR,468.8,265.6
KKTY9PC9XM,170216.0,10:36:29.703,R,187.5,LR,656.3,375.0
KKTY9PC9XM,170216.0,10:36:30.188,L,187.5,RL,484.4,296.9
KKTY9PC9XM,170216.0,10:36:30.672,R,171.9,LR,500.0,312.5
KKTY9PC9XM,170216.0,10:36:50.312,R,156.3,LR,656.3,406.3
KKTY9PC9XM,170216.0,10:36:50.875,L,203.1,RL,515.6,359.4
KKTY9PC9XM,170216.0,10:36:51.391,R,171.9,LR,546.9,343.8
KKTY9PC9XM,170216.0,10:36:56.875,R,171.9,LR,656.3,484.4
KKTY9PC9XM,170216.0,10:36:57.422,L,156.3,RL,562.5,390.6
KKTY9PC9XM,170216.0,10:36:57.906,R,171.9,LR,468.8,312.5
KKTY9PC9XM,170216.0,10:41:03.594,R,93.8,RR,765.6,593.8
KKTY9PC9XM,170216.0,10:41:04.250,L,140.6,RL,609.4,515.6
KKTY9PC9XM,170216.0,10:41:07.062,R,109.4,RR,312.5,218.8
KKTY9PC9XM,170216.0,10:41:07.562,R,93.8,RR,515.6,406.3
KKTY9PC9XM,170216.0,10:41:13.625,S,140.6,RS,500.0,406.3
KKTY9PC9XM,170216.0,10:41:14.250,L,93.8,SL,671.9,531.3
KKTY9PC9XM,170216.0,10:41:14.734,L,140.6,LL,437.5,343.8
KKTY9PC9XM,170216.0,10:41:21.641,L,140.6,RL,640.6,609.4
KKTY9PC9XM,170216.0,10:41:21.938,R,46.9,LR,390.6,250.0
KKTY9PC9XM,170216.0,10:41:22.484,R,109.4,RR,484.4,437.5
KKTY9PC9XM,170216.0,10:41:34.094,L,140.6,LL,453.1,328.1
KKTY9PC9XM,170216.0,10:41:34.672,L,109.4,LL,609.4,468.8
KKTY9PC9XM,170216.0,10:41:38.422,L,78.1,LL,328.1,187.5
KKTY9PC9XM,170216.0,10:41:39.016,L,15.6,LL,656.3,578.1
KKTY9PC9XM,170216.0,10:41:39.328,L,109.4,LL,218.8,203.1
KKTY9PC9XM,170216.0,10:41:39.641,R,93.8,LR,328.1,218.8
KKTY9PC9XM,170216.0,10:41:40.875,L,78.1,LL,390.6,328.1
KKTY9PC9XM,170216.0,10:41:41.688,L,140.6,LL,750.0,671.9
KKTY9PC9XM,170216.0,18:26:21.531,L,109.4,LL,468.8,328.1
KKTY9PC9XM,170216.0,18:26:22.031,L,125.0,LL,484.4,375.0
KKTY9PC9XM,170216.0,18:26:22.344,L,93.8,LL,343.8,218.8
KKTY9PC9XM,170216.0,18:26:23.109,L,125.0,LL,734.4,640.6
KKTY9PC9XM,170216.0,18:26:26.141,R,125.0,LR,484.4,343.8
KKTY9PC9XM,170216.0,18:26:26.656,L,93.8,RL,546.9,421.9
KKTY9PC9XM,170216.0,18:26:29.562,L,140.6,LL,453.1,359.4
KKTY9PC9XM,170216.0,18:26:41.484,L,125.0,LL,500.0,390.6
KKTY9PC9XM,170216.0,18:26:45.031,L,93.8,SL,703.1,578.1
KKTY9PC9XM,170216.0,18:26:45.312,L,78.1,LL,296.9,203.1
KKTY9PC9XM,170217.0,11:26:08.328,L,125.0,RL,531.3,406.3
KKTY9PC9XM,170217.0,11:26:09.875,L,109.4,LL,515.6,421.9
KKTY9PC9XM,170217.0,11:26:10.578,L,109.4,LL,703.1,593.8
KKTY9PC9XM,170217.0,11:26:11.109,L,125.0,LL,515.6,406.3
KKTY9PC9XM,170217.0,11:26:16.359,L,109.4,SL,781.3,671.9
KKTY9PC9XM,170217.0,11:26:16.750,L,125.0,LL,375.0,265.6
KKTY9PC9XM,170217.0,11:26:28.422,R,78.1,RR,562.5,453.1
KKTY9PC9XM,170217.0,11:26:29.078,L,93.8,RL,640.6,562.5
KKTY9PC9XM,170217.0,11:26:32.266,L,109.4,LL,562.5,531.3
KKTY9PC9XM,170220.0,10:47:20.121,R,125.0,RR,250.0,156.3
KKTY9PC9XM,170220.0,10:47:20.871,L,109.4,RL,765.6,640.6
KKTY9PC9XM,170220.0,10:47:24.574,R,78.1,RR,406.3,328.1
KKTY9PC9XM,170220.0,10:47:24.934,R,93.8,RR,343.8,265.6
KKTY9PC9XM,170220.0,10:47:26.355,R,78.1,RR,250.0,187.5
KKTY9PC9XM,170220.0,10:47:26.855,R,62.5,RR,515.6,437.5
KKTY9PC9XM,170220.0,10:47:28.480,S,93.8,LS,671.9,609.4
KKTY9PC9XM,170220.0,10:47:29.199,L,78.1,SL,734.4,640.6
KKTY9PC9XM,170220.0,10:47:30.418,R,62.5,RR,406.3,343.8
KKTY9PC9XM,170220.0,10:47:31.137,R,62.5,RR,718.8,656.3
KKTY9PC9XM,170220.0,10:47:32.793,L,78.1,RL,796.9,703.1
KKTY9PC9XM,170220.0,10:48:35.387,R,78.1,RR,718.8,640.6
KKTY9PC9XM,170220.0,10:48:35.887,L,93.8,RL,484.4,406.3
KKTY9PC9XM,170220.0,10:48:36.230,L,46.9,LL,390.6,296.9
KKTY9PC9XM,170224.0,19:32:37.234,L,140.6,RL,734.4,609.4
KKTY9PC9XM,170224.0,19:32:37.922,R,78.1,LR,750.0,609.4
KKTY9PC9XM,170224.0,19:32:38.500,R,93.8,RR,562.5,484.4
KKTY9PC9XM,170224.0,19:33:46.453,R,140.6,LR,453.1,281.3
KKTY9PC9XM,170224.0,19:33:46.766,L,156.3,RL,296.9,156.3
KKTY9PC9XM,170224.0,19:33:47.172,R,109.4,LR,453.1,296.9
