User_ID,Date,Timestamp,Hand,Hold_Time,Direction,Latency_Time,Flight_Time
KTUVFFSLN4,160915.0,12:55:37.883,L,93.8,LL,375.0,300.8
KTUVFFSLN4,160915.0,12:55:38.406,L,148.4,LL,468.8,375.0
KTUVFFSLN4,160915.0,13:48:02.836,S,175.8,SS,343.8,183.6
KTUVFFSLN4,160915.0,13:48:10.691,S,152.3,SS,289.1,152.3
KTUVFFSLN4,160915.0,13:48:10.969,S,191.4,SS,238.3,85.9
KTUVFFSLN4,160915.0,13:48:16.199,S,109.4,SS,351.6,199.2
KTUVFFSLN4,160915.0,13:48:16.480,S,144.5,SS,246.1,136.7
KTUVFFSLN4,160915.0,13:48:19.145,S,160.2,SS,421.9,281.3
KTUVFFSLN4,160915.0,13:48:32.570,S,121.1,SS,410.2,273.4
KTUVFFSLN4,160915.0,13:48:32.891,S,136.7,SS,304.7,183.6
KTUVFFSLN4,160915.0,13:48:33.160,S,93.8,SS,312.5,175.8
KTUVFFSLN4,160915.0,13:48:35.203,S,144.5,SS,328.1,168.0
KTUVFFSLN4,160915.0,13:48:35.852,S,121.1,SS,671.9,527.3
KTUVFFSLN4,160915.0,13:48:45.457,S,199.2,SS,601.6,367.2
KTUVFFSLN4,160915.0,13:48:50.695,S,238.3,SS,488.3,289.1
KTUVFFSLN4,160915.0,13:48:51.027,S,183.6,SS,386.7,148.4
KTUVFFSLN4,160915.0,13:48:51.418,S,238.3,SS,335.9,152.3
KTUVFFSLN4,160915.0,13:48:54.098,S,160.2,SS,558.6,359.4
KTUVFFSLN4,160915.0,13:48:54.352,S,132.8,SS,281.3,121.1
KTUVFFSLN4,160915.0,13:48:54.602,S,113.3,SS,269.5,136.7
KTUVFFSLN4,160915.0,13:48:54.891,S,175.8,SS,226.6,113.3
KTUVFFSLN4,160915.0,13:49:03.195,S,160.2,SS,496.1,312.5
KTUVFFSLN4,160915.0,13:49:17.441,S,144.5,SS,304.7,168.0
KTUVFFSLN4,160915.0,13:49:17.754,S,175.8,SS,281.3,136.7
KTUVFFSLN4,160915.0,13:49:33.527,S,175.8,SS,664.1,460.9
KTUVFFSLN4,160915.0,13:49:38.219,S,82.0,SS,527.3,269.5
KTUVFFSLN4,160915.0,13:49:38.508,S,160.2,SS,210.9,128.9
KTUVFFSLN4,160915.0,13:49:43.180,S,187.5,SS,527.3,351.6
KTUVFFSLN4,160915.0,13:49:50.465,S,136.7,SS,300.8,183.6
KTUVFFSLN4,160915.0,15:36:38.250,S,226.6,SS,511.7,320.3
KTUVFFSLN4,160915.0,15:36:42.098,S,199.2,SS,554.7,296.9
KTUVFFSLN4,160915.0,16:23:10.465,R,15.6,LR,171.9,703.1
KTUVFFSLN4,160915.0,16:23:10.617,L,168.0,RL,171.9,703.1
KTUVFFSLN4,160915.0,16:23:11.148,L,214.8,LL,484.4,316.4
KTUVFFSLN4,160915.0,16:23:17.383,L,148.4,LL,285.2,101.6
KTUVFFSLN4,160915.0,16:23:19.078,R,203.1,RR,531.3,347.7
KTUVFFSLN4,160915.0,16:25:51.227,L,132.8,RL,347.7,230.5
KTUVFFSLN4,160915.0,16:25:51.562,L,199.2,LL,269.5,136.7
KTUVFFSLN4,160915.0,16:25:51.949,L,140.6,LL,445.3,246.1
KTUVFFSLN4,160915.0,16:25:52.234,S,183.6,LS,242.2,101.6
KTUVFFSLN4,160915.0,16:25:54.305,L,187.5,RL,187.5,15.6
KTUVFFSLN4,160915.0,16:25:55.090,L,203.1,LL,769.5,582.0
KTUVFFSLN4,160915.0,16:25:55.711,R,238.3,LR,585.9,382.8
KTUVFFSLN4,160915.0,16:25:56.258,L,214.8,RL,570.3,332.0
KTUVFFSLN4,160915.0,16:25:56.477,L,85.9,LL,101.6,132.8
KTUVFFSLN4,160915.0,16:25:56.578,R,187.5,LR,101.6,132.8
KTUVFFSLN4,160915.0,16:25:56.844,R,105.5,RR,347.7,160.2
KTUVFFSLN4,160915.0,16:28:00.672,R,152.3,LR,531.3,371.1
KTUVFFSLN4,160915.0,16:28:00.875,L,171.9,RL,183.6,31.3
KTUVFFSLN4,160915.0,16:28:01.152,L,132.8,LL,316.4,144.5
KTUVFFSLN4,160915.0,16:28:02.930,L,203.1,RL,484.4,269.5
KTUVFFSLN4,160915.0,16:28:03.176,L,168.0,LL,281.3,78.1
KTUVFFSLN4,160915.0,16:28:08.559,L,140.6,LL,347.7,136.7
KTUVFFSLN4,160915.0,16:28:08.844,L,125.0,LL,300.8,160.2
KTUVFFSLN4,160915.0,16:28:09.637,S,195.3,LS,722.7,597.7
KTUVFFSLN4,160915.0,16:28:11.062,R,125.0,LR,257.8,113.3
KTUVFFSLN4,160915.0,16:28:11.242,L,78.1,RL,226.6,101.6
KTUVFFSLN4,160915.0,16:28:11.750,L,171.9,LL,414.1,335.9
KTUVFFSLN4,160915.0,16:28:13.324,L,15.6,LL,160.2,277.3
KTUVFFSLN4,160915.0,16:28:13.500,R,191.4,LR,160.2,277.3
KTUVFFSLN4,160915.0,16:28:13.852,R,183.6,RR,359.4,168.0
KTUVFFSLN4,160915.0,16:28:14.555,L,168.0,RL,718.8,535.2
KTUVFFSLN4,160915.0,16:28:26.254,L,168.0,RL,687.5,539.1
KTUVFFSLN4,160915.0,16:28:26.586,L,187.5,LL,312.5,144.5
KTUVFFSLN4,160915.0,16:28:26.934,R,203.1,LR,332.0,144.5
KTUVFFSLN4,160915.0,16:28:27.332,R,128.9,RR,472.7,269.5
KTUVFFSLN4,160915.0,16:28:27.664,L,160.2,RL,300.8,171.9
KTUVFFSLN4,160915.0,16:28:30.957,L,144.5,RL,171.9,39.1
KTUVFFSLN4,160915.0,16:28:31.344,R,148.4,LR,382.8,238.3
KTUVFFSLN4,160915.0,16:28:31.844,R,148.4,RR,500.0,351.6
KTUVFFSLN4,160915.0,18:19:33.438,S,117.2,RS,171.9,15.6
KTUVFFSLN4,160915.0,18:19:33.898,L,148.4,SL,429.7,312.5
KTUVFFSLN4,160915.0,18:19:34.102,R,15.6,LR,117.2,187.5
KTUVFFSLN4,160915.0,18:19:34.234,S,148.4,RS,117.2,187.5
KTUVFFSLN4,160915.0,18:19:34.586,L,148.4,SL,351.6,203.1
KTUVFFSLN4,160915.0,18:19:34.719,R,117.2,LR,164.1,15.6
KTUVFFSLN4,160915.0,18:19:35.008,L,23.4,RL,179.7,265.6
KTUVFFSLN4,160915.0,18:19:35.172,R,187.5,LR,179.7,265.6
KTUVFFSLN4,160915.0,18:19:35.305,S,117.2,RS,203.1,15.6
KTUVFFSLN4,160915.0,18:19:35.672,R,15.6,SR,132.8,351.6
KTUVFFSLN4,160915.0,18:19:35.867,R,15.6,RR,195.3,179.7
KTUVFFSLN4,160915.0,18:19:36.023,R,171.9,RR,195.3,179.7
KTUVFFSLN4,160915.0,18:19:38.547,L,156.3,LL,226.6,117.2
KTUVFFSLN4,160915.0,18:21:13.086,L,164.1,SL,648.4,500.0
KTUVFFSLN4,160915.0,18:21:13.352,L,179.7,LL,250.0,85.9
KTUVFFSLN4,160915.0,18:21:13.500,R,117.2,LR,210.9,31.3
KTUVFFSLN4,160915.0,18:21:13.750,L,164.1,RL,203.1,85.9
KTUVFFSLN4,160915.0,18:21:13.914,S,132.8,LS,195.3,31.3
KTUVFFSLN4,160915.0,18:21:14.266,L,62.5,SL,85.9,289.1
KTUVFFSLN4,160915.0,18:21:14.453,R,101.6,LR,148.4,85.9
KTUVFFSLN4,160915.0,18:21:14.531,S,179.7,RS,148.4,85.9
KTUVFFSLN4,160915.0,18:21:16.305,L,132.8,RL,234.4,85.9
KTUVFFSLN4,160915.0,18:21:16.555,R,164.1,LR,218.8,85.9
KTUVFFSLN4,160915.0,18:21:17.047,R,109.4,RR,546.9,382.8
KTUVFFSLN4,160915.0,18:21:17.305,R,148.4,RR,218.8,109.4
KTUVFFSLN4,160915.0,18:21:24.695,S,148.4,RS,585.9,492.2
KTUVFFSLN4,160915.0,18:21:25.086,R,15.6,SR,156.3,375.0
KTUVFFSLN4,160915.0,18:21:25.422,R,23.4,RR,328.1,312.5
KTUVFFSLN4,160915.0,18:21:25.570,R,171.9,RR,328.1,312.5
KTUVFFSLN4,160915.0,18:21:26.953,L,132.8,SL,250.0,101.6
KTUVFFSLN4,160915.0,18:21:27.336,R,117.2,LR,398.4,265.6
KTUVFFSLN4,160915.0,18:21:27.602,R,148.4,RR,234.4,117.2
KTUVFFSLN4,160915.0,18:21:28.734,L,132.8,SL,218.8,46.9
KTUVFFSLN4,160915.0,18:21:28.969,R,93.8,LR,93.8,140.6
KTUVFFSLN4,160915.0,18:21:29.086,L,31.3,RL,179.7,85.9
KTUVFFSLN4,160915.0,18:21:29.219,S,164.1,LS,179.7,85.9
KTUVFFSLN4,160915.0,18:21:31.547,L,187.5,RL,234.4,85.9
KTUVFFSLN4,160915.0,18:21:31.625,S,62.5,LS,203.1,15.6
KTUVFFSLN4,160915.0,18:21:33.281,L,171.9,RL,250.0,117.2
KTUVFFSLN4,160915.0,18:21:33.531,L,101.6,LL,320.3,148.4
KTUVFFSLN4,160915.0,18:21:33.914,R,148.4,LR,335.9,234.4
KTUVFFSLN4,160915.0,18:21:34.398,L,31.3,RL,187.5,453.1
KTUVFFSLN4,160915.0,18:21:34.562,L,195.3,LL,187.5,453.1
KTUVFFSLN4,160915.0,18:21:34.969,L,203.1,LL,398.4,203.1
KTUVFFSLN4,160915.0,18:21:35.094,S,109.4,LS,218.8,15.6
KTUVFFSLN4,160915.0,18:21:37.281,R,39.1,LR,125.0,171.9
KTUVFFSLN4,160915.0,18:21:37.438,L,46.9,RL,148.4,109.4
KTUVFFSLN4,160915.0,18:21:37.523,S,132.8,LS,148.4,109.4
KTUVFFSLN4,160915.0,18:21:44.945,R,23.4,LR,148.4,187.5
KTUVFFSLN4,160915.0,18:21:45.078,L,156.3,RL,148.4,187.5
KTUVFFSLN4,160915.0,18:21:45.797,S,148.4,LS,726.6,570.3
KTUVFFSLN4,160915.0,18:21:52.852,R,117.2,RR,312.5,101.6
KTUVFFSLN4,160915.0,18:21:53.156,S,164.1,RS,257.8,140.6
KTUVFFSLN4,160915.0,18:21:53.703,R,148.4,SR,562.5,398.4
KTUVFFSLN4,160915.0,18:21:54.008,R,54.7,RR,117.2,250.0
KTUVFFSLN4,160915.0,18:21:54.094,S,140.6,RS,117.2,250.0
KTUVFFSLN4,160915.0,18:21:54.781,R,23.4,SR,164.1,664.1
KTUVFFSLN4,160915.0,18:21:54.891,L,132.8,RL,164.1,664.1
KTUVFFSLN4,160915.0,18:21:55.227,L,140.6,LL,328.1,195.3
KTUVFFSLN4,160915.0,18:22:03.891,S,101.6,RS,664.1,492.2
KTUVFFSLN4,160915.0,18:22:04.656,L,187.5,SL,679.7,578.1
KTUVFFSLN4,160915.0,18:22:05.828,S,140.6,LS,132.8,31.3
KTUVFFSLN4,160915.0,18:22:06.859,L,23.4,RL,148.4,195.3
KTUVFFSLN4,160915.0,18:22:06.961,S,125.0,LS,148.4,195.3
KTUVFFSLN4,160915.0,18:22:07.562,R,54.7,SR,132.8,546.9
KTUVFFSLN4,160915.0,18:22:07.734,R,226.6,RR,132.8,546.9
KTUVFFSLN4,160915.0,18:22:07.977,R,156.3,RR,312.5,85.9
KTUVFFSLN4,160915.0,18:22:08.141,L,148.4,RL,171.9,15.6
KTUVFFSLN4,160915.0,18:22:08.328,S,117.2,LS,218.8,70.3
KTUVFFSLN4,160915.0,18:22:16.727,L,148.4,LL,335.9,164.1
KTUVFFSLN4,160915.0,18:22:17.102,S,187.5,LS,335.9,187.5
KTUVFFSLN4,160915.0,18:22:17.883,R,31.3,SR,148.4,750.0
KTUVFFSLN4,160915.0,18:22:18.078,R,226.6,RR,148.4,750.0
KTUVFFSLN4,160915.0,18:22:18.328,R,23.4,RR,156.3,226.6
KTUVFFSLN4,160915.0,18:22:18.461,L,156.3,RL,156.3,226.6
KTUVFFSLN4,160915.0,18:22:18.602,S,78.1,LS,218.8,62.5
KTUVFFSLN4,160915.0,18:22:19.195,R,164.1,SR,507.8,429.7
KTUVFFSLN4,160915.0,18:22:19.430,R,187.5,RR,210.9,46.9
KTUVFFSLN4,160915.0,18:22:30.156,L,117.2,RL,226.6,70.3
KTUVFFSLN4,160915.0,18:22:30.508,R,23.4,LR,156.3,328.1
KTUVFFSLN4,160915.0,18:22:30.641,S,156.3,RS,156.3,328.1
KTUVFFSLN4,160915.0,18:22:31.023,R,15.6,SR,164.1,367.2
KTUVFFSLN4,160915.0,18:22:31.234,R,46.9,RR,179.7,164.1
KTUVFFSLN4,160915.0,18:22:31.359,R,15.6,RR,156.3,109.4
KTUVFFSLN4,160915.0,18:22:31.477,S,132.8,RS,156.3,109.4
KTUVFFSLN4,160915.0,18:22:31.773,L,226.6,SL,203.1,70.3
KTUVFFSLN4,160915.0,18:22:32.109,L,195.3,LL,367.2,140.6
KTUVFFSLN4,160915.0,18:22:32.492,R,85.9,LR,492.2,296.9
KTUVFFSLN4,160915.0,18:22:32.672,R,93.8,RR,171.9,85.9
KTUVFFSLN4,160915.0,18:22:35.133,S,117.2,RS,664.1,625.0
KTUVFFSLN4,160915.0,18:22:36.297,R,46.9,LR,93.8,70.3
KTUVFFSLN4,160915.0,18:22:36.398,S,148.4,RS,93.8,70.3
KTUVFFSLN4,160915.0,18:22:36.688,R,132.8,SR,304.7,156.3
KTUVFFSLN4,160915.0,18:22:36.898,R,156.3,RR,187.5,54.7
KTUVFFSLN4,160915.0,18:22:37.242,R,140.6,RR,359.4,203.1
KTUVFFSLN4,160915.0,18:22:38.398,S,78.1,RS,203.1,109.4
KTUVFFSLN4,160915.0,18:22:41.562,L,148.4,RL,164.1,46.9
KTUVFFSLN4,160915.0,18:22:41.695,S,117.2,LS,164.1,15.6
KTUVFFSLN4,160915.0,18:22:41.852,R,117.2,SR,156.3,39.1
KTUVFFSLN4,160915.0,18:22:42.031,L,46.9,RL,117.2,132.8
KTUVFFSLN4,160915.0,18:22:42.102,S,117.2,LS,117.2,132.8
KTUVFFSLN4,160915.0,18:22:42.383,L,187.5,SL,210.9,93.8
KTUVFFSLN4,160915.0,18:22:42.719,L,234.4,LL,289.1,101.6
KTUVFFSLN4,160915.0,18:22:43.172,R,187.5,LR,500.0,265.6
KTUVFFSLN4,160915.0,18:22:43.500,R,101.6,RR,414.1,226.6
KTUVFFSLN4,160915.0,18:22:43.758,R,140.6,RR,218.8,117.2
KTUVFFSLN4,160915.0,18:22:44.000,S,164.1,RS,218.8,78.1
KTUVFFSLN4,160915.0,18:22:48.531,S,164.1,LS,414.1,320.3
KTUVFFSLN4,160915.0,18:22:51.172,R,164.1,LR,250.0,101.6
KTUVFFSLN4,160915.0,18:22:51.422,L,148.4,RL,265.6,101.6
KTUVFFSLN4,160915.0,18:22:51.656,L,164.1,LL,218.8,70.3
KTUVFFSLN4,160915.0,18:24:13.766,R,132.8,RR,601.6,437.5
KTUVFFSLN4,160915.0,18:24:14.047,S,140.6,RS,273.4,140.6
KTUVFFSLN4,160915.0,18:24:22.000,R,148.4,RR,234.4,125.0
KTUVFFSLN4,160915.0,18:24:25.641,R,117.2,LR,242.2,46.9
KTUVFFSLN4,160915.0,18:24:25.797,L,117.2,RL,156.3,39.1
KTUVFFSLN4,160915.0,18:24:26.047,L,234.4,LL,132.8,15.6
KTUVFFSLN4,160915.0,18:24:26.180,S,117.2,LS,250.0,15.6
KTUVFFSLN4,160915.0,18:24:27.539,R,23.4,RR,218.8,289.1
KTUVFFSLN4,160915.0,18:24:27.961,S,148.4,LS,132.8,117.2
KTUVFFSLN4,160915.0,18:24:28.406,L,23.4,SL,179.7,421.9
KTUVFFSLN4,160915.0,18:24:28.500,R,117.2,LR,179.7,421.9
KTUVFFSLN4,160915.0,18:24:29.086,R,171.9,RR,531.3,414.1
KTUVFFSLN4,160915.0,18:24:29.352,R,132.8,RR,304.7,132.8
KTUVFFSLN4,160915.0,18:24:32.531,S,125.0,RS,179.7,46.9
KTUVFFSLN4,160915.0,18:24:32.805,L,46.9,SL,164.1,226.6
KTUVFFSLN4,160915.0,18:24:32.875,R,117.2,LR,164.1,226.6
KTUVFFSLN4,160915.0,18:24:33.078,L,164.1,RL,156.3,39.1
KTUVFFSLN4,160915.0,18:24:33.266,L,23.4,LL,148.4,164.1
KTUVFFSLN4,160915.0,18:24:33.344,S,101.6,LS,148.4,164.1
KTUVFFSLN4,160915.0,18:24:33.734,L,23.4,SL,164.1,367.2
KTUVFFSLN4,160915.0,18:24:33.844,R,132.8,LR,164.1,367.2
KTUVFFSLN4,160915.0,18:24:34.031,L,140.6,RL,179.7,46.9
KTUVFFSLN4,160915.0,18:24:34.180,S,117.2,LS,171.9,31.3
KTUVFFSLN4,160915.0,18:24:34.859,R,179.7,SR,617.2,500.0
KTUVFFSLN4,160915.0,18:24:35.133,R,156.3,RR,296.9,117.2
KTUVFFSLN4,160915.0,18:24:35.445,L,179.7,RL,289.1,132.8
KTUVFFSLN4,160915.0,18:24:35.914,L,93.8,LL,171.9,375.0
KTUVFFSLN4,160915.0,18:24:36.062,L,15.6,LL,226.6,132.8
KTUVFFSLN4,160915.0,18:24:36.133,S,85.9,LS,226.6,132.8
KTUVFFSLN4,160915.0,18:24:36.383,R,164.1,SR,171.9,85.9
KTUVFFSLN4,160915.0,18:24:36.570,L,39.1,RL,132.8,148.4
KTUVFFSLN4,160915.0,18:24:36.633,S,101.6,LS,132.8,148.4
KTUVFFSLN4,160915.0,18:24:36.953,R,187.5,SR,234.4,132.8
KTUVFFSLN4,160915.0,18:24:37.148,L,179.7,RL,203.1,15.6
KTUVFFSLN4,160915.0,18:24:37.383,L,148.4,LL,265.6,85.9
KTUVFFSLN4,160915.0,18:24:37.719,R,117.2,LR,367.2,218.8
KTUVFFSLN4,160915.0,18:24:38.250,L,31.3,RL,179.7,500.0
KTUVFFSLN4,160915.0,18:24:38.398,L,179.7,LL,179.7,500.0
KTUVFFSLN4,160915.0,18:24:38.820,L,148.4,LL,453.1,273.4
KTUVFFSLN4,160915.0,18:24:55.109,L,62.5,RL,101.6,140.6
KTUVFFSLN4,160915.0,18:24:55.188,S,140.6,LS,101.6,140.6
KTUVFFSLN4,160915.0,18:24:55.711,R,164.1,SR,500.0,359.4
KTUVFFSLN4,160915.0,18:24:56.461,R,132.8,RR,781.3,617.2
KTUVFFSLN4,160915.0,18:24:56.852,L,101.6,RL,421.9,289.1
KTUVFFSLN4,160915.0,18:24:57.609,L,62.5,LL,148.4,695.3
KTUVFFSLN4,160915.0,18:24:57.797,L,250.0,LL,148.4,695.3
KTUVFFSLN4,160915.0,18:24:57.898,S,85.9,LS,265.6,15.6
KTUVFFSLN4,160915.0,18:24:58.148,R,179.7,SR,156.3,70.3
KTUVFFSLN4,160915.0,18:24:58.320,L,125.0,RL,226.6,46.9
KTUVFFSLN4,160915.0,18:24:58.445,S,62.5,LS,187.5,62.5
KTUVFFSLN4,160915.0,18:25:02.008,R,164.1,RR,203.1,335.9
KTUVFFSLN4,160915.0,18:25:02.172,L,132.8,RL,195.3,31.3
KTUVFFSLN4,160915.0,18:25:02.438,L,148.4,LL,250.0,117.2
KTUVFFSLN4,160915.0,18:25:02.562,S,85.9,LS,187.5,39.1
KTUVFFSLN4,160915.0,18:25:03.242,R,195.3,SR,570.3,484.4
KTUVFFSLN4,160915.0,18:25:03.523,L,179.7,RL,296.9,101.6
KTUVFFSLN4,160915.0,18:25:03.727,L,148.4,LL,234.4,54.7
KTUVFFSLN4,160915.0,18:25:04.023,R,164.1,LR,281.3,132.8
KTUVFFSLN4,160915.0,18:25:04.328,L,234.4,RL,234.4,70.3
KTUVFFSLN4,160915.0,18:25:04.562,L,187.5,LL,281.3,46.9
KTUVFFSLN4,160915.0,18:25:05.078,L,179.7,LL,523.4,335.9
KTUVFFSLN4,160915.0,18:25:05.367,S,203.1,LS,265.6,85.9
KTUVFFSLN4,160915.0,18:25:07.570,L,140.6,RL,687.5,546.9
KTUVFFSLN4,160915.0,18:25:08.055,R,187.5,LR,437.5,296.9
KTUVFFSLN4,160915.0,18:25:08.203,L,132.8,RL,203.1,15.6
KTUVFFSLN4,160915.0,18:25:08.547,L,46.9,LL,148.4,296.9
KTUVFFSLN4,160915.0,18:25:08.586,S,85.9,LS,148.4,296.9
KTUVFFSLN4,160915.0,18:25:08.883,L,31.3,SL,117.2,265.6
KTUVFFSLN4,160915.0,18:25:08.953,S,101.6,LS,117.2,265.6
KTUVFFSLN4,160915.0,18:25:09.375,R,187.5,SR,335.9,234.4
KTUVFFSLN4,160915.0,18:25:09.859,R,187.5,RR,484.4,296.9
KTUVFFSLN4,160915.0,18:25:10.172,L,210.9,RL,289.1,101.6
KTUVFFSLN4,160915.0,18:25:11.680,L,140.6,LL,500.0,343.8
KTUVFFSLN4,160916.0,07:55:57.322,L,187.5,RL,109.4,218.8
KTUVFFSLN4,160916.0,07:55:57.572,L,187.5,LL,250.0,62.5
KTUVFFSLN4,160916.0,07:56:03.682,R,171.9,SR,421.9,203.1
KTUVFFSLN4,160916.0,07:56:03.916,L,156.3,RL,250.0,78.1
KTUVFFSLN4,160916.0,07:56:05.447,L,171.9,SL,562.5,390.6
KTUVFFSLN4,160916.0,07:56:05.775,L,140.6,LL,359.4,187.5
KTUVFFSLN4,160916.0,07:56:06.260,R,109.4,LR,515.6,375.0
KTUVFFSLN4,160916.0,07:56:06.572,R,203.1,RR,218.8,109.4
KTUVFFSLN4,160916.0,07:56:06.947,R,140.6,RR,437.5,234.4
KTUVFFSLN4,160916.0,07:59:08.350,R,130.9,LR,216.8,31.3
KTUVFFSLN4,160916.0,07:59:08.520,L,148.4,RL,152.3,21.5
KTUVFFSLN4,160916.0,07:59:08.719,S,168.0,LS,179.7,31.3
KTUVFFSLN4,160916.0,07:59:12.197,R,168.0,RR,232.4,85.9
KTUVFFSLN4,160916.0,07:59:12.529,L,146.5,RL,353.5,185.5
KTUVFFSLN4,160916.0,07:59:12.783,R,168.0,LR,232.4,85.9
KTUVFFSLN4,160916.0,07:59:13.062,L,232.4,RL,214.8,46.9
KTUVFFSLN4,160916.0,07:59:13.617,L,216.8,LL,570.3,337.9
KTUVFFSLN4,160916.0,07:59:15.592,L,154.3,SL,617.2,416.0
KTUVFFSLN4,160916.0,07:59:15.855,R,31.3,LR,169.9,232.4
KTUVFFSLN4,160916.0,07:59:16.039,R,214.8,RR,169.9,232.4
KTUVFFSLN4,160916.0,16:27:52.953,R,136.7,RR,386.7,214.8
KTUVFFSLN4,160916.0,16:27:53.164,S,179.7,RS,168.0,31.3
KTUVFFSLN4,160916.0,16:27:53.703,R,132.8,SR,585.9,406.3
KTUVFFSLN4,160916.0,16:27:54.070,R,19.5,RR,117.2,347.7
KTUVFFSLN4,160916.0,16:27:54.234,S,183.6,RS,117.2,347.7
KTUVFFSLN4,160916.0,16:27:55.574,R,97.7,LR,222.7,70.3
KTUVFFSLN4,160916.0,16:27:55.809,R,136.7,RR,195.3,97.7
KTUVFFSLN4,160916.0,16:27:56.023,L,183.6,RL,168.0,31.3
KTUVFFSLN4,160916.0,16:27:56.324,R,148.4,LR,335.9,152.3
KTUVFFSLN4,160916.0,16:27:56.609,L,152.3,RL,281.3,132.8
KTUVFFSLN4,160916.0,16:27:56.996,L,101.6,LL,437.5,285.2
KTUVFFSLN4,160916.0,16:27:57.195,L,136.7,LL,164.1,62.5
KTUVFFSLN4,160916.0,16:27:57.598,R,15.6,LR,168.0,386.7
KTUVFFSLN4,160916.0,16:27:57.730,S,148.4,RS,168.0,386.7
KTUVFFSLN4,160916.0,16:27:58.047,L,31.3,SL,171.9,285.2
KTUVFFSLN4,160916.0,16:27:58.160,R,144.5,LR,171.9,285.2
KTUVFFSLN4,160916.0,16:27:58.363,L,164.1,RL,183.6,39.1
KTUVFFSLN4,160916.0,16:27:58.531,L,70.3,LL,78.1,97.7
KTUVFFSLN4,160916.0,16:27:58.586,S,125.0,LS,78.1,97.7
KTUVFFSLN4,160916.0,16:27:59.133,R,117.2,SR,554.7,429.7
KTUVFFSLN4,160916.0,16:27:59.449,R,132.8,RR,300.8,183.6
KTUVFFSLN4,160916.0,16:27:59.648,L,144.5,RL,187.5,54.7
KTUVFFSLN4,160916.0,16:27:59.988,L,183.6,LL,300.8,156.3
KTUVFFSLN4,160916.0,16:28:00.305,L,50.8,LL,101.6,265.6
KTUVFFSLN4,160916.0,16:28:00.367,S,113.3,LS,101.6,265.6
KTUVFFSLN4,160916.0,16:28:00.820,L,31.3,SL,152.3,421.9
KTUVFFSLN4,160916.0,16:28:01.008,R,54.7,LR,164.1,132.8
KTUVFFSLN4,160916.0,16:28:01.105,S,152.3,RS,164.1,132.8
KTUVFFSLN4,160916.0,16:28:02.895,L,168.0,LL,515.6,355.5
KTUVFFSLN4,160916.0,16:28:03.645,L,168.0,LL,750.0,582.0
KTUVFFSLN4,160916.0,16:28:09.395,S,179.7,RS,355.5,199.2
KTUVFFSLN4,160916.0,16:28:13.891,S,117.2,RS,168.0,70.3
KTUVFFSLN4,160916.0,16:28:14.605,L,144.5,SL,687.5,570.3
KTUVFFSLN4,160916.0,16:28:14.777,R,46.9,LR,70.3,125.0
KTUVFFSLN4,160916.0,16:28:14.926,L,195.3,RL,70.3,125.0
KTUVFFSLN4,160916.0,16:28:15.414,S,183.6,LS,500.0,304.7
KTUVFFSLN4,160916.0,16:28:16.695,L,113.3,RL,218.8,70.3
KTUVFFSLN4,160916.0,16:28:16.883,L,168.0,LL,132.8,19.5
KTUVFFSLN4,160916.0,16:28:17.035,S,136.7,LS,183.6,15.6
KTUVFFSLN4,160916.0,16:28:19.590,R,31.3,LR,117.2,183.6
KTUVFFSLN4,160916.0,16:28:19.758,L,199.2,RL,117.2,183.6
KTUVFFSLN4,160916.0,16:28:19.945,R,23.4,LR,148.4,164.1
KTUVFFSLN4,160916.0,16:28:20.059,S,136.7,RS,148.4,164.1
KTUVFFSLN4,160916.0,16:28:20.375,L,15.6,SL,183.6,300.8
KTUVFFSLN4,160916.0,16:28:20.547,L,3.9,LL,183.6,168.0
KTUVFFSLN4,160916.0,16:28:20.691,S,148.4,LS,183.6,168.0
KTUVFFSLN4,160916.0,16:28:21.094,R,168.0,SR,382.8,234.4
KTUVFFSLN4,160916.0,16:28:21.344,R,179.7,RR,238.3,70.3
KTUVFFSLN4,160916.0,16:28:21.578,L,152.3,RL,261.7,82.0
KTUVFFSLN4,160916.0,16:28:21.863,L,136.7,LL,300.8,148.4
KTUVFFSLN4,160916.0,16:28:22.195,L,31.3,LL,117.2,300.8
KTUVFFSLN4,160916.0,16:28:22.352,S,187.5,LS,117.2,300.8
KTUVFFSLN4,160916.0,16:28:22.582,R,152.3,SR,265.6,78.1
KTUVFFSLN4,160916.0,16:28:22.812,R,58.6,RR,70.3,171.9
KTUVFFSLN4,160916.0,16:28:22.898,S,144.5,RS,70.3,171.9
KTUVFFSLN4,160916.0,16:28:24.203,R,171.9,LR,414.1,277.3
KTUVFFSLN4,160916.0,16:28:24.434,L,179.7,RL,222.7,50.8
KTUVFFSLN4,160916.0,16:28:24.703,L,144.5,LL,304.7,125.0
KTUVFFSLN4,160916.0,16:28:24.855,R,121.1,LR,175.8,31.3
KTUVFFSLN4,160916.0,16:28:25.059,L,101.6,RL,222.7,101.6
KTUVFFSLN4,160916.0,16:28:26.262,S,152.3,RS,171.9,15.6
KTUVFFSLN4,160916.0,16:28:27.613,R,46.9,LR,140.6,269.5
KTUVFFSLN4,160916.0,16:28:27.711,L,15.6,RL,128.9,82.0
KTUVFFSLN4,160916.0,16:28:27.812,S,117.2,LS,128.9,82.0
KTUVFFSLN4,160916.0,16:28:28.367,S,121.1,RS,148.4,31.3
KTUVFFSLN4,160916.0,16:28:28.746,R,179.7,SR,320.3,199.2
KTUVFFSLN4,160916.0,16:28:28.945,L,144.5,RL,234.4,54.7
KTUVFFSLN4,160916.0,16:28:31.105,R,50.8,LR,132.8,117.2
KTUVFFSLN4,160916.0,16:28:31.223,S,168.0,RS,132.8,117.2
KTUVFFSLN4,160916.0,16:28:32.879,L,183.6,LL,238.3,70.3
KTUVFFSLN4,160916.0,16:28:33.227,L,144.5,LL,386.7,203.1
KTUVFFSLN4,160916.0,16:28:34.934,S,152.3,LS,281.3,117.2
KTUVFFSLN4,160916.0,16:28:35.609,L,222.7,SL,605.5,453.1
KTUVFFSLN4,160916.0,16:28:35.754,R,113.3,LR,253.9,31.3
KTUVFFSLN4,160916.0,16:28:36.070,R,15.6,RR,199.2,300.8
KTUVFFSLN4,160916.0,16:28:36.207,L,152.3,RL,199.2,300.8
KTUVFFSLN4,160916.0,16:28:36.590,L,132.8,LL,402.3,250.0
KTUVFFSLN4,160916.0,16:28:36.910,L,152.3,LL,300.8,168.0
KTUVFFSLN4,160916.0,16:28:37.074,S,148.4,LS,168.0,15.6
KTUVFFSLN4,160916.0,16:28:39.496,L,179.7,RL,218.8,35.2
KTUVFFSLN4,160916.0,16:28:41.316,S,164.1,LS,550.8,398.4
KTUVFFSLN4,160916.0,16:28:43.027,L,136.7,SL,316.4,183.6
KTUVFFSLN4,160916.0,16:28:43.324,R,195.3,LR,238.3,101.6
KTUVFFSLN4,160916.0,16:28:43.527,R,199.2,RR,199.2,3.9
KTUVFFSLN4,160916.0,16:28:43.746,L,199.2,RL,218.8,19.5
KTUVFFSLN4,160916.0,16:28:44.148,L,171.9,LL,429.7,230.5
KTUVFFSLN4,160916.0,16:28:44.664,S,168.0,LS,519.5,347.7
KTUVFFSLN4,160916.0,16:28:45.051,L,15.6,SL,156.3,371.1
KTUVFFSLN4,160916.0,16:28:45.180,R,46.9,LR,97.7,82.0
KTUVFFSLN4,160916.0,16:28:45.281,S,148.4,RS,97.7,82.0
KTUVFFSLN4,160916.0,16:28:45.781,L,168.0,SL,480.5,332.0
KTUVFFSLN4,160916.0,16:28:46.016,R,179.7,LR,222.7,54.7
KTUVFFSLN4,160916.0,16:28:46.516,L,214.8,RL,464.8,285.2
KTUVFFSLN4,160916.0,16:28:53.758,S,152.3,RS,132.8,15.6
KTUVFFSLN4,160916.0,16:28:54.289,R,199.2,SR,484.4,332.0
KTUVFFSLN4,160916.0,16:28:54.539,R,46.9,RR,183.6,203.1
KTUVFFSLN4,160916.0,16:28:54.691,R,199.2,RR,183.6,203.1
KTUVFFSLN4,160916.0,16:28:54.895,L,31.3,RL,125.0,171.9
KTUVFFSLN4,160916.0,16:28:54.977,S,113.3,LS,125.0,171.9
KTUVFFSLN4,160916.0,16:28:55.363,R,3.9,SR,148.4,382.8
KTUVFFSLN4,160916.0,16:28:55.625,R,15.6,RR,250.0,246.1
KTUVFFSLN4,160916.0,16:28:55.828,R,218.8,RR,250.0,246.1
KTUVFFSLN4,160916.0,16:28:56.367,L,187.5,RL,570.3,351.6
KTUVFFSLN4,160916.0,16:28:56.645,S,148.4,LS,316.4,128.9
KTUVFFSLN4,160916.0,16:28:57.832,L,113.3,RL,218.8,46.9
KTUVFFSLN4,160916.0,16:28:58.117,R,199.2,LR,199.2,85.9
KTUVFFSLN4,160916.0,16:28:58.750,R,179.7,RR,652.3,453.1
KTUVFFSLN4,160916.0,16:30:07.992,R,183.6,RR,269.5,117.2
KTUVFFSLN4,160916.0,16:30:08.324,R,195.3,RR,320.3,136.7
KTUVFFSLN4,160916.0,17:53:16.918,L,160.2,RL,187.5,15.6
KTUVFFSLN4,160916.0,17:53:17.473,R,214.8,LR,500.0,339.8
KTUVFFSLN4,160916.0,17:53:17.949,R,19.5,RR,156.3,457.0
KTUVFFSLN4,160916.0,17:53:18.109,L,179.7,RL,156.3,457.0
KTUVFFSLN4,160916.0,17:53:28.738,R,35.2,RR,183.6,718.8
KTUVFFSLN4,160916.0,17:53:28.887,L,183.6,RL,183.6,718.8
KTUVFFSLN4,160916.0,17:53:29.258,R,218.8,LR,335.9,152.3
KTUVFFSLN4,160916.0,17:53:29.758,R,15.6,RR,183.6,484.4
KTUVFFSLN4,160916.0,17:53:29.906,L,164.1,RL,183.6,484.4
KTUVFFSLN4,160916.0,17:53:30.621,S,160.2,LS,718.8,554.7
