User_ID,Date,Timestamp,Hand,Hold_Time,Direction,Latency_Time,Flight_Time
L7Q16SJ7KP,161231.0,10:58:34.078,R,101.6,RR,515.6,402.3
L7Q16SJ7KP,161231.0,10:59:33.867,L,93.8,LL,527.3,363.3
L7Q16SJ7KP,161231.0,10:59:38.312,R,121.1,RR,335.9,222.7
L7Q16SJ7KP,161231.0,11:02:14.379,L,171.9,LL,550.8,398.4
