User_ID,Date,Timestamp,Hand,Hold_Time,Direction,Latency_Time,Flight_Time
LIPRETG9WY,160818.0,10:15:12.195,L,74.2,LL,464.8,328.1
LIPRETG9WY,160818.0,10:15:14.168,R,89.8,RR,414.1,285.2
LIPRETG9WY,160818.0,10:15:14.676,S,105.5,RS,492.2,402.3
LIPRETG9WY,160818.0,10:15:49.977,L,70.3,LL,460.9,371.1
LIPRETG9WY,160818.0,10:16:09.355,R,97.7,RR,277.3,168.0
LIPRETG9WY,160818.0,10:16:11.223,S,78.1,LS,398.4,328.1
LIPRETG9WY,160818.0,11:11:10.859,R,31.3,RR,418.0,312.5
LIPRETG9WY,160818.0,11:11:54.883,S,85.9,RS,429.7,382.8
LIPRETG9WY,160818.0,11:12:31.152,S,105.5,RS,351.6,257.8
LIPRETG9WY,160818.0,11:12:58.500,L,78.1,LL,339.8,210.9
LIPRETG9WY,160818.0,17:27:37.965,L,97.7,LL,453.1,367.2
LIPRETG9WY,160818.0,17:28:33.730,L,125.0,LL,453.1,312.5
LIPRETG9WY,160818.0,19:59:39.562,L,156.3,LL,406.3,281.3
LIPRETG9WY,160818.0,19:59:39.945,L,140.6,LL,398.4,242.2
LIPRETG9WY,160818.0,19:59:40.117,L,140.6,LL,171.9,31.3
LIPRETG9WY,160818.0,20:02:33.430,R,171.9,RR,265.6,109.4
LIPRETG9WY,160818.0,20:02:33.695,L,125.0,RL,312.5,140.6
LIPRETG9WY,160818.0,20:02:34.016,L,85.9,LL,359.4,234.4
LIPRETG9WY,160818.0,20:02:34.523,L,179.7,LL,414.1,328.1
LIPRETG9WY,160818.0,20:02:34.742,R,140.6,LR,257.8,78.1
LIPRETG9WY,160819.0,06:34:52.881,S,130.9,RS,289.1,187.5
LIPRETG9WY,160819.0,06:35:16.449,L,162.1,LL,363.3,291.0
LIPRETG9WY,160819.0,06:56:30.168,L,54.7,LL,285.2,173.8
LIPRETG9WY,160819.0,07:03:41.947,R,125.0,RR,478.5,349.6
LIPRETG9WY,160819.0,07:44:23.258,R,46.9,RR,304.7,214.8
LIPRETG9WY,160819.0,07:44:25.270,L,91.8,LL,281.3,209.0
LIPRETG9WY,160819.0,07:44:25.527,L,50.8,LL,298.8,207.0
LIPRETG9WY,160819.0,07:54:40.021,L,70.3,LL,390.6,277.3
LIPRETG9WY,160819.0,07:54:47.322,L,74.2,LL,380.9,300.8
LIPRETG9WY,160819.0,07:55:08.273,L,66.4,LL,330.1,214.8
LIPRETG9WY,160819.0,07:59:21.930,S,56.6,RS,293.0,187.5
LIPRETG9WY,160819.0,07:59:29.793,L,70.3,LL,404.3,320.3
LIPRETG9WY,160819.0,08:02:37.355,L,66.4,LL,369.1,250.0
LIPRETG9WY,160819.0,08:03:25.715,S,44.9,RS,298.8,201.2
LIPRETG9WY,160819.0,08:03:29.717,L,44.9,LL,492.2,416.0
LIPRETG9WY,160819.0,08:03:44.443,S,56.6,LS,392.6,326.2
LIPRETG9WY,160819.0,08:03:49.141,L,44.9,LL,490.2,431.6
LIPRETG9WY,160819.0,08:55:28.072,R,119.1,RR,320.3,207.0
LIPRETG9WY,160819.0,08:55:30.943,L,72.3,LL,390.6,322.3
LIPRETG9WY,160819.0,08:55:31.348,L,72.3,LL,404.3,332.0
LIPRETG9WY,160819.0,08:58:26.768,R,93.8,RR,445.3,320.3
LIPRETG9WY,160819.0,10:24:14.820,L,62.5,LL,308.6,195.3
LIPRETG9WY,160819.0,10:32:54.785,R,121.1,RR,359.4,226.6
LIPRETG9WY,160819.0,10:32:55.875,L,50.8,LL,355.5,296.9
LIPRETG9WY,160819.0,10:32:56.371,S,70.3,LS,476.6,425.8
LIPRETG9WY,160819.0,10:33:31.688,R,50.8,LR,296.9,250.0
LIPRETG9WY,160819.0,10:48:57.961,R,113.3,RR,289.1,207.0
LIPRETG9WY,160819.0,10:49:05.637,S,105.5,RS,343.8,269.5
LIPRETG9WY,160819.0,10:49:08.695,R,78.1,RR,332.0,261.7
LIPRETG9WY,160819.0,10:49:19.125,L,128.9,LL,429.7,285.2
LIPRETG9WY,160819.0,10:49:19.477,L,27.3,LL,19.5,324.2
LIPRETG9WY,160819.0,10:49:19.477,L,27.3,LL,19.5,324.2
LIPRETG9WY,160819.0,10:51:31.621,R,113.3,RR,269.5,164.1
LIPRETG9WY,160819.0,10:51:47.340,R,105.5,RR,445.3,308.6
LIPRETG9WY,160819.0,10:52:45.211,L,85.9,LL,398.4,296.9
LIPRETG9WY,160819.0,10:57:47.469,S,89.8,LS,332.0,257.8
LIPRETG9WY,160819.0,10:57:53.023,L,50.8,LL,457.0,406.3
LIPRETG9WY,160819.0,10:57:53.383,L,46.9,LL,363.3,312.5
LIPRETG9WY,160819.0,10:57:53.773,L,54.7,LL,382.8,335.9
LIPRETG9WY,160819.0,10:58:06.641,R,97.7,RR,332.0,234.4
LIPRETG9WY,160819.0,11:07:32.766,L,50.8,LL,375.0,312.5
LIPRETG9WY,160819.0,11:07:44.031,R,101.6,RR,324.2,238.3
LIPRETG9WY,160819.0,11:07:49.074,S,105.5,LS,468.8,390.6
LIPRETG9WY,160819.0,11:07:50.879,L,50.8,LL,347.7,250.0
LIPRETG9WY,160819.0,11:10:27.613,L,74.2,LL,464.8,398.4
LIPRETG9WY,160819.0,11:10:28.113,S,105.5,LS,468.8,394.5
LIPRETG9WY,160819.0,11:10:31.867,L,50.8,LL,343.8,304.7
LIPRETG9WY,160819.0,11:10:38.148,S,58.6,RS,472.7,390.6
LIPRETG9WY,160819.0,11:28:46.758,L,121.1,LL,257.8,164.1
LIPRETG9WY,160819.0,11:28:46.980,L,74.2,LL,269.5,148.4
LIPRETG9WY,160819.0,11:28:47.207,R,117.2,LR,183.6,109.4
LIPRETG9WY,160819.0,11:28:49.883,R,85.9,RR,156.3,85.9
LIPRETG9WY,160819.0,11:28:50.207,L,93.8,RL,316.4,230.5
LIPRETG9WY,160819.0,11:29:03.590,L,62.5,LL,214.8,132.8
LIPRETG9WY,160819.0,11:29:03.859,L,93.8,LL,238.3,175.8
LIPRETG9WY,160819.0,11:29:04.016,L,78.1,LL,171.9,78.1
LIPRETG9WY,160819.0,11:29:04.336,L,43.0,LL,355.5,277.3
LIPRETG9WY,160819.0,11:29:05.250,L,58.6,RL,332.0,230.5
LIPRETG9WY,160819.0,18:43:13.969,L,117.2,LL,304.7,187.5
LIPRETG9WY,160819.0,18:43:14.266,L,109.4,LL,304.7,187.5
LIPRETG9WY,160819.0,18:46:06.250,R,93.8,RR,250.0,140.6
LIPRETG9WY,160819.0,18:46:06.672,R,132.8,RR,382.8,289.1
LIPRETG9WY,160819.0,18:46:06.992,L,125.0,RL,328.1,195.3
LIPRETG9WY,160819.0,18:46:07.219,L,46.9,LL,304.7,179.7
LIPRETG9WY,160819.0,18:46:07.391,L,78.1,LL,140.6,93.8
LIPRETG9WY,160819.0,18:46:08.398,R,109.4,RR,351.6,250.0
LIPRETG9WY,160819.0,20:17:10.742,L,78.1,LL,257.8,148.4
LIPRETG9WY,160819.0,20:17:10.992,L,78.1,LL,250.0,171.9
LIPRETG9WY,160819.0,20:17:11.281,R,109.4,LR,257.8,179.7
LIPRETG9WY,160819.0,20:17:13.117,R,93.8,RR,210.9,101.6
LIPRETG9WY,160819.0,20:17:13.547,L,85.9,RL,437.5,343.8
LIPRETG9WY,160819.0,20:17:13.766,R,101.6,LR,203.1,117.2
LIPRETG9WY,160819.0,20:17:14.141,L,62.5,RL,414.1,312.5
LIPRETG9WY,160819.0,20:17:14.359,L,70.3,LL,210.9,148.4
LIPRETG9WY,160819.0,20:17:15.680,R,101.6,LR,492.2,429.7
LIPRETG9WY,160819.0,20:17:16.094,R,85.9,RR,429.7,328.1
LIPRETG9WY,160819.0,20:17:16.406,L,78.1,RL,320.3,234.4
LIPRETG9WY,160819.0,20:17:17.406,L,109.4,RL,414.1,304.7
LIPRETG9WY,160819.0,20:17:17.531,R,101.6,LR,132.8,23.4
LIPRETG9WY,160819.0,20:17:17.773,R,117.2,RR,226.6,125.0
LIPRETG9WY,160819.0,20:24:39.156,L,156.3,RL,437.5,289.1
LIPRETG9WY,160819.0,20:24:39.484,L,78.1,LL,406.3,250.0
LIPRETG9WY,160819.0,20:29:31.766,L,109.4,RL,312.5,171.9
LIPRETG9WY,160819.0,20:29:31.945,R,132.8,LR,156.3,46.9
LIPRETG9WY,160819.0,20:29:33.898,R,62.5,RR,351.6,265.6
LIPRETG9WY,160819.0,20:29:34.109,R,117.2,RR,156.3,93.8
LIPRETG9WY,160819.0,20:30:02.328,L,93.8,RL,351.6,265.6
LIPRETG9WY,160819.0,20:30:02.516,L,70.3,LL,210.9,117.2
LIPRETG9WY,160819.0,20:30:02.812,R,125.0,LR,242.2,171.9
LIPRETG9WY,160819.0,20:30:03.055,L,54.7,RL,312.5,187.5
LIPRETG9WY,160819.0,20:30:03.438,L,85.9,LL,351.6,296.9
LIPRETG9WY,160819.0,20:30:03.758,R,101.6,LR,304.7,218.8
LIPRETG9WY,160819.0,20:30:03.969,R,78.1,RR,234.4,132.8
LIPRETG9WY,160819.0,20:30:11.062,L,78.1,RL,421.9,335.9
LIPRETG9WY,160819.0,20:30:11.258,L,70.3,LL,203.1,125.0
LIPRETG9WY,160819.0,20:30:11.609,R,125.0,LR,296.9,226.6
LIPRETG9WY,160819.0,20:30:11.883,L,70.3,RL,328.1,203.1
LIPRETG9WY,160819.0,20:30:12.203,L,78.1,LL,312.5,242.2
LIPRETG9WY,160819.0,20:30:12.508,R,101.6,LR,281.3,203.1
LIPRETG9WY,160819.0,20:30:12.727,R,54.7,RR,265.6,164.1
LIPRETG9WY,160819.0,20:30:52.812,R,140.6,LR,492.2,406.3
LIPRETG9WY,160819.0,20:30:53.008,L,85.9,RL,250.0,109.4
LIPRETG9WY,160819.0,20:30:53.227,R,93.8,LR,210.9,125.0
LIPRETG9WY,160819.0,20:30:57.250,R,70.3,RR,328.1,226.6
LIPRETG9WY,160819.0,20:30:57.422,R,78.1,RR,164.1,93.8
LIPRETG9WY,160819.0,20:31:22.578,L,78.1,RL,359.4,281.3
LIPRETG9WY,160819.0,20:31:22.766,L,62.5,LL,203.1,125.0
LIPRETG9WY,160819.0,20:31:23.000,R,125.0,LR,171.9,109.4
LIPRETG9WY,160819.0,20:31:23.297,L,62.5,RL,359.4,234.4
LIPRETG9WY,160819.0,20:31:23.578,L,78.1,LL,265.6,203.1
LIPRETG9WY,160819.0,20:31:24.047,R,70.3,LR,164.1,398.4
LIPRETG9WY,160819.0,20:31:24.125,R,148.4,RR,164.1,398.4
LIPRETG9WY,160819.0,20:31:30.828,L,85.9,RL,343.8,250.0
LIPRETG9WY,160819.0,20:31:31.000,L,70.3,LL,187.5,101.6
LIPRETG9WY,160819.0,20:31:31.281,R,109.4,LR,242.2,171.9
LIPRETG9WY,160819.0,20:31:31.523,L,62.5,RL,289.1,179.7
LIPRETG9WY,160819.0,20:31:31.875,L,70.3,LL,343.8,281.3
LIPRETG9WY,160819.0,20:32:47.719,L,85.9,RL,390.6,312.5
LIPRETG9WY,160819.0,20:32:47.930,L,70.3,LL,226.6,140.6
LIPRETG9WY,160819.0,20:32:48.328,R,132.8,LR,335.9,265.6
LIPRETG9WY,160819.0,20:32:48.578,L,93.8,RL,289.1,156.3
LIPRETG9WY,160819.0,20:32:48.914,L,78.1,LL,351.6,257.8
LIPRETG9WY,160819.0,20:32:49.250,R,117.2,LR,296.9,218.8
LIPRETG9WY,160819.0,20:32:49.453,R,70.3,RR,250.0,132.8
LIPRETG9WY,160819.0,20:32:54.367,L,78.1,RL,390.6,304.7
LIPRETG9WY,160819.0,20:32:54.562,L,78.1,LL,195.3,117.2
LIPRETG9WY,160819.0,20:32:54.867,R,140.6,LR,242.2,164.1
LIPRETG9WY,160819.0,20:32:55.117,L,85.9,RL,304.7,164.1
LIPRETG9WY,160819.0,20:32:55.430,L,78.1,LL,320.3,234.4
LIPRETG9WY,160819.0,20:32:55.742,R,125.0,LR,265.6,187.5
LIPRETG9WY,160819.0,20:32:55.938,R,78.1,RR,242.2,117.2
LIPRETG9WY,160819.0,20:33:18.500,L,164.1,RL,250.0,78.1
LIPRETG9WY,160819.0,20:33:18.734,R,54.7,LR,343.8,179.7
LIPRETG9WY,160819.0,20:33:19.000,L,93.8,RL,226.6,171.9
LIPRETG9WY,160819.0,20:33:19.242,R,85.9,LR,250.0,156.3
LIPRETG9WY,160819.0,20:33:22.133,L,85.9,RL,148.4,39.1
LIPRETG9WY,160819.0,20:33:22.281,R,85.9,LR,148.4,62.5
LIPRETG9WY,160819.0,20:33:23.008,R,85.9,RR,195.3,101.6
LIPRETG9WY,160819.0,20:33:23.539,R,148.4,RR,468.8,382.8
LIPRETG9WY,160819.0,20:33:23.883,L,93.8,RL,398.4,250.0
LIPRETG9WY,160819.0,20:33:24.117,R,132.8,LR,195.3,101.6
LIPRETG9WY,160819.0,20:33:24.398,R,125.0,RR,289.1,156.3
LIPRETG9WY,160819.0,20:33:45.734,L,93.8,LL,367.2,257.8
LIPRETG9WY,160819.0,20:33:46.703,L,93.8,RL,273.4,117.2
LIPRETG9WY,160819.0,20:33:47.023,R,109.4,LR,304.7,210.9
LIPRETG9WY,160819.0,20:33:47.406,L,132.8,RL,359.4,250.0
LIPRETG9WY,160819.0,20:33:47.547,L,93.8,LL,179.7,46.9
LIPRETG9WY,160819.0,20:33:47.891,S,93.8,LS,343.8,250.0
LIPRETG9WY,160819.0,20:33:48.812,R,117.2,LR,289.1,179.7
LIPRETG9WY,160819.0,20:33:49.062,R,125.0,RR,242.2,125.0
LIPRETG9WY,160819.0,20:33:49.320,R,117.2,RR,265.6,140.6
LIPRETG9WY,160819.0,20:33:49.758,L,70.3,RL,484.4,367.2
LIPRETG9WY,160819.0,20:33:52.953,R,101.6,RR,335.9,218.8
LIPRETG9WY,160819.0,20:33:53.328,R,101.6,RR,375.0,273.4
LIPRETG9WY,160819.0,20:33:53.594,R,117.2,RR,250.0,148.4
LIPRETG9WY,160819.0,20:33:58.234,L,78.1,RL,328.1,195.3
LIPRETG9WY,160819.0,20:33:58.406,R,85.9,LR,164.1,85.9
LIPRETG9WY,160819.0,20:33:58.883,S,109.4,RS,453.1,367.2
LIPRETG9WY,160819.0,20:33:59.109,L,109.4,SL,226.6,117.2
LIPRETG9WY,160819.0,20:33:59.414,L,93.8,LL,320.3,210.9
LIPRETG9WY,160819.0,20:33:59.609,R,78.1,LR,210.9,125.0
LIPRETG9WY,160819.0,20:34:00.305,R,62.5,RR,195.3,109.4
LIPRETG9WY,160819.0,20:34:00.617,R,101.6,RR,273.4,210.9
LIPRETG9WY,160819.0,20:34:00.992,S,117.2,RS,359.4,257.8
LIPRETG9WY,160819.0,20:34:01.984,L,109.4,RL,195.3,85.9
LIPRETG9WY,160819.0,20:34:02.344,L,85.9,LL,382.8,273.4
LIPRETG9WY,160819.0,20:34:04.484,L,93.8,LL,289.1,171.9
LIPRETG9WY,160819.0,20:34:04.695,R,101.6,LR,203.1,109.4
LIPRETG9WY,160819.0,20:34:05.117,L,93.8,RL,429.7,328.1
LIPRETG9WY,160819.0,20:34:07.773,L,62.5,LL,281.3,164.1
LIPRETG9WY,160819.0,20:34:08.047,L,23.4,LL,312.5,250.0
LIPRETG9WY,160819.0,20:34:08.188,L,109.4,LL,54.7,31.3
LIPRETG9WY,160819.0,20:34:15.445,L,93.8,LL,156.3,62.5
LIPRETG9WY,160819.0,20:34:15.672,L,109.4,LL,210.9,117.2
LIPRETG9WY,160819.0,20:34:15.945,S,85.9,LS,296.9,187.5
LIPRETG9WY,160819.0,20:34:16.695,L,93.8,RL,210.9,109.4
LIPRETG9WY,160819.0,20:34:16.930,R,187.5,LR,140.6,46.9
LIPRETG9WY,160819.0,20:34:17.070,L,62.5,RL,265.6,78.1
LIPRETG9WY,160819.0,20:34:20.062,L,93.8,RL,429.7,273.4
LIPRETG9WY,160819.0,20:36:01.328,R,125.0,RR,273.4,156.3
LIPRETG9WY,160819.0,20:36:01.664,L,93.8,RL,367.2,242.2
LIPRETG9WY,160819.0,20:36:01.875,R,78.1,LR,226.6,132.8
LIPRETG9WY,160819.0,20:36:02.328,L,132.8,RL,398.4,320.3
LIPRETG9WY,160819.0,20:36:02.477,L,101.6,LL,179.7,46.9
LIPRETG9WY,160819.0,20:36:02.750,S,85.9,LS,289.1,187.5
LIPRETG9WY,160819.0,20:36:06.070,L,93.8,RL,242.2,93.8
LIPRETG9WY,160819.0,20:36:09.547,L,140.6,LL,203.1,70.3
LIPRETG9WY,160819.0,20:36:09.672,L,70.3,LL,195.3,54.7
LIPRETG9WY,160819.0,20:36:10.656,L,85.9,RL,226.6,78.1
LIPRETG9WY,160819.0,20:36:10.883,S,85.9,LS,226.6,140.6
LIPRETG9WY,160819.0,20:36:11.188,L,78.1,SL,312.5,226.6
LIPRETG9WY,160819.0,20:36:11.328,L,101.6,LL,117.2,39.1
LIPRETG9WY,160819.0,20:36:11.508,L,109.4,LL,171.9,70.3
LIPRETG9WY,160819.0,20:36:11.680,L,85.9,LL,195.3,85.9
LIPRETG9WY,160819.0,20:45:40.602,R,132.8,LR,304.7,109.4
LIPRETG9WY,160819.0,20:45:40.906,R,132.8,RR,304.7,171.9
LIPRETG9WY,160819.0,20:45:45.414,R,132.8,RR,320.3,187.5
LIPRETG9WY,160819.0,20:46:01.688,L,179.7,RL,382.8,257.8
LIPRETG9WY,160819.0,20:46:02.867,R,140.6,LR,367.2,234.4
LIPRETG9WY,160819.0,20:46:03.102,R,109.4,RR,265.6,125.0
LIPRETG9WY,160819.0,20:46:03.539,R,117.2,RR,429.7,320.3
LIPRETG9WY,160819.0,20:46:21.781,L,242.2,LL,375.0,218.8
LIPRETG9WY,160819.0,20:46:22.977,L,125.0,RL,234.4,125.0
LIPRETG9WY,160819.0,20:46:23.273,L,117.2,LL,304.7,179.7
LIPRETG9WY,160819.0,20:46:23.594,R,109.4,LR,328.1,210.9
LIPRETG9WY,160819.0,20:46:23.844,R,125.0,RR,234.4,125.0
LIPRETG9WY,160819.0,20:46:24.242,R,85.9,RR,437.5,312.5
LIPRETG9WY,160819.0,20:46:38.742,R,125.0,LR,273.4,109.4
LIPRETG9WY,160819.0,20:46:39.188,L,179.7,RL,390.6,265.6
LIPRETG9WY,160819.0,20:46:39.547,L,93.8,LL,445.3,265.6
LIPRETG9WY,160819.0,20:46:39.891,R,78.1,LR,359.4,265.6
LIPRETG9WY,160819.0,20:46:40.727,L,70.3,RL,312.5,195.3
LIPRETG9WY,160819.0,20:46:41.000,L,93.8,LL,250.0,179.7
LIPRETG9WY,160819.0,20:46:46.195,S,203.1,SS,78.1,31.3
LIPRETG9WY,160819.0,20:47:04.117,L,140.6,LL,234.4,117.2
LIPRETG9WY,160819.0,20:47:04.523,L,125.0,LL,421.9,281.3
LIPRETG9WY,160819.0,20:47:04.773,L,85.9,LL,289.1,164.1
LIPRETG9WY,160819.0,20:47:04.961,L,78.1,LL,195.3,109.4
LIPRETG9WY,160819.0,20:47:05.266,R,109.4,LR,273.4,195.3
LIPRETG9WY,160819.0,20:47:05.586,R,148.4,RR,281.3,171.9
LIPRETG9WY,160819.0,20:47:05.852,R,156.3,RR,257.8,109.4
LIPRETG9WY,160819.0,20:47:05.953,L,93.8,RL,164.1,7.8
LIPRETG9WY,160819.0,20:47:18.766,R,179.7,LR,437.5,226.6
LIPRETG9WY,160819.0,20:47:19.664,R,85.9,RR,250.0,125.0
LIPRETG9WY,160819.0,20:47:20.078,R,93.8,RR,406.3,320.3
LIPRETG9WY,160819.0,20:47:21.352,L,93.8,RL,218.8,101.6
LIPRETG9WY,160819.0,20:47:21.719,L,125.0,LL,335.9,242.2
LIPRETG9WY,160819.0,20:47:22.094,R,140.6,LR,359.4,234.4
LIPRETG9WY,160819.0,20:47:22.344,R,117.2,RR,273.4,132.8
LIPRETG9WY,160819.0,20:55:33.945,L,125.0,RL,328.1,195.3
LIPRETG9WY,160819.0,20:55:38.023,L,93.8,LL,250.0,171.9
LIPRETG9WY,160819.0,20:55:39.055,R,125.0,LR,476.6,406.3
LIPRETG9WY,160819.0,20:55:45.859,L,101.6,RL,234.4,93.8
LIPRETG9WY,160819.0,20:55:46.039,S,39.1,LS,242.2,140.6
LIPRETG9WY,160819.0,20:55:46.555,R,140.6,SR,414.1,375.0
LIPRETG9WY,160819.0,20:55:46.922,R,109.4,RR,398.4,257.8
LIPRETG9WY,160819.0,20:55:47.320,L,101.6,RL,406.3,296.9
LIPRETG9WY,160819.0,20:55:47.492,R,85.9,LR,187.5,85.9
LIPRETG9WY,160819.0,20:55:47.883,S,85.9,RS,390.6,304.7
LIPRETG9WY,160819.0,20:55:51.328,R,117.2,LR,187.5,46.9
LIPRETG9WY,160819.0,20:55:51.734,S,85.9,RS,437.5,320.3
LIPRETG9WY,160819.0,20:55:52.727,R,132.8,LR,218.8,93.8
LIPRETG9WY,160819.0,20:55:53.055,L,117.2,RL,343.8,210.9
LIPRETG9WY,160819.0,20:55:53.391,L,93.8,LL,359.4,242.2
LIPRETG9WY,160819.0,20:55:53.719,S,101.6,LS,320.3,226.6
LIPRETG9WY,160819.0,20:55:53.945,L,93.8,SL,234.4,132.8
LIPRETG9WY,160819.0,20:55:54.281,S,109.4,LS,320.3,226.6
LIPRETG9WY,160819.0,20:55:55.414,R,140.6,LR,257.8,125.0
LIPRETG9WY,160819.0,20:55:55.797,R,78.1,RR,445.3,304.7
LIPRETG9WY,160819.0,20:55:56.023,R,70.3,RR,234.4,156.3
LIPRETG9WY,160819.0,20:55:56.344,R,70.3,RR,320.3,250.0
LIPRETG9WY,160819.0,20:55:57.141,L,85.9,RL,218.8,148.4
LIPRETG9WY,160819.0,20:55:57.477,L,85.9,LL,335.9,250.0
LIPRETG9WY,160819.0,20:55:57.719,R,125.0,LR,203.1,117.2
LIPRETG9WY,160819.0,20:55:57.906,R,140.6,RR,171.9,46.9
LIPRETG9WY,160819.0,20:55:58.219,R,70.3,RR,382.8,242.2
LIPRETG9WY,160819.0,20:55:58.523,S,101.6,RS,273.4,203.1
LIPRETG9WY,160819.0,20:55:58.812,L,85.9,SL,304.7,203.1
LIPRETG9WY,160819.0,20:55:59.898,L,93.8,RL,335.9,164.1
LIPRETG9WY,160819.0,20:56:00.039,L,85.9,LL,148.4,54.7
LIPRETG9WY,160819.0,20:56:00.344,S,85.9,LS,304.7,218.8
LIPRETG9WY,160819.0,20:56:00.578,L,78.1,SL,242.2,156.3
LIPRETG9WY,160819.0,20:56:00.766,L,117.2,LL,148.4,70.3
LIPRETG9WY,160819.0,20:56:01.148,S,70.3,LS,429.7,312.5
LIPRETG9WY,160819.0,20:56:17.422,L,78.1,SL,437.5,328.1
LIPRETG9WY,160819.0,20:56:17.719,L,78.1,LL,296.9,218.8
LIPRETG9WY,160819.0,20:56:18.023,S,93.8,LS,289.1,210.9
LIPRETG9WY,160819.0,20:56:18.305,L,109.4,SL,265.6,171.9
LIPRETG9WY,160819.0,20:56:18.445,R,101.6,LR,148.4,39.1
LIPRETG9WY,160819.0,20:56:18.672,L,125.0,RL,203.1,101.6
LIPRETG9WY,160819.0,20:56:18.805,R,117.2,LR,140.6,15.6
LIPRETG9WY,160819.0,20:56:19.148,L,0.0,RL,140.6,343.8
LIPRETG9WY,160819.0,20:56:19.305,L,156.3,LL,140.6,343.8
LIPRETG9WY,160819.0,21:03:40.859,R,109.4,RR,304.7,156.3
LIPRETG9WY,160819.0,21:03:41.078,R,117.2,RR,210.9,101.6
LIPRETG9WY,160819.0,21:03:41.383,R,125.0,RR,296.9,179.7
LIPRETG9WY,160819.0,21:03:45.828,L,171.9,RL,335.9,203.1
LIPRETG9WY,160819.0,21:03:54.891,R,179.7,RR,132.8,31.3
LIPRETG9WY,160819.0,21:03:55.289,R,125.0,RR,453.1,273.4
LIPRETG9WY,160819.0,21:06:28.094,L,101.6,LL,289.1,187.5
LIPRETG9WY,160819.0,21:06:28.367,L,109.4,LL,265.6,164.1
LIPRETG9WY,160819.0,21:06:29.938,R,101.6,LR,296.9,179.7
LIPRETG9WY,160819.0,21:06:30.164,R,125.0,RR,203.1,101.6
LIPRETG9WY,160819.0,21:06:30.320,L,117.2,RL,164.1,39.1
LIPRETG9WY,160819.0,21:06:36.203,L,109.4,RL,289.1,101.6
LIPRETG9WY,160819.0,21:06:36.484,S,125.0,LS,265.6,156.3
LIPRETG9WY,160819.0,21:06:37.680,R,101.6,RR,367.2,242.2
LIPRETG9WY,160819.0,21:06:37.969,L,109.4,RL,281.3,179.7
LIPRETG9WY,160819.0,21:06:38.180,R,93.8,LR,226.6,117.2
LIPRETG9WY,160819.0,21:06:38.461,S,101.6,RS,273.4,179.7
LIPRETG9WY,160819.0,21:06:39.867,L,101.6,RL,203.1,70.3
LIPRETG9WY,160819.0,21:06:40.156,L,117.2,LL,273.4,171.9
LIPRETG9WY,160819.0,21:06:40.484,S,140.6,LS,304.7,187.5
LIPRETG9WY,160819.0,21:06:46.680,L,78.1,SL,210.9,78.1
LIPRETG9WY,160819.0,21:06:46.836,S,70.3,LS,164.1,85.9
LIPRETG9WY,160819.0,21:06:47.180,L,109.4,SL,304.7,234.4
LIPRETG9WY,160819.0,21:06:47.430,R,109.4,LR,250.0,140.6
LIPRETG9WY,160819.0,21:06:47.641,R,85.9,RR,234.4,125.0
LIPRETG9WY,160819.0,21:06:47.836,R,93.8,RR,187.5,101.6
LIPRETG9WY,160819.0,21:06:48.086,R,70.3,RR,273.4,179.7
LIPRETG9WY,160819.0,21:06:48.984,L,140.6,RL,218.8,148.4
LIPRETG9WY,160819.0,21:06:50.023,R,117.2,LR,390.6,265.6
LIPRETG9WY,160819.0,21:06:50.250,R,117.2,RR,226.6,109.4
LIPRETG9WY,160819.0,21:06:50.562,R,85.9,RR,343.8,226.6
LIPRETG9WY,160819.0,21:06:50.000,S,78.1,RS,445.3,359.4
LIPRETG9WY,160819.0,21:06:55.188,L,109.4,LL,171.9,7.8
LIPRETG9WY,160819.0,21:06:55.680,S,117.2,LS,484.4,375.0
LIPRETG9WY,160819.0,21:07:05.234,L,117.2,RL,429.7,320.3
LIPRETG9WY,160819.0,21:07:05.453,R,101.6,LR,234.4,117.2
LIPRETG9WY,160819.0,21:07:05.742,R,117.2,RR,273.4,171.9
LIPRETG9WY,160819.0,21:07:06.047,L,78.1,RL,343.8,226.6
LIPRETG9WY,160819.0,21:07:06.453,S,78.1,LS,406.3,328.1
LIPRETG9WY,160819.0,21:07:08.211,L,78.1,LL,210.9,140.6
LIPRETG9WY,160819.0,21:07:09.133,L,70.3,RL,367.2,195.3
LIPRETG9WY,160819.0,21:07:10.070,L,93.8,LL,296.9,148.4
LIPRETG9WY,160819.0,21:07:10.281,L,171.9,LL,140.6,46.9
LIPRETG9WY,160819.0,21:07:10.422,L,101.6,LL,210.9,39.1
LIPRETG9WY,160819.0,21:07:10.797,S,101.6,LS,375.0,273.4
LIPRETG9WY,160819.0,21:07:12.633,L,101.6,RL,289.1,148.4
LIPRETG9WY,160819.0,21:07:12.797,L,70.3,LL,195.3,93.8
LIPRETG9WY,160819.0,21:07:13.156,S,93.8,LS,335.9,265.6
LIPRETG9WY,160819.0,21:07:22.133,R,140.6,RR,304.7,148.4
LIPRETG9WY,160819.0,21:07:22.297,L,109.4,RL,195.3,54.7
LIPRETG9WY,160819.0,21:07:22.531,R,101.6,LR,242.2,132.8
LIPRETG9WY,160819.0,21:08:49.570,R,125.0,LR,281.3,140.6
LIPRETG9WY,160819.0,21:08:49.859,R,117.2,RR,296.9,171.9
LIPRETG9WY,160819.0,21:08:50.078,R,101.6,RR,234.4,117.2
LIPRETG9WY,160819.0,21:08:50.367,R,85.9,RR,304.7,203.1
LIPRETG9WY,160819.0,21:08:51.523,L,132.8,RL,296.9,210.9
LIPRETG9WY,160819.0,21:08:51.852,L,109.4,LL,351.6,218.8
LIPRETG9WY,160819.0,21:08:52.109,R,117.2,LR,250.0,140.6
LIPRETG9WY,160819.0,21:08:52.367,R,125.0,RR,250.0,132.8
LIPRETG9WY,160819.0,21:08:52.719,R,85.9,RR,390.6,265.6
LIPRETG9WY,160819.0,21:11:00.570,R,140.6,LR,273.4,85.9
LIPRETG9WY,160819.0,21:11:00.773,L,93.8,RL,250.0,109.4
LIPRETG9WY,160819.0,21:11:00.906,L,70.3,LL,156.3,62.5
LIPRETG9WY,160819.0,21:11:01.242,S,117.2,LS,289.1,218.8
LIPRETG9WY,160819.0,21:11:01.555,R,148.4,SR,281.3,164.1
LIPRETG9WY,160819.0,21:11:01.742,L,93.8,RL,242.2,93.8
LIPRETG9WY,160819.0,21:11:02.141,L,85.9,SL,312.5,203.1
LIPRETG9WY,160819.0,21:11:02.383,R,101.6,LR,226.6,140.6
LIPRETG9WY,160819.0,21:11:02.562,L,93.8,RL,187.5,85.9
LIPRETG9WY,160819.0,21:11:02.844,S,78.1,LS,296.9,203.1
LIPRETG9WY,160819.0,21:11:04.273,L,78.1,LL,226.6,101.6
LIPRETG9WY,160819.0,21:11:04.500,L,93.8,LL,210.9,132.8
LIPRETG9WY,160819.0,21:11:04.766,S,93.8,LS,265.6,171.9
LIPRETG9WY,160819.0,21:11:06.180,R,46.9,LR,101.6,171.9
LIPRETG9WY,160819.0,21:11:06.219,L,85.9,RL,101.6,171.9
LIPRETG9WY,160819.0,21:11:06.562,S,148.4,LS,281.3,195.3
LIPRETG9WY,160819.0,21:11:06.703,L,85.9,SL,203.1,54.7
LIPRETG9WY,160819.0,21:11:06.867,S,62.5,LS,187.5,101.6
LIPRETG9WY,160819.0,21:11:07.164,L,93.8,SL,265.6,203.1
LIPRETG9WY,160819.0,21:11:07.430,R,93.8,LR,265.6,171.9
LIPRETG9WY,160819.0,21:11:07.648,R,93.8,RR,218.8,125.0
LIPRETG9WY,160819.0,21:11:07.859,R,70.3,RR,234.4,140.6
LIPRETG9WY,160819.0,21:11:08.125,R,85.9,RR,250.0,179.7
LIPRETG9WY,160819.0,21:11:09.141,L,132.8,RL,460.9,421.9
LIPRETG9WY,160819.0,21:11:09.461,L,117.2,LL,335.9,203.1
LIPRETG9WY,160819.0,21:11:09.898,R,125.0,LR,429.7,312.5
LIPRETG9WY,160819.0,21:11:10.062,R,148.4,RR,140.6,15.6
LIPRETG9WY,160819.0,21:11:10.391,R,85.9,RR,390.6,242.2
LIPRETG9WY,160819.0,21:11:10.852,S,85.9,RS,460.9,375.0
LIPRETG9WY,160819.0,21:11:17.367,R,78.1,LR,484.4,429.7
LIPRETG9WY,160819.0,21:11:17.617,R,101.6,RR,226.6,148.4
LIPRETG9WY,160819.0,21:11:17.844,R,62.5,RR,265.6,164.1
LIPRETG9WY,160819.0,21:11:18.797,R,62.5,LR,312.5,156.3
LIPRETG9WY,160819.0,21:11:19.070,R,109.4,RR,226.6,164.1
LIPRETG9WY,160819.0,21:11:19.336,L,93.8,RL,281.3,171.9
LIPRETG9WY,160819.0,21:11:19.727,S,85.9,LS,398.4,304.7
LIPRETG9WY,160819.0,21:11:21.094,L,85.9,LL,132.8,54.7
LIPRETG9WY,160819.0,21:11:21.953,L,101.6,RL,281.3,140.6
LIPRETG9WY,160819.0,21:11:22.180,S,117.2,LS,210.9,109.4
LIPRETG9WY,160819.0,21:11:23.078,L,125.0,LL,210.9,70.3
LIPRETG9WY,160819.0,21:11:23.414,L,54.7,LL,187.5,281.3
LIPRETG9WY,160819.0,21:11:23.492,L,132.8,LL,187.5,281.3
LIPRETG9WY,160819.0,21:11:29.680,L,93.8,SL,429.7,335.9
LIPRETG9WY,160819.0,21:11:30.477,L,62.5,RL,210.9,101.6
LIPRETG9WY,160819.0,21:11:30.727,L,101.6,LL,210.9,148.4
LIPRETG9WY,160820.0,07:06:39.986,S,128.9,RS,314.5,212.9
LIPRETG9WY,160820.0,10:13:34.691,S,50.8,LS,398.4,332.0
LIPRETG9WY,160820.0,10:14:19.535,L,58.6,LL,339.8,156.3
LIPRETG9WY,160820.0,14:31:58.383,L,105.5,LL,382.8,269.5
LIPRETG9WY,160820.0,14:32:16.668,S,105.5,RS,402.3,289.1
LIPRETG9WY,160820.0,14:32:20.598,L,50.8,LL,296.9,230.5
LIPRETG9WY,160820.0,14:32:46.004,S,70.3,RS,265.6,195.3
LIPRETG9WY,160820.0,14:32:54.578,L,66.4,LL,367.2,261.7
LIPRETG9WY,160820.0,16:25:01.262,L,66.4,LL,468.8,363.3
LIPRETG9WY,160820.0,16:29:45.016,R,85.9,RR,339.8,242.2
LIPRETG9WY,160820.0,19:07:25.438,R,78.1,LR,203.1,70.3
LIPRETG9WY,160820.0,19:07:31.117,R,78.1,RR,296.9,148.4
LIPRETG9WY,160820.0,19:07:31.375,L,125.0,RL,210.9,132.8
LIPRETG9WY,160820.0,19:07:33.906,R,132.8,LR,281.3,140.6
LIPRETG9WY,160820.0,19:07:34.039,R,125.0,RR,140.6,7.8
LIPRETG9WY,160820.0,19:07:48.117,L,148.4,RL,156.3,46.9
LIPRETG9WY,160820.0,19:07:48.258,R,93.8,LR,195.3,46.9
LIPRETG9WY,160820.0,19:07:52.133,L,125.0,RL,156.3,23.4
LIPRETG9WY,160820.0,19:07:52.250,R,85.9,LR,156.3,31.3
LIPRETG9WY,160820.0,19:07:54.227,R,85.9,LR,187.5,85.9
LIPRETG9WY,160820.0,19:07:54.547,L,125.0,RL,281.3,195.3
LIPRETG9WY,160820.0,19:07:54.781,L,15.6,LL,109.4,218.8
LIPRETG9WY,160820.0,19:07:54.859,L,93.8,LL,109.4,218.8
LIPRETG9WY,160820.0,19:18:36.445,R,117.2,LR,164.1,54.7
LIPRETG9WY,160820.0,19:18:36.758,L,195.3,RL,234.4,117.2
LIPRETG9WY,160820.0,19:18:37.062,L,140.6,LL,359.4,164.1
LIPRETG9WY,160820.0,19:24:17.500,L,195.3,RL,218.8,62.5
LIPRETG9WY,160820.0,19:24:17.812,L,140.6,LL,367.2,171.9
LIPRETG9WY,160820.0,19:24:18.039,R,132.8,LR,234.4,93.8
LIPRETG9WY,160820.0,19:24:19.227,R,148.4,SR,242.2,125.0
LIPRETG9WY,160820.0,19:24:19.414,R,101.6,RR,234.4,85.9
LIPRETG9WY,160820.0,19:24:19.656,L,140.6,RL,203.1,101.6
LIPRETG9WY,160820.0,19:24:19.891,L,39.1,LL,148.4,195.3
LIPRETG9WY,160820.0,19:24:19.977,L,125.0,LL,148.4,195.3
LIPRETG9WY,160820.0,19:26:31.188,L,164.1,LL,367.2,242.2
LIPRETG9WY,160820.0,19:26:33.938,L,101.6,RL,335.9,218.8
LIPRETG9WY,160820.0,20:19:41.656,L,125.0,LL,289.1,117.2
LIPRETG9WY,160820.0,20:19:41.922,L,140.6,LL,250.0,125.0
LIPRETG9WY,160820.0,20:20:05.938,L,125.0,LL,218.8,132.8
LIPRETG9WY,160820.0,20:20:06.227,L,148.4,LL,265.6,140.6
LIPRETG9WY,160820.0,20:20:08.523,L,54.7,LL,218.8,54.7
LIPRETG9WY,160820.0,20:20:08.742,L,78.1,LL,195.3,140.6
LIPRETG9WY,160820.0,20:20:09.570,L,85.9,RL,226.6,117.2
LIPRETG9WY,160820.0,20:20:09.922,L,125.0,LL,312.5,226.6
LIPRETG9WY,160820.0,20:20:10.070,L,62.5,LL,210.9,85.9
LIPRETG9WY,160820.0,20:20:10.289,L,125.0,LL,156.3,93.8
LIPRETG9WY,160820.0,20:20:10.477,L,93.8,LL,218.8,93.8
LIPRETG9WY,160820.0,20:20:14.109,L,125.0,RL,343.8,203.1
LIPRETG9WY,160820.0,20:20:14.312,L,101.6,LL,226.6,101.6
LIPRETG9WY,160821.0,11:15:23.793,S,109.4,LS,367.2,296.9
LIPRETG9WY,160821.0,11:15:29.094,S,113.3,RS,335.9,226.6
LIPRETG9WY,160821.0,15:48:04.465,R,105.5,RR,472.7,386.7
LIPRETG9WY,160821.0,17:31:08.562,R,179.7,LR,273.4,74.2
LIPRETG9WY,160821.0,17:31:08.938,L,3.9,RL,140.6,371.1
LIPRETG9WY,160821.0,17:31:09.090,L,156.3,LL,140.6,371.1
LIPRETG9WY,160821.0,17:31:11.152,S,156.3,LS,343.8,218.8
LIPRETG9WY,160821.0,17:31:12.387,R,148.4,LR,210.9,85.9
LIPRETG9WY,160821.0,17:31:12.492,L,101.6,RL,152.3,3.9
LIPRETG9WY,160821.0,17:31:12.887,S,89.8,LS,406.3,304.7
LIPRETG9WY,160821.0,17:31:15.617,L,136.7,RL,390.6,250.0
LIPRETG9WY,160821.0,17:31:15.832,R,97.7,LR,253.9,117.2
LIPRETG9WY,160821.0,17:31:16.270,R,125.0,RR,410.2,312.5
LIPRETG9WY,160821.0,17:31:16.586,L,175.8,RL,265.6,140.6
LIPRETG9WY,160821.0,17:55:34.859,L,85.9,LL,234.4,125.0
LIPRETG9WY,160821.0,17:55:35.129,L,109.4,LL,246.1,160.2
LIPRETG9WY,160821.0,17:55:39.691,L,136.7,RL,230.5,117.2
LIPRETG9WY,160821.0,17:55:39.867,R,78.1,LR,234.4,97.7
LIPRETG9WY,160821.0,17:55:40.641,R,105.5,RR,214.8,109.4
LIPRETG9WY,160821.0,17:55:41.703,L,117.2,RL,234.4,78.1
LIPRETG9WY,160821.0,17:55:41.949,R,113.3,LR,250.0,132.8
LIPRETG9WY,160821.0,17:55:42.176,R,113.3,RR,226.6,113.3
LIPRETG9WY,160821.0,17:55:58.230,L,156.3,RL,277.3,121.1
LIPRETG9WY,160821.0,17:55:59.223,L,121.1,RL,265.6,179.7
LIPRETG9WY,160821.0,17:55:59.527,R,93.8,LR,332.0,210.9
LIPRETG9WY,160821.0,17:56:04.090,L,85.9,RL,218.8,117.2
LIPRETG9WY,160821.0,17:56:04.223,R,93.8,LR,125.0,39.1
LIPRETG9WY,160821.0,17:56:04.969,R,113.3,RR,183.6,97.7
LIPRETG9WY,160821.0,17:56:06.328,R,117.2,LR,199.2,66.4
LIPRETG9WY,160821.0,17:56:06.574,R,113.3,RR,250.0,132.8
LIPRETG9WY,160821.0,17:57:38.504,L,140.6,RL,218.8,66.4
LIPRETG9WY,160821.0,17:57:38.828,R,74.2,LR,390.6,250.0
LIPRETG9WY,160821.0,17:57:39.184,L,105.5,RL,324.2,250.0
LIPRETG9WY,160821.0,17:57:39.414,R,117.2,LR,218.8,113.3
LIPRETG9WY,160821.0,17:58:03.066,L,132.8,RL,324.2,160.2
LIPRETG9WY,160821.0,17:58:03.348,R,105.5,LR,308.6,175.8
LIPRETG9WY,160821.0,17:58:52.691,L,132.8,RL,218.8,11.7
LIPRETG9WY,160821.0,17:58:52.926,R,128.9,LR,238.3,105.5
LIPRETG9WY,160821.0,17:59:12.098,L,152.3,RL,300.8,156.3
LIPRETG9WY,160821.0,17:59:12.410,R,156.3,LR,308.6,156.3
LIPRETG9WY,160821.0,17:59:12.766,S,105.5,RS,406.3,250.0
LIPRETG9WY,160821.0,17:59:14.656,L,97.7,LL,187.5,66.4
LIPRETG9WY,160821.0,17:59:17.531,L,93.8,LL,246.1,171.9
LIPRETG9WY,160821.0,17:59:19.730,L,132.8,LL,296.9,226.6
LIPRETG9WY,160821.0,17:59:20.465,R,121.1,LR,234.4,113.3
LIPRETG9WY,160821.0,17:59:20.766,S,128.9,RS,293.0,171.9
LIPRETG9WY,160821.0,17:59:22.281,R,156.3,LR,203.1,97.7
LIPRETG9WY,160821.0,17:59:22.492,L,101.6,RL,265.6,109.4
LIPRETG9WY,160821.0,17:59:22.742,S,136.7,LS,214.8,113.3
LIPRETG9WY,160821.0,17:59:32.578,R,132.8,SR,394.5,257.8
LIPRETG9WY,160821.0,17:59:32.816,R,121.1,RR,250.0,117.2
LIPRETG9WY,160821.0,17:59:36.805,S,113.3,RS,343.8,207.0
LIPRETG9WY,160821.0,17:59:37.621,R,128.9,LR,230.5,132.8
LIPRETG9WY,160821.0,17:59:37.777,L,85.9,RL,199.2,70.3
LIPRETG9WY,160821.0,17:59:37.891,S,78.1,LS,121.1,35.2
LIPRETG9WY,160821.0,17:59:38.309,L,136.7,SL,359.4,281.3
LIPRETG9WY,160821.0,17:59:39.801,L,93.8,LL,171.9,97.7
LIPRETG9WY,160821.0,17:59:41.855,L,117.2,LL,347.7,140.6
LIPRETG9WY,160821.0,17:59:42.133,S,175.8,LS,218.8,101.6
LIPRETG9WY,160821.0,17:59:44.445,S,105.5,RS,273.4,156.3
LIPRETG9WY,160821.0,17:59:44.668,L,85.9,SL,242.2,136.7
LIPRETG9WY,160821.0,17:59:44.879,L,89.8,LL,207.0,121.1
LIPRETG9WY,160821.0,17:59:44.965,L,74.2,LL,101.6,11.7
LIPRETG9WY,160821.0,17:59:45.285,S,113.3,LS,281.3,207.0
LIPRETG9WY,160821.0,17:59:45.508,R,121.1,SR,214.8,101.6
LIPRETG9WY,160821.0,17:59:45.680,L,82.0,RL,210.9,89.8
LIPRETG9WY,160821.0,17:59:45.801,L,89.8,LL,113.3,31.3
LIPRETG9WY,160821.0,17:59:46.102,S,74.2,LS,316.4,226.6
LIPRETG9WY,160821.0,17:59:46.344,L,97.7,SL,218.8,144.5
LIPRETG9WY,160821.0,17:59:46.516,L,93.8,LL,175.8,78.1
LIPRETG9WY,160821.0,17:59:47.777,R,105.5,LR,183.6,27.3
LIPRETG9WY,160821.0,17:59:48.020,S,113.3,RS,234.4,128.9
LIPRETG9WY,160821.0,17:59:48.387,L,168.0,SL,312.5,199.2
LIPRETG9WY,160821.0,17:59:48.582,L,74.2,LL,289.1,121.1
LIPRETG9WY,160821.0,17:59:48.809,L,3.9,LL,109.4,222.7
LIPRETG9WY,160821.0,17:59:48.930,L,125.0,LL,109.4,222.7
LIPRETG9WY,160821.0,17:59:49.141,L,101.6,LL,234.4,109.4
LIPRETG9WY,160821.0,17:59:49.375,L,113.3,LL,222.7,121.1
LIPRETG9WY,160821.0,17:59:50.820,L,156.3,SL,355.5,226.6
LIPRETG9WY,160821.0,17:59:51.023,R,140.6,LR,218.8,62.5
LIPRETG9WY,160821.0,17:59:51.172,L,109.4,RL,179.7,39.1
LIPRETG9WY,160821.0,17:59:51.449,S,117.2,LS,269.5,160.2
LIPRETG9WY,160821.0,17:59:52.641,L,93.8,LL,355.5,222.7
LIPRETG9WY,160821.0,17:59:52.859,S,117.2,LS,195.3,101.6
LIPRETG9WY,160821.0,17:59:53.980,L,85.9,LL,394.5,226.6
LIPRETG9WY,160821.0,17:59:54.324,R,148.4,LR,281.3,195.3
LIPRETG9WY,160821.0,17:59:54.512,R,113.3,RR,222.7,74.2
LIPRETG9WY,160821.0,17:59:54.922,L,85.9,RL,82.0,324.2
LIPRETG9WY,160821.0,17:59:54.996,R,160.2,LR,82.0,324.2
LIPRETG9WY,160821.0,17:59:55.199,L,101.6,RL,261.7,101.6
LIPRETG9WY,160821.0,17:59:55.574,S,132.8,LS,343.8,242.2
LIPRETG9WY,160821.0,17:59:55.965,R,109.4,SR,414.1,281.3
LIPRETG9WY,160821.0,17:59:56.160,L,62.5,RL,242.2,132.8
LIPRETG9WY,160821.0,17:59:56.305,L,101.6,LL,105.5,43.0
LIPRETG9WY,160821.0,17:59:56.637,S,109.4,LS,324.2,222.7
LIPRETG9WY,160821.0,17:59:57.105,L,78.1,SL,144.5,390.6
LIPRETG9WY,160821.0,17:59:58.086,L,105.5,RL,367.2,238.3
LIPRETG9WY,160821.0,17:59:59.402,S,128.9,LS,289.1,144.5
LIPRETG9WY,160821.0,18:00:01.191,L,39.1,LL,128.9,54.7
LIPRETG9WY,160821.0,18:00:01.312,R,160.2,LR,128.9,54.7
LIPRETG9WY,160821.0,18:00:01.551,R,128.9,RR,269.5,109.4
LIPRETG9WY,160821.0,18:00:01.770,S,66.4,RS,281.3,152.3
LIPRETG9WY,160821.0,18:00:02.266,R,164.1,SR,171.9,332.0
LIPRETG9WY,160821.0,18:00:03.223,R,125.0,LR,136.7,476.6
LIPRETG9WY,160821.0,18:00:03.898,L,101.6,RL,406.3,257.8
LIPRETG9WY,160821.0,18:00:04.031,L,93.8,LL,140.6,39.1
LIPRETG9WY,160821.0,18:00:04.340,S,109.4,LS,293.0,199.2
LIPRETG9WY,160821.0,18:00:11.355,L,97.7,SL,367.2,265.6
LIPRETG9WY,160821.0,18:00:11.555,R,97.7,LR,199.2,101.6
LIPRETG9WY,160821.0,18:00:11.824,L,93.8,RL,273.4,175.8
LIPRETG9WY,160821.0,18:00:12.047,R,93.8,LR,222.7,128.9
LIPRETG9WY,160821.0,18:00:12.301,S,101.6,RS,246.1,152.3
LIPRETG9WY,160821.0,18:00:12.520,R,121.1,SR,199.2,97.7
LIPRETG9WY,160821.0,18:00:12.730,L,109.4,RL,222.7,101.6
LIPRETG9WY,160821.0,18:00:12.852,L,82.0,LL,148.4,39.1
LIPRETG9WY,160821.0,18:00:14.895,S,105.5,RS,320.3,203.1
LIPRETG9WY,160821.0,18:00:17.309,L,89.8,LL,304.7,210.9
LIPRETG9WY,160821.0,18:00:17.469,L,97.7,LL,152.3,62.5
LIPRETG9WY,160821.0,18:00:17.957,R,117.2,LR,468.8,371.1
LIPRETG9WY,160821.0,18:00:18.391,L,113.3,RL,132.8,320.3
LIPRETG9WY,160821.0,18:00:18.426,L,148.4,LL,132.8,320.3
LIPRETG9WY,160821.0,18:00:18.797,S,125.0,LS,394.5,246.1
LIPRETG9WY,160821.0,18:00:22.773,L,105.5,RL,289.1,175.8
LIPRETG9WY,160821.0,18:00:23.000,R,85.9,LR,246.1,140.6
LIPRETG9WY,160821.0,18:00:23.293,S,105.5,RS,273.4,187.5
LIPRETG9WY,160821.0,18:00:23.605,R,144.5,SR,273.4,168.0
LIPRETG9WY,160821.0,18:00:23.828,L,101.6,RL,265.6,121.1
LIPRETG9WY,160821.0,18:00:25.879,S,125.0,SS,203.1,89.8
LIPRETG9WY,160821.0,18:00:27.504,L,74.2,RL,203.1,46.9
LIPRETG9WY,160821.0,18:00:27.820,S,97.7,LS,293.0,218.8
LIPRETG9WY,160821.0,18:00:28.840,L,109.4,LL,218.8,164.1
LIPRETG9WY,160821.0,18:00:29.105,R,7.8,LR,164.1,257.8
LIPRETG9WY,160821.0,18:00:29.215,L,117.2,RL,164.1,257.8
LIPRETG9WY,160821.0,18:00:29.398,S,97.7,LS,203.1,85.9
LIPRETG9WY,160821.0,18:00:29.723,L,128.9,SL,293.0,195.3
LIPRETG9WY,160821.0,18:00:29.945,R,113.3,LR,238.3,109.4
LIPRETG9WY,160821.0,18:00:30.109,L,27.3,RL,66.4,136.7
LIPRETG9WY,160821.0,18:00:30.195,L,113.3,LL,66.4,136.7
LIPRETG9WY,160821.0,18:00:30.605,S,85.9,LS,437.5,324.2
LIPRETG9WY,160821.0,18:00:31.672,L,93.8,RL,238.3,74.2
LIPRETG9WY,160821.0,18:00:31.863,S,93.8,LS,191.4,97.7
LIPRETG9WY,160821.0,18:00:32.801,R,82.0,LR,214.8,148.4
LIPRETG9WY,160821.0,18:00:33.164,R,101.6,RR,343.8,261.7
LIPRETG9WY,160821.0,18:00:33.629,R,121.1,RR,117.2,343.8
LIPRETG9WY,160821.0,18:00:33.691,R,183.6,RR,117.2,343.8
LIPRETG9WY,160821.0,18:00:33.953,L,113.3,RL,332.0,148.4
LIPRETG9WY,160821.0,18:00:34.180,S,101.6,LS,238.3,125.0
LIPRETG9WY,160821.0,18:00:35.551,R,105.5,LR,234.4,140.6
LIPRETG9WY,160821.0,18:00:35.805,L,128.9,RL,230.5,125.0
LIPRETG9WY,160821.0,18:00:37.340,R,109.4,SR,496.1,339.8
LIPRETG9WY,160821.0,18:00:37.562,L,101.6,RL,230.5,121.1
LIPRETG9WY,160821.0,18:00:37.730,L,85.9,LL,183.6,82.0
LIPRETG9WY,160821.0,18:00:38.055,S,82.0,LS,328.1,242.2
LIPRETG9WY,160821.0,18:00:38.473,L,234.4,SL,265.6,183.6
LIPRETG9WY,160821.0,18:00:38.699,R,187.5,LR,273.4,39.1
LIPRETG9WY,160821.0,18:00:38.855,L,27.3,RL,109.4,128.9
LIPRETG9WY,160821.0,18:00:38.953,S,125.0,LS,109.4,128.9
LIPRETG9WY,160821.0,18:00:39.176,R,105.5,SR,242.2,117.2
LIPRETG9WY,160821.0,18:00:39.344,L,109.4,RL,164.1,58.6
LIPRETG9WY,160821.0,18:00:39.469,L,66.4,LL,168.0,58.6
LIPRETG9WY,160821.0,18:00:39.781,S,62.5,LS,316.4,250.0
LIPRETG9WY,160821.0,18:00:40.160,R,70.3,SR,125.0,308.6
LIPRETG9WY,160821.0,18:00:40.254,R,164.1,RR,125.0,308.6
LIPRETG9WY,160821.0,18:00:40.418,L,132.8,RL,195.3,31.3
LIPRETG9WY,160821.0,18:00:40.676,L,89.8,LL,300.8,168.0
LIPRETG9WY,160821.0,18:00:40.988,L,207.0,LL,195.3,105.5
LIPRETG9WY,160821.0,18:00:41.797,L,121.1,RL,363.3,125.0
LIPRETG9WY,160821.0,18:00:41.973,S,128.9,LS,168.0,46.9
LIPRETG9WY,160821.0,18:00:42.859,L,152.3,RL,226.6,11.7
LIPRETG9WY,160821.0,18:00:43.156,L,132.8,LL,316.4,164.1
LIPRETG9WY,160821.0,18:00:43.375,S,156.3,LS,195.3,62.5
LIPRETG9WY,160821.0,18:00:47.762,L,113.3,RL,476.6,289.1
LIPRETG9WY,160821.0,18:00:47.934,L,109.4,LL,175.8,62.5
LIPRETG9WY,160821.0,18:00:48.047,L,70.3,LL,152.3,43.0
LIPRETG9WY,160821.0,18:00:48.906,L,117.2,RL,203.1,31.3
LIPRETG9WY,160821.0,18:00:49.078,R,132.8,LR,156.3,39.1
LIPRETG9WY,160821.0,18:00:52.352,R,31.3,LR,156.3,171.9
LIPRETG9WY,160821.0,18:00:52.449,L,128.9,RL,156.3,171.9
LIPRETG9WY,160821.0,18:00:52.738,S,89.8,LS,328.1,199.2
LIPRETG9WY,160821.0,18:00:53.699,R,97.7,LR,214.8,117.2
LIPRETG9WY,160821.0,18:00:54.980,L,97.7,RL,390.6,238.3
LIPRETG9WY,160821.0,18:00:55.395,S,105.5,LS,406.3,308.6
LIPRETG9WY,160821.0,18:00:59.191,L,74.2,LL,316.4,222.7
LIPRETG9WY,160821.0,18:01:02.453,R,164.1,LR,406.3,250.0
LIPRETG9WY,160821.0,18:01:03.629,S,144.5,SS,210.9,101.6
LIPRETG9WY,160821.0,18:02:30.879,S,144.5,SS,199.2,113.3
LIPRETG9WY,160821.0,18:02:32.305,L,78.1,RL,97.7,355.5
LIPRETG9WY,160821.0,18:02:32.387,L,160.2,LL,97.7,355.5
LIPRETG9WY,160821.0,18:02:32.719,S,109.4,LS,382.8,222.7
LIPRETG9WY,160821.0,18:02:33.008,L,7.8,SL,105.5,281.3
LIPRETG9WY,160821.0,18:02:33.102,R,101.6,LR,105.5,281.3
LIPRETG9WY,160821.0,18:02:33.473,L,97.7,RL,375.0,273.4
LIPRETG9WY,160821.0,18:02:33.746,S,89.8,LS,281.3,183.6
LIPRETG9WY,160821.0,18:02:34.406,S,105.5,RS,261.7,152.3
LIPRETG9WY,160821.0,18:02:35.711,L,89.8,LL,226.6,152.3
LIPRETG9WY,160821.0,18:02:35.914,L,82.0,LL,210.9,121.1
LIPRETG9WY,160821.0,18:02:36.418,R,117.2,LR,468.8,386.7
LIPRETG9WY,160821.0,18:02:36.785,L,97.7,RL,386.7,269.5
LIPRETG9WY,160821.0,18:02:39.684,L,105.5,LL,480.5,324.2
LIPRETG9WY,160821.0,18:02:39.891,L,97.7,LL,214.8,109.4
LIPRETG9WY,160821.0,18:02:45.125,R,128.9,LR,242.2,136.7
LIPRETG9WY,160821.0,18:02:45.277,L,121.1,RL,160.2,31.3
LIPRETG9WY,160821.0,18:02:45.441,S,101.6,LS,183.6,62.5
LIPRETG9WY,160821.0,18:02:45.914,L,85.9,SL,109.4,386.7
LIPRETG9WY,160821.0,18:02:48.047,L,89.8,RL,171.9,19.5
LIPRETG9WY,160821.0,18:02:50.527,S,97.7,LS,230.5,105.5
LIPRETG9WY,160821.0,18:03:12.645,L,89.8,SL,386.7,300.8
LIPRETG9WY,160821.0,18:03:14.324,L,89.8,LL,253.9,156.3
LIPRETG9WY,160821.0,18:03:14.395,L,46.9,LL,113.3,23.4
LIPRETG9WY,160821.0,18:03:14.660,R,97.7,LR,214.8,168.0
LIPRETG9WY,160821.0,18:03:14.824,L,82.0,RL,179.7,82.0
LIPRETG9WY,160821.0,18:03:14.980,L,113.3,LL,125.0,43.0
LIPRETG9WY,160821.0,18:03:15.453,S,89.8,LS,496.1,382.8
LIPRETG9WY,160821.0,18:03:16.105,L,312.5,SL,429.7,339.8
LIPRETG9WY,160821.0,18:03:16.398,R,214.8,LR,390.6,78.1
LIPRETG9WY,160821.0,18:03:16.594,L,117.2,RL,293.0,78.1
LIPRETG9WY,160821.0,18:03:16.781,S,105.5,LS,199.2,82.0
LIPRETG9WY,160821.0,18:03:17.184,L,89.8,SL,418.0,312.5
LIPRETG9WY,160821.0,18:03:17.457,R,105.5,LR,257.8,168.0
LIPRETG9WY,160821.0,18:03:17.617,L,101.6,RL,164.1,58.6
LIPRETG9WY,160821.0,18:03:17.914,S,128.9,LS,269.5,168.0
LIPRETG9WY,160821.0,18:03:19.566,L,70.3,LL,308.6,218.8
LIPRETG9WY,160821.0,18:03:19.777,L,93.8,LL,187.5,117.2
LIPRETG9WY,160821.0,18:03:19.957,S,93.8,LS,179.7,85.9
LIPRETG9WY,160821.0,18:03:20.387,L,113.3,SL,410.2,316.4
LIPRETG9WY,160821.0,18:03:20.609,R,58.6,LR,117.2,164.1
LIPRETG9WY,160821.0,18:03:20.652,L,101.6,RL,117.2,164.1
LIPRETG9WY,160821.0,18:03:20.895,S,93.8,LS,250.0,148.4
LIPRETG9WY,160821.0,18:03:23.070,L,121.1,RL,218.8,97.7
LIPRETG9WY,160821.0,18:03:23.910,R,89.8,LR,296.9,257.8
LIPRETG9WY,160821.0,18:03:24.504,R,191.4,RR,492.2,402.3
LIPRETG9WY,160821.0,18:03:25.488,L,70.3,LL,265.6,132.8
LIPRETG9WY,160821.0,18:03:27.188,L,121.1,RL,468.8,324.2
LIPRETG9WY,160821.0,18:03:27.484,S,125.0,LS,293.0,171.9
LIPRETG9WY,160821.0,18:03:28.527,L,175.8,LL,222.7,82.0
LIPRETG9WY,160821.0,18:03:29.238,L,160.2,LL,164.1,7.8
LIPRETG9WY,160821.0,18:03:31.523,L,105.5,LL,226.6,89.8
LIPRETG9WY,160821.0,18:03:31.715,L,121.1,LL,175.8,70.3
LIPRETG9WY,160821.0,18:03:32.020,S,125.0,LS,300.8,179.7
LIPRETG9WY,160821.0,18:03:32.973,R,125.0,LR,277.3,140.6
LIPRETG9WY,160821.0,18:03:33.121,L,93.8,RL,179.7,54.7
LIPRETG9WY,160821.0,18:03:33.297,L,97.7,LL,171.9,78.1
LIPRETG9WY,160821.0,18:03:37.148,L,132.8,RL,175.8,3.9
LIPRETG9WY,160821.0,18:03:37.430,L,140.6,LL,273.4,140.6
LIPRETG9WY,160821.0,18:03:37.602,S,156.3,LS,156.3,15.6
LIPRETG9WY,160821.0,18:03:37.840,R,109.4,SR,281.3,125.0
LIPRETG9WY,160821.0,18:03:38.129,R,140.6,RR,261.7,152.3
LIPRETG9WY,160821.0,18:03:38.379,L,89.8,RL,300.8,160.2
LIPRETG9WY,160821.0,18:03:38.680,S,121.1,LS,269.5,179.7
LIPRETG9WY,160821.0,18:03:38.895,L,109.4,SL,226.6,105.5
LIPRETG9WY,160821.0,18:03:39.223,L,93.8,LL,343.8,234.4
LIPRETG9WY,160821.0,18:03:39.430,L,105.5,LL,195.3,101.6
LIPRETG9WY,160821.0,18:03:39.656,R,121.1,LR,210.9,105.5
LIPRETG9WY,160821.0,18:03:39.887,S,97.7,RS,253.9,132.8
LIPRETG9WY,160821.0,18:03:40.812,L,93.8,RL,320.3,136.7
LIPRETG9WY,160821.0,18:03:41.066,R,148.4,LR,199.2,105.5
LIPRETG9WY,160821.0,18:03:41.309,L,97.7,RL,293.0,144.5
LIPRETG9WY,160821.0,18:03:41.551,S,113.3,LS,226.6,128.9
LIPRETG9WY,160821.0,18:04:04.980,L,97.7,LL,289.1,187.5
LIPRETG9WY,160821.0,18:04:05.156,L,113.3,LL,160.2,62.5
LIPRETG9WY,160821.0,18:04:05.305,L,82.0,LL,179.7,66.4
LIPRETG9WY,160821.0,18:04:06.645,R,144.5,SR,285.2,175.8
LIPRETG9WY,160821.0,18:04:06.855,L,136.7,RL,218.8,74.2
LIPRETG9WY,160821.0,18:04:07.113,R,128.9,LR,265.6,128.9
LIPRETG9WY,160821.0,18:04:07.438,L,105.5,RL,347.7,218.8
LIPRETG9WY,160821.0,18:04:07.633,S,144.5,LS,156.3,50.8
LIPRETG9WY,160821.0,18:04:07.941,L,121.1,SL,332.0,187.5
LIPRETG9WY,160821.0,18:04:08.230,R,121.1,LR,289.1,168.0
LIPRETG9WY,160821.0,18:04:09.602,R,125.0,LR,246.1,121.1
LIPRETG9WY,160821.0,18:04:09.785,L,3.9,RL,89.8,179.7
LIPRETG9WY,160821.0,18:04:09.883,S,101.6,LS,89.8,179.7
LIPRETG9WY,160821.0,18:04:12.098,L,164.1,RL,277.3,93.8
LIPRETG9WY,160821.0,18:04:12.297,L,78.1,LL,285.2,121.1
LIPRETG9WY,160821.0,18:04:12.848,R,144.5,LR,484.4,406.3
LIPRETG9WY,160821.0,18:04:13.125,L,85.9,RL,335.9,191.4
LIPRETG9WY,160821.0,18:04:13.336,R,105.5,LR,191.4,105.5
LIPRETG9WY,160821.0,18:04:13.645,L,89.8,RL,324.2,218.8
LIPRETG9WY,160821.0,18:04:23.223,S,121.1,SS,191.4,105.5
LIPRETG9WY,160821.0,18:04:27.340,L,109.4,LL,203.1,117.2
LIPRETG9WY,160821.0,18:04:28.176,L,89.8,SL,125.0,238.3
LIPRETG9WY,160821.0,18:04:28.781,L,78.1,LL,347.7,261.7
LIPRETG9WY,160821.0,18:04:28.980,L,93.8,LL,183.6,105.5
LIPRETG9WY,160821.0,18:04:29.184,R,109.4,LR,187.5,93.8
LIPRETG9WY,160821.0,18:04:29.516,S,117.2,RS,324.2,214.8
LIPRETG9WY,160821.0,18:04:37.523,S,148.4,SS,449.2,332.0
LIPRETG9WY,160821.0,18:04:44.344,R,121.1,SR,359.4,218.8
LIPRETG9WY,160821.0,18:04:44.504,L,148.4,RL,132.8,11.7
LIPRETG9WY,160821.0,18:04:44.836,L,105.5,LL,375.0,226.6
LIPRETG9WY,160821.0,18:04:45.035,S,109.4,LS,195.3,89.8
LIPRETG9WY,160821.0,18:04:45.938,L,66.4,LL,375.0,277.3
LIPRETG9WY,160821.0,18:04:46.277,R,62.5,LR,343.8,277.3
LIPRETG9WY,160821.0,18:04:46.523,R,152.3,RR,156.3,93.8
LIPRETG9WY,160821.0,18:04:46.863,L,121.1,LL,218.8,128.9
LIPRETG9WY,160821.0,18:04:47.031,S,105.5,LS,183.6,62.5
LIPRETG9WY,160821.0,18:04:48.320,L,74.2,LL,187.5,93.8
LIPRETG9WY,160821.0,18:04:49.199,R,125.0,RR,296.9,164.1
LIPRETG9WY,160821.0,18:04:49.676,L,132.8,RL,468.8,343.8
LIPRETG9WY,160821.0,18:04:49.812,L,85.9,LL,183.6,50.8
LIPRETG9WY,160821.0,18:04:50.164,S,89.8,LS,347.7,261.7
LIPRETG9WY,160821.0,18:04:56.148,R,203.1,LR,281.3,35.2
LIPRETG9WY,160821.0,18:04:56.250,L,89.8,RL,214.8,11.7
LIPRETG9WY,160821.0,18:04:56.422,S,89.8,LS,171.9,82.0
LIPRETG9WY,160821.0,18:04:56.629,L,78.1,SL,218.8,128.9
LIPRETG9WY,160821.0,18:04:56.895,L,144.5,LL,199.2,121.1
LIPRETG9WY,160821.0,18:04:57.051,L,54.7,LL,97.7,101.6
LIPRETG9WY,160821.0,18:04:57.113,S,117.2,LS,97.7,101.6
LIPRETG9WY,160821.0,18:04:57.434,L,74.2,SL,363.3,246.1
LIPRETG9WY,160821.0,18:04:57.938,R,85.9,LR,492.2,418.0
LIPRETG9WY,160821.0,18:04:58.156,R,105.5,RR,199.2,113.3
LIPRETG9WY,160821.0,18:04:59.031,S,78.1,LS,246.1,179.7
LIPRETG9WY,160821.0,18:04:59.332,L,109.4,SL,269.5,191.4
LIPRETG9WY,160821.0,18:04:59.578,R,117.2,LR,238.3,128.9
LIPRETG9WY,160821.0,18:04:59.770,L,128.9,RL,179.7,62.5
LIPRETG9WY,160821.0,18:04:59.906,L,109.4,LL,156.3,27.3
LIPRETG9WY,160821.0,18:05:00.316,S,58.6,LS,460.9,351.6
LIPRETG9WY,160821.0,18:05:09.605,R,89.8,LR,140.6,66.4
LIPRETG9WY,160821.0,18:05:09.879,L,85.9,RL,277.3,187.5
LIPRETG9WY,160821.0,18:05:10.090,R,82.0,LR,214.8,128.9
LIPRETG9WY,160821.0,18:05:10.375,S,105.5,RS,261.7,179.7
LIPRETG9WY,160821.0,18:05:10.660,L,93.8,SL,296.9,191.4
LIPRETG9WY,160821.0,18:05:10.902,R,121.1,LR,214.8,121.1
LIPRETG9WY,160821.0,18:05:12.961,S,105.5,LS,281.3,207.0
LIPRETG9WY,160821.0,18:05:15.031,L,140.6,RL,332.0,207.0
LIPRETG9WY,160821.0,18:05:16.102,L,132.8,LL,250.0,19.5
LIPRETG9WY,160821.0,18:05:16.320,R,85.9,LR,265.6,132.8
LIPRETG9WY,160821.0,18:05:16.680,L,93.8,RL,351.6,265.6
LIPRETG9WY,160821.0,18:05:16.855,L,128.9,LL,140.6,46.9
LIPRETG9WY,160821.0,18:05:17.316,S,117.2,LS,472.7,343.8
LIPRETG9WY,160821.0,18:05:18.910,R,125.0,LR,300.8,140.6
LIPRETG9WY,160821.0,18:05:19.383,L,117.2,RL,480.5,355.5
LIPRETG9WY,160821.0,18:05:19.508,L,101.6,LL,140.6,23.4
LIPRETG9WY,160821.0,18:05:19.902,S,97.7,LS,398.4,296.9
LIPRETG9WY,160821.0,18:05:26.254,R,54.7,LR,140.6,218.8
LIPRETG9WY,160821.0,18:05:26.355,L,156.3,RL,140.6,218.8
LIPRETG9WY,160821.0,18:05:29.355,S,113.3,LS,363.3,261.7
LIPRETG9WY,160821.0,18:05:31.383,L,58.6,RL,328.1,152.3
LIPRETG9WY,160821.0,18:05:31.613,S,85.9,LS,203.1,144.5
LIPRETG9WY,160821.0,18:05:31.859,L,121.1,SL,210.9,125.0
LIPRETG9WY,160821.0,18:05:32.070,R,121.1,LR,210.9,89.8
LIPRETG9WY,160821.0,18:05:32.270,L,132.8,RL,187.5,66.4
LIPRETG9WY,160821.0,18:05:32.461,L,66.4,LL,257.8,125.0
LIPRETG9WY,160821.0,18:05:32.820,R,109.4,LR,316.4,250.0
LIPRETG9WY,160821.0,18:05:33.348,R,171.9,RR,464.8,355.5
LIPRETG9WY,160821.0,18:05:34.016,L,66.4,LL,253.9,113.3
LIPRETG9WY,160821.0,18:05:35.164,L,93.8,RL,394.5,250.0
LIPRETG9WY,160821.0,18:05:35.652,S,97.7,LS,484.4,390.6
LIPRETG9WY,160821.0,18:05:36.672,L,125.0,LL,210.9,78.1
LIPRETG9WY,160821.0,18:05:50.266,L,105.5,RL,234.4,39.1
LIPRETG9WY,160821.0,18:05:50.457,S,121.1,LS,175.8,70.3
LIPRETG9WY,160821.0,18:05:50.641,L,58.6,SL,246.1,125.0
LIPRETG9WY,160821.0,18:05:50.988,L,31.3,LL,156.3,316.4
LIPRETG9WY,160821.0,18:05:51.168,L,19.5,LL,191.4,160.2
LIPRETG9WY,160821.0,18:05:51.254,S,105.5,LS,191.4,160.2
LIPRETG9WY,160821.0,18:05:51.578,L,101.6,SL,328.1,222.7
LIPRETG9WY,160821.0,18:05:52.453,R,183.6,RR,230.5,101.6
LIPRETG9WY,160821.0,18:05:52.719,L,156.3,RL,293.0,109.4
LIPRETG9WY,160821.0,18:05:52.945,S,136.7,LS,246.1,89.8
LIPRETG9WY,160821.0,18:06:02.910,L,82.0,LL,168.0,70.3
LIPRETG9WY,160821.0,18:06:04.281,L,121.1,RL,445.3,328.1
LIPRETG9WY,160821.0,18:06:04.418,L,82.0,LL,179.7,58.6
LIPRETG9WY,160821.0,18:06:04.754,S,113.3,LS,304.7,222.7
LIPRETG9WY,160821.0,18:06:05.727,R,144.5,LR,230.5,62.5
LIPRETG9WY,160821.0,18:06:05.941,L,82.0,RL,277.3,132.8
LIPRETG9WY,160821.0,18:06:06.234,L,132.8,LL,242.2,160.2
LIPRETG9WY,160821.0,18:06:06.340,S,101.6,LS,136.7,3.9
LIPRETG9WY,160821.0,18:06:06.867,R,187.5,SR,441.4,339.8
LIPRETG9WY,160821.0,18:06:07.262,R,132.8,LR,261.7,121.1
LIPRETG9WY,160821.0,18:06:07.691,S,105.5,RS,457.0,324.2
LIPRETG9WY,160821.0,18:06:11.527,R,46.9,LR,152.3,195.3
LIPRETG9WY,160821.0,18:06:11.582,L,101.6,RL,152.3,195.3
LIPRETG9WY,160821.0,18:06:11.867,S,117.2,LS,269.5,168.0
LIPRETG9WY,160821.0,18:06:12.344,L,121.1,SL,472.7,355.5
LIPRETG9WY,160821.0,18:06:12.543,R,121.1,LR,199.2,78.1
LIPRETG9WY,160821.0,18:06:12.777,L,140.6,RL,214.8,93.8
LIPRETG9WY,160821.0,18:06:13.199,L,89.8,LL,472.7,332.0
LIPRETG9WY,160821.0,18:06:14.082,R,144.5,RR,293.0,160.2
LIPRETG9WY,160821.0,18:06:14.516,L,210.9,RL,367.2,222.7
LIPRETG9WY,160821.0,18:06:14.770,L,70.3,LL,394.5,183.6
LIPRETG9WY,160821.0,18:06:15.324,R,140.6,LR,484.4,414.1
LIPRETG9WY,160821.0,18:06:15.719,L,105.5,RL,429.7,289.1
LIPRETG9WY,160821.0,18:06:16.133,S,125.0,LS,394.5,289.1
LIPRETG9WY,160821.0,18:06:16.887,L,125.0,LL,168.0,35.2
LIPRETG9WY,160821.0,18:06:17.121,L,3.9,LL,121.1,230.5
LIPRETG9WY,160821.0,18:06:17.250,L,132.8,LL,121.1,230.5
LIPRETG9WY,160821.0,18:06:17.473,L,160.2,LL,195.3,62.5
LIPRETG9WY,160821.0,18:07:07.066,L,97.7,SL,257.8,109.4
LIPRETG9WY,160821.0,18:07:07.297,L,97.7,LL,230.5,132.8
LIPRETG9WY,160821.0,18:07:07.605,S,128.9,LS,277.3,179.7
LIPRETG9WY,160821.0,18:07:07.852,L,101.6,SL,273.4,144.5
LIPRETG9WY,160821.0,18:07:08.137,L,132.8,LL,253.9,152.3
LIPRETG9WY,160821.0,18:07:08.316,R,144.5,LR,168.0,35.2
LIPRETG9WY,160821.0,18:07:12.359,L,121.1,RL,222.7,66.4
LIPRETG9WY,160821.0,18:07:12.527,S,105.5,LS,183.6,62.5
LIPRETG9WY,160821.0,18:07:12.855,L,109.4,SL,324.2,218.8
LIPRETG9WY,160821.0,18:07:13.090,L,113.3,LL,230.5,121.1
LIPRETG9WY,160821.0,18:07:13.316,L,125.0,LL,214.8,101.6
LIPRETG9WY,160821.0,18:07:13.551,S,117.2,LS,242.2,117.2
LIPRETG9WY,160821.0,18:07:14.449,L,97.7,RL,265.6,7.8
LIPRETG9WY,160821.0,18:07:14.664,S,89.8,LS,222.7,125.0
LIPRETG9WY,160821.0,18:07:45.797,L,82.0,RL,480.5,308.6
LIPRETG9WY,160821.0,18:07:45.953,L,85.9,LL,152.3,70.3
LIPRETG9WY,160821.0,18:07:46.191,L,97.7,LL,226.6,140.6
LIPRETG9WY,160821.0,18:07:46.422,R,97.7,LR,230.5,132.8
LIPRETG9WY,160821.0,18:07:46.648,S,109.4,RS,214.8,117.2
LIPRETG9WY,160821.0,18:07:46.945,L,93.8,SL,312.5,203.1
LIPRETG9WY,160821.0,18:07:47.176,R,109.4,LR,214.8,121.1
LIPRETG9WY,160821.0,18:07:47.336,L,105.5,RL,164.1,54.7
LIPRETG9WY,160821.0,18:07:47.441,S,89.8,LS,121.1,15.6
LIPRETG9WY,160821.0,18:07:47.914,R,136.7,SR,425.8,335.9
LIPRETG9WY,160821.0,18:07:48.082,L,93.8,RL,210.9,74.2
LIPRETG9WY,160821.0,18:07:49.355,L,117.2,LL,160.2,54.7
LIPRETG9WY,160821.0,18:07:49.629,L,144.5,LL,246.1,128.9
LIPRETG9WY,160821.0,18:07:49.859,R,121.1,LR,253.9,109.4
LIPRETG9WY,160821.0,18:07:50.172,L,105.5,RL,328.1,207.0
LIPRETG9WY,160821.0,18:07:50.309,L,62.5,LL,179.7,74.2
LIPRETG9WY,160821.0,18:07:50.555,S,85.9,LS,222.7,160.2
LIPRETG9WY,160821.0,18:07:50.848,L,101.6,SL,277.3,191.4
LIPRETG9WY,160821.0,18:07:51.152,R,136.7,LR,269.5,168.0
LIPRETG9WY,160821.0,18:07:51.387,L,117.2,RL,253.9,117.2
LIPRETG9WY,160821.0,18:07:53.012,L,121.1,LL,359.4,253.9
LIPRETG9WY,160821.0,18:07:57.137,R,50.8,LR,148.4,199.2
LIPRETG9WY,160821.0,18:07:57.184,L,97.7,RL,148.4,199.2
LIPRETG9WY,160821.0,18:07:57.484,S,105.5,LS,293.0,195.3
LIPRETG9WY,160821.0,18:07:57.957,L,109.4,SL,468.8,363.3
LIPRETG9WY,160821.0,18:07:58.195,R,105.5,LR,242.2,132.8
LIPRETG9WY,160821.0,18:07:58.586,L,242.2,RL,253.9,148.4
LIPRETG9WY,160821.0,18:07:59.535,R,105.5,LR,281.3,195.3
LIPRETG9WY,160821.0,18:08:00.000,R,140.6,RR,429.7,324.2
LIPRETG9WY,160821.0,18:08:00.246,L,121.1,RL,265.6,125.0
LIPRETG9WY,160821.0,18:08:00.484,L,74.2,LL,281.3,160.2
LIPRETG9WY,160821.0,18:08:01.449,L,105.5,RL,363.3,226.6
LIPRETG9WY,160821.0,18:08:01.660,S,66.4,LS,250.0,144.5
LIPRETG9WY,160821.0,18:08:01.926,L,125.0,SL,207.0,140.6
LIPRETG9WY,160821.0,18:08:02.098,L,136.7,LL,160.2,35.2
LIPRETG9WY,160821.0,18:08:02.379,L,128.9,LL,289.1,152.3
LIPRETG9WY,160821.0,18:08:02.523,L,113.3,LL,160.2,31.3
LIPRETG9WY,160821.0,18:08:02.699,L,105.5,LL,183.6,70.3
LIPRETG9WY,160821.0,18:08:14.766,R,144.5,LR,203.1,54.7
LIPRETG9WY,160821.0,18:08:15.008,R,97.7,RR,289.1,144.5
LIPRETG9WY,160821.0,18:08:15.207,S,74.2,RS,222.7,125.0
LIPRETG9WY,160821.0,18:08:15.461,R,101.6,SR,226.6,152.3
LIPRETG9WY,160821.0,18:08:15.684,L,97.7,RL,226.6,125.0
LIPRETG9WY,160821.0,18:08:15.809,L,85.9,LL,136.7,39.1
LIPRETG9WY,160821.0,18:08:16.094,S,85.9,LS,285.2,199.2
LIPRETG9WY,160821.0,18:08:16.363,L,125.0,SL,230.5,144.5
LIPRETG9WY,160821.0,18:08:16.531,L,121.1,LL,171.9,46.9
LIPRETG9WY,160821.0,18:08:16.723,L,121.1,LL,191.4,70.3
LIPRETG9WY,160821.0,18:08:17.039,L,125.0,LL,312.5,191.4
LIPRETG9WY,160821.0,18:08:17.133,L,78.1,LL,140.6,15.6
LIPRETG9WY,160821.0,18:08:17.715,R,171.9,LR,488.3,410.2
LIPRETG9WY,160821.0,18:08:17.859,L,121.1,RL,195.3,23.4
LIPRETG9WY,160821.0,18:08:17.953,R,66.4,LR,148.4,27.3
LIPRETG9WY,160821.0,18:08:18.250,L,101.6,RL,261.7,195.3
LIPRETG9WY,160821.0,18:08:18.523,S,144.5,LS,230.5,128.9
LIPRETG9WY,160821.0,18:08:19.070,R,89.8,SR,136.7,457.0
LIPRETG9WY,160821.0,18:08:19.148,R,168.0,RR,136.7,457.0
LIPRETG9WY,160821.0,18:08:19.312,L,144.5,RL,187.5,19.5
LIPRETG9WY,160821.0,18:08:19.520,R,125.0,LR,226.6,82.0
LIPRETG9WY,160821.0,18:08:19.926,S,136.7,RS,394.5,269.5
LIPRETG9WY,160821.0,18:08:41.156,R,121.1,LR,175.8,39.1
LIPRETG9WY,160821.0,18:08:41.367,R,97.7,RR,234.4,113.3
LIPRETG9WY,160821.0,18:08:41.562,S,89.8,RS,203.1,105.5
LIPRETG9WY,160821.0,18:08:41.840,R,105.5,SR,261.7,171.9
LIPRETG9WY,160821.0,18:08:42.117,L,117.2,RL,265.6,160.2
LIPRETG9WY,160821.0,18:08:42.277,L,101.6,LL,175.8,58.6
LIPRETG9WY,160821.0,18:08:42.676,S,105.5,LS,394.5,293.0
LIPRETG9WY,160821.0,18:08:43.691,L,101.6,LL,238.3,128.9
LIPRETG9WY,160821.0,18:08:43.906,L,85.9,LL,230.5,128.9
LIPRETG9WY,160821.0,18:08:44.199,L,160.2,LL,218.8,132.8
LIPRETG9WY,160821.0,18:08:44.312,L,93.8,LL,179.7,19.5
LIPRETG9WY,160821.0,18:08:45.270,L,101.6,RL,199.2,31.3
LIPRETG9WY,160821.0,18:08:45.379,R,78.1,LR,132.8,31.3
LIPRETG9WY,160821.0,18:08:45.684,L,93.8,RL,289.1,210.9
LIPRETG9WY,160821.0,18:08:45.930,S,93.8,LS,246.1,152.3
LIPRETG9WY,160821.0,18:08:46.871,L,171.9,RL,257.8,101.6
LIPRETG9WY,160821.0,18:08:47.176,R,125.0,LR,351.6,179.7
LIPRETG9WY,160821.0,18:08:52.656,L,222.7,SL,382.8,265.6
LIPRETG9WY,160821.0,18:08:52.848,R,152.3,LR,261.7,39.1
LIPRETG9WY,160821.0,18:08:53.082,L,121.1,RL,265.6,113.3
LIPRETG9WY,160821.0,18:09:31.445,S,156.3,SS,199.2,78.1
LIPRETG9WY,160821.0,18:09:33.379,L,117.2,RL,203.1,39.1
LIPRETG9WY,160821.0,18:09:33.605,S,113.3,LS,230.5,113.3
LIPRETG9WY,160821.0,18:09:33.832,L,152.3,SL,187.5,74.2
LIPRETG9WY,160821.0,18:09:37.598,L,121.1,RL,312.5,117.2
LIPRETG9WY,160821.0,18:09:37.848,S,132.8,LS,238.3,117.2
LIPRETG9WY,160821.0,18:09:38.812,L,179.7,LL,230.5,148.4
LIPRETG9WY,160821.0,18:09:39.043,R,148.4,LR,261.7,82.0
LIPRETG9WY,160821.0,18:09:39.297,L,113.3,RL,289.1,140.6
LIPRETG9WY,160821.0,18:09:39.547,S,128.9,LS,234.4,121.1
LIPRETG9WY,160821.0,18:09:41.609,R,171.9,LR,230.5,46.9
LIPRETG9WY,160821.0,18:09:41.797,L,97.7,RL,257.8,85.9
LIPRETG9WY,160821.0,18:09:42.023,S,93.8,LS,234.4,136.7
LIPRETG9WY,160821.0,18:09:42.406,L,74.2,SL,402.3,308.6
LIPRETG9WY,160821.0,18:09:42.695,L,148.4,LL,214.8,140.6
LIPRETG9WY,160821.0,18:09:44.988,S,148.4,LS,152.3,23.4
LIPRETG9WY,160821.0,18:09:45.211,R,109.4,SR,261.7,113.3
LIPRETG9WY,160821.0,18:09:45.664,R,140.6,RR,421.9,312.5
LIPRETG9WY,160821.0,18:09:45.980,L,128.9,RL,328.1,187.5
LIPRETG9WY,160821.0,18:09:46.402,S,97.7,LS,453.1,324.2
LIPRETG9WY,160821.0,18:09:53.406,R,85.9,RR,359.4,183.6
LIPRETG9WY,160821.0,18:09:53.684,L,109.4,RL,253.9,168.0
LIPRETG9WY,160821.0,18:09:54.047,S,101.6,LS,371.1,261.7
LIPRETG9WY,160821.0,18:09:55.047,R,128.9,LR,257.8,175.8
LIPRETG9WY,160821.0,18:09:55.359,S,117.2,RS,324.2,195.3
LIPRETG9WY,160821.0,18:09:56.598,R,136.7,LR,253.9,117.2
LIPRETG9WY,160821.0,18:09:56.934,L,97.7,RL,375.0,238.3
LIPRETG9WY,160821.0,18:09:57.152,L,97.7,LL,218.8,121.1
LIPRETG9WY,160821.0,18:09:57.340,R,125.0,LR,160.2,62.5
LIPRETG9WY,160821.0,18:09:57.723,S,109.4,RS,398.4,273.4
LIPRETG9WY,160821.0,18:09:58.160,L,101.6,SL,445.3,335.9
LIPRETG9WY,160821.0,18:09:58.383,L,78.1,LL,246.1,144.5
LIPRETG9WY,160821.0,18:09:59.344,L,101.6,RL,300.8,168.0
LIPRETG9WY,160821.0,18:09:59.613,S,85.9,LS,285.2,183.6
LIPRETG9WY,160821.0,18:09:59.984,R,97.7,SR,359.4,273.4
LIPRETG9WY,160821.0,18:10:00.273,L,105.5,RL,281.3,183.6
LIPRETG9WY,160821.0,18:10:00.617,S,97.7,LS,351.6,246.1
LIPRETG9WY,160821.0,18:10:01.699,R,121.1,RR,250.0,128.9
LIPRETG9WY,160821.0,18:10:01.938,S,113.3,RS,246.1,125.0
LIPRETG9WY,160821.0,18:10:02.293,L,97.7,SL,371.1,257.8
LIPRETG9WY,160821.0,18:10:02.645,R,140.6,LR,308.6,210.9
LIPRETG9WY,160821.0,18:10:02.840,R,144.5,RR,187.5,46.9
LIPRETG9WY,160821.0,18:10:03.008,L,109.4,RL,207.0,62.5
LIPRETG9WY,160821.0,18:10:03.129,S,93.8,LS,136.7,27.3
LIPRETG9WY,160821.0,18:10:03.449,L,85.9,SL,328.1,234.4
LIPRETG9WY,160821.0,18:10:03.922,L,89.8,LL,468.8,382.8
LIPRETG9WY,160821.0,18:10:04.172,R,128.9,LR,210.9,121.1
LIPRETG9WY,160821.0,18:10:04.504,L,89.8,RL,371.1,242.2
LIPRETG9WY,160821.0,18:10:04.934,R,148.4,LR,371.1,281.3
LIPRETG9WY,160821.0,18:10:09.945,R,125.0,LR,367.2,238.3
LIPRETG9WY,160821.0,18:10:10.191,L,117.2,RL,253.9,128.9
LIPRETG9WY,160821.0,18:10:10.516,S,109.4,LS,332.0,214.8
LIPRETG9WY,160821.0,18:10:10.898,R,109.4,SR,382.8,273.4
LIPRETG9WY,160821.0,18:10:11.102,R,97.7,RR,207.0,97.7
LIPRETG9WY,160821.0,18:10:11.312,S,105.5,RS,203.1,105.5
LIPRETG9WY,160821.0,18:10:11.594,L,105.5,SL,289.1,183.6
LIPRETG9WY,160821.0,18:10:11.836,R,113.3,LR,234.4,128.9
LIPRETG9WY,160821.0,18:10:11.977,L,74.2,RL,179.7,66.4
LIPRETG9WY,160821.0,18:10:12.113,S,74.2,LS,136.7,62.5
LIPRETG9WY,160821.0,18:10:12.406,L,85.9,SL,281.3,207.0
LIPRETG9WY,160821.0,18:10:12.938,R,136.7,LR,480.5,394.5
LIPRETG9WY,160821.0,18:10:13.180,L,89.8,RL,289.1,152.3
LIPRETG9WY,160821.0,18:10:13.457,R,175.8,LR,191.4,101.6
LIPRETG9WY,160821.0,18:10:13.699,L,128.9,RL,289.1,113.3
LIPRETG9WY,160821.0,18:10:13.898,L,117.2,LL,210.9,82.0
LIPRETG9WY,160821.0,18:10:14.281,S,136.7,LS,363.3,246.1
LIPRETG9WY,160821.0,18:10:40.660,R,183.6,LR,207.0,54.7
LIPRETG9WY,160821.0,18:10:40.805,L,109.4,RL,218.8,35.2
LIPRETG9WY,160821.0,18:10:41.031,S,117.2,LS,218.8,109.4
LIPRETG9WY,160821.0,18:10:41.199,L,85.9,SL,199.2,82.0
LIPRETG9WY,160821.0,18:10:41.426,L,85.9,LL,226.6,140.6
LIPRETG9WY,160821.0,18:10:42.594,R,156.3,LR,316.4,78.1
LIPRETG9WY,160821.0,18:10:42.816,L,82.0,RL,296.9,140.6
LIPRETG9WY,160821.0,18:10:43.383,L,164.1,LL,484.4,402.3
LIPRETG9WY,160821.0,18:10:43.559,L,152.3,LL,187.5,23.4
LIPRETG9WY,160821.0,18:10:43.707,L,132.8,LL,168.0,15.6
LIPRETG9WY,160821.0,18:10:44.105,S,136.7,LS,394.5,261.7
LIPRETG9WY,160821.0,18:10:45.156,R,117.2,LR,238.3,152.3
LIPRETG9WY,160821.0,18:10:45.320,L,121.1,RL,160.2,43.0
LIPRETG9WY,160821.0,18:10:45.453,L,113.3,LL,140.6,19.5
LIPRETG9WY,160821.0,18:10:45.797,S,105.5,LS,351.6,238.3
LIPRETG9WY,160821.0,18:10:46.719,R,179.7,LR,257.8,140.6
LIPRETG9WY,160821.0,18:10:46.871,L,117.2,RL,214.8,35.2
LIPRETG9WY,160821.0,18:10:47.020,S,105.5,LS,160.2,43.0
LIPRETG9WY,160821.0,18:10:47.285,L,140.6,SL,230.5,125.0
LIPRETG9WY,160821.0,18:10:47.578,R,152.3,LR,281.3,140.6
LIPRETG9WY,160821.0,18:10:47.973,L,89.8,RL,457.0,304.7
LIPRETG9WY,160821.0,18:10:49.254,R,160.2,RR,425.8,339.8
LIPRETG9WY,160821.0,18:10:49.531,L,105.5,RL,335.9,175.8
LIPRETG9WY,160821.0,18:10:49.727,L,85.9,LL,214.8,109.4
LIPRETG9WY,160821.0,18:10:51.527,L,128.9,RL,359.4,269.5
LIPRETG9WY,160821.0,18:10:53.672,L,136.7,LL,195.3,50.8
LIPRETG9WY,160821.0,18:10:54.035,L,152.3,LL,347.7,210.9
LIPRETG9WY,160821.0,18:10:56.930,L,128.9,LL,253.9,97.7
LIPRETG9WY,160821.0,18:10:57.082,L,125.0,LL,156.3,27.3
LIPRETG9WY,160821.0,18:10:57.477,S,171.9,LS,347.7,222.7
LIPRETG9WY,160821.0,18:10:57.883,L,132.8,SL,445.3,273.4
LIPRETG9WY,160821.0,18:10:58.062,L,93.8,LL,218.8,85.9
LIPRETG9WY,160821.0,18:10:58.227,S,109.4,LS,148.4,54.7
LIPRETG9WY,160821.0,18:10:58.477,L,93.8,SL,265.6,156.3
LIPRETG9WY,160821.0,18:10:58.879,R,93.8,LR,402.3,308.6
LIPRETG9WY,160821.0,18:10:59.160,R,66.4,RR,308.6,214.8
LIPRETG9WY,160821.0,18:10:59.402,R,11.7,RR,136.7,230.5
LIPRETG9WY,160821.0,18:10:59.469,L,78.1,RL,136.7,230.5
LIPRETG9WY,160821.0,18:10:59.715,L,121.1,LL,203.1,125.0
LIPRETG9WY,160821.0,18:10:59.887,S,128.9,LS,164.1,43.0
LIPRETG9WY,160821.0,18:11:01.297,S,109.4,RS,265.6,156.3
LIPRETG9WY,160821.0,18:11:01.805,R,136.7,SR,480.5,371.1
LIPRETG9WY,160821.0,18:11:04.922,L,66.4,LL,218.8,136.7
LIPRETG9WY,160821.0,18:11:05.820,R,121.1,RR,293.0,179.7
LIPRETG9WY,160821.0,18:11:06.227,L,128.9,RL,398.4,277.3
LIPRETG9WY,160821.0,18:11:06.395,L,89.8,LL,207.0,78.1
LIPRETG9WY,160821.0,18:11:06.762,S,128.9,LS,328.1,238.3
LIPRETG9WY,160821.0,18:11:19.508,R,11.7,LR,156.3,312.5
LIPRETG9WY,160821.0,18:11:19.605,L,109.4,RL,156.3,312.5
LIPRETG9WY,160821.0,18:11:19.863,S,97.7,LS,269.5,160.2
LIPRETG9WY,160821.0,18:11:27.410,L,109.4,LL,300.8,121.1
LIPRETG9WY,160821.0,18:11:28.516,L,175.8,RL,359.4,125.0
LIPRETG9WY,160821.0,18:11:28.836,R,191.4,LR,304.7,128.9
LIPRETG9WY,160821.0,18:11:28.992,L,152.3,RL,195.3,3.9
LIPRETG9WY,160821.0,18:12:03.000,R,171.9,LR,269.5,105.5
LIPRETG9WY,160821.0,18:12:04.090,L,85.9,RL,175.8,3.9
LIPRETG9WY,160821.0,18:12:04.328,S,132.8,LS,187.5,101.6
LIPRETG9WY,160821.0,18:12:04.598,R,85.9,SR,320.3,187.5
LIPRETG9WY,160821.0,18:12:04.832,L,136.7,RL,183.6,97.7
LIPRETG9WY,160821.0,18:12:04.992,L,89.8,LL,207.0,70.3
LIPRETG9WY,160821.0,18:12:05.395,S,82.0,LS,410.2,320.3
LIPRETG9WY,160821.0,18:12:06.031,L,222.7,SL,496.1,414.1
LIPRETG9WY,160821.0,18:12:06.371,R,179.7,LR,382.8,160.2
LIPRETG9WY,160821.0,18:12:06.523,L,15.6,RL,125.0,136.7
LIPRETG9WY,160821.0,18:12:06.617,S,109.4,LS,125.0,136.7
LIPRETG9WY,160821.0,18:12:06.867,R,105.5,SR,253.9,144.5
LIPRETG9WY,160821.0,18:12:07.074,L,97.7,RL,214.8,109.4
LIPRETG9WY,160821.0,18:12:07.234,L,93.8,LL,164.1,66.4
LIPRETG9WY,160821.0,18:12:08.973,L,175.8,RL,293.0,152.3
LIPRETG9WY,160821.0,18:12:09.387,L,109.4,LL,480.5,304.7
LIPRETG9WY,160821.0,18:12:09.840,L,289.1,LL,273.4,164.1
LIPRETG9WY,160821.0,18:12:10.098,R,195.3,LR,351.6,62.5
LIPRETG9WY,160821.0,18:12:18.992,L,171.9,LL,382.8,265.6
LIPRETG9WY,160821.0,18:12:19.430,R,250.0,LR,359.4,187.5
LIPRETG9WY,160821.0,18:12:19.711,L,132.8,RL,398.4,148.4
LIPRETG9WY,160821.0,18:12:20.109,S,125.0,LS,406.3,273.4
LIPRETG9WY,160821.0,18:12:21.562,L,109.4,LL,367.2,281.3
LIPRETG9WY,160821.0,18:12:21.758,L,101.6,LL,203.1,93.8
LIPRETG9WY,160821.0,18:12:22.008,R,164.1,LR,187.5,85.9
LIPRETG9WY,160821.0,18:13:31.188,L,101.6,RL,296.9,132.8
LIPRETG9WY,160821.0,18:13:31.406,R,85.9,LR,234.4,132.8
LIPRETG9WY,160821.0,18:13:31.648,S,93.8,RS,234.4,148.4
LIPRETG9WY,160821.0,18:13:32.141,L,85.9,SL,226.6,406.3
LIPRETG9WY,160821.0,18:13:32.828,L,78.1,LL,289.1,203.1
LIPRETG9WY,160821.0,18:13:33.688,L,156.3,RL,171.9,62.5
LIPRETG9WY,160821.0,18:13:34.664,L,125.0,RL,265.6,31.3
LIPRETG9WY,160821.0,18:13:35.805,L,101.6,SL,351.6,250.0
LIPRETG9WY,160821.0,18:13:36.117,L,132.8,LL,281.3,179.7
LIPRETG9WY,160821.0,18:13:36.492,R,101.6,LR,406.3,273.4
LIPRETG9WY,160821.0,18:13:36.672,R,140.6,RR,140.6,39.1
LIPRETG9WY,160821.0,18:13:37.547,L,140.6,LL,226.6,78.1
LIPRETG9WY,160821.0,18:13:37.750,S,125.0,LS,218.8,78.1
LIPRETG9WY,160821.0,18:13:39.031,S,62.5,RS,312.5,171.9
LIPRETG9WY,160821.0,18:13:40.172,R,109.4,RR,343.8,171.9
LIPRETG9WY,160821.0,18:13:43.352,L,109.4,LL,281.3,179.7
LIPRETG9WY,160821.0,18:13:43.648,R,93.8,LR,312.5,203.1
LIPRETG9WY,160821.0,18:13:43.930,R,117.2,RR,257.8,164.1
LIPRETG9WY,160821.0,18:13:44.195,R,125.0,RR,257.8,140.6
LIPRETG9WY,160821.0,18:13:44.469,L,93.8,RL,304.7,179.7
LIPRETG9WY,160821.0,18:13:44.742,S,109.4,LS,257.8,164.1
LIPRETG9WY,160821.0,18:13:47.562,S,132.8,RS,234.4,117.2
LIPRETG9WY,160821.0,18:13:47.969,L,117.2,SL,156.3,289.1
LIPRETG9WY,160821.0,18:13:49.219,R,140.6,LR,312.5,203.1
LIPRETG9WY,160821.0,18:13:53.203,R,7.8,LR,140.6,320.3
LIPRETG9WY,160821.0,18:13:53.273,L,78.1,RL,140.6,320.3
LIPRETG9WY,160821.0,18:14:01.250,R,109.4,RR,382.8,101.6
LIPRETG9WY,160821.0,18:14:01.516,L,93.8,RL,281.3,171.9
LIPRETG9WY,160821.0,18:14:01.836,S,85.9,LS,328.1,234.4
LIPRETG9WY,160821.0,18:14:02.234,R,62.5,SR,148.4,335.9
LIPRETG9WY,160821.0,18:14:02.344,R,171.9,RR,148.4,335.9
LIPRETG9WY,160821.0,18:14:02.617,L,125.0,RL,320.3,148.4
LIPRETG9WY,160821.0,18:14:02.789,S,117.2,LS,179.7,54.7
LIPRETG9WY,160821.0,18:14:07.609,R,125.0,RR,210.9,109.4
LIPRETG9WY,160821.0,18:14:07.828,R,93.8,RR,250.0,125.0
LIPRETG9WY,160821.0,18:14:08.234,R,78.1,RR,421.9,328.1
LIPRETG9WY,160821.0,18:14:08.461,S,54.7,RS,250.0,171.9
LIPRETG9WY,160821.0,18:14:10.148,L,125.0,LL,406.3,335.9
LIPRETG9WY,160821.0,18:14:10.398,R,125.0,LR,250.0,125.0
LIPRETG9WY,160821.0,18:14:10.789,S,109.4,RS,406.3,281.3
LIPRETG9WY,160821.0,18:14:13.695,L,101.6,LL,437.5,320.3
LIPRETG9WY,160821.0,18:14:14.422,L,62.5,RL,242.2,117.2
LIPRETG9WY,160821.0,18:14:14.688,L,109.4,LL,218.8,156.3
LIPRETG9WY,160821.0,18:14:15.562,L,85.9,RL,210.9,7.8
LIPRETG9WY,160821.0,18:14:15.812,L,125.0,LL,210.9,125.0
LIPRETG9WY,160821.0,18:14:16.000,S,140.6,LS,171.9,46.9
LIPRETG9WY,160821.0,18:14:17.203,R,93.8,RR,234.4,117.2
LIPRETG9WY,160821.0,18:14:17.461,S,109.4,RS,242.2,148.4
LIPRETG9WY,160821.0,18:14:17.969,R,117.2,SR,187.5,382.8
LIPRETG9WY,160821.0,18:14:19.266,L,78.1,RL,429.7,312.5
LIPRETG9WY,160821.0,18:14:19.531,L,109.4,LL,234.4,156.3
LIPRETG9WY,160821.0,18:14:19.977,R,109.4,LR,445.3,335.9
LIPRETG9WY,160821.0,18:14:20.258,S,78.1,RS,312.5,203.1
LIPRETG9WY,160821.0,18:14:22.914,L,117.2,RL,398.4,203.1
LIPRETG9WY,160821.0,18:14:27.594,L,156.3,RL,367.2,85.9
LIPRETG9WY,160821.0,18:14:27.711,L,101.6,LL,171.9,15.6
LIPRETG9WY,160821.0,18:14:32.734,S,125.0,RS,289.1,164.1
LIPRETG9WY,160821.0,18:14:39.664,R,23.4,LR,148.4,320.3
LIPRETG9WY,160821.0,18:14:39.727,L,85.9,RL,148.4,320.3
LIPRETG9WY,160821.0,18:14:39.953,S,85.9,LS,226.6,140.6
LIPRETG9WY,160821.0,18:14:40.203,L,109.4,SL,226.6,140.6
LIPRETG9WY,160821.0,18:14:40.594,R,101.6,LR,70.3,289.1
LIPRETG9WY,160821.0,18:14:40.867,R,375.0,RR,70.3,289.1
LIPRETG9WY,160821.0,18:14:41.078,L,70.3,RL,23.4,140.6
LIPRETG9WY,160821.0,18:14:41.195,R,187.5,LR,23.4,140.6
LIPRETG9WY,160821.0,18:14:41.547,L,109.4,RL,429.7,242.2
LIPRETG9WY,160821.0,18:14:41.953,S,93.8,LS,421.9,312.5
LIPRETG9WY,160821.0,18:14:44.734,L,62.5,RL,226.6,39.1
LIPRETG9WY,160821.0,18:14:44.914,S,85.9,LS,156.3,93.8
LIPRETG9WY,160821.0,18:14:45.211,L,62.5,SL,320.3,234.4
LIPRETG9WY,160821.0,18:14:46.117,S,85.9,RS,296.9,171.9
LIPRETG9WY,160821.0,18:14:47.055,L,109.4,RL,468.8,351.6
LIPRETG9WY,160821.0,18:14:47.234,L,101.6,LL,187.5,78.1
LIPRETG9WY,160821.0,18:14:48.617,S,117.2,RS,250.0,117.2
LIPRETG9WY,160821.0,18:14:49.938,L,85.9,LL,328.1,242.2
LIPRETG9WY,160821.0,18:14:50.117,L,93.8,LL,171.9,85.9
LIPRETG9WY,160821.0,18:14:50.445,R,140.6,LR,281.3,187.5
LIPRETG9WY,160821.0,18:14:53.266,S,85.9,RS,453.1,328.1
LIPRETG9WY,160821.0,18:14:53.469,S,109.4,SS,179.7,93.8
LIPRETG9WY,160821.0,18:15:06.969,S,101.6,SS,226.6,132.8
LIPRETG9WY,160821.0,18:15:09.438,L,85.9,RL,210.9,39.1
LIPRETG9WY,160821.0,18:15:09.633,S,85.9,LS,195.3,109.4
LIPRETG9WY,160821.0,18:15:09.875,L,117.2,SL,210.9,125.0
LIPRETG9WY,160821.0,18:15:10.117,R,101.6,LR,257.8,140.6
LIPRETG9WY,160821.0,18:15:10.398,R,125.0,RR,257.8,156.3
LIPRETG9WY,160821.0,18:15:11.203,R,156.3,LR,218.8,93.8
LIPRETG9WY,160821.0,18:15:11.273,L,62.5,RL,164.1,7.8
LIPRETG9WY,160821.0,18:15:11.555,R,0.0,LR,148.4,281.3
LIPRETG9WY,160821.0,18:15:11.617,L,62.5,RL,148.4,281.3
LIPRETG9WY,160821.0,18:15:11.883,L,0.0,LL,109.4,265.6
LIPRETG9WY,160821.0,18:15:11.992,S,109.4,LS,109.4,265.6
LIPRETG9WY,160821.0,18:15:12.414,R,101.6,SR,132.8,320.3
LIPRETG9WY,160821.0,18:15:12.492,R,179.7,RR,132.8,320.3
LIPRETG9WY,160821.0,18:15:12.617,L,85.9,RL,218.8,39.1
LIPRETG9WY,160821.0,18:15:12.781,S,85.9,LS,164.1,78.1
LIPRETG9WY,160821.0,18:15:13.086,L,164.1,SL,226.6,140.6
LIPRETG9WY,160821.0,18:15:13.391,R,70.3,LR,398.4,234.4
LIPRETG9WY,160821.0,18:15:13.609,R,125.0,RR,164.1,93.8
LIPRETG9WY,160821.0,18:15:14.750,R,93.8,RR,289.1,156.3
LIPRETG9WY,160821.0,18:15:15.039,L,93.8,RL,289.1,195.3
LIPRETG9WY,160821.0,18:15:15.695,R,281.3,LR,468.8,375.0
LIPRETG9WY,160821.0,18:15:16.164,R,101.6,RR,109.4,367.2
LIPRETG9WY,160821.0,18:15:16.234,L,171.9,RL,109.4,367.2
LIPRETG9WY,160821.0,18:15:16.516,L,101.6,LL,351.6,179.7
LIPRETG9WY,160821.0,18:15:19.312,L,85.9,RL,203.1,39.1
LIPRETG9WY,160821.0,18:15:19.461,R,109.4,LR,125.0,39.1
LIPRETG9WY,160821.0,18:15:19.781,L,85.9,RL,343.8,234.4
LIPRETG9WY,160821.0,18:15:23.883,L,148.4,SL,312.5,210.9
LIPRETG9WY,160821.0,18:15:24.188,R,171.9,LR,281.3,132.8
LIPRETG9WY,160821.0,18:15:24.336,L,93.8,RL,226.6,54.7
LIPRETG9WY,160821.0,18:15:24.484,S,93.8,LS,148.4,54.7
LIPRETG9WY,160821.0,18:15:24.812,L,101.6,SL,320.3,226.6
LIPRETG9WY,160821.0,18:15:26.031,R,7.8,RR,171.9,281.3
LIPRETG9WY,160821.0,18:15:26.125,L,101.6,RL,171.9,281.3
LIPRETG9WY,160821.0,18:15:26.297,S,85.9,LS,187.5,85.9
LIPRETG9WY,160821.0,18:15:26.852,L,93.8,SL,304.7,460.9
LIPRETG9WY,160821.0,18:15:27.484,L,101.6,LL,210.9,117.2
LIPRETG9WY,160821.0,18:15:28.398,L,187.5,RL,195.3,62.5
LIPRETG9WY,160821.0,18:15:28.594,R,148.4,LR,234.4,46.9
LIPRETG9WY,160821.0,18:15:28.758,L,85.9,RL,226.6,78.1
LIPRETG9WY,160821.0,18:15:28.914,S,101.6,LS,140.6,54.7
LIPRETG9WY,160821.0,18:15:29.242,L,101.6,SL,328.1,226.6
LIPRETG9WY,160821.0,18:15:29.477,R,109.4,LR,226.6,125.0
LIPRETG9WY,160821.0,18:15:29.656,L,117.2,RL,171.9,62.5
LIPRETG9WY,160821.0,18:15:29.789,L,93.8,LL,156.3,39.1
LIPRETG9WY,160821.0,18:15:30.242,S,109.4,LS,437.5,343.8
LIPRETG9WY,160821.0,18:15:30.938,L,85.9,RL,195.3,54.7
LIPRETG9WY,160821.0,18:15:31.148,L,78.1,LL,218.8,132.8
LIPRETG9WY,160821.0,18:15:31.484,S,93.8,LS,320.3,242.2
LIPRETG9WY,160821.0,18:15:31.836,R,117.2,SR,328.1,234.4
LIPRETG9WY,160821.0,18:15:31.992,R,125.0,RR,148.4,31.3
LIPRETG9WY,160821.0,18:15:32.258,L,148.4,RL,242.2,117.2
LIPRETG9WY,160821.0,18:15:33.086,L,171.9,LL,265.6,164.1
LIPRETG9WY,160821.0,18:15:34.250,L,109.4,RL,460.9,265.6
LIPRETG9WY,160821.0,18:15:34.578,S,148.4,LS,289.1,179.7
LIPRETG9WY,160821.0,18:15:35.383,L,140.6,RL,210.9,93.8
LIPRETG9WY,160821.0,18:15:35.680,L,101.6,LL,335.9,195.3
LIPRETG9WY,160821.0,18:15:35.859,S,125.0,LS,156.3,54.7
LIPRETG9WY,160821.0,18:15:40.320,R,132.8,RR,250.0,117.2
LIPRETG9WY,160821.0,18:15:40.508,L,101.6,RL,218.8,85.9
LIPRETG9WY,160821.0,18:15:40.641,S,93.8,LS,140.6,39.1
LIPRETG9WY,160821.0,18:15:40.930,R,101.6,SR,281.3,187.5
LIPRETG9WY,160821.0,18:15:41.156,L,125.0,RL,203.1,101.6
LIPRETG9WY,160821.0,18:15:41.359,L,101.6,LL,226.6,101.6
LIPRETG9WY,160821.0,18:15:41.836,S,101.6,LS,476.6,375.0
LIPRETG9WY,160821.0,18:15:42.258,L,85.9,SL,437.5,335.9
LIPRETG9WY,160821.0,18:15:43.188,S,117.2,RS,390.6,281.3
LIPRETG9WY,160821.0,18:15:43.586,L,62.5,SL,453.1,335.9
LIPRETG9WY,160821.0,18:16:11.156,L,117.2,LL,382.8,281.3
LIPRETG9WY,160821.0,18:16:11.602,R,125.0,LR,437.5,320.3
LIPRETG9WY,160821.0,18:16:11.836,R,132.8,RR,226.6,101.6
LIPRETG9WY,160821.0,18:16:33.820,L,109.4,LL,351.6,250.0
LIPRETG9WY,160821.0,18:16:34.164,R,101.6,LR,351.6,242.2
LIPRETG9WY,160821.0,18:16:34.391,R,125.0,RR,203.1,101.6
LIPRETG9WY,160821.0,18:16:34.773,S,125.0,RS,382.8,257.8
LIPRETG9WY,160821.0,18:16:35.656,L,132.8,RL,257.8,101.6
LIPRETG9WY,160821.0,18:16:35.805,S,101.6,LS,179.7,46.9
LIPRETG9WY,160821.0,18:16:36.133,L,93.8,SL,335.9,234.4
LIPRETG9WY,160821.0,18:16:37.023,S,101.6,RS,312.5,195.3
LIPRETG9WY,160821.0,18:16:37.273,L,85.9,SL,265.6,164.1
LIPRETG9WY,160821.0,18:16:37.742,R,85.9,LR,468.8,382.8
LIPRETG9WY,160821.0,18:16:37.000,S,93.8,RS,250.0,164.1
LIPRETG9WY,160821.0,18:16:38.383,L,125.0,SL,351.6,257.8
LIPRETG9WY,160821.0,18:16:38.578,R,85.9,LR,234.4,109.4
LIPRETG9WY,160821.0,18:16:38.938,L,101.6,RL,343.8,257.8
LIPRETG9WY,160821.0,18:16:39.258,L,132.8,LL,289.1,187.5
LIPRETG9WY,160821.0,18:16:39.570,L,109.4,LL,335.9,203.1
LIPRETG9WY,160821.0,18:16:41.266,R,187.5,LR,242.2,46.9
LIPRETG9WY,160821.0,18:16:41.422,L,132.8,RL,210.9,23.4
LIPRETG9WY,160821.0,18:16:41.602,S,125.0,LS,187.5,54.7
LIPRETG9WY,160821.0,18:16:41.867,L,85.9,SL,304.7,179.7
LIPRETG9WY,160821.0,18:16:42.367,R,117.2,LR,468.8,382.8
LIPRETG9WY,160821.0,18:16:42.680,R,85.9,RR,343.8,226.6
LIPRETG9WY,160821.0,18:16:42.859,R,85.9,RR,179.7,93.8
LIPRETG9WY,160821.0,18:16:43.109,S,132.8,RS,203.1,117.2
LIPRETG9WY,160821.0,18:16:43.438,L,85.9,SL,375.0,242.2
LIPRETG9WY,160821.0,18:16:43.688,R,101.6,LR,234.4,148.4
LIPRETG9WY,160821.0,18:16:43.844,L,85.9,RL,171.9,70.3
LIPRETG9WY,160821.0,18:16:44.031,S,93.8,LS,179.7,93.8
LIPRETG9WY,160821.0,18:16:44.391,L,70.3,SL,382.8,289.1
LIPRETG9WY,160821.0,18:16:44.625,R,101.6,LR,203.1,132.8
LIPRETG9WY,160821.0,18:16:45.031,L,210.9,RL,296.9,195.3
LIPRETG9WY,160821.0,18:16:45.812,R,54.7,LR,437.5,351.6
LIPRETG9WY,160821.0,18:16:46.406,R,187.5,RR,460.9,406.3
LIPRETG9WY,160821.0,18:16:47.438,L,78.1,LL,312.5,187.5
LIPRETG9WY,160821.0,18:16:48.195,L,93.8,RL,226.6,70.3
LIPRETG9WY,160821.0,18:16:48.367,S,93.8,LS,171.9,78.1
LIPRETG9WY,160821.0,18:16:48.617,L,54.7,SL,289.1,195.3
LIPRETG9WY,160821.0,18:16:48.852,L,117.2,LL,171.9,117.2
LIPRETG9WY,160821.0,18:16:49.188,L,117.2,LL,335.9,218.8
LIPRETG9WY,160821.0,18:16:49.328,L,117.2,LL,132.8,15.6
LIPRETG9WY,160821.0,18:16:49.562,L,93.8,LL,265.6,148.4
LIPRETG9WY,160821.0,18:16:51.672,R,15.6,LR,156.3,226.6
LIPRETG9WY,160821.0,18:16:51.742,L,85.9,RL,156.3,226.6
LIPRETG9WY,160821.0,18:16:51.977,S,117.2,LS,203.1,117.2
LIPRETG9WY,160821.0,18:16:52.352,L,101.6,SL,390.6,273.4
LIPRETG9WY,160821.0,18:16:52.578,R,85.9,LR,242.2,140.6
LIPRETG9WY,160821.0,18:16:52.938,L,250.0,RL,195.3,109.4
LIPRETG9WY,160821.0,18:16:53.227,R,0.0,LR,171.9,289.1
LIPRETG9WY,160821.0,18:16:53.344,L,117.2,RL,171.9,289.1
LIPRETG9WY,160821.0,18:16:53.656,S,140.6,LS,289.1,171.9
LIPRETG9WY,160821.0,18:16:55.602,L,125.0,LL,210.9,117.2
LIPRETG9WY,160821.0,18:16:55.844,R,109.4,LR,257.8,132.8
LIPRETG9WY,160821.0,18:16:56.164,L,101.6,RL,328.1,218.8
LIPRETG9WY,160821.0,18:16:56.461,S,93.8,LS,304.7,203.1
LIPRETG9WY,160821.0,18:16:56.758,L,148.4,SL,242.2,148.4
LIPRETG9WY,160821.0,18:16:56.945,L,93.8,LL,242.2,93.8
LIPRETG9WY,160821.0,18:16:57.844,L,132.8,RL,273.4,62.5
LIPRETG9WY,160821.0,18:16:58.102,R,148.4,LR,242.2,109.4
LIPRETG9WY,160821.0,18:16:58.312,L,125.0,RL,234.4,85.9
LIPRETG9WY,160821.0,18:17:27.742,L,125.0,SL,335.9,195.3
LIPRETG9WY,160821.0,18:17:28.086,L,101.6,LL,367.2,242.2
LIPRETG9WY,160821.0,18:17:28.227,R,109.4,LR,132.8,31.3
LIPRETG9WY,160821.0,18:17:29.648,S,125.0,LS,445.3,335.9
LIPRETG9WY,160821.0,18:17:32.398,S,109.4,LS,203.1,78.1
LIPRETG9WY,160821.0,18:17:32.625,L,101.6,SL,234.4,125.0
LIPRETG9WY,160821.0,18:17:32.961,R,140.6,LR,296.9,195.3
LIPRETG9WY,160821.0,18:17:33.086,L,109.4,RL,156.3,15.6
LIPRETG9WY,160821.0,18:17:33.297,R,125.0,LR,195.3,85.9
LIPRETG9WY,160821.0,18:17:33.609,R,148.4,RR,289.1,164.1
LIPRETG9WY,160821.0,18:17:33.992,S,109.4,RS,421.9,273.4
LIPRETG9WY,160821.0,18:17:36.906,R,125.0,LR,476.6,398.4
LIPRETG9WY,160821.0,18:17:37.148,S,85.9,RS,281.3,156.3
LIPRETG9WY,160821.0,18:17:37.617,R,132.8,SR,148.4,335.9
LIPRETG9WY,160821.0,18:17:38.148,L,70.3,LL,132.8,23.4
LIPRETG9WY,160821.0,18:17:39.055,R,117.2,RR,296.9,187.5
LIPRETG9WY,160821.0,18:17:39.516,L,132.8,RL,445.3,328.1
LIPRETG9WY,160821.0,18:17:39.664,L,93.8,LL,187.5,54.7
LIPRETG9WY,160821.0,18:17:40.086,S,125.0,LS,390.6,296.9
LIPRETG9WY,160821.0,18:17:41.242,R,46.9,LR,132.8,156.3
LIPRETG9WY,160821.0,18:17:41.305,L,109.4,RL,132.8,156.3
LIPRETG9WY,160821.0,18:18:10.609,S,140.6,SS,257.8,125.0
LIPRETG9WY,160821.0,18:18:19.820,R,140.6,LR,234.4,117.2
LIPRETG9WY,160821.0,18:18:23.695,S,140.6,SS,187.5,93.8
LIPRETG9WY,160821.0,18:18:25.188,L,93.8,LL,179.7,78.1
LIPRETG9WY,160821.0,18:18:26.258,L,117.2,RL,320.3,187.5
LIPRETG9WY,160821.0,18:18:27.172,L,93.8,RL,250.0,31.3
LIPRETG9WY,160821.0,18:18:27.578,S,132.8,LS,367.2,273.4
LIPRETG9WY,160821.0,18:18:30.320,R,101.6,RR,226.6,140.6
LIPRETG9WY,160821.0,18:18:30.508,L,117.2,RL,171.9,70.3
LIPRETG9WY,160821.0,18:18:30.734,S,101.6,LS,242.2,125.0
LIPRETG9WY,160821.0,18:18:34.719,S,125.0,RS,398.4,250.0
LIPRETG9WY,160821.0,18:18:35.961,L,109.4,LL,328.1,250.0
LIPRETG9WY,160821.0,18:18:36.164,L,85.9,LL,226.6,117.2
LIPRETG9WY,160821.0,18:18:36.359,R,156.3,LR,125.0,39.1
LIPRETG9WY,160821.0,18:18:36.477,L,109.4,RL,164.1,7.8
LIPRETG9WY,160821.0,18:18:36.797,S,109.4,LS,320.3,210.9
LIPRETG9WY,160821.0,18:18:37.359,L,179.7,SL,492.2,382.8
LIPRETG9WY,160821.0,18:18:37.680,R,164.1,LR,335.9,156.3
LIPRETG9WY,160821.0,18:18:37.797,L,93.8,RL,187.5,23.4
LIPRETG9WY,160821.0,18:18:37.992,S,109.4,LS,179.7,85.9
LIPRETG9WY,160821.0,18:18:38.141,L,109.4,SL,148.4,39.1
LIPRETG9WY,160821.0,18:18:38.578,R,85.9,LR,179.7,351.6
LIPRETG9WY,160821.0,18:18:38.641,R,148.4,RR,179.7,351.6
LIPRETG9WY,160821.0,18:18:38.984,R,15.6,RR,171.9,328.1
LIPRETG9WY,160821.0,18:18:39.062,L,93.8,RL,171.9,328.1
LIPRETG9WY,160821.0,18:18:39.352,S,109.4,LS,273.4,179.7
LIPRETG9WY,160821.0,18:18:40.234,R,125.0,LR,257.8,148.4
LIPRETG9WY,160821.0,18:18:40.516,R,140.6,RR,265.6,140.6
LIPRETG9WY,160821.0,18:18:40.914,L,93.8,RL,445.3,304.7
LIPRETG9WY,160821.0,18:18:41.195,L,70.3,LL,304.7,210.9
LIPRETG9WY,160821.0,18:18:41.422,R,101.6,LR,195.3,125.0
LIPRETG9WY,160821.0,18:18:41.711,S,109.4,RS,281.3,179.7
LIPRETG9WY,160821.0,18:18:42.031,L,117.2,SL,312.5,203.1
LIPRETG9WY,160821.0,18:18:42.242,R,85.9,LR,242.2,125.0
LIPRETG9WY,160821.0,18:18:42.422,L,109.4,RL,156.3,70.3
LIPRETG9WY,160821.0,18:18:42.562,L,132.8,LL,117.2,7.8
LIPRETG9WY,160821.0,18:18:42.914,S,85.9,LS,398.4,265.6
LIPRETG9WY,160821.0,18:18:44.258,R,117.2,RR,242.2,117.2
LIPRETG9WY,160821.0,18:18:44.688,L,117.2,RL,429.7,312.5
LIPRETG9WY,160821.0,18:18:44.945,R,39.1,LR,125.0,218.8
LIPRETG9WY,160821.0,18:18:44.984,L,78.1,RL,125.0,218.8
LIPRETG9WY,160821.0,18:18:45.219,R,93.8,LR,218.8,140.6
LIPRETG9WY,160821.0,18:18:45.469,L,109.4,RL,234.4,140.6
LIPRETG9WY,160821.0,18:18:45.625,L,54.7,LL,210.9,101.6
LIPRETG9WY,160821.0,18:18:46.094,R,62.5,LR,85.9,406.3
LIPRETG9WY,160821.0,18:18:46.188,R,156.3,RR,85.9,406.3
LIPRETG9WY,160821.0,18:18:46.492,R,117.2,RR,343.8,187.5
LIPRETG9WY,160821.0,18:18:46.789,S,125.0,RS,289.1,171.9
LIPRETG9WY,160821.0,18:18:49.008,S,156.3,RS,437.5,289.1
LIPRETG9WY,160821.0,18:18:51.656,R,0.0,LR,117.2,234.4
LIPRETG9WY,160821.0,18:18:51.758,L,101.6,RL,117.2,234.4
LIPRETG9WY,160821.0,18:18:51.898,S,93.8,LS,148.4,46.9
LIPRETG9WY,160821.0,18:18:52.328,R,117.2,SR,406.3,312.5
LIPRETG9WY,160821.0,18:18:52.781,L,93.8,RL,476.6,359.4
LIPRETG9WY,160821.0,18:18:53.000,L,109.4,LL,203.1,109.4
LIPRETG9WY,160821.0,18:18:53.164,R,93.8,LR,179.7,70.3
LIPRETG9WY,160821.0,18:18:53.523,L,140.6,RL,312.5,218.8
LIPRETG9WY,160821.0,18:18:53.633,L,101.6,LL,148.4,7.8
LIPRETG9WY,160821.0,18:18:53.836,S,85.9,LS,218.8,117.2
LIPRETG9WY,160821.0,18:18:56.031,R,171.9,LR,351.6,171.9
LIPRETG9WY,160821.0,18:18:56.438,L,148.4,RL,429.7,257.8
LIPRETG9WY,160821.0,18:18:56.750,L,140.6,LL,320.3,171.9
LIPRETG9WY,160821.0,18:18:56.906,L,109.4,LL,187.5,46.9
LIPRETG9WY,160821.0,18:19:02.547,L,93.8,RL,226.6,78.1
LIPRETG9WY,160821.0,18:19:02.688,R,109.4,LR,125.0,31.3
LIPRETG9WY,160821.0,18:19:02.797,L,93.8,RL,125.0,15.6
LIPRETG9WY,160821.0,18:22:25.742,L,109.4,LL,289.1,171.9
LIPRETG9WY,160821.0,18:22:25.922,L,78.1,LL,210.9,101.6
LIPRETG9WY,160821.0,18:22:26.227,L,101.6,LL,281.3,203.1
LIPRETG9WY,160821.0,18:22:26.523,S,70.3,LS,328.1,226.6
LIPRETG9WY,160821.0,18:22:27.898,L,85.9,LL,164.1,54.7
LIPRETG9WY,160821.0,18:22:28.734,L,93.8,RL,242.2,125.0
LIPRETG9WY,160821.0,18:22:29.031,L,101.6,LL,289.1,195.3
LIPRETG9WY,160821.0,18:22:29.469,S,62.5,LS,476.6,375.0
LIPRETG9WY,160821.0,18:32:06.078,R,140.6,RR,265.6,132.8
LIPRETG9WY,160821.0,18:32:09.648,L,117.2,RL,414.1,273.4
LIPRETG9WY,160821.0,18:32:09.867,L,78.1,LL,257.8,140.6
LIPRETG9WY,160821.0,18:32:10.117,R,85.9,LR,242.2,164.1
LIPRETG9WY,160821.0,18:32:10.445,L,101.6,RL,312.5,226.6
LIPRETG9WY,160821.0,18:32:10.797,L,132.8,LL,320.3,218.8
LIPRETG9WY,160821.0,18:32:11.133,R,132.8,LR,335.9,203.1
LIPRETG9WY,160821.0,18:38:05.617,L,125.0,LL,398.4,273.4
LIPRETG9WY,160821.0,18:38:05.875,R,125.0,LR,257.8,132.8
LIPRETG9WY,160821.0,18:38:06.148,L,93.8,RL,304.7,179.7
LIPRETG9WY,160821.0,18:38:07.062,R,109.4,RR,226.6,93.8
LIPRETG9WY,160821.0,18:38:07.352,R,140.6,RR,257.8,148.4
LIPRETG9WY,160821.0,18:38:07.758,S,117.2,RS,429.7,289.1
LIPRETG9WY,160821.0,18:38:25.039,L,93.8,RL,460.9,296.9
LIPRETG9WY,160821.0,18:38:33.211,L,148.4,LL,296.9,140.6
LIPRETG9WY,160821.0,18:38:33.406,L,148.4,LL,195.3,46.9
LIPRETG9WY,160821.0,18:38:48.812,L,125.0,LL,320.3,125.0
LIPRETG9WY,160821.0,18:38:49.008,L,140.6,LL,179.7,54.7
LIPRETG9WY,160821.0,18:38:54.461,R,140.6,LR,375.0,132.8
LIPRETG9WY,160821.0,18:38:54.750,L,93.8,RL,335.9,195.3
LIPRETG9WY,160821.0,18:38:55.109,L,132.8,LL,320.3,226.6
LIPRETG9WY,160821.0,18:38:55.266,L,125.0,LL,164.1,31.3
LIPRETG9WY,160821.0,18:39:03.516,R,164.1,LR,343.8,210.9
LIPRETG9WY,160821.0,18:39:03.867,L,125.0,RL,382.8,218.8
LIPRETG9WY,160821.0,18:39:04.133,L,93.8,LL,304.7,179.7
LIPRETG9WY,160821.0,18:39:05.594,R,148.4,LR,117.2,15.6
LIPRETG9WY,160821.0,18:39:05.922,R,148.4,RR,328.1,179.7
LIPRETG9WY,160821.0,19:00:51.602,L,93.8,LL,242.2,140.6
LIPRETG9WY,160821.0,19:00:51.875,L,125.0,LL,242.2,148.4
LIPRETG9WY,160821.0,19:01:38.547,L,140.6,LL,250.0,109.4
LIPRETG9WY,160821.0,19:02:17.758,R,101.6,LR,328.1,171.9
LIPRETG9WY,160821.0,19:02:17.984,L,164.1,RL,164.1,62.5
LIPRETG9WY,160821.0,19:02:18.125,L,85.9,LL,218.8,54.7
LIPRETG9WY,160821.0,19:02:18.438,S,109.4,LS,289.1,203.1
LIPRETG9WY,160821.0,19:02:18.617,L,132.8,SL,156.3,46.9
LIPRETG9WY,160821.0,19:02:18.906,L,15.6,LL,187.5,273.4
LIPRETG9WY,160821.0,19:02:19.008,L,117.2,LL,187.5,273.4
LIPRETG9WY,160821.0,19:02:19.484,S,101.6,LS,492.2,375.0
LIPRETG9WY,160821.0,19:02:30.711,R,125.0,LR,265.6,179.7
LIPRETG9WY,160821.0,19:02:30.867,L,78.1,RL,203.1,78.1
LIPRETG9WY,160821.0,19:02:31.203,S,109.4,LS,304.7,226.6
LIPRETG9WY,160821.0,19:02:39.492,R,93.8,LR,343.8,179.7
LIPRETG9WY,160821.0,19:02:41.453,L,62.5,RL,492.2,351.6
LIPRETG9WY,160821.0,19:02:42.398,R,140.6,RR,335.9,203.1
LIPRETG9WY,160821.0,19:02:43.086,S,62.5,LS,195.3,23.4
LIPRETG9WY,160821.0,19:02:44.070,L,109.4,RL,156.3,7.8
LIPRETG9WY,160821.0,19:02:44.359,S,140.6,LS,257.8,148.4
LIPRETG9WY,160821.0,19:02:45.750,L,132.8,RL,304.7,140.6
LIPRETG9WY,160821.0,19:02:46.938,L,117.2,RL,359.4,265.6
LIPRETG9WY,160821.0,19:02:47.219,L,125.0,LL,273.4,156.3
LIPRETG9WY,160821.0,19:02:47.422,L,93.8,LL,234.4,109.4
LIPRETG9WY,160821.0,19:02:47.672,L,109.4,LL,234.4,140.6
LIPRETG9WY,160821.0,19:02:47.812,L,70.3,LL,179.7,70.3
LIPRETG9WY,160821.0,19:02:48.727,L,109.4,RL,367.2,281.3
LIPRETG9WY,160821.0,19:02:49.039,S,78.1,LS,343.8,234.4
LIPRETG9WY,160821.0,19:18:04.359,L,109.4,LL,304.7,148.4
LIPRETG9WY,160821.0,19:18:04.656,L,109.4,LL,296.9,187.5
LIPRETG9WY,160821.0,19:18:04.930,R,109.4,LR,273.4,164.1
LIPRETG9WY,160821.0,19:18:05.383,L,117.2,RL,445.3,335.9
LIPRETG9WY,160821.0,19:18:06.086,R,93.8,RR,156.3,85.9
LIPRETG9WY,160821.0,19:18:06.391,L,101.6,RL,296.9,203.1
LIPRETG9WY,160821.0,19:18:07.383,L,125.0,RL,265.6,101.6
LIPRETG9WY,160821.0,19:18:16.992,L,234.4,LL,289.1,179.7
LIPRETG9WY,160821.0,19:18:17.242,R,85.9,LR,398.4,164.1
LIPRETG9WY,160821.0,19:18:17.609,L,148.4,RL,304.7,218.8
LIPRETG9WY,160821.0,19:18:17.719,L,85.9,LL,171.9,23.4
LIPRETG9WY,160821.0,19:18:17.883,S,85.9,LS,164.1,78.1
LIPRETG9WY,160821.0,19:18:18.359,L,164.1,SL,398.4,312.5
LIPRETG9WY,160821.0,19:18:18.555,R,132.8,LR,226.6,62.5
LIPRETG9WY,160821.0,19:18:18.758,R,109.4,RR,226.6,93.8
LIPRETG9WY,160821.0,19:18:19.023,L,62.5,RL,312.5,203.1
LIPRETG9WY,160821.0,19:18:19.539,R,93.8,LR,484.4,421.9
LIPRETG9WY,160821.0,19:18:19.961,S,93.8,RS,421.9,328.1
LIPRETG9WY,160821.0,19:18:25.242,L,70.3,RL,265.6,187.5
LIPRETG9WY,160821.0,19:18:27.617,R,78.1,RR,242.2,140.6
LIPRETG9WY,160821.0,19:18:27.828,S,78.1,RS,210.9,132.8
LIPRETG9WY,160821.0,19:18:28.117,L,70.3,SL,296.9,218.8
LIPRETG9WY,160821.0,19:18:29.578,L,125.0,RL,273.4,179.7
LIPRETG9WY,160821.0,19:18:29.945,L,85.9,LL,406.3,281.3
LIPRETG9WY,160821.0,19:18:30.906,L,195.3,RL,234.4,70.3
LIPRETG9WY,160821.0,19:18:31.086,R,148.4,LR,226.6,31.3
LIPRETG9WY,160821.0,19:18:31.984,S,125.0,LS,367.2,265.6
LIPRETG9WY,160822.0,06:22:38.158,R,152.3,RR,224.6,68.4
LIPRETG9WY,160822.0,06:22:38.348,R,99.6,RR,242.2,89.8
LIPRETG9WY,160822.0,06:22:42.455,L,166.0,RL,488.3,306.6
LIPRETG9WY,160822.0,12:09:42.422,L,78.1,LL,378.9,308.6
LIPRETG9WY,160822.0,12:17:22.801,L,89.8,LL,441.4,320.3
LIPRETG9WY,160822.0,12:17:32.273,L,54.7,LL,347.7,214.8
LIPRETG9WY,160822.0,12:17:44.453,R,54.7,RR,437.5,320.3
LIPRETG9WY,160822.0,12:23:15.480,S,128.9,RS,359.4,238.3
LIPRETG9WY,160822.0,12:23:17.992,L,82.0,LL,468.8,390.6
LIPRETG9WY,160822.0,12:23:19.141,L,70.3,LL,460.9,320.3
LIPRETG9WY,160822.0,12:24:04.207,S,351.6,RS,296.9,195.3
LIPRETG9WY,160822.0,12:24:08.562,L,74.2,LL,406.3,312.5
LIPRETG9WY,160822.0,12:24:20.566,L,31.3,LL,93.8,23.4
LIPRETG9WY,160822.0,12:24:21.637,L,105.5,LL,492.2,406.3
LIPRETG9WY,160822.0,12:24:37.547,R,117.2,RR,414.1,312.5
LIPRETG9WY,160822.0,12:24:40.027,R,93.8,RR,54.7,19.5
LIPRETG9WY,160822.0,12:32:16.977,L,85.9,LL,488.3,402.3
LIPRETG9WY,160822.0,12:32:41.504,R,97.7,RR,445.3,367.2
LIPRETG9WY,160822.0,12:33:00.488,S,132.8,LS,406.3,335.9
LIPRETG9WY,160822.0,12:48:20.895,S,109.4,RS,492.2,394.5
LIPRETG9WY,160822.0,12:48:31.812,L,125.0,LL,277.3,136.7
LIPRETG9WY,160822.0,12:49:17.492,L,66.4,LL,371.1,265.6
LIPRETG9WY,160822.0,12:49:33.133,R,85.9,RR,457.0,367.2
LIPRETG9WY,160822.0,18:05:09.848,L,70.3,LL,328.1,265.6
LIPRETG9WY,160822.0,18:05:19.098,L,148.4,LL,121.1,85.9
LIPRETG9WY,160822.0,18:05:19.352,L,82.0,LL,320.3,171.9
LIPRETG9WY,160822.0,18:05:33.176,L,62.5,LL,289.1,187.5
LIPRETG9WY,160822.0,18:05:33.469,L,74.2,LL,281.3,218.8
LIPRETG9WY,160822.0,18:05:47.121,R,164.1,LR,226.6,74.2
LIPRETG9WY,160822.0,18:05:47.590,L,136.7,RL,496.1,332.0
LIPRETG9WY,160822.0,18:05:47.773,L,97.7,LL,222.7,85.9
LIPRETG9WY,160822.0,18:05:48.172,L,101.6,LL,394.5,296.9
LIPRETG9WY,160822.0,18:05:48.305,L,70.3,LL,164.1,62.5
LIPRETG9WY,160822.0,18:05:48.812,R,93.8,LR,484.4,414.1
LIPRETG9WY,160822.0,18:05:49.273,L,140.6,RL,414.1,320.3
LIPRETG9WY,160822.0,18:05:49.426,L,97.7,LL,195.3,54.7
LIPRETG9WY,160822.0,18:05:49.883,S,125.0,LS,429.7,332.0
LIPRETG9WY,160822.0,18:05:52.852,R,97.7,LR,261.7,125.0
LIPRETG9WY,160822.0,18:05:53.129,L,121.1,RL,253.9,156.3
LIPRETG9WY,160822.0,18:05:53.426,L,62.5,LL,355.5,234.4
LIPRETG9WY,160822.0,18:05:53.895,L,144.5,LL,386.7,324.2
LIPRETG9WY,160822.0,18:05:54.172,L,144.5,LL,277.3,132.8
LIPRETG9WY,160822.0,18:06:24.363,L,109.4,RL,285.2,132.8
LIPRETG9WY,160822.0,18:06:24.664,R,58.6,LR,351.6,242.2
LIPRETG9WY,160822.0,18:06:24.941,L,97.7,RL,238.3,179.7
LIPRETG9WY,160822.0,18:06:25.195,R,74.2,LR,277.3,179.7
LIPRETG9WY,160822.0,18:06:29.559,L,78.1,RL,214.8,93.8
LIPRETG9WY,160822.0,18:06:29.781,R,78.1,LR,222.7,144.5
LIPRETG9WY,160822.0,18:06:30.508,R,109.4,RR,187.5,93.8
LIPRETG9WY,160822.0,18:06:30.926,R,128.9,RR,398.4,289.1
LIPRETG9WY,160822.0,18:06:31.227,L,93.8,RL,335.9,207.0
LIPRETG9WY,160822.0,18:06:31.469,R,117.2,LR,218.8,125.0
LIPRETG9WY,160822.0,18:06:31.672,R,70.3,RR,250.0,132.8
LIPRETG9WY,160822.0,18:06:36.031,L,97.7,LL,265.6,164.1
LIPRETG9WY,160822.0,18:09:05.473,L,101.6,RL,308.6,175.8
LIPRETG9WY,160822.0,18:09:05.668,R,136.7,LR,160.2,58.6
LIPRETG9WY,160822.0,18:09:06.031,L,89.8,RL,410.2,273.4
LIPRETG9WY,160822.0,18:09:06.371,L,132.8,LL,296.9,207.0
LIPRETG9WY,160822.0,18:09:06.672,R,152.3,LR,281.3,148.4
LIPRETG9WY,160822.0,18:09:07.043,L,156.3,RL,367.2,214.8
LIPRETG9WY,160822.0,18:09:07.234,L,105.5,LL,242.2,85.9
LIPRETG9WY,160822.0,18:09:07.586,S,109.4,LS,339.8,234.4
LIPRETG9WY,160822.0,18:09:09.832,R,113.3,LR,214.8,43.0
LIPRETG9WY,160822.0,18:09:10.199,L,132.8,RL,347.7,234.4
LIPRETG9WY,160822.0,18:09:10.375,L,93.8,LL,214.8,82.0
LIPRETG9WY,160822.0,18:09:10.586,L,78.1,LL,226.6,132.8
LIPRETG9WY,160822.0,18:09:10.922,L,136.7,LL,277.3,199.2
LIPRETG9WY,160822.0,18:09:11.191,L,113.3,LL,293.0,156.3
LIPRETG9WY,160822.0,18:09:11.371,L,93.8,LL,199.2,85.9
LIPRETG9WY,160822.0,18:09:13.469,R,113.3,SR,378.9,246.1
LIPRETG9WY,160822.0,18:09:13.922,L,89.8,RL,476.6,363.3
LIPRETG9WY,160822.0,18:09:14.109,L,70.3,LL,207.0,117.2
LIPRETG9WY,160822.0,18:09:14.254,R,136.7,LR,78.1,7.8
LIPRETG9WY,160822.0,18:09:14.605,L,93.8,RL,394.5,257.8
LIPRETG9WY,160822.0,18:09:14.770,L,82.0,LL,175.8,82.0
LIPRETG9WY,160822.0,18:10:45.203,L,89.8,LL,277.3,187.5
LIPRETG9WY,160822.0,18:10:45.480,L,74.2,LL,293.0,203.1
LIPRETG9WY,160822.0,18:10:47.699,L,89.8,LL,246.1,121.1
LIPRETG9WY,160822.0,18:10:47.871,L,74.2,LL,187.5,97.7
LIPRETG9WY,160822.0,18:10:48.695,L,66.4,RL,296.9,203.1
LIPRETG9WY,160822.0,18:10:49.059,L,125.0,LL,304.7,238.3
LIPRETG9WY,160822.0,18:10:49.184,L,46.9,LL,203.1,78.1
LIPRETG9WY,160822.0,18:10:49.516,L,43.0,LL,156.3,289.1
LIPRETG9WY,160822.0,18:10:49.605,L,132.8,LL,156.3,289.1
LIPRETG9WY,160822.0,18:22:11.383,L,156.3,RL,281.3,101.6
LIPRETG9WY,160822.0,18:22:11.797,R,171.9,LR,398.4,242.2
LIPRETG9WY,160822.0,18:22:17.000,L,39.1,RL,203.1,101.6
LIPRETG9WY,160822.0,18:22:17.188,R,62.5,LR,164.1,125.0
LIPRETG9WY,160822.0,18:22:17.938,R,117.2,RR,179.7,109.4
LIPRETG9WY,160822.0,18:22:18.992,L,117.2,RL,398.4,273.4
LIPRETG9WY,160822.0,18:22:19.164,R,140.6,LR,148.4,31.3
LIPRETG9WY,160822.0,18:22:19.414,R,109.4,RR,281.3,140.6
LIPRETG9WY,160822.0,18:22:23.602,L,78.1,RL,414.1,257.8
LIPRETG9WY,160822.0,18:22:23.953,L,109.4,LL,320.3,242.2
LIPRETG9WY,160822.0,18:23:32.031,R,101.6,LR,195.3,62.5
LIPRETG9WY,160822.0,18:23:33.977,S,117.2,LS,406.3,281.3
LIPRETG9WY,160822.0,18:23:38.195,L,70.3,RL,429.7,289.1
LIPRETG9WY,160822.0,18:23:38.703,R,93.8,LR,484.4,414.1
LIPRETG9WY,160822.0,18:23:39.180,L,109.4,RL,460.9,367.2
LIPRETG9WY,160822.0,18:23:39.336,L,46.9,LL,218.8,109.4
LIPRETG9WY,160822.0,18:23:39.492,L,101.6,LL,101.6,54.7
LIPRETG9WY,160822.0,18:23:43.875,R,109.4,RR,382.8,257.8
LIPRETG9WY,160822.0,18:23:44.117,L,62.5,RL,289.1,179.7
LIPRETG9WY,160822.0,18:23:44.375,R,85.9,LR,234.4,171.9
LIPRETG9WY,160822.0,18:23:44.727,R,171.9,RR,265.6,179.7
LIPRETG9WY,160822.0,18:23:44.930,L,85.9,RL,289.1,117.2
LIPRETG9WY,160822.0,18:23:45.266,S,132.8,LS,289.1,203.1
LIPRETG9WY,160822.0,18:24:05.430,S,109.4,LS,164.1,78.1
LIPRETG9WY,160822.0,18:24:05.758,L,85.9,SL,351.6,242.2
LIPRETG9WY,160822.0,18:24:05.000,R,101.6,LR,226.6,140.6
LIPRETG9WY,160822.0,18:24:06.109,L,85.9,RL,125.0,23.4
LIPRETG9WY,160822.0,18:24:06.992,L,54.7,LL,250.0,140.6
LIPRETG9WY,160822.0,18:24:09.852,R,187.5,LR,273.4,125.0
LIPRETG9WY,160822.0,18:24:10.844,S,109.4,RS,460.9,359.4
LIPRETG9WY,160822.0,18:24:14.055,R,93.8,RR,429.7,320.3
LIPRETG9WY,160822.0,18:24:14.258,R,70.3,RR,226.6,132.8
LIPRETG9WY,160822.0,18:24:14.547,L,62.5,RL,296.9,226.6
LIPRETG9WY,160822.0,18:24:14.805,R,85.9,LR,234.4,171.9
LIPRETG9WY,160822.0,18:24:15.117,L,70.3,RL,328.1,242.2
LIPRETG9WY,160822.0,18:24:15.312,R,46.9,LR,218.8,148.4
LIPRETG9WY,160822.0,18:24:15.664,L,93.8,RL,304.7,257.8
LIPRETG9WY,160822.0,18:24:15.945,R,117.2,LR,257.8,164.1
LIPRETG9WY,160822.0,18:24:16.320,S,109.4,RS,382.8,265.6
LIPRETG9WY,160822.0,18:24:31.992,L,109.4,SL,265.6,171.9
LIPRETG9WY,160822.0,18:24:37.758,L,101.6,SL,312.5,195.3
LIPRETG9WY,160822.0,18:24:37.977,R,93.8,LR,226.6,125.0
LIPRETG9WY,160822.0,18:24:38.102,L,70.3,RL,148.4,54.7
LIPRETG9WY,160822.0,18:24:38.227,L,54.7,LL,140.6,70.3
LIPRETG9WY,160822.0,18:24:38.508,S,93.8,LS,242.2,187.5
LIPRETG9WY,160822.0,18:24:39.141,L,93.8,LL,210.9,117.2
LIPRETG9WY,160822.0,18:24:40.391,S,39.1,RS,265.6,171.9
LIPRETG9WY,160822.0,18:24:41.086,L,70.3,RL,343.8,250.0
LIPRETG9WY,160822.0,18:24:41.352,R,85.9,LR,250.0,179.7
LIPRETG9WY,160822.0,18:24:42.078,R,109.4,LR,171.9,70.3
LIPRETG9WY,160822.0,18:24:42.484,S,93.8,RS,421.9,312.5
LIPRETG9WY,160822.0,18:24:43.812,R,156.3,LR,375.0,234.4
LIPRETG9WY,160822.0,18:24:44.039,R,117.2,RR,265.6,109.4
LIPRETG9WY,160822.0,18:24:44.336,R,125.0,RR,289.1,171.9
LIPRETG9WY,160822.0,18:24:44.469,L,78.1,RL,179.7,54.7
LIPRETG9WY,160822.0,18:24:44.703,S,70.3,LS,242.2,164.1
LIPRETG9WY,160822.0,18:24:47.000,L,93.8,LL,273.4,195.3
LIPRETG9WY,160822.0,18:24:47.258,R,101.6,LR,250.0,156.3
LIPRETG9WY,160822.0,18:24:47.602,R,93.8,RR,351.6,250.0
LIPRETG9WY,160822.0,18:24:47.805,R,117.2,RR,179.7,85.9
LIPRETG9WY,160822.0,18:24:47.953,L,101.6,RL,164.1,46.9
LIPRETG9WY,160822.0,18:24:48.211,L,109.4,LL,250.0,148.4
LIPRETG9WY,160822.0,18:25:00.227,S,125.0,SS,187.5,93.8
LIPRETG9WY,160822.0,18:25:13.953,L,156.3,LL,257.8,156.3
LIPRETG9WY,160822.0,18:25:14.062,L,85.9,LL,179.7,23.4
LIPRETG9WY,160822.0,18:25:14.234,L,101.6,LL,156.3,70.3
LIPRETG9WY,160822.0,18:25:14.664,S,85.9,LS,445.3,343.8
LIPRETG9WY,160822.0,18:25:15.719,L,39.1,RL,195.3,78.1
LIPRETG9WY,160822.0,18:25:15.914,S,93.8,LS,140.6,101.6
LIPRETG9WY,160822.0,18:25:16.977,R,125.0,LR,179.7,101.6
LIPRETG9WY,160822.0,18:25:19.844,L,109.4,LL,195.3,132.8
LIPRETG9WY,160822.0,18:25:25.492,L,109.4,LL,265.6,171.9
LIPRETG9WY,160822.0,18:25:25.688,R,62.5,LR,242.2,132.8
LIPRETG9WY,160822.0,18:25:25.859,L,78.1,RL,156.3,93.8
LIPRETG9WY,160822.0,18:25:26.117,L,78.1,LL,257.8,179.7
LIPRETG9WY,160822.0,18:25:26.258,R,54.7,LR,164.1,85.9
LIPRETG9WY,160822.0,18:25:26.602,R,148.4,RR,250.0,195.3
LIPRETG9WY,160822.0,18:25:26.664,L,39.1,RL,171.9,23.4
LIPRETG9WY,160822.0,18:25:26.883,S,85.9,LS,171.9,132.8
LIPRETG9WY,160822.0,18:25:27.055,L,78.1,SL,179.7,93.8
LIPRETG9WY,160822.0,18:25:27.391,R,109.4,LR,304.7,226.6
LIPRETG9WY,160822.0,18:25:27.594,L,78.1,RL,234.4,125.0
LIPRETG9WY,160822.0,18:25:27.789,R,132.8,LR,140.6,62.5
LIPRETG9WY,160822.0,18:25:30.516,S,125.0,SS,218.8,85.9
LIPRETG9WY,160822.0,18:25:35.461,L,78.1,SL,250.0,156.3
LIPRETG9WY,160822.0,18:25:35.750,L,70.3,LL,296.9,218.8
LIPRETG9WY,160822.0,18:25:35.992,L,109.4,LL,203.1,132.8
LIPRETG9WY,160822.0,18:25:36.156,R,54.7,LR,218.8,109.4
LIPRETG9WY,160822.0,18:25:36.508,R,125.0,RR,281.3,226.6
LIPRETG9WY,160822.0,18:25:36.609,L,62.5,RL,164.1,39.1
LIPRETG9WY,160822.0,18:25:36.922,S,101.6,LS,273.4,210.9
LIPRETG9WY,160822.0,18:25:38.039,R,109.4,RR,429.7,296.9
LIPRETG9WY,160822.0,18:25:38.438,L,125.0,RL,382.8,273.4
LIPRETG9WY,160822.0,18:25:38.539,L,78.1,LL,148.4,23.4
LIPRETG9WY,160822.0,18:25:38.703,S,70.3,LS,171.9,93.8
LIPRETG9WY,160822.0,18:25:39.492,S,101.6,RS,281.3,203.1
LIPRETG9WY,160822.0,18:25:39.984,L,109.4,SL,484.4,382.8
LIPRETG9WY,160822.0,18:25:40.148,L,78.1,LL,195.3,85.9
LIPRETG9WY,160822.0,18:25:40.258,L,78.1,LL,109.4,31.3
LIPRETG9WY,160822.0,18:25:40.609,S,101.6,LS,328.1,250.0
LIPRETG9WY,160822.0,18:25:40.750,L,70.3,SL,171.9,70.3
LIPRETG9WY,160822.0,18:25:41.086,L,140.6,LL,265.6,195.3
LIPRETG9WY,160822.0,18:25:41.188,R,70.3,LR,171.9,31.3
LIPRETG9WY,160822.0,18:25:41.336,L,85.9,RL,132.8,62.5
LIPRETG9WY,160822.0,18:25:41.531,L,78.1,LL,203.1,117.2
LIPRETG9WY,160822.0,18:25:42.570,R,117.2,RR,492.2,445.3
LIPRETG9WY,160822.0,18:25:42.695,L,70.3,RL,171.9,54.7
LIPRETG9WY,160822.0,18:25:42.945,L,85.9,LL,234.4,164.1
LIPRETG9WY,160822.0,18:25:43.312,S,93.8,LS,359.4,273.4
LIPRETG9WY,160822.0,18:26:21.570,R,117.2,LR,257.8,148.4
LIPRETG9WY,160822.0,18:26:22.094,S,109.4,LS,414.1,335.9
LIPRETG9WY,160822.0,18:26:41.648,R,117.2,LR,320.3,210.9
LIPRETG9WY,160822.0,18:26:41.812,L,93.8,RL,187.5,70.3
LIPRETG9WY,160822.0,18:26:41.914,R,78.1,LR,117.2,23.4
LIPRETG9WY,160822.0,18:26:42.250,S,117.2,RS,296.9,218.8
LIPRETG9WY,160822.0,18:26:42.492,L,85.9,SL,273.4,156.3
LIPRETG9WY,160822.0,18:26:42.758,L,125.0,LL,226.6,140.6
LIPRETG9WY,160822.0,18:26:43.047,R,85.9,LR,328.1,203.1
LIPRETG9WY,160822.0,18:26:43.289,S,85.9,RS,242.2,156.3
LIPRETG9WY,160822.0,18:26:43.562,L,39.1,SL,101.6,234.4
LIPRETG9WY,160822.0,18:26:43.609,L,85.9,LL,101.6,234.4
LIPRETG9WY,160822.0,18:26:44.398,R,132.8,LR,218.8,85.9
LIPRETG9WY,160822.0,18:26:44.586,L,78.1,RL,242.2,109.4
LIPRETG9WY,160822.0,18:26:44.844,L,109.4,LL,226.6,148.4
LIPRETG9WY,160822.0,18:26:44.992,L,78.1,LL,179.7,70.3
LIPRETG9WY,160822.0,18:26:45.320,S,85.9,LS,320.3,242.2
LIPRETG9WY,160822.0,18:26:45.797,R,117.2,SR,445.3,359.4
LIPRETG9WY,160822.0,18:26:46.922,S,93.8,RS,296.9,203.1
LIPRETG9WY,160822.0,18:26:47.250,L,62.5,SL,93.8,265.6
LIPRETG9WY,160822.0,18:26:47.297,L,109.4,LL,93.8,265.6
LIPRETG9WY,160822.0,18:26:47.523,L,78.1,LL,257.8,148.4
LIPRETG9WY,160822.0,18:26:47.742,R,46.9,LR,250.0,171.9
LIPRETG9WY,160822.0,18:26:48.234,L,85.9,RL,453.1,406.3
LIPRETG9WY,160822.0,18:26:48.531,L,93.8,LL,289.1,203.1
LIPRETG9WY,160822.0,18:26:48.742,L,117.2,LL,187.5,93.8
LIPRETG9WY,160822.0,18:26:48.922,S,93.8,LS,203.1,85.9
LIPRETG9WY,160822.0,18:26:49.336,L,39.1,SL,140.6,375.0
LIPRETG9WY,160822.0,18:26:49.422,L,125.0,LL,140.6,375.0
LIPRETG9WY,160822.0,18:26:49.562,R,117.2,LR,148.4,23.4
LIPRETG9WY,160822.0,18:26:49.844,R,117.2,RR,281.3,164.1
LIPRETG9WY,160822.0,18:26:50.250,S,109.4,RS,414.1,296.9
LIPRETG9WY,160822.0,18:26:51.938,L,93.8,LL,187.5,46.9
LIPRETG9WY,160822.0,18:26:53.086,S,109.4,RS,242.2,148.4
LIPRETG9WY,160822.0,18:26:53.734,L,93.8,RL,335.9,234.4
LIPRETG9WY,160822.0,18:26:53.961,R,85.9,LR,234.4,140.6
LIPRETG9WY,160822.0,18:26:54.422,L,101.6,RL,445.3,359.4
LIPRETG9WY,160822.0,18:26:54.648,R,132.8,LR,195.3,93.8
LIPRETG9WY,160822.0,18:26:59.664,R,101.6,LR,179.7,101.6
LIPRETG9WY,160822.0,18:26:59.922,S,93.8,RS,265.6,164.1
LIPRETG9WY,160822.0,18:27:00.227,L,62.5,SL,335.9,242.2
LIPRETG9WY,160822.0,18:27:00.453,R,85.9,LR,203.1,140.6
LIPRETG9WY,160822.0,18:27:00.602,L,7.8,RL,62.5,140.6
LIPRETG9WY,160822.0,18:27:00.672,R,78.1,LR,62.5,140.6
LIPRETG9WY,160822.0,18:27:00.961,S,93.8,RS,273.4,195.3
LIPRETG9WY,160822.0,18:27:01.211,L,70.3,SL,273.4,179.7
LIPRETG9WY,160822.0,18:27:01.461,L,70.3,LL,250.0,179.7
LIPRETG9WY,160822.0,18:27:01.758,R,101.6,LR,265.6,195.3
LIPRETG9WY,160822.0,18:27:02.102,S,101.6,RS,343.8,242.2
LIPRETG9WY,160822.0,18:27:06.062,S,70.3,LS,234.4,117.2
LIPRETG9WY,160822.0,18:27:06.586,R,101.6,SR,492.2,421.9
LIPRETG9WY,160822.0,18:27:06.898,R,85.9,RR,328.1,226.6
LIPRETG9WY,160822.0,18:27:07.203,S,109.4,RS,281.3,195.3
LIPRETG9WY,160822.0,18:27:07.656,R,39.1,SR,132.8,414.1
LIPRETG9WY,160822.0,18:27:07.758,R,140.6,RR,132.8,414.1
LIPRETG9WY,160822.0,18:27:07.945,L,85.9,RL,242.2,101.6
LIPRETG9WY,160822.0,18:27:08.219,L,70.3,LL,289.1,203.1
LIPRETG9WY,160822.0,18:27:09.039,L,62.5,RL,328.1,156.3
LIPRETG9WY,160822.0,18:27:09.227,R,101.6,LR,148.4,85.9
LIPRETG9WY,160822.0,18:27:20.648,R,164.1,LR,265.6,101.6
LIPRETG9WY,160822.0,18:27:20.734,L,78.1,RL,171.9,7.8
LIPRETG9WY,160822.0,18:27:20.914,S,78.1,LS,179.7,101.6
LIPRETG9WY,160822.0,18:27:21.055,L,78.1,SL,140.6,62.5
LIPRETG9WY,160822.0,18:27:21.570,R,140.6,LR,453.1,375.0
LIPRETG9WY,160822.0,18:27:21.938,L,62.5,RL,445.3,304.7
LIPRETG9WY,160822.0,18:27:22.102,L,85.9,LL,140.6,78.1
LIPRETG9WY,160822.0,18:27:22.461,L,70.3,LL,375.0,289.1
LIPRETG9WY,160822.0,18:27:22.641,R,93.8,LR,156.3,85.9
LIPRETG9WY,160822.0,18:27:22.984,L,85.9,RL,351.6,257.8
LIPRETG9WY,160822.0,18:27:23.414,S,85.9,LS,429.7,343.8
LIPRETG9WY,160822.0,18:27:25.586,R,148.4,LR,148.4,31.3
LIPRETG9WY,160822.0,18:27:25.953,R,101.6,RR,414.1,265.6
LIPRETG9WY,160822.0,18:27:26.312,L,78.1,RL,382.8,281.3
LIPRETG9WY,160822.0,18:27:26.758,L,85.9,LL,437.5,359.4
LIPRETG9WY,160822.0,18:27:27.047,R,93.8,LR,281.3,195.3
LIPRETG9WY,160822.0,18:27:27.227,L,78.1,RL,195.3,101.6
LIPRETG9WY,160822.0,18:27:31.547,R,101.6,LR,304.7,187.5
LIPRETG9WY,160822.0,18:27:31.836,L,101.6,RL,289.1,187.5
LIPRETG9WY,160822.0,18:27:41.219,S,109.4,SS,203.1,85.9
LIPRETG9WY,160822.0,18:27:45.680,R,70.3,LR,242.2,156.3
LIPRETG9WY,160822.0,18:27:45.844,L,78.1,RL,156.3,85.9
LIPRETG9WY,160822.0,18:27:46.219,R,93.8,LR,93.8,281.3
LIPRETG9WY,160822.0,18:27:46.258,R,132.8,RR,93.8,281.3
LIPRETG9WY,160822.0,18:27:46.500,S,109.4,RS,265.6,132.8
LIPRETG9WY,160822.0,18:27:46.961,R,218.8,SR,351.6,242.2
LIPRETG9WY,160822.0,18:27:47.203,R,78.1,RR,164.1,164.1
LIPRETG9WY,160822.0,18:27:47.289,R,164.1,RR,164.1,164.1
LIPRETG9WY,160822.0,18:27:50.359,L,70.3,RL,132.8,7.8
LIPRETG9WY,160822.0,18:27:50.594,R,31.3,LR,78.1,203.1
LIPRETG9WY,160822.0,18:27:50.625,L,62.5,RL,78.1,203.1
LIPRETG9WY,160822.0,18:27:50.828,S,70.3,LS,195.3,132.8
LIPRETG9WY,160822.0,18:27:51.195,L,70.3,SL,164.1,296.9
LIPRETG9WY,160822.0,18:27:52.008,R,70.3,RR,281.3,203.1
LIPRETG9WY,160822.0,18:27:52.203,R,109.4,RR,156.3,85.9
LIPRETG9WY,160822.0,18:28:00.078,S,78.1,SS,242.2,156.3
LIPRETG9WY,160822.0,18:34:49.195,L,109.4,LL,281.3,156.3
LIPRETG9WY,160822.0,18:34:49.430,L,101.6,LL,242.2,132.8
LIPRETG9WY,160822.0,18:34:52.461,L,23.4,RL,195.3,375.0
LIPRETG9WY,160822.0,18:34:52.586,L,148.4,LL,195.3,375.0
LIPRETG9WY,160822.0,18:34:52.844,R,117.2,LR,289.1,140.6
LIPRETG9WY,160822.0,18:34:53.094,R,93.8,RR,273.4,156.3
LIPRETG9WY,160822.0,18:34:53.406,L,93.8,RL,312.5,218.8
LIPRETG9WY,160822.0,18:34:54.359,L,93.8,RL,375.0,265.6
LIPRETG9WY,160822.0,18:34:54.539,R,93.8,LR,179.7,85.9
LIPRETG9WY,160822.0,18:34:55.422,L,109.4,RL,226.6,101.6
LIPRETG9WY,160822.0,18:34:55.648,L,93.8,LL,242.2,132.8
LIPRETG9WY,160822.0,18:34:55.859,R,140.6,LR,164.1,70.3
LIPRETG9WY,160822.0,18:35:54.531,R,125.0,LR,359.4,187.5
LIPRETG9WY,160822.0,18:35:54.906,L,70.3,RL,429.7,304.7
LIPRETG9WY,160822.0,18:35:55.062,L,85.9,LL,140.6,70.3
LIPRETG9WY,160822.0,18:35:55.812,R,93.8,LR,164.1,54.7
LIPRETG9WY,160822.0,18:35:56.148,L,125.0,RL,304.7,210.9
LIPRETG9WY,160822.0,18:35:56.586,S,109.4,LS,453.1,328.1
LIPRETG9WY,160822.0,18:35:57.648,L,70.3,LL,289.1,164.1
LIPRETG9WY,160822.0,18:35:57.969,R,132.8,LR,257.8,187.5
LIPRETG9WY,160822.0,18:35:58.242,L,93.8,RL,312.5,179.7
LIPRETG9WY,160822.0,18:35:58.461,L,70.3,LL,242.2,148.4
LIPRETG9WY,160822.0,18:35:58.641,R,109.4,LR,140.6,70.3
LIPRETG9WY,160822.0,18:35:58.922,L,101.6,RL,289.1,179.7
LIPRETG9WY,160822.0,18:35:59.039,L,70.3,LL,148.4,46.9
LIPRETG9WY,160822.0,18:36:28.375,L,117.2,LL,242.2,156.3
LIPRETG9WY,160822.0,18:36:28.633,L,117.2,LL,257.8,140.6
LIPRETG9WY,160822.0,18:36:36.305,L,156.3,LL,257.8,93.8
LIPRETG9WY,160822.0,18:36:38.680,R,117.2,RR,296.9,203.1
LIPRETG9WY,160822.0,18:36:39.008,L,93.8,RL,343.8,226.6
LIPRETG9WY,160822.0,18:37:00.570,R,140.6,RR,265.6,140.6
LIPRETG9WY,160822.0,18:37:01.477,S,125.0,LS,187.5,70.3
LIPRETG9WY,160822.0,18:37:01.898,R,148.4,SR,398.4,273.4
LIPRETG9WY,160822.0,18:37:02.320,R,117.2,RR,453.1,304.7
LIPRETG9WY,160822.0,18:37:04.914,R,164.1,LR,250.0,148.4
LIPRETG9WY,160822.0,18:37:08.336,L,78.1,LL,281.3,187.5
LIPRETG9WY,160822.0,18:37:08.594,R,109.4,LR,226.6,148.4
LIPRETG9WY,160822.0,18:37:08.820,R,109.4,RR,226.6,117.2
LIPRETG9WY,160822.0,18:37:09.102,L,78.1,RL,312.5,203.1
LIPRETG9WY,160822.0,18:37:09.391,S,93.8,LS,273.4,195.3
LIPRETG9WY,160822.0,18:37:10.289,L,93.8,RL,296.9,187.5
LIPRETG9WY,160822.0,18:37:10.492,R,109.4,LR,187.5,93.8
LIPRETG9WY,160822.0,18:37:37.594,R,78.1,LR,132.8,148.4
LIPRETG9WY,160822.0,18:37:37.688,R,171.9,RR,132.8,148.4
LIPRETG9WY,160822.0,18:37:39.125,L,132.8,RL,421.9,304.7
LIPRETG9WY,160822.0,18:37:39.391,L,85.9,LL,312.5,179.7
LIPRETG9WY,160822.0,18:37:39.781,L,70.3,LL,85.9,320.3
LIPRETG9WY,160822.0,18:37:39.836,L,125.0,LL,85.9,320.3
LIPRETG9WY,160822.0,18:37:41.383,L,93.8,RL,382.8,265.6
LIPRETG9WY,160822.0,18:37:41.594,L,101.6,LL,203.1,109.4
LIPRETG9WY,160822.0,18:37:45.906,L,101.6,RL,367.2,257.8
LIPRETG9WY,160822.0,18:37:46.180,R,78.1,LR,296.9,195.3
LIPRETG9WY,160823.0,10:20:59.930,L,70.3,RL,449.2,375.0
LIPRETG9WY,160823.0,10:21:00.309,S,39.1,LS,410.2,339.8
LIPRETG9WY,160823.0,10:21:11.367,S,54.7,RS,273.4,207.0
LIPRETG9WY,160823.0,12:51:26.438,S,156.3,SS,367.2,117.2
LIPRETG9WY,160823.0,12:51:26.652,S,125.0,SS,246.1,89.8
LIPRETG9WY,160823.0,12:51:29.785,L,27.3,LL,19.5,11.7
LIPRETG9WY,160823.0,12:51:29.793,S,35.2,LS,19.5,11.7
