User_ID,Date,Timestamp,Hand,Hold_Time,Direction,Latency_Time,Flight_Time
M6MUS5WY6N,160705.0,21:50:46.625,L,117.2,RL,210.9,93.8
M6MUS5WY6N,160705.0,21:50:46.797,R,85.9,LR,203.1,85.9
M6MUS5WY6N,160705.0,21:50:47.664,R,93.8,RR,210.9,101.6
M6MUS5WY6N,160705.0,21:50:48.078,S,117.2,RS,398.4,304.7
M6MUS5WY6N,160705.0,21:50:48.344,R,101.6,SR,281.3,164.1
M6MUS5WY6N,160705.0,21:50:48.578,L,125.0,RL,210.9,109.4
M6MUS5WY6N,160705.0,21:50:48.742,R,117.2,LR,171.9,46.9
M6MUS5WY6N,160705.0,21:50:49.109,R,148.4,RR,335.9,218.8
M6MUS5WY6N,160705.0,21:52:37.594,L,101.6,LL,335.9,226.6
M6MUS5WY6N,160705.0,21:52:38.758,S,148.4,RS,406.3,304.7
M6MUS5WY6N,160705.0,21:52:42.180,L,117.2,RL,265.6,148.4
M6MUS5WY6N,160705.0,21:52:42.586,L,109.4,LL,414.1,296.9
M6MUS5WY6N,160705.0,21:52:43.648,R,101.6,RR,320.3,203.1
M6MUS5WY6N,160705.0,21:52:43.961,R,101.6,RR,312.5,210.9
M6MUS5WY6N,160705.0,21:52:44.227,L,132.8,RL,234.4,132.8
M6MUS5WY6N,160705.0,21:52:44.344,R,101.6,LR,148.4,15.6
M6MUS5WY6N,160705.0,21:52:44.773,R,101.6,RR,429.7,328.1
M6MUS5WY6N,160705.0,21:52:45.109,L,125.0,RL,312.5,210.9
M6MUS5WY6N,160705.0,21:52:45.523,S,132.8,LS,406.3,281.3
M6MUS5WY6N,160705.0,21:52:55.289,R,93.8,LR,218.8,85.9
M6MUS5WY6N,160705.0,21:52:55.594,L,132.8,RL,265.6,171.9
M6MUS5WY6N,160705.0,21:52:56.039,L,148.4,LL,429.7,296.9
M6MUS5WY6N,160705.0,21:52:56.516,L,156.3,LL,468.8,320.3
M6MUS5WY6N,160705.0,21:52:56.844,L,156.3,LL,328.1,171.9
M6MUS5WY6N,160705.0,21:52:57.188,L,125.0,LL,375.0,218.8
M6MUS5WY6N,160705.0,22:17:25.672,R,85.9,LR,382.8,250.0
M6MUS5WY6N,160705.0,22:17:27.391,R,125.0,LR,445.3,265.6
M6MUS5WY6N,160705.0,22:17:27.828,R,132.8,RR,429.7,304.7
M6MUS5WY6N,160705.0,22:17:29.297,L,117.2,LL,351.6,234.4
M6MUS5WY6N,160705.0,22:17:30.828,R,148.4,RR,484.4,367.2
M6MUS5WY6N,160705.0,22:17:31.250,L,140.6,RL,429.7,281.3
M6MUS5WY6N,160705.0,22:17:41.859,S,117.2,SS,281.3,101.6
M6MUS5WY6N,160705.0,22:17:42.055,S,117.2,SS,195.3,78.1
M6MUS5WY6N,160705.0,22:17:42.289,S,164.1,SS,187.5,70.3
M6MUS5WY6N,160705.0,22:17:59.766,L,109.4,LL,351.6,257.8
M6MUS5WY6N,160705.0,22:18:00.961,L,101.6,RL,421.9,312.5
M6MUS5WY6N,160705.0,22:18:01.227,L,132.8,LL,234.4,132.8
M6MUS5WY6N,160705.0,22:18:03.516,R,109.4,LR,195.3,46.9
M6MUS5WY6N,160705.0,22:18:04.047,L,148.4,RL,492.2,382.8
M6MUS5WY6N,160705.0,22:18:04.250,L,109.4,LL,242.2,93.8
M6MUS5WY6N,160705.0,22:18:06.734,R,117.2,LR,437.5,320.3
M6MUS5WY6N,160705.0,22:18:07.164,S,93.8,RS,453.1,335.9
M6MUS5WY6N,160705.0,22:18:07.609,R,101.6,SR,437.5,343.8
M6MUS5WY6N,160705.0,22:18:09.352,S,109.4,LS,390.6,265.6
M6MUS5WY6N,160705.0,22:18:10.672,L,125.0,LL,328.1,203.1
M6MUS5WY6N,160705.0,22:18:11.195,L,156.3,LL,492.2,367.2
M6MUS5WY6N,160705.0,22:18:11.422,R,85.9,LR,296.9,140.6
M6MUS5WY6N,160705.0,22:18:15.188,R,101.6,RR,460.9,343.8
M6MUS5WY6N,160705.0,22:18:15.539,S,125.0,RS,335.9,234.4
M6MUS5WY6N,160705.0,22:18:15.914,L,125.0,SL,375.0,250.0
M6MUS5WY6N,160705.0,22:18:16.227,L,93.8,LL,343.8,218.8
M6MUS5WY6N,160705.0,22:18:18.031,S,109.4,LS,382.8,289.1
M6MUS5WY6N,160705.0,22:18:19.164,R,109.4,RR,406.3,304.7
M6MUS5WY6N,160705.0,22:18:19.578,L,117.2,RL,406.3,296.9
M6MUS5WY6N,160705.0,22:18:19.828,R,101.6,LR,265.6,148.4
M6MUS5WY6N,160705.0,22:18:20.141,L,117.2,RL,296.9,195.3
M6MUS5WY6N,160705.0,22:18:20.625,L,179.7,LL,421.9,304.7
M6MUS5WY6N,160705.0,22:18:21.586,S,140.6,LS,468.8,312.5
M6MUS5WY6N,160705.0,22:18:24.352,L,117.2,LL,406.3,250.0
M6MUS5WY6N,160705.0,22:18:25.344,R,85.9,RR,328.1,210.9
M6MUS5WY6N,160705.0,22:18:25.695,R,117.2,RR,320.3,234.4
M6MUS5WY6N,160705.0,22:18:26.117,L,148.4,RL,390.6,273.4
M6MUS5WY6N,160705.0,22:18:27.102,R,109.4,RR,335.9,242.2
