User_ID,Date,Timestamp,Hand,Hold_Time,Direction,Latency_Time,Flight_Time
MNMBCKNAAS,170129.0,23:20:15.141,R,125.0,LR,445.3,273.4
MNMBCKNAAS,170129.0,23:20:25.609,R,156.3,LR,328.1,187.5
MNMBCKNAAS,170129.0,23:20:26.156,L,164.1,RL,539.1,382.8
MNMBCKNAAS,170129.0,23:20:37.438,R,140.6,RR,343.8,203.1
MNMBCKNAAS,170129.0,23:20:37.789,L,156.3,RL,335.9,195.3
MNMBCKNAAS,170129.0,23:20:40.383,L,210.9,LL,375.0,171.9
MNMBCKNAAS,170129.0,23:20:40.664,R,140.6,LR,351.6,140.6
MNMBCKNAAS,170129.0,23:20:40.961,L,171.9,RL,265.6,125.0
MNMBCKNAAS,170129.0,23:20:43.242,L,140.6,RL,500.0,390.6
MNMBCKNAAS,170129.0,23:20:43.461,R,101.6,LR,257.8,117.2
MNMBCKNAAS,170129.0,23:20:43.789,R,109.4,RR,320.3,218.8
MNMBCKNAAS,170129.0,23:21:01.656,R,132.8,LR,601.6,429.7
MNMBCKNAAS,170129.0,23:21:32.797,R,140.6,LR,304.7,156.3
MNMBCKNAAS,170129.0,23:21:33.312,L,156.3,RL,500.0,359.4
MNMBCKNAAS,170129.0,23:21:33.930,L,132.8,LL,640.6,484.4
MNMBCKNAAS,170129.0,23:59:41.594,L,218.8,LL,585.9,414.1
MNMBCKNAAS,170129.0,23:59:41.938,L,234.4,LL,328.1,109.4
MNMBCKNAAS,170130.0,00:25:20.708,L,144.0,RL,279.9,136.0
MNMBCKNAAS,170130.0,00:25:21.244,R,128.1,LR,552.0,408.0
MNMBCKNAAS,170130.0,00:25:22.068,R,160.0,RR,792.0,663.9
MNMBCKNAAS,170130.0,00:25:22.292,R,104.0,RR,280.0,120.0
MNMBCKNAAS,170130.0,00:25:23.540,L,192.0,RL,208.0,80.1
MNMBCKNAAS,170130.0,00:25:23.828,R,192.0,LR,288.0,95.9
MNMBCKNAAS,170130.0,00:31:56.009,L,168.1,RL,272.0,152.0
MNMBCKNAAS,170130.0,00:31:56.321,R,136.0,LR,343.0,174.9
MNMBCKNAAS,170130.0,00:31:56.697,R,128.1,RR,385.0,249.0
MNMBCKNAAS,170130.0,00:31:57.049,L,200.0,RL,279.1,151.0
MNMBCKNAAS,170130.0,00:31:57.416,L,192.0,LL,376.0,176.0
MNMBCKNAAS,170130.0,00:32:13.800,L,168.1,LL,688.0,448.0
MNMBCKNAAS,170130.0,00:32:14.056,L,152.0,LL,272.1,104.0
MNMBCKNAAS,170130.0,00:32:14.456,R,152.1,LR,399.9,247.9
MNMBCKNAAS,170130.0,00:32:15.048,R,200.0,RR,544.1,392.0
MNMBCKNAAS,170130.0,00:32:15.528,L,215.9,RL,464.0,264.0
MNMBCKNAAS,170130.0,00:32:15.776,R,104.0,LR,360.0,144.0
MNMBCKNAAS,170130.0,00:32:34.369,L,160.0,RL,256.0,127.9
MNMBCKNAAS,170130.0,00:32:34.649,R,120.0,LR,320.1,160.0
MNMBCKNAAS,170130.0,00:32:37.153,R,127.9,LR,720.0,520.0
MNMBCKNAAS,170130.0,00:32:37.697,S,144.0,RS,528.0,400.0
MNMBCKNAAS,170130.0,00:32:45.992,L,175.9,LL,520.0,328.0
MNMBCKNAAS,170130.0,00:32:47.112,R,128.1,LR,304.0,72.0
MNMBCKNAAS,170130.0,00:32:47.776,L,208.0,RL,584.0,455.9
MNMBCKNAAS,170130.0,00:32:48.040,R,152.1,LR,319.9,111.9
MNMBCKNAAS,170130.0,00:32:49.360,R,95.9,RR,256.0,152.0
MNMBCKNAAS,170130.0,00:32:49.728,L,176.0,RL,288.0,192.0
MNMBCKNAAS,170130.0,00:34:36.263,R,159.9,RR,448.0,231.9
MNMBCKNAAS,170130.0,00:34:36.912,R,160.2,RR,648.9,489.0
MNMBCKNAAS,170130.0,00:35:00.424,R,168.0,RR,488.0,344.0
MNMBCKNAAS,170130.0,00:35:01.000,L,168.0,RL,575.9,408.0
MNMBCKNAAS,170130.0,00:35:01.296,R,143.8,LR,320.1,152.1
MNMBCKNAAS,170130.0,00:35:01.592,R,112.1,RR,327.9,184.1
MNMBCKNAAS,170130.0,00:35:02.016,L,176.0,RL,360.1,248.0
MNMBCKNAAS,170130.0,00:35:02.384,L,175.0,LL,367.9,191.9
MNMBCKNAAS,170130.0,00:35:03.888,L,190.9,RL,529.1,353.0
MNMBCKNAAS,170130.0,00:35:04.288,L,184.1,LL,407.0,216.1
MNMBCKNAAS,170130.0,00:35:04.703,L,136.0,LL,463.9,279.8
MNMBCKNAAS,170130.0,00:35:04.935,L,128.2,LL,240.0,104.0
MNMBCKNAAS,170130.0,00:35:05.287,R,152.1,LR,328.1,200.0
MNMBCKNAAS,170130.0,00:35:06.095,R,176.0,RR,783.9,631.8
MNMBCKNAAS,170130.0,00:35:06.423,L,192.1,RL,312.0,136.0
MNMBCKNAAS,170130.0,00:35:06.687,R,104.0,LR,352.1,159.9
MNMBCKNAAS,170130.0,00:35:11.608,L,176.0,RL,216.8,64.0
MNMBCKNAAS,170130.0,00:35:11.968,R,127.9,LR,408.2,232.2
MNMBCKNAAS,170130.0,00:35:12.984,R,71.8,RR,264.2,168.2
MNMBCKNAAS,170130.0,00:35:13.832,R,136.0,RR,783.9,712.2
MNMBCKNAAS,170130.0,00:35:15.344,R,144.0,LR,359.9,168.0
MNMBCKNAAS,170130.0,00:35:15.720,R,127.9,RR,392.1,248.0
MNMBCKNAAS,170130.0,00:35:44.239,L,208.0,LL,344.0,152.1
MNMBCKNAAS,170130.0,00:35:46.912,L,232.2,RL,223.9,95.9
MNMBCKNAAS,170130.0,00:35:47.136,R,136.0,LR,320.1,87.9
MNMBCKNAAS,170130.0,00:43:35.180,R,159.9,RR,607.9,471.9
MNMBCKNAAS,170130.0,00:43:35.908,L,231.9,RL,656.0,496.1
MNMBCKNAAS,170130.0,00:43:36.172,R,110.8,LR,384.0,152.1
MNMBCKNAAS,170130.0,00:48:55.282,L,176.0,RL,503.9,352.1
MNMBCKNAAS,170130.0,00:48:56.394,R,88.1,RR,247.8,151.9
MNMBCKNAAS,170130.0,00:48:56.786,R,151.9,RR,328.1,240.0
MNMBCKNAAS,170130.0,00:48:57.386,L,152.1,RL,599.9,448.0
MNMBCKNAAS,170130.0,00:48:59.306,L,176.0,SL,383.8,240.0
MNMBCKNAAS,170130.0,00:48:59.594,R,119.9,LR,344.2,168.2
MNMBCKNAAS,170130.0,00:48:59.922,R,120.1,RR,327.9,208.0
MNMBCKNAAS,170130.0,00:49:00.146,L,144.0,RL,200.0,79.8
MNMBCKNAAS,170130.0,00:50:40.193,R,104.0,LR,736.1,592.0
MNMBCKNAAS,170130.0,00:50:40.393,R,72.0,RR,231.9,127.9
MNMBCKNAAS,170130.0,00:50:40.761,R,152.1,RR,287.8,215.8
MNMBCKNAAS,170130.0,01:07:29.777,L,160.2,RL,287.8,151.9
MNMBCKNAAS,170130.0,16:55:40.215,L,160.2,LL,710.9,503.9
MNMBCKNAAS,170130.0,16:55:40.617,L,175.8,LL,386.7,226.6
MNMBCKNAAS,170130.0,16:55:44.320,R,160.2,RR,437.5,277.3
MNMBCKNAAS,170130.0,16:55:44.746,L,168.0,RL,418.0,257.8
MNMBCKNAAS,170130.0,16:55:45.051,L,121.1,LL,351.6,183.6
MNMBCKNAAS,170130.0,16:55:46.434,S,113.3,RS,320.3,191.4
MNMBCKNAAS,170130.0,16:55:48.305,R,136.7,LR,285.2,152.3
MNMBCKNAAS,170130.0,16:55:48.922,L,160.2,RL,593.8,457.0
MNMBCKNAAS,170130.0,16:55:50.191,L,207.0,RL,421.9,289.1
MNMBCKNAAS,170130.0,16:56:05.152,L,128.9,RL,261.7,117.2
MNMBCKNAAS,170130.0,16:56:05.746,L,152.3,LL,570.3,441.4
MNMBCKNAAS,170130.0,16:56:06.090,R,160.2,LR,335.9,183.6
MNMBCKNAAS,170130.0,16:56:06.441,L,175.8,RL,335.9,175.8
MNMBCKNAAS,170130.0,16:56:09.160,R,105.5,RR,312.5,183.6
MNMBCKNAAS,170130.0,16:56:09.504,S,97.7,RS,351.6,246.1
MNMBCKNAAS,170130.0,16:56:13.473,R,89.8,RR,390.6,238.3
MNMBCKNAAS,170130.0,16:56:14.000,L,136.7,RL,480.5,390.6
MNMBCKNAAS,170130.0,16:56:14.281,R,144.5,LR,273.4,136.7
MNMBCKNAAS,170130.0,16:56:14.664,L,168.0,RL,359.4,214.8
MNMBCKNAAS,170130.0,16:56:16.863,S,136.7,LS,414.1,300.8
MNMBCKNAAS,170130.0,17:03:34.902,L,144.5,RL,730.5,609.4
MNMBCKNAAS,170130.0,17:03:35.164,R,144.5,LR,261.7,117.2
MNMBCKNAAS,170130.0,17:03:35.559,L,144.5,RL,394.5,250.0
MNMBCKNAAS,170130.0,17:03:48.676,S,175.8,LS,421.9,312.5
MNMBCKNAAS,170130.0,17:04:07.078,L,160.2,RL,496.1,367.2
MNMBCKNAAS,170130.0,17:04:07.523,L,160.2,LL,445.3,285.2
MNMBCKNAAS,170130.0,17:04:08.316,R,168.0,LR,785.2,625.0
MNMBCKNAAS,170130.0,17:04:08.797,L,257.8,RL,390.6,222.7
MNMBCKNAAS,170130.0,17:04:09.430,L,218.8,LL,671.9,414.1
MNMBCKNAAS,170130.0,17:04:09.758,R,179.7,LR,367.2,148.4
MNMBCKNAAS,170130.0,17:04:10.047,L,168.0,RL,296.9,117.2
MNMBCKNAAS,170130.0,17:04:51.262,R,144.5,RR,457.0,312.5
MNMBCKNAAS,170130.0,17:04:52.621,R,160.2,LR,359.4,175.8
MNMBCKNAAS,170130.0,17:04:53.133,L,175.8,RL,496.1,335.9
MNMBCKNAAS,170130.0,17:05:00.020,L,144.5,LL,261.7,136.7
MNMBCKNAAS,170130.0,17:05:02.422,S,152.3,RS,503.9,371.1
MNMBCKNAAS,170130.0,17:05:02.828,R,144.5,SR,414.1,261.7
MNMBCKNAAS,170130.0,17:05:03.203,R,140.6,RR,378.9,234.4
MNMBCKNAAS,170130.0,17:05:03.719,L,187.5,RL,468.8,328.1
MNMBCKNAAS,170130.0,17:05:04.086,L,121.1,LL,433.6,246.1
MNMBCKNAAS,170130.0,17:05:05.637,S,85.9,RS,457.0,328.1
MNMBCKNAAS,170130.0,17:05:08.980,L,144.5,SL,238.3,664.1
MNMBCKNAAS,170130.0,17:05:10.277,L,121.1,RL,488.3,320.3
MNMBCKNAAS,170130.0,17:05:10.652,R,113.3,LR,382.8,261.7
MNMBCKNAAS,170130.0,17:05:12.055,L,101.6,LL,312.5,160.2
MNMBCKNAAS,170130.0,17:05:16.156,L,152.3,RL,441.4,296.9
MNMBCKNAAS,170130.0,17:05:16.707,L,144.5,LL,558.6,406.3
MNMBCKNAAS,170130.0,17:05:17.027,R,136.7,LR,328.1,183.6
MNMBCKNAAS,170130.0,17:05:17.324,L,160.2,RL,273.4,136.7
MNMBCKNAAS,170130.0,17:09:15.074,R,136.7,LR,476.6,293.0
MNMBCKNAAS,170130.0,17:09:15.859,L,207.0,RL,714.8,578.1
MNMBCKNAAS,170130.0,17:09:16.242,L,160.2,LL,429.7,222.7
MNMBCKNAAS,170130.0,17:09:16.602,R,160.2,LR,359.4,199.2
MNMBCKNAAS,170130.0,17:09:16.938,L,175.8,RL,320.3,160.2
MNMBCKNAAS,170130.0,17:14:33.848,R,144.5,RR,367.2,214.8
MNMBCKNAAS,170130.0,17:14:34.633,L,226.6,RL,703.1,558.6
MNMBCKNAAS,170130.0,17:14:34.848,R,136.7,LR,304.7,78.1
MNMBCKNAAS,170130.0,17:14:35.520,L,113.3,RL,695.3,558.6
MNMBCKNAAS,170130.0,17:14:48.566,L,117.2,RL,472.7,312.5
MNMBCKNAAS,170130.0,17:14:53.320,L,203.1,RL,316.4,187.5
MNMBCKNAAS,170130.0,17:14:53.703,L,152.3,LL,433.6,230.5
MNMBCKNAAS,170130.0,17:14:57.672,L,152.3,RL,617.2,472.7
MNMBCKNAAS,170130.0,17:14:57.984,L,128.9,LL,335.9,183.6
MNMBCKNAAS,170130.0,17:21:43.504,L,168.0,LL,425.8,218.8
MNMBCKNAAS,170130.0,17:21:45.566,L,175.8,RL,335.9,144.5
MNMBCKNAAS,170130.0,17:21:46.148,L,175.8,LL,582.0,406.3
MNMBCKNAAS,170130.0,17:21:46.734,R,160.2,LR,601.6,425.8
MNMBCKNAAS,170130.0,17:22:19.141,L,144.5,LL,285.2,62.5
MNMBCKNAAS,170130.0,17:22:21.164,S,152.3,RS,472.7,351.6
MNMBCKNAAS,170130.0,17:22:30.238,S,152.3,RS,281.3,160.2
MNMBCKNAAS,170130.0,17:22:34.332,L,144.5,RL,398.4,269.5
MNMBCKNAAS,170130.0,17:22:35.184,R,62.5,LR,97.7,785.2
MNMBCKNAAS,170130.0,17:22:35.223,R,105.5,RR,97.7,785.2
MNMBCKNAAS,170130.0,17:22:40.613,L,242.2,RL,308.6,168.0
MNMBCKNAAS,170130.0,17:22:40.980,L,136.7,LL,472.7,230.5
MNMBCKNAAS,170130.0,17:22:58.645,L,222.7,RL,335.9,191.4
MNMBCKNAAS,170130.0,17:23:00.789,L,250.0,RL,437.5,269.5
MNMBCKNAAS,170130.0,17:44:19.613,L,175.8,RL,410.2,273.4
MNMBCKNAAS,170130.0,17:44:19.980,R,136.7,LR,406.3,230.5
MNMBCKNAAS,170130.0,17:44:20.270,S,121.1,RS,304.7,168.0
MNMBCKNAAS,170130.0,17:44:21.035,R,109.4,SR,296.9,656.3
MNMBCKNAAS,170130.0,17:44:21.980,L,191.4,RL,351.6,226.6
MNMBCKNAAS,170130.0,17:44:22.379,S,152.3,LS,437.5,246.1
MNMBCKNAAS,170130.0,17:44:25.195,R,183.6,SR,281.3,433.6
MNMBCKNAAS,170130.0,17:44:27.211,R,160.2,LR,293.0,109.4
MNMBCKNAAS,170130.0,17:44:27.668,R,136.7,RR,480.5,320.3
MNMBCKNAAS,170130.0,17:44:28.043,S,136.7,RS,375.0,238.3
MNMBCKNAAS,170130.0,17:44:28.773,R,128.9,SR,738.3,601.6
MNMBCKNAAS,170130.0,17:44:30.516,L,152.3,LL,640.6,503.9
MNMBCKNAAS,170130.0,17:44:30.844,R,128.9,LR,351.6,199.2
MNMBCKNAAS,170130.0,17:44:31.379,L,144.5,RL,519.5,390.6
MNMBCKNAAS,170130.0,17:44:31.715,L,144.5,LL,335.9,191.4
MNMBCKNAAS,170130.0,17:44:32.211,L,230.5,LL,410.2,265.6
MNMBCKNAAS,170130.0,17:46:23.441,R,117.2,LR,343.8,183.6
MNMBCKNAAS,170130.0,17:46:23.891,R,121.1,RR,445.3,328.1
MNMBCKNAAS,170130.0,17:46:24.273,S,117.2,RS,386.7,265.6
MNMBCKNAAS,170130.0,17:46:24.930,L,152.3,SL,621.1,503.9
MNMBCKNAAS,170130.0,17:46:25.332,R,160.2,LR,394.5,242.2
MNMBCKNAAS,170130.0,17:46:25.613,L,195.3,RL,246.1,85.9
MNMBCKNAAS,170130.0,17:46:25.875,L,136.7,LL,320.3,125.0
MNMBCKNAAS,170130.0,17:46:26.156,S,128.9,LS,289.1,152.3
MNMBCKNAAS,170130.0,17:46:26.547,L,183.6,SL,335.9,207.0
MNMBCKNAAS,170130.0,17:46:26.891,L,144.5,LL,382.8,199.2
MNMBCKNAAS,170130.0,17:46:27.105,L,93.8,LL,265.6,121.1
MNMBCKNAAS,170130.0,17:46:36.289,R,148.4,SR,722.7,578.1
MNMBCKNAAS,170130.0,17:46:36.578,R,152.3,RR,285.2,136.7
MNMBCKNAAS,170130.0,17:46:36.988,R,183.6,RR,378.9,226.6
MNMBCKNAAS,170130.0,17:46:37.324,L,226.6,RL,293.0,109.4
MNMBCKNAAS,170130.0,17:46:37.637,S,121.1,LS,418.0,191.4
MNMBCKNAAS,170130.0,17:46:39.301,L,226.6,LL,382.8,175.8
MNMBCKNAAS,170130.0,17:46:39.586,L,214.8,LL,296.9,70.3
MNMBCKNAAS,170130.0,17:46:39.930,L,207.0,LL,351.6,136.7
MNMBCKNAAS,170130.0,17:46:40.371,R,128.9,LR,519.5,312.5
MNMBCKNAAS,170130.0,17:46:40.852,L,183.6,RL,425.8,296.9
MNMBCKNAAS,170130.0,17:46:41.332,R,140.6,LR,519.5,335.9
MNMBCKNAAS,170130.0,17:46:41.723,L,207.0,RL,328.1,187.5
MNMBCKNAAS,170130.0,17:46:42.027,R,128.9,LR,382.8,175.8
MNMBCKNAAS,170130.0,17:46:42.363,S,128.9,RS,335.9,207.0
MNMBCKNAAS,170130.0,17:46:43.004,R,144.5,SR,625.0,496.1
MNMBCKNAAS,170130.0,17:46:43.281,L,175.8,RL,246.1,101.6
MNMBCKNAAS,170130.0,17:46:43.617,S,117.2,LS,394.5,218.8
MNMBCKNAAS,170130.0,17:46:44.219,L,183.6,SL,535.2,418.0
MNMBCKNAAS,170130.0,17:46:44.562,L,191.4,LL,335.9,152.3
MNMBCKNAAS,170130.0,17:46:44.996,L,265.6,LL,359.4,168.0
MNMBCKNAAS,170130.0,17:46:45.219,R,144.5,LR,343.8,78.1
MNMBCKNAAS,170130.0,17:46:45.539,R,152.3,RR,312.5,168.0
MNMBCKNAAS,170130.0,17:46:47.066,L,128.9,LL,308.6,132.8
MNMBCKNAAS,170130.0,17:46:47.469,S,128.9,LS,402.3,273.4
MNMBCKNAAS,170130.0,17:46:47.883,L,183.6,SL,359.4,230.5
MNMBCKNAAS,170130.0,17:46:48.059,R,152.3,LR,207.0,23.4
MNMBCKNAAS,170130.0,17:46:48.379,L,238.3,RL,234.4,82.0
MNMBCKNAAS,170130.0,17:46:48.578,L,160.2,LL,277.3,39.1
MNMBCKNAAS,170130.0,17:46:49.965,S,136.7,RS,394.5,281.3
MNMBCKNAAS,170130.0,17:46:50.309,R,121.1,SR,359.4,222.7
MNMBCKNAAS,170130.0,17:46:51.629,L,179.7,RL,308.6,132.8
MNMBCKNAAS,170130.0,17:46:53.730,L,191.4,LL,312.5,168.0
MNMBCKNAAS,170130.0,17:46:54.035,L,207.0,LL,289.1,97.7
MNMBCKNAAS,170130.0,17:46:54.371,L,191.4,LL,351.6,144.5
MNMBCKNAAS,170130.0,17:46:54.930,S,160.2,LS,589.8,398.4
MNMBCKNAAS,170130.0,17:46:55.266,R,132.8,SR,363.3,203.1
MNMBCKNAAS,170130.0,17:46:55.508,L,168.0,RL,207.0,74.2
MNMBCKNAAS,170130.0,17:46:55.777,S,117.2,LS,320.3,152.3
MNMBCKNAAS,170130.0,17:46:57.340,R,136.7,LR,304.7,136.7
MNMBCKNAAS,170130.0,17:46:58.066,R,128.9,RR,734.4,597.7
MNMBCKNAAS,170130.0,17:46:58.305,R,93.8,RR,273.4,144.5
MNMBCKNAAS,170130.0,17:46:58.699,S,136.7,RS,351.6,257.8
MNMBCKNAAS,170130.0,17:46:59.020,L,195.3,SL,261.7,125.0
MNMBCKNAAS,170130.0,17:46:59.250,R,136.7,LR,289.1,93.8
MNMBCKNAAS,170130.0,17:47:00.051,R,168.0,RR,769.5,632.8
MNMBCKNAAS,170130.0,17:47:00.363,L,183.6,RL,296.9,128.9
MNMBCKNAAS,170130.0,17:47:00.730,S,121.1,LS,429.7,246.1
MNMBCKNAAS,170130.0,17:47:01.121,R,132.8,SR,378.9,257.8
MNMBCKNAAS,170130.0,17:47:01.434,R,101.6,RR,343.8,210.9
MNMBCKNAAS,170130.0,17:47:01.988,R,160.2,RR,496.1,394.5
MNMBCKNAAS,170130.0,17:47:02.301,S,97.7,RS,375.0,214.8
MNMBCKNAAS,170130.0,17:47:02.777,L,183.6,SL,390.6,293.0
MNMBCKNAAS,170130.0,17:47:03.035,R,121.1,LR,320.3,136.7
MNMBCKNAAS,170130.0,17:47:03.449,R,117.2,RR,418.0,296.9
MNMBCKNAAS,170130.0,17:47:04.805,R,144.5,SR,425.8,304.7
MNMBCKNAAS,170130.0,17:47:05.172,L,136.7,RL,375.0,230.5
MNMBCKNAAS,170130.0,17:47:05.500,S,144.5,LS,320.3,183.6
MNMBCKNAAS,170130.0,17:47:05.988,L,136.7,SL,496.1,351.6
MNMBCKNAAS,170130.0,17:47:08.531,R,128.9,LR,656.3,550.8
MNMBCKNAAS,170130.0,17:47:08.875,L,144.5,RL,328.1,199.2
MNMBCKNAAS,170130.0,17:47:12.996,R,74.2,RR,285.2,175.8
MNMBCKNAAS,170130.0,17:47:13.227,R,97.7,RR,207.0,132.8
MNMBCKNAAS,170130.0,17:47:16.188,L,160.2,RL,289.1,160.2
MNMBCKNAAS,170130.0,17:47:16.473,R,125.0,LR,320.3,160.2
MNMBCKNAAS,170130.0,17:47:16.777,S,144.5,RS,285.2,160.2
MNMBCKNAAS,170130.0,17:47:17.426,R,144.5,SR,648.4,503.9
MNMBCKNAAS,170130.0,17:47:19.469,R,168.0,RR,234.4,121.1
MNMBCKNAAS,170130.0,17:47:20.051,S,128.9,RS,621.1,453.1
MNMBCKNAAS,170130.0,17:47:26.723,R,160.2,RR,351.6,214.8
MNMBCKNAAS,170130.0,17:47:30.449,R,144.5,LR,414.1,214.8
MNMBCKNAAS,170130.0,17:47:31.027,S,128.9,RS,593.8,449.2
MNMBCKNAAS,170130.0,17:47:36.449,L,160.2,RL,277.3,125.0
MNMBCKNAAS,170130.0,17:47:36.828,S,128.9,LS,410.2,250.0
MNMBCKNAAS,170130.0,17:47:37.547,R,152.3,SR,695.3,566.4
MNMBCKNAAS,170130.0,17:47:37.930,L,175.8,RL,359.4,207.0
MNMBCKNAAS,170130.0,17:47:38.227,S,121.1,LS,351.6,175.8
MNMBCKNAAS,170130.0,17:47:38.812,R,160.2,SR,546.9,425.8
MNMBCKNAAS,170130.0,17:47:39.066,R,183.6,RR,230.5,70.3
MNMBCKNAAS,170130.0,17:47:39.355,R,121.1,RR,351.6,168.0
MNMBCKNAAS,170130.0,17:47:39.805,S,105.5,RS,464.8,343.8
MNMBCKNAAS,170130.0,17:47:43.281,R,132.8,LR,296.9,160.2
MNMBCKNAAS,170130.0,17:47:43.629,L,187.5,RL,293.0,160.2
MNMBCKNAAS,170130.0,17:47:43.844,R,113.3,LR,289.1,101.6
MNMBCKNAAS,170130.0,17:47:44.320,R,125.0,RR,464.8,351.6
MNMBCKNAAS,170130.0,17:47:44.723,S,113.3,RS,414.1,289.1
MNMBCKNAAS,170130.0,17:47:45.098,L,144.5,SL,343.8,230.5
MNMBCKNAAS,170130.0,17:47:45.289,R,136.7,LR,199.2,54.7
MNMBCKNAAS,170130.0,17:47:45.648,L,214.8,RL,281.3,144.5
MNMBCKNAAS,170130.0,17:47:45.875,L,152.3,LL,289.1,74.2
MNMBCKNAAS,170130.0,17:47:46.211,S,121.1,LS,367.2,214.8
MNMBCKNAAS,170130.0,17:47:46.930,L,183.6,SL,656.3,535.2
MNMBCKNAAS,170130.0,17:47:47.297,L,183.6,LL,367.2,183.6
MNMBCKNAAS,170130.0,17:48:01.656,S,101.6,RS,335.9,199.2
MNMBCKNAAS,170130.0,17:48:02.305,L,160.2,SL,589.8,488.3
MNMBCKNAAS,170130.0,17:48:02.578,R,113.3,LR,320.3,160.2
MNMBCKNAAS,170130.0,17:48:03.035,L,160.2,RL,410.2,296.9
MNMBCKNAAS,170130.0,17:48:03.328,R,109.4,LR,343.8,183.6
MNMBCKNAAS,170130.0,17:48:03.656,S,101.6,RS,335.9,226.6
MNMBCKNAAS,170130.0,17:48:04.066,R,160.2,SR,351.6,250.0
MNMBCKNAAS,170130.0,17:48:04.355,L,136.7,RL,312.5,152.3
MNMBCKNAAS,170130.0,17:48:04.609,R,136.7,LR,253.9,117.2
MNMBCKNAAS,170130.0,17:48:05.145,L,109.4,RL,562.5,425.8
MNMBCKNAAS,170130.0,17:48:05.824,S,117.2,LS,671.9,562.5
MNMBCKNAAS,170130.0,17:48:07.355,R,144.5,RR,601.6,472.7
MNMBCKNAAS,170130.0,17:48:07.691,R,105.5,RR,375.0,230.5
MNMBCKNAAS,170130.0,17:48:08.035,S,152.3,RS,296.9,191.4
MNMBCKNAAS,170130.0,17:48:08.523,L,113.3,SL,527.3,375.0
MNMBCKNAAS,170130.0,17:48:08.824,R,148.4,LR,265.6,152.3
MNMBCKNAAS,170130.0,17:48:09.113,S,128.9,RS,308.6,160.2
MNMBCKNAAS,170130.0,17:48:09.938,L,191.4,SL,761.7,632.8
MNMBCKNAAS,170130.0,17:48:10.227,R,160.2,LR,320.3,128.9
MNMBCKNAAS,170130.0,17:48:11.691,R,136.7,SR,304.7,183.6
MNMBCKNAAS,170130.0,17:48:12.035,R,144.5,RR,335.9,199.2
MNMBCKNAAS,170130.0,17:48:12.332,L,136.7,RL,304.7,160.2
MNMBCKNAAS,170130.0,17:48:12.629,S,121.1,LS,312.5,175.8
MNMBCKNAAS,170130.0,17:48:13.043,L,152.3,SL,382.8,261.7
MNMBCKNAAS,170130.0,17:48:13.449,R,125.0,LR,433.6,281.3
MNMBCKNAAS,170130.0,17:48:14.164,R,148.4,RR,687.5,562.5
MNMBCKNAAS,170130.0,17:48:14.523,R,128.9,RR,382.8,234.4
MNMBCKNAAS,170130.0,17:48:14.836,S,105.5,RS,335.9,207.0
MNMBCKNAAS,170130.0,17:48:20.121,R,128.9,RR,375.0,214.8
MNMBCKNAAS,170130.0,17:48:20.656,L,168.0,RL,496.1,367.2
MNMBCKNAAS,170130.0,17:48:20.898,R,168.0,LR,242.2,74.2
MNMBCKNAAS,170130.0,17:48:22.113,R,101.6,RR,273.4,136.7
MNMBCKNAAS,170130.0,17:48:22.480,S,117.2,RS,351.6,250.0
MNMBCKNAAS,170130.0,17:48:22.824,R,148.4,SR,312.5,195.3
MNMBCKNAAS,170130.0,17:48:23.488,L,140.6,RL,671.9,523.4
MNMBCKNAAS,170130.0,17:48:23.801,S,125.0,LS,328.1,187.5
MNMBCKNAAS,170130.0,17:48:24.234,L,183.6,SL,375.0,250.0
MNMBCKNAAS,170130.0,17:48:24.426,R,136.7,LR,238.3,54.7
MNMBCKNAAS,170130.0,17:48:24.777,R,183.6,RR,304.7,168.0
MNMBCKNAAS,170130.0,17:48:25.129,R,160.2,RR,375.0,191.4
MNMBCKNAAS,170130.0,17:48:25.488,R,168.0,RR,351.6,191.4
MNMBCKNAAS,170130.0,17:48:25.836,L,152.3,RL,363.3,195.3
MNMBCKNAAS,170130.0,17:48:26.051,S,89.8,LS,277.3,125.0
MNMBCKNAAS,170130.0,17:48:26.418,L,160.2,SL,296.9,207.0
MNMBCKNAAS,170130.0,17:48:26.738,L,160.2,LL,320.3,160.2
MNMBCKNAAS,170130.0,17:48:26.961,R,144.5,LR,238.3,78.1
MNMBCKNAAS,170130.0,17:48:27.258,R,144.5,RR,296.9,152.3
MNMBCKNAAS,170130.0,17:48:28.602,S,125.0,LS,363.3,160.2
MNMBCKNAAS,170130.0,17:48:30.043,R,121.1,LR,566.4,335.9
MNMBCKNAAS,170130.0,17:48:30.500,L,195.3,RL,382.8,261.7
MNMBCKNAAS,170130.0,17:48:30.844,L,195.3,LL,343.8,148.4
MNMBCKNAAS,170130.0,17:48:31.121,S,136.7,LS,335.9,140.6
MNMBCKNAAS,170130.0,17:48:31.594,R,128.9,SR,480.5,343.8
MNMBCKNAAS,170130.0,17:48:31.867,L,144.5,RL,257.8,128.9
MNMBCKNAAS,170130.0,17:48:32.219,S,128.9,LS,367.2,222.7
MNMBCKNAAS,170130.0,17:48:32.707,R,144.5,SR,472.7,343.8
MNMBCKNAAS,170130.0,17:48:33.059,L,152.3,RL,343.8,199.2
MNMBCKNAAS,170130.0,17:48:34.426,S,113.3,LS,390.6,230.5
MNMBCKNAAS,170130.0,17:48:36.305,R,191.4,LR,359.4,207.0
MNMBCKNAAS,170130.0,17:48:36.691,R,160.2,RR,418.0,226.6
MNMBCKNAAS,170130.0,17:48:37.004,L,187.5,RL,285.2,125.0
MNMBCKNAAS,170130.0,17:48:37.434,S,113.3,LS,503.9,316.4
MNMBCKNAAS,170130.0,17:48:56.098,S,144.5,RS,421.9,253.9
MNMBCKNAAS,170130.0,17:48:57.984,R,148.4,LR,625.0,488.3
MNMBCKNAAS,170130.0,17:48:58.312,L,152.3,RL,324.2,175.8
MNMBCKNAAS,170130.0,17:48:58.707,L,136.7,LL,410.2,257.8
MNMBCKNAAS,170130.0,17:48:59.152,S,148.4,LS,433.6,296.9
MNMBCKNAAS,170130.0,17:48:59.691,L,128.9,SL,558.6,410.2
MNMBCKNAAS,170130.0,17:49:01.328,L,156.3,SL,640.6,496.1
MNMBCKNAAS,170130.0,17:49:01.801,R,117.2,LR,511.7,355.5
MNMBCKNAAS,170130.0,17:49:02.281,R,136.7,RR,460.9,343.8
MNMBCKNAAS,170130.0,17:49:02.625,R,113.3,RR,367.2,230.5
MNMBCKNAAS,170130.0,17:49:02.906,R,113.3,RR,281.3,168.0
MNMBCKNAAS,170130.0,17:49:03.602,L,136.7,RL,671.9,558.6
MNMBCKNAAS,170130.0,17:49:03.922,R,113.3,LR,343.8,207.0
MNMBCKNAAS,170130.0,17:49:37.570,R,144.5,LR,410.2,257.8
MNMBCKNAAS,170130.0,17:49:49.961,R,144.5,LR,261.7,70.3
MNMBCKNAAS,170130.0,17:49:50.562,L,226.6,RL,519.5,375.0
MNMBCKNAAS,170130.0,17:49:50.992,L,183.6,LL,472.7,246.1
MNMBCKNAAS,170130.0,17:49:51.266,S,105.5,LS,351.6,168.0
MNMBCKNAAS,170130.0,17:49:52.527,R,148.4,RR,234.4,35.2
MNMBCKNAAS,170130.0,17:49:52.855,R,125.0,RR,351.6,203.1
MNMBCKNAAS,170130.0,17:49:53.266,S,144.5,RS,390.6,265.6
MNMBCKNAAS,170130.0,17:49:53.664,L,183.6,SL,359.4,214.8
MNMBCKNAAS,170130.0,17:49:54.105,L,136.7,LL,488.3,304.7
MNMBCKNAAS,170130.0,17:49:54.434,S,144.5,LS,320.3,183.6
MNMBCKNAAS,170130.0,17:49:54.723,L,175.8,SL,257.8,113.3
MNMBCKNAAS,170130.0,17:49:55.051,S,136.7,LS,367.2,191.4
MNMBCKNAAS,170130.0,17:49:55.770,R,152.3,SR,703.1,566.4
MNMBCKNAAS,170130.0,17:49:56.457,L,214.8,RL,625.0,472.7
MNMBCKNAAS,170130.0,17:49:57.770,L,175.8,LL,335.9,128.9
MNMBCKNAAS,170130.0,17:49:58.066,R,128.9,LR,343.8,168.0
MNMBCKNAAS,170130.0,17:49:58.488,L,160.2,RL,390.6,261.7
MNMBCKNAAS,170130.0,17:49:58.906,S,113.3,LS,464.8,304.7
MNMBCKNAAS,170130.0,17:49:59.227,R,152.3,SR,281.3,168.0
MNMBCKNAAS,170130.0,17:49:59.496,L,148.4,RL,273.4,121.1
MNMBCKNAAS,170130.0,17:49:59.875,S,136.7,LS,390.6,242.2
MNMBCKNAAS,170130.0,17:50:00.289,R,152.3,SR,398.4,261.7
MNMBCKNAAS,170130.0,17:50:00.707,R,160.2,RR,410.2,257.8
MNMBCKNAAS,170130.0,17:50:01.004,L,179.7,RL,277.3,117.2
MNMBCKNAAS,170130.0,17:50:01.289,S,117.2,LS,347.7,168.0
MNMBCKNAAS,170130.0,17:50:04.656,L,207.0,LL,406.3,175.8
MNMBCKNAAS,170130.0,17:50:04.938,R,136.7,LR,351.6,144.5
MNMBCKNAAS,170130.0,17:50:05.234,L,195.3,RL,238.3,101.6
MNMBCKNAAS,170130.0,17:50:07.457,S,128.9,RS,335.9,199.2
MNMBCKNAAS,170130.0,17:50:09.883,R,136.7,LR,234.4,43.0
MNMBCKNAAS,170130.0,17:50:10.266,L,191.4,RL,328.1,191.4
MNMBCKNAAS,170130.0,17:50:10.578,L,199.2,LL,304.7,113.3
MNMBCKNAAS,170130.0,17:50:10.824,S,121.1,LS,324.2,125.0
MNMBCKNAAS,170130.0,17:50:11.480,R,175.8,SR,601.6,480.5
MNMBCKNAAS,170130.0,17:50:11.840,L,175.8,RL,359.4,183.6
MNMBCKNAAS,170130.0,17:50:12.090,S,113.3,LS,312.5,136.7
MNMBCKNAAS,170130.0,17:50:12.836,R,121.1,SR,738.3,625.0
MNMBCKNAAS,170130.0,17:50:13.152,L,160.2,RL,277.3,156.3
MNMBCKNAAS,170130.0,17:50:13.418,L,128.9,LL,296.9,136.7
MNMBCKNAAS,170130.0,17:50:13.824,L,160.2,LL,375.0,246.1
MNMBCKNAAS,170130.0,17:50:14.152,L,148.4,LL,339.8,179.7
MNMBCKNAAS,170130.0,17:50:14.562,S,144.5,LS,414.1,265.6
MNMBCKNAAS,170130.0,17:50:15.348,L,195.3,SL,734.4,589.8
MNMBCKNAAS,170130.0,17:50:15.684,L,175.8,LL,355.5,160.2
MNMBCKNAAS,170130.0,17:50:16.250,R,152.3,LR,589.8,414.1
MNMBCKNAAS,170130.0,17:50:16.633,L,175.8,RL,359.4,207.0
MNMBCKNAAS,170130.0,17:50:16.906,S,128.9,LS,320.3,144.5
MNMBCKNAAS,170130.0,17:50:17.449,L,191.4,SL,480.5,351.6
MNMBCKNAAS,170130.0,17:50:17.684,L,74.2,LL,351.6,160.2
MNMBCKNAAS,170130.0,17:50:23.570,L,136.7,RL,656.3,519.5
MNMBCKNAAS,170130.0,17:50:23.883,S,144.5,LS,304.7,168.0
MNMBCKNAAS,170130.0,17:50:24.457,L,152.3,SL,566.4,421.9
MNMBCKNAAS,170130.0,17:50:24.793,L,160.2,LL,328.1,175.8
MNMBCKNAAS,170130.0,17:50:25.312,R,175.8,LR,503.9,343.8
MNMBCKNAAS,170130.0,17:50:29.242,R,66.4,RR,253.9,144.5
MNMBCKNAAS,170130.0,17:50:29.434,R,74.2,RR,183.6,117.2
MNMBCKNAAS,170130.0,17:50:32.777,L,144.5,RL,269.5,117.2
MNMBCKNAAS,170130.0,17:50:33.234,S,113.3,LS,488.3,343.8
MNMBCKNAAS,170130.0,17:50:35.547,R,144.5,LR,328.1,168.0
MNMBCKNAAS,170130.0,17:50:35.867,R,117.2,RR,343.8,199.2
MNMBCKNAAS,170130.0,17:50:37.609,S,128.9,LS,359.4,214.8
MNMBCKNAAS,170130.0,17:50:39.008,R,144.5,RR,445.3,316.4
MNMBCKNAAS,170130.0,17:50:39.395,L,128.9,RL,402.3,257.8
MNMBCKNAAS,170130.0,17:50:39.777,S,121.1,LS,390.6,261.7
MNMBCKNAAS,170130.0,17:50:41.184,R,85.9,RR,480.5,289.1
MNMBCKNAAS,170130.0,17:50:41.547,S,121.1,RS,328.1,242.2
MNMBCKNAAS,170130.0,17:50:42.840,R,152.3,RR,382.8,238.3
MNMBCKNAAS,170130.0,17:50:43.480,R,113.3,RR,679.7,527.3
MNMBCKNAAS,170130.0,17:51:05.426,L,191.4,RL,320.3,144.5
MNMBCKNAAS,170130.0,17:51:05.867,L,210.9,LL,421.9,230.5
MNMBCKNAAS,170130.0,17:51:06.281,S,105.5,LS,519.5,308.6
MNMBCKNAAS,170130.0,17:51:06.875,R,125.0,SR,570.3,464.8
MNMBCKNAAS,170130.0,17:51:07.336,L,136.7,RL,453.1,328.1
MNMBCKNAAS,170130.0,17:51:07.793,L,136.7,LL,457.0,320.3
MNMBCKNAAS,170130.0,17:51:08.168,S,109.4,LS,402.3,265.6
MNMBCKNAAS,170130.0,17:51:08.617,R,152.3,SR,406.3,296.9
MNMBCKNAAS,170130.0,17:51:10.227,R,128.9,RR,472.7,328.1
MNMBCKNAAS,170130.0,17:51:11.000,S,117.2,RS,785.2,656.3
MNMBCKNAAS,170130.0,17:51:15.457,R,168.0,RR,312.5,113.3
MNMBCKNAAS,170130.0,17:51:15.855,R,191.4,RR,375.0,207.0
MNMBCKNAAS,170130.0,17:51:16.121,L,191.4,RL,265.6,74.2
MNMBCKNAAS,170130.0,17:51:16.457,S,128.9,LS,398.4,207.0
MNMBCKNAAS,170130.0,17:51:16.855,L,199.2,SL,328.1,199.2
MNMBCKNAAS,170130.0,17:51:17.121,R,144.5,LR,320.3,121.1
MNMBCKNAAS,170130.0,17:51:17.602,L,214.8,RL,410.2,265.6
MNMBCKNAAS,170130.0,17:51:17.961,L,175.8,LL,398.4,183.6
MNMBCKNAAS,170130.0,17:51:18.695,L,160.2,LL,750.0,574.2
MNMBCKNAAS,170130.0,17:51:19.000,S,101.6,LS,363.3,203.1
MNMBCKNAAS,170130.0,17:51:19.480,L,168.0,SL,414.1,312.5
MNMBCKNAAS,170130.0,17:51:19.703,R,140.6,LR,250.0,82.0
MNMBCKNAAS,170130.0,17:51:20.039,R,93.8,RR,382.8,242.2
MNMBCKNAAS,170130.0,17:51:20.258,R,105.5,RR,207.0,113.3
MNMBCKNAAS,170130.0,17:51:20.754,S,74.2,RS,527.3,421.9
MNMBCKNAAS,170130.0,17:51:25.473,L,168.0,RL,289.1,152.3
MNMBCKNAAS,170130.0,17:51:26.098,R,144.5,LR,648.4,480.5
MNMBCKNAAS,170130.0,17:51:26.320,R,109.4,RR,257.8,113.3
MNMBCKNAAS,170130.0,17:51:26.762,L,168.0,RL,382.8,273.4
MNMBCKNAAS,170130.0,17:51:27.039,R,125.0,LR,320.3,152.3
MNMBCKNAAS,170130.0,17:51:27.578,S,121.1,RS,543.0,418.0
MNMBCKNAAS,170130.0,17:51:29.746,L,191.4,RL,394.5,257.8
MNMBCKNAAS,170130.0,17:51:30.008,S,101.6,LS,351.6,160.2
MNMBCKNAAS,170130.0,17:51:31.434,L,152.3,RL,257.8,105.5
MNMBCKNAAS,170130.0,17:51:31.723,S,128.9,LS,312.5,160.2
MNMBCKNAAS,170130.0,17:51:32.258,L,160.2,SL,503.9,375.0
MNMBCKNAAS,170130.0,17:51:32.504,R,136.7,LR,269.5,109.4
MNMBCKNAAS,170130.0,17:51:33.832,L,214.8,RL,343.8,199.2
MNMBCKNAAS,170130.0,17:51:34.105,S,113.3,LS,375.0,160.2
MNMBCKNAAS,170130.0,17:51:35.969,R,136.7,RR,390.6,230.5
MNMBCKNAAS,170130.0,17:51:36.281,L,160.2,RL,289.1,152.3
MNMBCKNAAS,170130.0,17:51:38.359,L,85.9,LL,351.6,160.2
MNMBCKNAAS,170130.0,17:51:38.656,L,121.1,LL,261.7,175.8
MNMBCKNAAS,170130.0,17:51:39.176,S,113.3,LS,527.3,406.3
MNMBCKNAAS,170130.0,17:51:42.023,L,109.4,LL,402.3,218.8
MNMBCKNAAS,170130.0,17:51:42.402,L,136.7,LL,351.6,242.2
MNMBCKNAAS,170130.0,17:51:51.016,L,132.8,SL,425.8,304.7
MNMBCKNAAS,170130.0,17:51:51.344,L,168.0,LL,293.0,160.2
MNMBCKNAAS,170130.0,17:51:51.695,R,160.2,LR,359.4,191.4
MNMBCKNAAS,170130.0,17:51:51.984,R,113.3,RR,335.9,175.8
MNMBCKNAAS,170130.0,17:51:52.312,S,136.7,RS,304.7,191.4
MNMBCKNAAS,170130.0,17:51:52.695,R,117.2,SR,402.3,265.6
MNMBCKNAAS,170130.0,17:51:54.121,L,160.2,LL,386.7,250.0
MNMBCKNAAS,170130.0,17:51:54.406,L,140.6,LL,304.7,144.5
MNMBCKNAAS,170130.0,17:51:54.703,S,93.8,LS,343.8,203.1
MNMBCKNAAS,170130.0,17:51:55.145,R,136.7,SR,398.4,304.7
MNMBCKNAAS,170130.0,17:51:55.512,R,128.9,RR,375.0,238.3
MNMBCKNAAS,170130.0,17:51:55.840,S,113.3,RS,343.8,214.8
MNMBCKNAAS,170130.0,17:51:57.047,R,144.5,RR,367.2,183.6
MNMBCKNAAS,170130.0,17:51:57.305,L,160.2,RL,242.2,97.7
MNMBCKNAAS,170130.0,17:51:58.832,R,101.6,RR,296.9,144.5
MNMBCKNAAS,170130.0,17:51:59.129,R,136.7,RR,261.7,160.2
MNMBCKNAAS,170130.0,17:52:06.754,R,136.7,RR,398.4,230.5
MNMBCKNAAS,170130.0,17:52:07.129,S,144.5,RS,367.2,230.5
MNMBCKNAAS,170130.0,17:52:07.777,L,207.0,SL,585.9,441.4
MNMBCKNAAS,170130.0,17:52:08.137,R,191.4,LR,375.0,168.0
MNMBCKNAAS,170130.0,17:52:08.465,R,89.8,RR,429.7,238.3
MNMBCKNAAS,170130.0,17:52:08.664,R,78.1,RR,210.9,121.1
MNMBCKNAAS,170130.0,17:52:09.074,S,140.6,RS,343.8,265.6
MNMBCKNAAS,170130.0,17:52:09.391,L,152.3,SL,308.6,168.0
MNMBCKNAAS,170130.0,17:52:09.680,L,121.1,LL,320.3,168.0
MNMBCKNAAS,170130.0,17:52:09.887,L,117.2,LL,210.9,89.8
MNMBCKNAAS,170130.0,17:52:10.230,S,132.8,LS,328.1,210.9
MNMBCKNAAS,170130.0,17:52:10.703,L,168.0,SL,437.5,304.7
MNMBCKNAAS,170130.0,17:52:11.105,S,144.5,LS,425.8,257.8
MNMBCKNAAS,170130.0,17:52:11.449,L,144.5,SL,343.8,199.2
MNMBCKNAAS,170130.0,17:52:11.695,R,152.3,LR,238.3,93.8
MNMBCKNAAS,170130.0,17:52:13.121,S,128.9,LS,488.3,320.3
MNMBCKNAAS,170130.0,17:52:14.320,R,128.9,LR,253.9,113.3
MNMBCKNAAS,170130.0,17:52:14.625,L,136.7,RL,296.9,168.0
MNMBCKNAAS,170130.0,17:52:14.887,L,132.8,LL,265.6,128.9
MNMBCKNAAS,170130.0,17:52:15.648,L,175.8,LL,718.8,585.9
MNMBCKNAAS,170130.0,17:52:15.977,L,183.6,LL,320.3,144.5
MNMBCKNAAS,170130.0,17:52:16.344,L,222.7,LL,328.1,144.5
MNMBCKNAAS,170130.0,17:52:16.746,R,128.9,LR,496.1,273.4
MNMBCKNAAS,170130.0,17:52:17.219,L,136.7,RL,464.8,335.9
MNMBCKNAAS,170130.0,17:52:17.535,L,140.6,LL,312.5,175.8
MNMBCKNAAS,170130.0,17:52:22.418,R,82.0,RR,238.3,144.5
MNMBCKNAAS,170130.0,17:52:29.426,L,152.3,RL,265.6,97.7
MNMBCKNAAS,170130.0,17:52:29.910,L,148.4,LL,488.3,335.9
MNMBCKNAAS,170130.0,17:52:30.305,L,175.8,LL,367.2,218.8
MNMBCKNAAS,170130.0,17:52:30.594,L,168.0,LL,296.9,121.1
MNMBCKNAAS,170130.0,17:52:30.824,L,136.7,LL,261.7,93.8
MNMBCKNAAS,170130.0,17:52:40.695,L,144.5,RL,320.3,191.4
MNMBCKNAAS,170130.0,17:52:41.000,S,121.1,LS,328.1,183.6
MNMBCKNAAS,170130.0,17:52:42.266,R,175.8,RR,242.2,82.0
MNMBCKNAAS,170130.0,17:52:42.551,R,117.2,RR,343.8,168.0
MNMBCKNAAS,170130.0,17:52:43.070,S,140.6,RS,496.1,378.9
MNMBCKNAAS,170130.0,17:52:43.879,L,175.8,SL,773.4,632.8
MNMBCKNAAS,170130.0,17:52:44.152,R,128.9,LR,320.3,144.5
MNMBCKNAAS,170130.0,17:52:44.902,R,160.2,RR,718.8,589.8
MNMBCKNAAS,170130.0,17:52:45.488,L,168.0,RL,578.1,418.0
MNMBCKNAAS,170130.0,17:52:45.809,L,160.2,LL,328.1,160.2
MNMBCKNAAS,170130.0,17:52:46.199,S,121.1,LS,429.7,269.5
MNMBCKNAAS,170130.0,17:52:47.688,R,136.7,LR,328.1,144.5
MNMBCKNAAS,170130.0,17:52:48.047,S,125.0,RS,371.1,234.4
MNMBCKNAAS,170130.0,17:52:49.328,R,160.2,LR,289.1,136.7
MNMBCKNAAS,170130.0,17:52:49.656,S,144.5,RS,343.8,183.6
MNMBCKNAAS,170130.0,17:52:50.480,L,207.0,SL,761.7,617.2
MNMBCKNAAS,170130.0,17:52:50.785,R,136.7,LR,375.0,168.0
MNMBCKNAAS,170130.0,17:52:51.176,L,222.7,RL,304.7,168.0
MNMBCKNAAS,170130.0,17:52:51.488,L,175.8,LL,359.4,136.7
MNMBCKNAAS,170130.0,17:52:51.754,S,113.3,LS,328.1,152.3
MNMBCKNAAS,170130.0,17:52:52.289,R,175.8,SR,472.7,359.4
MNMBCKNAAS,170130.0,17:52:52.520,R,152.3,RR,253.9,78.1
MNMBCKNAAS,170130.0,17:52:52.891,R,168.0,RR,355.5,203.1
MNMBCKNAAS,170130.0,17:53:00.480,L,144.5,LL,398.4,230.5
MNMBCKNAAS,170130.0,17:53:00.719,L,125.0,LL,257.8,113.3
MNMBCKNAAS,170130.0,17:53:01.137,R,121.1,LR,421.9,296.9
MNMBCKNAAS,170130.0,17:53:01.512,S,113.3,RS,382.8,261.7
MNMBCKNAAS,170130.0,17:53:03.016,R,128.9,LR,269.5,101.6
MNMBCKNAAS,170130.0,17:53:03.312,R,144.5,RR,281.3,152.3
MNMBCKNAAS,170130.0,17:53:03.586,R,113.3,RR,304.7,160.2
MNMBCKNAAS,170130.0,17:53:03.848,L,160.2,RL,214.8,101.6
MNMBCKNAAS,170130.0,17:53:04.258,S,136.7,LS,433.6,273.4
MNMBCKNAAS,170130.0,17:53:05.367,R,136.7,LR,253.9,117.2
MNMBCKNAAS,170130.0,17:53:06.504,S,105.5,LS,335.9,183.6
MNMBCKNAAS,170130.0,17:53:07.770,R,121.1,RR,343.8,222.7
MNMBCKNAAS,170130.0,17:53:08.457,L,168.0,RL,640.6,519.5
MNMBCKNAAS,170130.0,17:53:14.184,R,113.3,LR,359.4,183.6
MNMBCKNAAS,170130.0,17:53:14.680,R,128.9,RR,480.5,367.2
MNMBCKNAAS,170130.0,17:53:14.984,R,121.1,RR,312.5,183.6
MNMBCKNAAS,170130.0,17:53:15.238,L,148.4,RL,226.6,105.5
MNMBCKNAAS,170130.0,17:53:15.719,S,144.5,LS,484.4,335.9
MNMBCKNAAS,170130.0,17:53:17.512,R,152.3,LR,246.1,85.9
MNMBCKNAAS,170130.0,17:53:17.785,S,121.1,RS,304.7,152.3
MNMBCKNAAS,170130.0,17:53:18.414,L,175.8,SL,574.2,453.1
MNMBCKNAAS,170130.0,17:53:18.754,R,160.2,LR,355.5,179.7
MNMBCKNAAS,170130.0,17:53:19.039,L,168.0,RL,277.3,117.2
MNMBCKNAAS,170130.0,17:53:19.328,S,136.7,LS,320.3,152.3
MNMBCKNAAS,170130.0,17:53:20.938,L,144.5,RL,359.4,199.2
MNMBCKNAAS,170130.0,17:53:22.945,L,160.2,RL,695.3,578.1
MNMBCKNAAS,170130.0,17:53:23.230,L,132.8,LL,312.5,152.3
MNMBCKNAAS,170130.0,17:53:23.887,L,160.2,LL,628.9,496.1
MNMBCKNAAS,170130.0,17:53:24.160,L,121.1,LL,312.5,152.3
MNMBCKNAAS,170130.0,17:53:24.770,R,183.6,LR,546.9,425.8
MNMBCKNAAS,170130.0,17:53:25.219,R,203.1,RR,429.7,246.1
MNMBCKNAAS,170130.0,17:53:26.770,R,128.9,LR,328.1,183.6
MNMBCKNAAS,170130.0,17:53:38.688,S,113.3,RS,316.4,191.4
MNMBCKNAAS,170130.0,17:53:40.223,R,152.3,LR,335.9,160.2
MNMBCKNAAS,170130.0,17:53:40.855,L,160.2,RL,625.0,472.7
MNMBCKNAAS,170130.0,17:53:41.289,R,121.1,LR,472.7,312.5
MNMBCKNAAS,170130.0,17:53:44.199,R,343.8,LR,328.1,160.2
MNMBCKNAAS,170130.0,17:53:46.289,R,105.5,LR,351.6,199.2
MNMBCKNAAS,170130.0,17:53:52.273,L,183.6,RL,304.7,179.7
MNMBCKNAAS,170130.0,17:53:52.633,S,152.3,LS,390.6,207.0
MNMBCKNAAS,170130.0,17:53:52.984,R,160.2,SR,343.8,191.4
MNMBCKNAAS,170130.0,17:53:53.344,L,199.2,RL,320.3,160.2
MNMBCKNAAS,170130.0,17:53:53.656,S,152.3,LS,359.4,160.2
MNMBCKNAAS,170130.0,17:53:55.609,R,160.2,RR,769.5,625.0
MNMBCKNAAS,170130.0,17:53:56.129,R,207.0,RR,472.7,312.5
MNMBCKNAAS,170130.0,17:53:56.672,L,136.7,RL,613.3,406.3
MNMBCKNAAS,170130.0,17:53:59.910,R,152.3,LR,671.9,558.6
MNMBCKNAAS,170130.0,17:54:00.480,L,175.8,RL,546.9,394.5
MNMBCKNAAS,170130.0,17:54:00.754,L,144.5,LL,304.7,128.9
MNMBCKNAAS,170130.0,17:54:02.688,R,93.8,RR,296.9,179.7
MNMBCKNAAS,170130.0,17:54:02.961,R,89.8,RR,277.3,183.6
MNMBCKNAAS,170130.0,17:54:04.922,L,179.7,RL,367.2,214.8
MNMBCKNAAS,170130.0,17:54:05.391,L,183.6,LL,464.8,285.2
MNMBCKNAAS,170130.0,17:54:08.016,L,160.2,LL,343.8,144.5
MNMBCKNAAS,170130.0,17:54:12.566,R,128.9,RR,460.9,293.0
MNMBCKNAAS,170130.0,17:54:12.930,L,113.3,RL,378.9,250.0
MNMBCKNAAS,170130.0,17:54:15.465,R,74.2,RR,328.1,207.0
MNMBCKNAAS,170130.0,17:54:15.703,R,82.0,RR,230.5,156.3
MNMBCKNAAS,170130.0,17:54:20.176,L,152.3,RL,535.2,421.9
MNMBCKNAAS,170130.0,17:54:20.703,S,144.5,LS,535.2,382.8
MNMBCKNAAS,170130.0,17:54:21.246,R,168.0,SR,519.5,375.0
MNMBCKNAAS,170130.0,17:54:22.574,L,175.8,RL,390.6,230.5
MNMBCKNAAS,170130.0,17:54:22.848,R,152.3,LR,296.9,121.1
MNMBCKNAAS,170130.0,17:54:23.184,R,136.7,RR,351.6,199.2
MNMBCKNAAS,170130.0,17:54:23.512,R,128.9,RR,335.9,199.2
MNMBCKNAAS,170130.0,17:54:23.855,L,144.5,RL,328.1,199.2
MNMBCKNAAS,170130.0,17:54:24.457,S,113.3,LS,632.8,488.3
MNMBCKNAAS,170130.0,17:54:25.664,L,168.0,LL,343.8,183.6
MNMBCKNAAS,170130.0,17:54:26.367,R,152.3,LR,718.8,550.8
MNMBCKNAAS,170130.0,17:54:26.711,R,125.0,RR,371.1,218.8
MNMBCKNAAS,170130.0,17:54:27.145,L,160.2,RL,398.4,273.4
MNMBCKNAAS,170130.0,17:54:27.695,S,144.5,LS,566.4,406.3
MNMBCKNAAS,170130.0,17:54:29.273,R,140.6,LR,265.6,50.8
MNMBCKNAAS,170130.0,17:54:29.598,L,175.8,RL,293.0,152.3
MNMBCKNAAS,170130.0,17:54:29.902,R,144.5,LR,335.9,160.2
MNMBCKNAAS,170130.0,17:54:48.047,R,144.5,LR,375.0,214.8
MNMBCKNAAS,170130.0,17:54:49.711,R,121.1,LR,421.9,222.7
MNMBCKNAAS,170130.0,17:54:50.910,R,183.6,RR,335.9,207.0
MNMBCKNAAS,170130.0,17:54:51.336,R,144.5,RR,464.8,281.3
MNMBCKNAAS,170130.0,17:54:51.672,L,144.5,RL,335.9,191.4
MNMBCKNAAS,170130.0,17:54:52.168,S,160.2,LS,480.5,335.9
MNMBCKNAAS,170130.0,17:54:53.848,R,199.2,RR,425.8,289.1
MNMBCKNAAS,170130.0,17:54:54.230,L,160.2,RL,421.9,222.7
MNMBCKNAAS,170130.0,17:54:54.656,S,121.1,LS,464.8,304.7
MNMBCKNAAS,170130.0,17:54:56.008,L,144.5,LL,464.8,304.7
MNMBCKNAAS,170130.0,17:54:56.344,L,121.1,LL,359.4,214.8
MNMBCKNAAS,170130.0,17:54:59.152,R,82.0,RR,308.6,214.8
MNMBCKNAAS,170130.0,17:54:59.457,R,74.2,RR,312.5,230.5
MNMBCKNAAS,170130.0,17:56:02.316,L,277.3,RL,601.6,441.4
MNMBCKNAAS,170130.0,17:56:02.789,L,214.8,LL,535.2,257.8
MNMBCKNAAS,170130.0,17:56:03.086,L,144.5,LL,367.2,152.3
MNMBCKNAAS,170130.0,17:56:08.504,L,199.2,RL,503.9,250.0
MNMBCKNAAS,170130.0,17:56:09.191,S,199.2,LS,687.5,488.3
MNMBCKNAAS,170130.0,17:56:10.824,R,152.3,LR,328.1,136.7
MNMBCKNAAS,170130.0,17:56:11.109,L,148.4,RL,289.1,136.7
MNMBCKNAAS,170130.0,17:56:11.422,S,117.2,LS,343.8,195.3
MNMBCKNAAS,170130.0,17:56:14.094,R,132.8,LR,410.2,242.2
MNMBCKNAAS,170130.0,17:56:14.473,L,144.5,RL,367.2,234.4
MNMBCKNAAS,170130.0,17:56:15.613,S,125.0,RS,312.5,168.0
MNMBCKNAAS,170130.0,17:56:18.129,R,144.5,RR,347.7,207.0
MNMBCKNAAS,170130.0,17:56:18.461,R,175.8,RR,304.7,160.2
MNMBCKNAAS,170130.0,17:56:19.016,R,121.1,RR,609.4,433.6
MNMBCKNAAS,170130.0,17:56:19.430,S,128.9,RS,406.3,285.2
MNMBCKNAAS,170130.0,17:56:21.406,L,168.0,RL,390.6,246.1
MNMBCKNAAS,170130.0,17:56:21.910,S,136.7,LS,535.2,367.2
MNMBCKNAAS,170130.0,17:56:23.750,R,117.2,LR,289.1,121.1
MNMBCKNAAS,170130.0,17:56:23.992,L,144.5,RL,214.8,97.7
MNMBCKNAAS,170130.0,17:56:24.277,S,117.2,LS,312.5,168.0
MNMBCKNAAS,170130.0,17:56:24.781,L,175.8,SL,445.3,328.1
MNMBCKNAAS,170130.0,17:56:25.078,R,144.5,LR,328.1,152.3
MNMBCKNAAS,170130.0,17:56:25.473,R,152.3,RR,386.7,242.2
MNMBCKNAAS,170130.0,17:56:26.086,R,117.2,RR,648.4,496.1
MNMBCKNAAS,170130.0,17:56:26.406,L,121.1,RL,316.4,199.2
MNMBCKNAAS,170130.0,17:58:34.582,L,160.2,LL,382.8,191.4
MNMBCKNAAS,170130.0,17:58:34.902,L,144.5,LL,335.9,175.8
MNMBCKNAAS,170130.0,17:58:36.215,R,168.0,SR,343.8,226.6
MNMBCKNAAS,170130.0,17:58:36.902,R,160.2,RR,695.3,527.3
MNMBCKNAAS,170130.0,17:58:37.191,L,168.0,RL,281.3,121.1
MNMBCKNAAS,170130.0,17:58:37.504,S,156.3,LS,320.3,152.3
MNMBCKNAAS,170130.0,17:58:37.773,L,168.0,SL,261.7,105.5
MNMBCKNAAS,170130.0,17:58:37.996,R,136.7,LR,253.9,85.9
MNMBCKNAAS,170130.0,17:58:38.398,L,152.3,RL,386.7,250.0
MNMBCKNAAS,170130.0,17:58:38.691,S,125.0,LS,320.3,168.0
MNMBCKNAAS,170130.0,17:58:39.062,L,160.2,SL,335.9,210.9
MNMBCKNAAS,170130.0,17:58:39.348,R,144.5,LR,300.8,140.6
MNMBCKNAAS,170130.0,17:58:39.699,L,148.4,RL,347.7,203.1
MNMBCKNAAS,170130.0,17:58:40.406,S,128.9,LS,726.6,578.1
MNMBCKNAAS,170130.0,17:58:43.973,R,152.3,LR,269.5,101.6
MNMBCKNAAS,170130.0,17:58:44.324,R,140.6,RR,363.3,210.9
MNMBCKNAAS,170130.0,17:58:44.672,R,136.7,RR,351.6,210.9
MNMBCKNAAS,170130.0,17:58:46.055,S,113.3,RS,437.5,320.3
MNMBCKNAAS,170130.0,17:58:46.727,R,136.7,SR,648.4,535.2
MNMBCKNAAS,170130.0,17:58:47.238,R,121.1,RR,527.3,390.6
MNMBCKNAAS,170130.0,17:58:47.672,L,136.7,RL,418.0,296.9
MNMBCKNAAS,170130.0,17:58:47.980,S,117.2,LS,328.1,191.4
MNMBCKNAAS,170130.0,17:58:48.711,L,183.6,SL,664.1,546.9
MNMBCKNAAS,170130.0,17:58:48.949,R,152.3,LR,269.5,85.9
MNMBCKNAAS,170130.0,17:58:49.184,L,160.2,RL,226.6,74.2
MNMBCKNAAS,170130.0,17:58:49.484,S,109.4,LS,351.6,191.4
MNMBCKNAAS,170130.0,17:58:49.973,L,125.0,SL,472.7,363.3
MNMBCKNAAS,170130.0,17:58:50.246,R,152.3,LR,246.1,121.1
MNMBCKNAAS,170130.0,17:58:50.613,R,136.7,RR,382.8,230.5
MNMBCKNAAS,170130.0,17:58:50.996,R,117.2,RR,402.3,265.6
MNMBCKNAAS,170130.0,17:58:51.414,L,136.7,RL,398.4,281.3
MNMBCKNAAS,170130.0,17:58:56.445,R,82.0,RR,351.6,238.3
MNMBCKNAAS,170130.0,17:58:56.820,R,85.9,RR,371.1,289.1
MNMBCKNAAS,170130.0,17:59:30.852,L,160.2,RL,269.5,160.2
MNMBCKNAAS,170130.0,17:59:31.062,R,113.3,LR,257.8,97.7
MNMBCKNAAS,170130.0,17:59:31.398,S,113.3,RS,335.9,222.7
MNMBCKNAAS,170130.0,17:59:31.926,L,175.8,SL,464.8,351.6
MNMBCKNAAS,170130.0,17:59:41.188,R,85.9,RR,632.8,519.5
MNMBCKNAAS,170130.0,17:59:41.391,R,97.7,RR,191.4,105.5
MNMBCKNAAS,170130.0,17:59:41.879,S,226.6,RS,359.4,261.7
MNMBCKNAAS,170130.0,17:59:42.293,R,152.3,SR,488.3,261.7
MNMBCKNAAS,170130.0,17:59:42.637,R,168.0,RR,328.1,175.8
MNMBCKNAAS,170130.0,17:59:42.879,L,160.2,RL,250.0,82.0
MNMBCKNAAS,170130.0,17:59:43.238,S,152.3,LS,367.2,207.0
MNMBCKNAAS,170130.0,17:59:46.355,L,199.2,LL,375.0,222.7
MNMBCKNAAS,170130.0,17:59:46.758,R,121.1,LR,480.5,281.3
MNMBCKNAAS,170130.0,17:59:47.062,L,128.9,RL,296.9,175.8
MNMBCKNAAS,170130.0,17:59:47.699,L,160.2,LL,605.5,476.6
MNMBCKNAAS,170130.0,17:59:47.926,R,144.5,LR,242.2,82.0
MNMBCKNAAS,170130.0,17:59:48.230,L,144.5,RL,304.7,160.2
MNMBCKNAAS,170130.0,17:59:48.574,L,191.4,LL,296.9,152.3
MNMBCKNAAS,170130.0,17:59:48.844,S,125.0,LS,335.9,144.5
MNMBCKNAAS,170130.0,17:59:49.508,L,152.3,SL,636.7,511.7
MNMBCKNAAS,170130.0,17:59:49.758,R,160.2,LR,242.2,89.8
MNMBCKNAAS,170130.0,17:59:50.117,L,222.7,RL,296.9,136.7
MNMBCKNAAS,170130.0,17:59:50.406,R,128.9,LR,382.8,160.2
MNMBCKNAAS,170130.0,18:00:08.988,L,183.6,SL,796.9,664.1
MNMBCKNAAS,170130.0,18:00:09.398,R,128.9,LR,464.8,281.3
MNMBCKNAAS,170130.0,18:00:10.117,L,144.5,RL,703.1,574.2
MNMBCKNAAS,170130.0,18:00:10.422,R,128.9,LR,320.3,175.8
MNMBCKNAAS,170130.0,18:00:11.102,R,121.1,RR,687.5,558.6
MNMBCKNAAS,170130.0,18:00:11.469,S,93.8,RS,394.5,273.4
MNMBCKNAAS,170130.0,18:00:11.941,L,152.3,SL,414.1,320.3
MNMBCKNAAS,170130.0,18:00:12.094,R,113.3,LR,191.4,39.1
MNMBCKNAAS,170130.0,18:00:12.371,L,156.3,RL,234.4,121.1
MNMBCKNAAS,170130.0,18:00:12.734,S,105.5,LS,414.1,257.8
MNMBCKNAAS,170130.0,18:00:13.484,R,121.1,SR,734.4,628.9
MNMBCKNAAS,170130.0,18:00:13.781,L,128.9,RL,289.1,168.0
MNMBCKNAAS,170130.0,18:00:14.035,R,140.6,LR,242.2,113.3
MNMBCKNAAS,170130.0,18:00:14.383,L,144.5,RL,343.8,203.1
MNMBCKNAAS,170130.0,18:00:16.391,S,97.7,LS,335.9,175.8
MNMBCKNAAS,170130.0,18:00:16.852,L,168.0,SL,390.6,293.0
MNMBCKNAAS,170130.0,18:00:17.164,L,168.0,LL,312.5,144.5
MNMBCKNAAS,170130.0,18:00:38.684,S,109.4,LS,777.3,656.3
MNMBCKNAAS,170130.0,18:00:39.484,R,152.3,SR,757.8,648.4
MNMBCKNAAS,170130.0,18:00:40.117,L,214.8,RL,570.3,418.0
MNMBCKNAAS,170130.0,18:00:44.004,L,144.5,LL,343.8,191.4
MNMBCKNAAS,170130.0,18:00:44.332,L,136.7,LL,335.9,191.4
MNMBCKNAAS,170130.0,18:00:47.590,R,82.0,RR,312.5,207.0
MNMBCKNAAS,170130.0,18:00:47.789,R,54.7,RR,226.6,144.5
MNMBCKNAAS,170130.0,18:00:48.027,R,109.4,RR,183.6,128.9
MNMBCKNAAS,170130.0,18:00:56.469,L,78.1,LL,273.4,136.7
MNMBCKNAAS,170130.0,18:00:56.852,L,78.1,LL,382.8,304.7
MNMBCKNAAS,170130.0,18:01:06.055,S,234.4,RS,496.1,343.8
MNMBCKNAAS,170130.0,18:01:11.348,R,125.0,LR,281.3,144.5
MNMBCKNAAS,170130.0,18:01:11.613,L,128.9,RL,261.7,136.7
MNMBCKNAAS,170130.0,18:01:11.805,L,121.1,LL,199.2,70.3
MNMBCKNAAS,170130.0,18:01:12.195,R,132.8,LR,378.9,257.8
MNMBCKNAAS,170130.0,18:01:12.559,R,128.9,RR,367.2,234.4
MNMBCKNAAS,170130.0,18:01:12.902,S,144.5,RS,328.1,199.2
MNMBCKNAAS,170130.0,18:01:13.582,L,140.6,SL,679.7,535.2
MNMBCKNAAS,170130.0,18:01:13.859,R,152.3,LR,269.5,128.9
MNMBCKNAAS,170130.0,18:01:14.074,L,148.4,RL,218.8,66.4
MNMBCKNAAS,170130.0,18:01:14.316,S,128.9,LS,261.7,113.3
MNMBCKNAAS,170130.0,18:01:14.934,L,175.8,SL,570.3,441.4
MNMBCKNAAS,170130.0,18:01:15.219,L,144.5,LL,316.4,140.6
MNMBCKNAAS,170130.0,18:01:16.875,L,152.3,RL,605.5,480.5
MNMBCKNAAS,170130.0,18:01:17.355,R,117.2,LR,515.6,363.3
MNMBCKNAAS,170130.0,18:01:19.660,R,93.8,RR,609.4,531.3
MNMBCKNAAS,170130.0,18:01:19.902,R,66.4,RR,269.5,175.8
MNMBCKNAAS,170130.0,18:01:22.719,L,160.2,RL,312.5,195.3
MNMBCKNAAS,170130.0,18:01:26.500,L,117.2,SL,265.6,496.1
MNMBCKNAAS,170130.0,18:01:27.109,L,136.7,RL,238.3,113.3
MNMBCKNAAS,170130.0,18:01:27.750,R,105.5,LR,671.9,535.2
MNMBCKNAAS,170130.0,18:01:28.406,L,160.2,RL,601.6,496.1
MNMBCKNAAS,170130.0,18:01:28.645,R,136.7,LR,261.7,101.6
MNMBCKNAAS,170130.0,18:01:28.949,L,136.7,RL,304.7,168.0
MNMBCKNAAS,170130.0,18:01:29.316,S,144.5,LS,359.4,222.7
MNMBCKNAAS,170130.0,18:01:29.750,R,117.2,SR,457.0,312.5
MNMBCKNAAS,170130.0,18:01:30.188,R,152.3,RR,406.3,289.1
MNMBCKNAAS,170130.0,18:01:30.621,R,144.5,RR,441.4,289.1
MNMBCKNAAS,170130.0,18:01:31.027,S,136.7,RS,414.1,269.5
MNMBCKNAAS,170130.0,18:01:31.691,L,152.3,SL,648.4,511.7
MNMBCKNAAS,170130.0,18:01:31.934,R,121.1,LR,273.4,121.1
MNMBCKNAAS,170130.0,18:01:32.219,S,132.8,RS,273.4,152.3
MNMBCKNAAS,170130.0,18:01:32.508,L,152.3,SL,269.5,136.7
MNMBCKNAAS,170130.0,18:01:32.668,R,121.1,LR,191.4,39.1
MNMBCKNAAS,170130.0,18:01:32.941,L,168.0,RL,226.6,105.5
MNMBCKNAAS,170130.0,18:01:33.242,S,132.8,LS,335.9,168.0
MNMBCKNAAS,170130.0,18:01:33.988,R,136.7,SR,742.2,609.4
MNMBCKNAAS,170130.0,18:01:34.355,R,160.2,RR,343.8,207.0
MNMBCKNAAS,170130.0,18:01:34.590,L,168.0,RL,226.6,66.4
MNMBCKNAAS,170130.0,18:01:34.934,S,128.9,LS,382.8,214.8
MNMBCKNAAS,170130.0,18:01:35.309,L,121.1,SL,382.8,253.9
MNMBCKNAAS,170130.0,18:01:35.684,L,160.2,LL,335.9,214.8
MNMBCKNAAS,170130.0,18:01:35.965,R,136.7,LR,304.7,144.5
MNMBCKNAAS,170130.0,18:01:37.164,R,70.3,RR,257.8,160.2
MNMBCKNAAS,170130.0,18:01:41.613,R,113.3,LR,320.3,183.6
MNMBCKNAAS,170130.0,18:01:41.797,R,105.5,RR,191.4,78.1
MNMBCKNAAS,170130.0,18:01:42.094,R,152.3,RR,250.0,144.5
MNMBCKNAAS,170130.0,18:01:42.391,S,121.1,RS,328.1,175.8
MNMBCKNAAS,170130.0,18:01:42.965,L,121.1,SL,574.2,453.1
MNMBCKNAAS,170130.0,18:01:43.324,L,121.1,LL,359.4,238.3
MNMBCKNAAS,170130.0,18:01:43.742,L,171.9,LL,367.2,246.1
MNMBCKNAAS,170130.0,18:01:43.996,L,144.5,LL,281.3,109.4
MNMBCKNAAS,170130.0,18:01:44.500,R,121.1,LR,527.3,382.8
MNMBCKNAAS,170130.0,18:01:46.043,L,136.7,LL,359.4,191.4
MNMBCKNAAS,170130.0,18:01:46.453,R,128.9,LR,418.0,281.3
MNMBCKNAAS,170130.0,18:01:49.109,R,168.0,LR,449.2,257.8
MNMBCKNAAS,170130.0,18:01:49.363,L,128.9,RL,293.0,125.0
MNMBCKNAAS,170130.0,18:01:49.613,R,144.5,LR,234.4,105.5
MNMBCKNAAS,170130.0,18:01:49.898,S,132.8,RS,296.9,152.3
MNMBCKNAAS,170130.0,18:01:50.516,R,121.1,SR,628.9,496.1
MNMBCKNAAS,170130.0,18:01:51.051,R,183.6,RR,472.7,351.6
MNMBCKNAAS,170130.0,18:01:51.332,L,175.8,RL,289.1,105.5
MNMBCKNAAS,170130.0,18:01:51.570,R,132.8,LR,281.3,105.5
MNMBCKNAAS,170130.0,18:01:51.973,R,183.6,RR,351.6,218.8
MNMBCKNAAS,170130.0,18:01:52.301,R,175.8,RR,335.9,152.3
MNMBCKNAAS,170130.0,18:01:52.559,L,152.3,RL,281.3,105.5
MNMBCKNAAS,170130.0,18:01:53.070,S,128.9,LS,535.2,382.8
MNMBCKNAAS,170130.0,18:01:53.566,R,168.0,SR,457.0,328.1
MNMBCKNAAS,170130.0,18:01:53.805,L,152.3,RL,253.9,85.9
MNMBCKNAAS,170130.0,18:01:54.086,S,97.7,LS,335.9,183.6
MNMBCKNAAS,170130.0,18:02:02.684,L,128.9,RL,207.0,78.1
MNMBCKNAAS,170130.0,18:02:05.949,R,128.9,LR,390.6,242.2
MNMBCKNAAS,170130.0,18:02:06.188,L,136.7,RL,230.5,101.6
MNMBCKNAAS,170130.0,18:02:06.484,S,121.1,LS,312.5,175.8
MNMBCKNAAS,170130.0,18:02:08.227,R,183.6,RR,351.6,191.4
MNMBCKNAAS,170130.0,18:02:08.629,L,175.8,RL,410.2,226.6
MNMBCKNAAS,170130.0,18:02:09.086,S,144.5,LS,488.3,312.5
MNMBCKNAAS,170130.0,18:02:09.758,R,136.7,SR,679.7,535.2
MNMBCKNAAS,170130.0,18:02:10.965,R,152.3,RR,351.6,199.2
MNMBCKNAAS,170130.0,18:02:11.270,L,168.0,RL,289.1,136.7
MNMBCKNAAS,170130.0,18:02:12.902,R,128.9,LR,335.9,168.0
MNMBCKNAAS,170130.0,18:02:13.254,L,152.3,RL,328.1,199.2
MNMBCKNAAS,170130.0,18:02:38.676,R,70.3,RR,312.5,168.0
MNMBCKNAAS,170130.0,18:02:38.891,R,85.9,RR,199.2,128.9
MNMBCKNAAS,170130.0,18:02:41.117,L,160.2,RL,343.8,199.2
MNMBCKNAAS,170130.0,18:02:41.402,S,132.8,LS,312.5,152.3
MNMBCKNAAS,170130.0,18:02:43.445,R,136.7,LR,394.5,222.7
MNMBCKNAAS,170130.0,18:02:43.660,L,136.7,RL,214.8,78.1
MNMBCKNAAS,170130.0,18:02:43.988,S,144.5,LS,320.3,183.6
MNMBCKNAAS,170130.0,18:02:44.598,R,152.3,SR,601.6,457.0
MNMBCKNAAS,170130.0,18:02:44.973,R,144.5,RR,382.8,230.5
MNMBCKNAAS,170130.0,18:02:45.348,L,160.2,RL,359.4,214.8
MNMBCKNAAS,170130.0,18:02:45.820,L,121.1,LL,511.7,351.6
MNMBCKNAAS,170130.0,18:02:46.262,S,168.0,LS,394.5,273.4
MNMBCKNAAS,170130.0,18:02:46.668,L,117.2,SL,457.0,289.1
MNMBCKNAAS,170130.0,18:02:46.996,S,121.1,LS,324.2,207.0
MNMBCKNAAS,170130.0,18:02:48.980,R,121.1,LR,289.1,136.7
MNMBCKNAAS,170130.0,18:02:49.605,S,128.9,RS,617.2,496.1
MNMBCKNAAS,170130.0,18:02:53.188,L,152.3,RL,488.3,367.2
MNMBCKNAAS,170130.0,18:02:53.445,L,113.3,LL,296.9,144.5
MNMBCKNAAS,170130.0,18:02:54.988,S,121.1,RS,605.5,496.1
MNMBCKNAAS,170130.0,18:02:56.820,R,105.5,RR,359.4,222.7
MNMBCKNAAS,170130.0,18:02:57.164,R,105.5,RR,343.8,238.3
MNMBCKNAAS,170130.0,18:02:57.570,L,140.6,RL,371.1,265.6
MNMBCKNAAS,170130.0,18:02:57.973,S,136.7,LS,406.3,265.6
MNMBCKNAAS,170130.0,18:02:59.461,S,113.3,LS,343.8,207.0
MNMBCKNAAS,170130.0,18:02:59.820,R,152.3,SR,320.3,207.0
MNMBCKNAAS,170130.0,18:03:00.395,R,132.8,RR,593.8,441.4
MNMBCKNAAS,170130.0,18:03:00.789,R,128.9,RR,398.4,265.6
MNMBCKNAAS,170130.0,18:03:01.531,L,175.8,RL,695.3,566.4
MNMBCKNAAS,170130.0,18:03:01.812,R,128.9,LR,328.1,152.3
MNMBCKNAAS,170130.0,18:03:02.363,S,128.9,RS,550.8,421.9
MNMBCKNAAS,170130.0,18:03:04.332,L,136.7,RL,296.9,144.5
MNMBCKNAAS,170130.0,18:03:04.629,S,136.7,LS,296.9,160.2
MNMBCKNAAS,170130.0,18:03:04.965,L,152.3,SL,320.3,183.6
MNMBCKNAAS,170130.0,18:03:05.270,R,136.7,LR,320.3,168.0
MNMBCKNAAS,170130.0,18:03:06.539,R,152.3,SR,335.9,183.6
MNMBCKNAAS,170130.0,18:03:06.844,R,160.2,RR,296.9,144.5
MNMBCKNAAS,170130.0,18:03:07.188,L,160.2,RL,343.8,183.6
MNMBCKNAAS,170130.0,18:03:07.438,R,113.3,LR,296.9,136.7
MNMBCKNAAS,170130.0,18:03:07.805,R,128.9,RR,351.6,238.3
MNMBCKNAAS,170130.0,18:03:08.301,S,128.9,RS,496.1,367.2
MNMBCKNAAS,170130.0,18:03:09.820,L,152.3,RL,273.4,97.7
MNMBCKNAAS,170130.0,18:03:10.156,S,144.5,LS,343.8,191.4
MNMBCKNAAS,170130.0,18:03:11.941,R,144.5,LR,273.4,113.3
MNMBCKNAAS,170130.0,18:03:12.453,R,144.5,RR,511.7,367.2
MNMBCKNAAS,170130.0,18:03:12.883,L,160.2,RL,414.1,269.5
MNMBCKNAAS,170130.0,18:03:13.570,L,132.8,LL,714.8,554.7
MNMBCKNAAS,170130.0,18:03:13.883,S,136.7,LS,308.6,175.8
MNMBCKNAAS,170130.0,18:03:16.035,L,152.3,LL,421.9,253.9
MNMBCKNAAS,170130.0,18:03:16.430,L,168.0,LL,378.9,226.6
MNMBCKNAAS,170130.0,18:03:16.746,R,168.0,LR,316.4,148.4
MNMBCKNAAS,170130.0,18:03:17.086,R,179.7,RR,328.1,160.2
MNMBCKNAAS,170130.0,18:03:17.324,L,160.2,RL,257.8,78.1
MNMBCKNAAS,170130.0,18:03:17.707,S,136.7,LS,406.3,246.1
MNMBCKNAAS,170130.0,18:03:19.738,R,125.0,RR,632.8,500.0
MNMBCKNAAS,170130.0,18:03:25.691,R,62.5,RR,265.6,191.4
MNMBCKNAAS,170130.0,18:03:25.914,R,78.1,RR,207.0,144.5
MNMBCKNAAS,170130.0,18:03:30.148,R,136.7,SR,574.2,449.2
MNMBCKNAAS,170130.0,18:03:30.445,L,144.5,RL,289.1,152.3
MNMBCKNAAS,170130.0,18:03:30.773,L,136.7,LL,335.9,191.4
MNMBCKNAAS,170130.0,18:03:31.172,S,144.5,LS,390.6,253.9
MNMBCKNAAS,170130.0,18:03:31.461,R,144.5,SR,289.1,144.5
MNMBCKNAAS,170130.0,18:03:31.828,R,144.5,RR,367.2,222.7
MNMBCKNAAS,170130.0,18:03:32.141,R,144.5,RR,312.5,168.0
MNMBCKNAAS,170130.0,18:03:32.453,S,109.4,RS,343.8,199.2
MNMBCKNAAS,170130.0,18:03:33.172,R,152.3,SR,679.7,570.3
MNMBCKNAAS,170130.0,18:03:33.426,R,125.0,RR,281.3,128.9
MNMBCKNAAS,170130.0,18:03:34.770,L,132.8,RL,265.6,128.9
MNMBCKNAAS,170130.0,18:03:35.164,S,144.5,LS,382.8,250.0
MNMBCKNAAS,170130.0,18:03:35.547,L,23.4,SL,136.7,359.4
MNMBCKNAAS,170130.0,18:03:35.652,R,128.9,LR,136.7,359.4
MNMBCKNAAS,170130.0,18:03:35.953,L,168.0,RL,261.7,132.8
MNMBCKNAAS,170130.0,18:03:36.188,L,128.9,LL,273.4,105.5
MNMBCKNAAS,170130.0,18:03:40.004,R,78.1,RR,289.1,187.5
MNMBCKNAAS,170130.0,18:03:40.211,R,85.9,RR,199.2,121.1
MNMBCKNAAS,170130.0,18:03:47.988,R,152.3,RR,558.6,398.4
MNMBCKNAAS,170130.0,18:03:48.477,R,144.5,RR,496.1,343.8
MNMBCKNAAS,170130.0,18:03:48.934,S,152.3,RS,449.2,304.7
MNMBCKNAAS,170130.0,18:03:49.684,R,136.7,SR,765.6,613.3
MNMBCKNAAS,170130.0,18:03:50.148,L,183.6,RL,418.0,281.3
MNMBCKNAAS,170130.0,18:03:50.449,L,117.2,LL,367.2,183.6
MNMBCKNAAS,170130.0,18:03:50.836,S,152.3,LS,351.6,234.4
MNMBCKNAAS,170130.0,18:03:51.195,R,160.2,SR,351.6,199.2
MNMBCKNAAS,170130.0,18:03:51.836,L,128.9,RL,671.9,511.7
MNMBCKNAAS,170130.0,18:03:55.578,R,140.6,RR,328.1,195.3
MNMBCKNAAS,170130.0,18:03:56.074,S,125.0,RS,511.7,371.1
MNMBCKNAAS,170130.0,18:03:56.621,R,152.3,SR,519.5,394.5
MNMBCKNAAS,170130.0,18:03:56.941,R,136.7,RR,335.9,183.6
MNMBCKNAAS,170130.0,18:03:57.285,L,160.2,RL,320.3,183.6
MNMBCKNAAS,170130.0,18:03:57.516,S,128.9,LS,261.7,101.6
MNMBCKNAAS,170130.0,18:03:57.914,R,140.6,SR,386.7,257.8
MNMBCKNAAS,170130.0,18:03:58.180,L,144.5,RL,261.7,121.1
MNMBCKNAAS,170130.0,18:03:58.492,S,136.7,LS,320.3,175.8
MNMBCKNAAS,170130.0,18:03:58.773,L,183.6,SL,234.4,97.7
MNMBCKNAAS,170130.0,18:03:58.973,R,160.2,LR,222.7,39.1
MNMBCKNAAS,170130.0,18:03:59.164,L,152.3,RL,199.2,39.1
MNMBCKNAAS,170130.0,18:03:59.523,S,136.7,LS,375.0,222.7
MNMBCKNAAS,170130.0,18:04:00.035,L,136.7,SL,511.7,375.0
MNMBCKNAAS,170130.0,18:04:00.379,R,168.0,LR,312.5,175.8
MNMBCKNAAS,170130.0,18:04:00.707,R,109.4,RR,386.7,218.8
MNMBCKNAAS,170130.0,18:04:01.898,S,109.4,RS,351.6,226.6
MNMBCKNAAS,170130.0,18:04:02.691,L,168.0,SL,734.4,625.0
MNMBCKNAAS,170130.0,18:04:02.934,R,7.8,LR,179.7,234.4
MNMBCKNAAS,170130.0,18:04:03.074,L,148.4,RL,179.7,234.4
MNMBCKNAAS,170130.0,18:04:03.332,S,136.7,LS,269.5,121.1
MNMBCKNAAS,170130.0,18:04:04.602,R,156.3,RR,351.6,175.8
MNMBCKNAAS,170130.0,18:04:05.094,L,199.2,RL,445.3,289.1
MNMBCKNAAS,170130.0,18:04:05.402,L,136.7,LL,375.0,175.8
MNMBCKNAAS,170130.0,18:04:05.723,S,144.5,LS,312.5,175.8
MNMBCKNAAS,170130.0,18:04:07.477,L,152.3,SL,570.3,441.4
MNMBCKNAAS,170130.0,18:04:07.668,R,136.7,LR,207.0,54.7
MNMBCKNAAS,170130.0,18:04:08.027,R,175.8,RR,320.3,183.6
MNMBCKNAAS,170130.0,18:04:08.316,R,144.5,RR,320.3,144.5
MNMBCKNAAS,170130.0,18:04:08.508,L,128.9,RL,207.0,62.5
MNMBCKNAAS,170130.0,18:04:08.852,S,144.5,LS,328.1,199.2
MNMBCKNAAS,170130.0,18:04:10.188,R,168.0,RR,328.1,175.8
MNMBCKNAAS,170130.0,18:04:10.594,R,175.8,RR,398.4,230.5
MNMBCKNAAS,170130.0,18:04:10.953,R,109.4,RR,425.8,250.0
MNMBCKNAAS,170130.0,18:04:13.293,S,121.1,RS,328.1,199.2
MNMBCKNAAS,170130.0,18:04:14.402,R,140.6,LR,250.0,121.1
MNMBCKNAAS,170130.0,18:04:14.668,S,121.1,RS,285.2,144.5
MNMBCKNAAS,170130.0,18:04:15.086,R,128.9,SR,410.2,289.1
MNMBCKNAAS,170130.0,18:04:17.781,L,168.0,RL,402.3,234.4
MNMBCKNAAS,170130.0,18:04:18.086,L,160.2,LL,312.5,144.5
MNMBCKNAAS,170130.0,18:04:21.539,R,160.2,LR,281.3,89.8
MNMBCKNAAS,170130.0,18:04:21.762,L,175.8,RL,207.0,46.9
MNMBCKNAAS,170130.0,18:04:22.059,S,144.5,LS,328.1,152.3
MNMBCKNAAS,170130.0,18:04:22.523,L,199.2,SL,410.2,265.6
MNMBCKNAAS,170130.0,18:04:22.828,L,152.3,LL,351.6,152.3
MNMBCKNAAS,170130.0,18:04:24.539,R,136.7,LR,289.1,121.1
MNMBCKNAAS,170130.0,18:04:25.051,L,136.7,RL,511.7,375.0
MNMBCKNAAS,170130.0,18:04:25.844,R,160.2,LR,769.5,632.8
MNMBCKNAAS,170130.0,18:04:26.914,R,101.6,RR,289.1,175.8
MNMBCKNAAS,170130.0,18:04:31.836,R,97.7,RR,214.8,117.2
MNMBCKNAAS,170130.0,18:04:32.402,R,101.6,RR,562.5,464.8
MNMBCKNAAS,170130.0,18:04:41.844,L,183.6,LL,289.1,144.5
MNMBCKNAAS,170130.0,18:04:42.195,L,144.5,LL,390.6,207.0
MNMBCKNAAS,170130.0,18:04:42.449,R,117.2,LR,281.3,136.7
MNMBCKNAAS,170130.0,18:04:46.461,R,152.3,SR,664.1,546.9
MNMBCKNAAS,170130.0,18:04:46.828,R,136.7,RR,382.8,230.5
MNMBCKNAAS,170130.0,18:04:48.141,R,160.2,LR,289.1,113.3
MNMBCKNAAS,170130.0,18:04:52.570,L,128.9,LL,253.9,132.8
MNMBCKNAAS,170130.0,18:05:00.586,S,125.0,RS,328.1,171.9
MNMBCKNAAS,170130.0,18:05:03.172,R,121.1,LR,328.1,168.0
MNMBCKNAAS,170130.0,18:05:03.469,L,128.9,RL,289.1,168.0
MNMBCKNAAS,170130.0,18:05:03.777,S,160.2,LS,277.3,148.4
MNMBCKNAAS,170130.0,18:05:04.461,L,152.3,SL,691.4,531.3
MNMBCKNAAS,170130.0,18:05:04.773,R,136.7,LR,328.1,175.8
MNMBCKNAAS,170130.0,18:05:05.102,R,105.5,RR,359.4,222.7
MNMBCKNAAS,170130.0,18:05:05.316,R,97.7,RR,222.7,117.2
MNMBCKNAAS,170130.0,18:05:05.715,L,191.4,RL,304.7,207.0
MNMBCKNAAS,170130.0,18:05:05.988,L,113.3,LL,351.6,160.2
MNMBCKNAAS,170130.0,18:05:06.395,S,128.9,LS,390.6,277.3
MNMBCKNAAS,170130.0,18:05:06.730,L,152.3,SL,312.5,183.6
MNMBCKNAAS,170130.0,18:05:06.941,R,156.3,LR,207.0,54.7
MNMBCKNAAS,170130.0,18:05:07.234,R,144.5,RR,304.7,148.4
MNMBCKNAAS,170130.0,18:05:07.758,L,160.2,RL,503.9,359.4
MNMBCKNAAS,170130.0,18:05:12.051,S,128.9,RS,445.3,269.5
MNMBCKNAAS,170130.0,18:05:13.965,L,187.5,LL,406.3,246.1
MNMBCKNAAS,170130.0,18:05:14.363,L,199.2,LL,386.7,199.2
MNMBCKNAAS,170130.0,18:05:14.762,L,168.0,LL,429.7,230.5
MNMBCKNAAS,170130.0,18:05:15.219,R,136.7,LR,488.3,320.3
MNMBCKNAAS,170130.0,18:05:16.676,L,175.8,LL,410.2,226.6
MNMBCKNAAS,170130.0,18:05:20.188,R,136.7,SR,414.1,253.9
MNMBCKNAAS,170130.0,18:05:20.594,R,160.2,RR,382.8,246.1
MNMBCKNAAS,170130.0,18:05:21.203,L,175.8,RL,593.8,433.6
MNMBCKNAAS,170130.0,18:05:21.570,R,144.5,LR,398.4,222.7
MNMBCKNAAS,170130.0,18:05:21.949,R,113.3,RR,410.2,265.6
MNMBCKNAAS,170130.0,18:05:22.234,R,93.8,RR,304.7,191.4
MNMBCKNAAS,170130.0,18:05:28.250,L,160.2,RL,253.9,93.8
MNMBCKNAAS,170130.0,18:05:28.586,S,136.7,LS,359.4,199.2
MNMBCKNAAS,170130.0,18:05:29.188,L,183.6,SL,554.7,418.0
MNMBCKNAAS,170130.0,18:05:29.539,L,183.6,LL,351.6,168.0
MNMBCKNAAS,170130.0,18:05:29.844,L,160.2,LL,328.1,144.5
MNMBCKNAAS,170130.0,18:05:30.586,L,183.6,LL,718.8,558.6
MNMBCKNAAS,170130.0,18:05:30.988,S,160.2,LS,425.8,242.2
MNMBCKNAAS,170130.0,18:05:31.355,L,191.4,SL,335.9,175.8
MNMBCKNAAS,170130.0,18:05:31.531,R,144.5,LR,222.7,31.3
MNMBCKNAAS,170130.0,18:05:31.820,L,168.0,RL,265.6,121.1
MNMBCKNAAS,170130.0,18:05:32.301,S,128.9,LS,519.5,351.6
MNMBCKNAAS,170130.0,18:05:35.770,L,168.0,RL,335.9,207.0
MNMBCKNAAS,170130.0,18:05:36.043,S,144.5,LS,296.9,128.9
MNMBCKNAAS,170130.0,18:05:36.395,R,152.3,SR,343.8,199.2
MNMBCKNAAS,170130.0,18:05:36.746,L,152.3,RL,351.6,199.2
MNMBCKNAAS,170130.0,18:05:37.121,S,140.6,LS,386.7,234.4
MNMBCKNAAS,170130.0,18:05:37.484,R,164.1,SR,339.8,199.2
MNMBCKNAAS,170130.0,18:05:38.164,R,156.3,RR,683.6,519.5
MNMBCKNAAS,170130.0,18:05:38.516,L,144.5,RL,367.2,210.9
MNMBCKNAAS,170130.0,18:05:38.793,S,117.2,LS,304.7,160.2
MNMBCKNAAS,170130.0,18:05:39.137,L,168.0,SL,293.0,175.8
MNMBCKNAAS,170130.0,18:05:39.379,R,152.3,LR,257.8,89.8
MNMBCKNAAS,170130.0,18:05:39.637,L,168.0,RL,242.2,89.8
MNMBCKNAAS,170130.0,18:05:39.965,S,97.7,LS,398.4,230.5
MNMBCKNAAS,170130.0,18:05:40.426,L,136.7,SL,421.9,324.2
MNMBCKNAAS,170130.0,18:05:40.730,R,144.5,LR,296.9,160.2
MNMBCKNAAS,170130.0,18:05:41.156,L,121.1,RL,449.2,304.7
MNMBCKNAAS,170130.0,18:05:41.410,L,128.9,LL,246.1,125.0
MNMBCKNAAS,170130.0,18:05:44.273,R,78.1,RR,328.1,207.0
MNMBCKNAAS,170130.0,18:05:44.500,R,105.5,RR,199.2,121.1
MNMBCKNAAS,170130.0,18:05:47.355,S,121.1,LS,289.1,144.5
MNMBCKNAAS,170130.0,18:05:48.762,L,144.5,RL,261.7,109.4
MNMBCKNAAS,170130.0,18:05:49.098,S,132.8,LS,347.7,203.1
MNMBCKNAAS,170130.0,18:05:49.594,L,168.0,SL,460.9,328.1
MNMBCKNAAS,170130.0,18:05:49.973,L,160.2,LL,386.7,218.8
MNMBCKNAAS,170130.0,18:05:50.371,L,175.8,LL,382.8,222.7
MNMBCKNAAS,170130.0,18:05:52.723,R,191.4,SR,527.3,390.6
MNMBCKNAAS,170130.0,18:05:54.555,S,128.9,RS,793.0,679.7
MNMBCKNAAS,170130.0,18:05:55.387,L,175.8,SL,785.2,656.3
MNMBCKNAAS,170130.0,18:05:55.570,R,74.2,LR,285.2,109.4
MNMBCKNAAS,170130.0,18:05:58.883,L,191.4,RL,367.2,222.7
MNMBCKNAAS,170130.0,18:06:00.219,L,62.5,RL,418.0,296.9
MNMBCKNAAS,170130.0,18:06:04.141,R,160.2,SR,609.4,472.7
MNMBCKNAAS,170130.0,18:06:04.777,R,148.4,RR,648.4,488.3
MNMBCKNAAS,170130.0,18:06:05.121,R,156.3,RR,335.9,187.5
MNMBCKNAAS,170130.0,18:06:05.461,S,128.9,RS,367.2,210.9
MNMBCKNAAS,170130.0,18:06:06.012,L,183.6,SL,496.1,367.2
MNMBCKNAAS,170130.0,18:06:06.395,L,175.8,LL,390.6,207.0
MNMBCKNAAS,170130.0,18:06:06.684,L,152.3,LL,312.5,136.7
MNMBCKNAAS,170130.0,18:06:07.066,R,175.8,LR,359.4,207.0
MNMBCKNAAS,170130.0,18:06:07.449,R,168.0,RR,390.6,214.8
MNMBCKNAAS,170130.0,18:06:10.523,R,113.3,RR,273.4,168.0
MNMBCKNAAS,170130.0,18:06:10.754,R,89.8,RR,253.9,140.6
MNMBCKNAAS,170130.0,18:06:14.484,S,136.7,LS,355.5,195.3
MNMBCKNAAS,170130.0,18:06:15.820,R,113.3,LR,343.8,183.6
MNMBCKNAAS,170130.0,18:06:16.156,R,89.8,RR,359.4,246.1
MNMBCKNAAS,170130.0,18:06:16.355,R,89.8,RR,199.2,109.4
MNMBCKNAAS,170130.0,18:06:16.770,S,152.3,RS,351.6,261.7
MNMBCKNAAS,170130.0,18:06:17.348,L,121.1,SL,609.4,457.0
MNMBCKNAAS,170130.0,18:06:17.828,L,175.8,LL,425.8,304.7
MNMBCKNAAS,170130.0,18:06:18.164,L,183.6,LL,328.1,152.3
MNMBCKNAAS,170130.0,18:06:18.461,L,160.2,LL,320.3,136.7
MNMBCKNAAS,170130.0,18:06:18.777,R,140.6,LR,335.9,175.8
MNMBCKNAAS,170130.0,18:06:19.203,S,144.5,RS,421.9,281.3
MNMBCKNAAS,170130.0,18:06:21.090,L,160.2,LL,460.9,285.2
MNMBCKNAAS,170130.0,18:06:21.508,L,281.3,LL,296.9,136.7
MNMBCKNAAS,170130.0,18:06:21.898,R,136.7,LR,535.2,253.9
MNMBCKNAAS,170130.0,18:06:24.188,R,136.7,LR,535.2,398.4
MNMBCKNAAS,170130.0,18:06:25.570,L,160.2,RL,472.7,312.5
MNMBCKNAAS,170130.0,18:06:25.984,R,125.0,LR,449.2,289.1
MNMBCKNAAS,170130.0,18:06:26.289,R,93.8,RR,335.9,210.9
MNMBCKNAAS,170130.0,18:06:26.738,R,113.3,RR,429.7,335.9
MNMBCKNAAS,170130.0,19:07:34.070,L,125.0,RL,335.9,187.5
MNMBCKNAAS,170130.0,19:07:38.625,R,140.6,LR,585.9,445.3
MNMBCKNAAS,170130.0,19:15:19.359,R,117.2,LR,585.9,437.5
MNMBCKNAAS,170130.0,19:15:19.555,R,85.9,RR,226.6,109.4
MNMBCKNAAS,170130.0,19:15:20.344,L,140.6,RL,734.4,648.4
MNMBCKNAAS,170130.0,23:33:36.922,L,187.5,LL,335.9,187.5
MNMBCKNAAS,170130.0,23:33:37.234,L,140.6,LL,359.4,171.9
MNMBCKNAAS,170130.0,23:33:37.672,R,132.8,LR,445.3,304.7
MNMBCKNAAS,170130.0,23:33:39.438,R,140.6,LR,359.4,203.1
MNMBCKNAAS,170130.0,23:33:39.859,R,164.1,RR,398.4,257.8
MNMBCKNAAS,170130.0,23:33:40.281,L,156.3,RL,429.7,265.6
MNMBCKNAAS,170130.0,23:33:40.680,L,148.4,LL,406.3,250.0
MNMBCKNAAS,170130.0,23:33:41.156,L,171.9,LL,453.1,304.7
MNMBCKNAAS,170130.0,23:33:41.609,L,179.7,LL,445.3,273.4
MNMBCKNAAS,170130.0,23:33:41.953,L,187.5,LL,335.9,156.3
MNMBCKNAAS,170130.0,23:33:42.398,R,125.0,LR,507.8,320.3
MNMBCKNAAS,170130.0,23:33:45.344,R,140.6,RR,445.3,226.6
MNMBCKNAAS,170130.0,23:33:45.883,R,148.4,RR,531.3,390.6
MNMBCKNAAS,170130.0,23:33:46.234,R,156.3,RR,343.8,195.3
MNMBCKNAAS,170130.0,23:33:47.609,L,187.5,RL,406.3,234.4
MNMBCKNAAS,170130.0,23:33:53.688,R,132.8,LR,265.6,109.4
MNMBCKNAAS,170130.0,23:33:53.977,R,93.8,RR,328.1,195.3
MNMBCKNAAS,170130.0,23:33:54.172,R,101.6,RR,187.5,93.8
MNMBCKNAAS,170130.0,23:33:54.469,R,140.6,RR,257.8,156.3
MNMBCKNAAS,170130.0,23:33:54.719,R,109.4,RR,281.3,140.6
MNMBCKNAAS,170130.0,23:33:54.961,L,156.3,RL,195.3,85.9
MNMBCKNAAS,170130.0,23:33:56.797,L,195.3,RL,640.6,523.4
MNMBCKNAAS,170130.0,23:33:56.992,R,125.0,LR,265.6,70.3
MNMBCKNAAS,170130.0,23:33:57.219,R,101.6,RR,250.0,125.0
MNMBCKNAAS,170130.0,23:35:11.297,R,109.4,RR,359.4,218.8
MNMBCKNAAS,170130.0,23:35:11.859,L,171.9,RL,500.0,390.6
MNMBCKNAAS,170130.0,23:35:12.156,R,164.1,LR,304.7,132.8
MNMBCKNAAS,170130.0,23:35:12.562,R,171.9,RR,398.4,234.4
MNMBCKNAAS,170130.0,23:36:29.055,R,140.6,RR,671.9,539.1
MNMBCKNAAS,170130.0,23:36:29.484,R,148.4,RR,421.9,281.3
MNMBCKNAAS,170130.0,23:36:29.820,L,156.3,RL,328.1,179.7
MNMBCKNAAS,170130.0,23:37:01.375,R,125.0,LR,312.5,132.8
MNMBCKNAAS,170130.0,23:37:01.695,R,125.0,RR,320.3,195.3
MNMBCKNAAS,170130.0,23:37:04.234,L,148.4,LL,617.2,437.5
MNMBCKNAAS,170130.0,23:37:04.562,L,125.0,LL,351.6,203.1
MNMBCKNAAS,170130.0,23:37:04.953,L,257.8,LL,257.8,132.8
MNMBCKNAAS,170130.0,23:37:05.273,L,140.6,LL,437.5,179.7
MNMBCKNAAS,170130.0,23:37:05.508,R,125.0,LR,250.0,109.4
MNMBCKNAAS,170130.0,23:37:06.852,L,132.8,RL,265.6,164.1
MNMBCKNAAS,170130.0,23:37:07.133,R,140.6,LR,273.4,140.6
MNMBCKNAAS,170130.0,23:37:07.391,R,109.4,RR,289.1,148.4
MNMBCKNAAS,170130.0,23:39:40.477,L,148.4,RL,289.1,140.6
MNMBCKNAAS,170130.0,23:39:40.836,L,187.5,LL,320.3,171.9
MNMBCKNAAS,170130.0,23:39:41.125,L,179.7,LL,296.9,109.4
MNMBCKNAAS,170130.0,23:39:44.641,R,164.1,RR,531.3,406.3
MNMBCKNAAS,170130.0,23:39:44.930,L,148.4,RL,304.7,140.6
MNMBCKNAAS,170130.0,23:39:45.156,S,109.4,LS,265.6,117.2
MNMBCKNAAS,170130.0,23:39:45.828,R,125.0,SR,351.6,546.9
MNMBCKNAAS,170130.0,23:39:46.820,R,125.0,RR,531.3,421.9
MNMBCKNAAS,170130.0,23:39:47.359,R,101.6,RR,562.5,437.5
MNMBCKNAAS,170130.0,23:39:47.672,L,171.9,RL,242.2,140.6
MNMBCKNAAS,170130.0,23:39:47.992,S,117.2,LS,375.0,203.1
MNMBCKNAAS,170130.0,23:39:53.633,L,171.9,RL,468.8,328.1
MNMBCKNAAS,170130.0,23:39:53.000,L,218.8,LL,320.3,148.4
MNMBCKNAAS,170130.0,23:39:54.227,L,156.3,LL,289.1,70.3
MNMBCKNAAS,170130.0,23:39:54.797,R,125.0,LR,601.6,445.3
MNMBCKNAAS,170130.0,23:39:55.414,L,132.8,RL,609.4,484.4
MNMBCKNAAS,170130.0,23:39:55.734,L,109.4,LL,343.8,210.9
MNMBCKNAAS,170130.0,23:40:02.195,R,148.4,SR,210.9,460.9
MNMBCKNAAS,170130.0,23:40:02.781,R,132.8,SR,281.3,179.7
MNMBCKNAAS,170130.0,23:40:02.000,L,109.4,RL,242.2,109.4
MNMBCKNAAS,170130.0,23:40:03.539,L,140.6,LL,507.8,398.4
MNMBCKNAAS,170130.0,23:40:03.930,L,148.4,LL,382.8,242.2
MNMBCKNAAS,170130.0,23:40:04.695,S,125.0,LS,789.1,640.6
MNMBCKNAAS,170130.0,23:40:06.633,S,117.2,LS,296.9,148.4
MNMBCKNAAS,170130.0,23:40:07.031,L,156.3,SL,359.4,242.2
MNMBCKNAAS,170130.0,23:40:07.297,R,125.0,LR,296.9,140.6
MNMBCKNAAS,170130.0,23:40:07.562,R,125.0,RR,265.6,140.6
MNMBCKNAAS,170130.0,23:40:07.945,R,109.4,RR,398.4,273.4
MNMBCKNAAS,170130.0,23:40:08.406,S,109.4,RS,460.9,351.6
MNMBCKNAAS,170130.0,23:40:08.969,R,132.8,SR,539.1,429.7
MNMBCKNAAS,170130.0,23:40:09.227,L,164.1,RL,226.6,93.8
MNMBCKNAAS,170130.0,23:40:09.570,S,164.1,LS,343.8,179.7
MNMBCKNAAS,170130.0,23:40:09.945,L,156.3,SL,382.8,218.8
MNMBCKNAAS,170130.0,23:40:10.102,R,109.4,LR,203.1,46.9
MNMBCKNAAS,170130.0,23:40:10.281,L,140.6,RL,148.4,39.1
MNMBCKNAAS,170130.0,23:40:10.617,S,125.0,LS,351.6,210.9
MNMBCKNAAS,170130.0,23:40:11.086,L,140.6,SL,453.1,328.1
MNMBCKNAAS,170130.0,23:40:11.297,R,125.0,LR,226.6,85.9
MNMBCKNAAS,170130.0,23:40:11.758,R,101.6,RR,484.4,359.4
MNMBCKNAAS,170130.0,23:40:11.977,R,85.9,RR,234.4,132.8
MNMBCKNAAS,170130.0,23:40:13.836,R,78.1,RR,257.8,140.6
MNMBCKNAAS,170130.0,23:40:13.938,R,62.5,RR,117.2,39.1
MNMBCKNAAS,170130.0,23:40:14.125,R,85.9,RR,164.1,101.6
MNMBCKNAAS,170130.0,23:40:14.625,R,109.4,RR,179.7,390.6
MNMBCKNAAS,170130.0,23:40:15.328,R,117.2,SR,390.6,265.6
MNMBCKNAAS,170130.0,23:40:15.797,L,187.5,RL,398.4,281.3
MNMBCKNAAS,170130.0,23:40:16.125,L,132.8,LL,382.8,195.3
MNMBCKNAAS,170130.0,23:40:16.344,L,117.2,LL,234.4,101.6
MNMBCKNAAS,170130.0,23:40:17.070,S,117.2,LS,726.6,609.4
MNMBCKNAAS,170130.0,23:40:17.492,R,132.8,SR,406.3,289.1
MNMBCKNAAS,170130.0,23:40:18.008,R,117.2,RR,531.3,398.4
MNMBCKNAAS,170130.0,23:40:18.227,L,132.8,RL,203.1,85.9
MNMBCKNAAS,170130.0,23:40:18.562,S,132.8,LS,335.9,203.1
MNMBCKNAAS,170130.0,23:40:19.328,L,179.7,SL,718.8,585.9
MNMBCKNAAS,170130.0,23:40:19.602,L,164.1,LL,289.1,109.4
MNMBCKNAAS,170130.0,23:40:26.398,R,148.4,LR,218.8,85.9
MNMBCKNAAS,170130.0,23:40:26.875,L,187.5,RL,437.5,289.1
MNMBCKNAAS,170130.0,23:40:27.141,L,156.3,LL,296.9,109.4
MNMBCKNAAS,170130.0,23:40:27.484,L,171.9,LL,328.1,171.9
MNMBCKNAAS,170130.0,23:40:30.539,S,109.4,LS,281.3,148.4
MNMBCKNAAS,170130.0,23:40:30.898,L,117.2,SL,351.6,242.2
MNMBCKNAAS,170130.0,23:40:31.141,R,125.0,LR,234.4,117.2
MNMBCKNAAS,170130.0,23:40:31.500,R,93.8,RR,390.6,265.6
MNMBCKNAAS,170130.0,23:40:31.719,R,85.9,RR,226.6,132.8
MNMBCKNAAS,170130.0,23:40:32.023,S,132.8,RS,257.8,171.9
MNMBCKNAAS,170130.0,23:40:32.516,R,125.0,SR,500.0,367.2
MNMBCKNAAS,170130.0,23:40:32.820,L,140.6,RL,289.1,164.1
MNMBCKNAAS,170130.0,23:40:33.125,L,132.8,LL,312.5,171.9
MNMBCKNAAS,170130.0,23:41:14.453,L,132.8,SL,593.8,453.1
MNMBCKNAAS,170130.0,23:41:14.820,R,148.4,LR,351.6,218.8
MNMBCKNAAS,170130.0,23:41:15.117,R,125.0,RR,320.3,171.9
MNMBCKNAAS,170130.0,23:41:17.445,S,140.6,LS,273.4,164.1
MNMBCKNAAS,170130.0,23:41:17.672,L,164.1,SL,203.1,62.5
MNMBCKNAAS,170130.0,23:41:17.914,R,140.6,LR,265.6,101.6
MNMBCKNAAS,170130.0,23:41:18.281,R,171.9,RR,335.9,195.3
MNMBCKNAAS,170130.0,23:41:18.586,R,125.0,RR,351.6,179.7
MNMBCKNAAS,170130.0,23:41:18.922,R,109.4,RR,351.6,226.6
MNMBCKNAAS,170130.0,23:41:21.555,R,117.2,LR,265.6,85.9
MNMBCKNAAS,170130.0,23:41:22.820,R,62.5,RR,257.8,171.9
MNMBCKNAAS,170130.0,23:41:23.016,R,85.9,RR,171.9,109.4
MNMBCKNAAS,170130.0,23:41:23.781,L,101.6,RL,437.5,664.1
MNMBCKNAAS,170130.0,23:41:24.469,L,140.6,RL,218.8,78.1
MNMBCKNAAS,170130.0,23:41:24.719,S,132.8,LS,257.8,117.2
MNMBCKNAAS,170130.0,23:41:25.438,R,109.4,SR,742.2,609.4
MNMBCKNAAS,170130.0,23:41:25.789,L,117.2,RL,343.8,234.4
MNMBCKNAAS,170130.0,23:41:27.008,R,148.4,LR,343.8,164.1
MNMBCKNAAS,170130.0,23:41:27.273,S,101.6,RS,312.5,164.1
MNMBCKNAAS,170130.0,23:41:27.992,R,164.1,SR,656.3,554.7
MNMBCKNAAS,170130.0,23:41:28.281,R,101.6,RR,351.6,187.5
MNMBCKNAAS,170130.0,23:41:28.555,S,109.4,RS,265.6,164.1
MNMBCKNAAS,170130.0,23:41:28.844,L,148.4,SL,250.0,140.6
MNMBCKNAAS,170130.0,23:41:28.984,R,125.0,LR,164.1,15.6
MNMBCKNAAS,170130.0,23:41:29.180,L,156.3,RL,164.1,39.1
MNMBCKNAAS,170130.0,23:41:29.430,S,132.8,LS,273.4,117.2
MNMBCKNAAS,170130.0,23:41:30.047,R,148.4,SR,601.6,468.8
MNMBCKNAAS,170130.0,23:41:30.438,R,109.4,RR,429.7,281.3
MNMBCKNAAS,170130.0,23:41:31.094,R,179.7,RR,585.9,476.6
MNMBCKNAAS,170130.0,23:41:31.477,R,109.4,RR,453.1,273.4
MNMBCKNAAS,170130.0,23:41:31.766,L,148.4,RL,250.0,140.6
MNMBCKNAAS,170130.0,23:41:32.055,S,132.8,LS,304.7,156.3
MNMBCKNAAS,170130.0,23:41:32.391,L,148.4,SL,320.3,187.5
MNMBCKNAAS,170130.0,23:41:32.688,R,109.4,LR,335.9,187.5
MNMBCKNAAS,170130.0,23:41:32.938,R,85.9,RR,273.4,164.1
MNMBCKNAAS,170130.0,23:41:34.148,S,140.6,LS,250.0,132.8
MNMBCKNAAS,170130.0,23:41:34.422,R,101.6,SR,312.5,171.9
MNMBCKNAAS,170130.0,23:41:34.625,L,156.3,RL,148.4,46.9
MNMBCKNAAS,170130.0,23:41:34.875,S,109.4,LS,296.9,140.6
MNMBCKNAAS,170130.0,23:41:35.453,L,132.8,SL,554.7,445.3
MNMBCKNAAS,170130.0,23:41:35.766,R,117.2,LR,328.1,195.3
MNMBCKNAAS,170130.0,23:41:36.133,S,140.6,RS,343.8,226.6
MNMBCKNAAS,170130.0,23:41:39.344,R,148.4,LR,601.6,414.1
MNMBCKNAAS,170130.0,23:41:39.906,S,140.6,RS,570.3,421.9
MNMBCKNAAS,170130.0,23:41:41.133,R,164.1,LR,250.0,93.8
MNMBCKNAAS,170130.0,23:41:41.438,R,179.7,RR,289.1,125.0
MNMBCKNAAS,170130.0,23:41:41.867,L,164.1,RL,445.3,265.6
MNMBCKNAAS,170130.0,23:41:42.258,S,109.4,LS,445.3,281.3
MNMBCKNAAS,170130.0,23:41:44.242,L,171.9,SL,507.8,375.0
MNMBCKNAAS,170130.0,23:41:44.703,L,171.9,LL,460.9,289.1
MNMBCKNAAS,170130.0,23:41:45.016,L,132.8,LL,351.6,179.7
MNMBCKNAAS,170130.0,23:41:45.391,S,148.4,LS,359.4,226.6
MNMBCKNAAS,170130.0,23:41:45.695,L,171.9,SL,281.3,132.8
MNMBCKNAAS,170130.0,23:41:45.906,S,109.4,LS,273.4,101.6
MNMBCKNAAS,170130.0,23:41:47.117,R,109.4,LR,250.0,85.9
MNMBCKNAAS,170130.0,23:41:47.375,R,125.0,RR,242.2,132.8
MNMBCKNAAS,170130.0,23:41:47.984,R,109.4,RR,625.0,500.0
MNMBCKNAAS,170130.0,23:42:33.398,R,78.1,RR,195.3,117.2
MNMBCKNAAS,170130.0,23:42:33.797,S,93.8,RS,382.8,304.7
MNMBCKNAAS,170130.0,23:42:34.430,R,125.0,SR,273.4,507.8
MNMBCKNAAS,170130.0,23:42:35.250,L,203.1,SL,375.0,250.0
MNMBCKNAAS,170130.0,23:42:36.703,R,132.8,LR,281.3,93.8
MNMBCKNAAS,170130.0,23:42:36.984,L,140.6,RL,273.4,140.6
MNMBCKNAAS,170130.0,23:42:37.242,S,125.0,LS,273.4,132.8
MNMBCKNAAS,170130.0,23:42:37.625,R,140.6,SR,367.2,242.2
MNMBCKNAAS,170130.0,23:42:37.922,L,156.3,RL,281.3,140.6
MNMBCKNAAS,170130.0,23:42:38.156,S,117.2,LS,273.4,117.2
MNMBCKNAAS,170130.0,23:42:38.430,L,156.3,SL,234.4,117.2
MNMBCKNAAS,170130.0,23:42:38.586,R,117.2,LR,195.3,39.1
MNMBCKNAAS,170130.0,23:42:38.805,L,164.1,RL,171.9,54.7
MNMBCKNAAS,170130.0,23:42:39.062,S,132.8,LS,289.1,125.0
MNMBCKNAAS,170130.0,23:42:39.484,L,117.2,SL,437.5,304.7
MNMBCKNAAS,170130.0,23:42:39.719,R,117.2,LR,234.4,117.2
MNMBCKNAAS,170130.0,23:42:39.977,R,109.4,RR,265.6,148.4
MNMBCKNAAS,170130.0,23:42:40.359,R,125.0,RR,367.2,257.8
MNMBCKNAAS,170130.0,23:42:40.688,S,101.6,RS,351.6,226.6
MNMBCKNAAS,170130.0,23:42:41.766,L,125.0,RL,218.8,93.8
MNMBCKNAAS,170130.0,23:42:42.047,S,140.6,LS,265.6,140.6
MNMBCKNAAS,170130.0,23:42:42.445,R,101.6,SR,437.5,296.9
MNMBCKNAAS,170130.0,23:42:42.836,R,101.6,RR,390.6,289.1
MNMBCKNAAS,170130.0,23:42:43.188,S,109.4,RS,343.8,242.2
MNMBCKNAAS,170130.0,23:42:43.820,L,117.2,SL,625.0,515.6
MNMBCKNAAS,170130.0,23:42:44.070,R,117.2,LR,250.0,132.8
MNMBCKNAAS,170130.0,23:42:44.359,R,93.8,RR,312.5,195.3
MNMBCKNAAS,170130.0,23:42:44.539,R,85.9,RR,187.5,93.8
MNMBCKNAAS,170130.0,23:42:46.594,L,132.8,SL,328.1,226.6
MNMBCKNAAS,170130.0,23:42:46.766,R,132.8,LR,171.9,39.1
MNMBCKNAAS,170130.0,23:42:47.047,L,179.7,RL,234.4,101.6
MNMBCKNAAS,170130.0,23:42:47.297,L,117.2,LL,312.5,132.8
MNMBCKNAAS,170130.0,23:42:47.875,S,125.0,LS,570.3,453.1
MNMBCKNAAS,170130.0,23:42:48.258,R,117.2,SR,390.6,265.6
MNMBCKNAAS,170130.0,23:42:48.531,L,109.4,RL,281.3,164.1
MNMBCKNAAS,170130.0,23:42:49.195,R,85.9,LR,687.5,578.1
MNMBCKNAAS,170130.0,23:42:49.406,R,78.1,RR,218.8,132.8
MNMBCKNAAS,170130.0,23:42:49.711,S,132.8,RS,250.0,171.9
MNMBCKNAAS,170130.0,23:42:50.078,R,101.6,SR,398.4,265.6
MNMBCKNAAS,170130.0,23:42:50.359,L,132.8,RL,250.0,148.4
MNMBCKNAAS,170130.0,23:42:50.719,L,117.2,LL,375.0,242.2
MNMBCKNAAS,170130.0,23:42:50.953,L,109.4,LL,242.2,125.0
MNMBCKNAAS,170130.0,23:42:51.234,S,132.8,LS,257.8,148.4
MNMBCKNAAS,170130.0,23:42:51.523,L,132.8,SL,289.1,156.3
MNMBCKNAAS,170130.0,23:42:51.859,L,125.0,LL,343.8,210.9
MNMBCKNAAS,170130.0,23:42:52.094,R,117.2,LR,242.2,117.2
MNMBCKNAAS,170130.0,23:42:52.453,R,109.4,RR,367.2,250.0
MNMBCKNAAS,170130.0,23:42:53.125,L,140.6,RL,640.6,531.3
MNMBCKNAAS,170130.0,23:42:53.391,L,117.2,LL,289.1,148.4
MNMBCKNAAS,170130.0,23:42:53.781,S,109.4,LS,398.4,281.3
MNMBCKNAAS,170130.0,23:42:54.305,L,148.4,SL,484.4,375.0
MNMBCKNAAS,170130.0,23:42:54.555,R,125.0,LR,273.4,125.0
MNMBCKNAAS,170130.0,23:42:54.844,S,101.6,RS,312.5,187.5
MNMBCKNAAS,170130.0,23:42:55.508,L,164.1,SL,601.6,500.0
MNMBCKNAAS,170130.0,23:42:55.805,L,171.9,LL,289.1,125.0
MNMBCKNAAS,170130.0,23:42:56.055,R,117.2,LR,304.7,132.8
MNMBCKNAAS,170130.0,23:42:56.648,L,125.0,RL,585.9,468.8
MNMBCKNAAS,170130.0,23:42:56.930,S,109.4,LS,296.9,171.9
MNMBCKNAAS,170130.0,23:42:57.320,L,156.3,SL,343.8,234.4
MNMBCKNAAS,170130.0,23:42:57.609,R,203.1,LR,242.2,85.9
MNMBCKNAAS,170130.0,23:42:59.734,R,109.4,SR,734.4,617.2
MNMBCKNAAS,170130.0,23:42:59.977,L,125.0,RL,226.6,117.2
MNMBCKNAAS,170130.0,23:45:24.719,R,179.7,LR,226.6,54.7
MNMBCKNAAS,170130.0,23:45:25.016,L,164.1,RL,312.5,132.8
MNMBCKNAAS,170130.0,23:45:25.258,L,140.6,LL,265.6,101.6
MNMBCKNAAS,170130.0,23:45:30.570,R,125.0,RR,289.1,179.7
MNMBCKNAAS,170130.0,23:45:30.875,L,156.3,RL,273.4,148.4
MNMBCKNAAS,170130.0,23:45:31.258,R,101.6,LR,437.5,281.3
MNMBCKNAAS,170130.0,23:45:32.961,L,164.1,LL,531.3,367.2
MNMBCKNAAS,170130.0,23:45:33.172,R,140.6,LR,234.4,70.3
MNMBCKNAAS,170130.0,23:45:33.492,R,132.8,RR,328.1,187.5
MNMBCKNAAS,170130.0,23:45:46.062,L,164.1,RL,398.4,250.0
MNMBCKNAAS,170130.0,23:45:46.797,R,140.6,LR,757.8,593.8
MNMBCKNAAS,170130.0,23:45:47.109,R,140.6,RR,312.5,171.9
MNMBCKNAAS,170130.0,23:45:47.453,L,226.6,RL,257.8,117.2
MNMBCKNAAS,170130.0,23:45:47.695,L,125.0,LL,343.8,117.2
MNMBCKNAAS,170130.0,23:45:57.352,L,164.1,SL,554.7,414.1
MNMBCKNAAS,170130.0,23:45:57.609,R,148.4,LR,273.4,109.4
MNMBCKNAAS,170130.0,23:45:58.109,S,125.0,RS,523.4,375.0
MNMBCKNAAS,170130.0,23:45:58.914,L,210.9,SL,718.8,593.8
MNMBCKNAAS,170130.0,23:45:59.203,L,179.7,LL,320.3,109.4
MNMBCKNAAS,170130.0,23:45:59.516,R,148.4,LR,343.8,164.1
MNMBCKNAAS,170130.0,23:45:59.930,R,140.6,RR,421.9,273.4
MNMBCKNAAS,170130.0,23:46:00.234,R,117.2,RR,328.1,187.5
MNMBCKNAAS,170130.0,23:46:00.484,L,164.1,RL,203.1,85.9
MNMBCKNAAS,170130.0,23:46:00.844,S,109.4,LS,414.1,250.0
MNMBCKNAAS,170130.0,23:46:03.258,R,109.4,LR,273.4,85.9
MNMBCKNAAS,170130.0,23:46:03.766,S,132.8,RS,484.4,375.0
MNMBCKNAAS,170130.0,23:46:05.133,L,156.3,LL,289.1,101.6
MNMBCKNAAS,170130.0,23:46:05.602,L,132.8,LL,492.2,335.9
MNMBCKNAAS,170130.0,23:46:05.977,S,125.0,LS,382.8,250.0
MNMBCKNAAS,170130.0,23:46:06.258,L,101.6,SL,304.7,179.7
MNMBCKNAAS,170130.0,23:46:06.523,S,101.6,LS,265.6,164.1
MNMBCKNAAS,170130.0,23:46:07.195,L,140.6,SL,632.8,531.3
MNMBCKNAAS,170130.0,23:46:07.445,R,156.3,LR,234.4,93.8
MNMBCKNAAS,170130.0,23:46:07.734,R,132.8,RR,312.5,156.3
MNMBCKNAAS,170130.0,23:46:10.062,S,125.0,RS,734.4,640.6
MNMBCKNAAS,170130.0,23:46:11.406,L,171.9,RL,234.4,101.6
MNMBCKNAAS,170130.0,23:46:11.633,S,109.4,LS,289.1,117.2
MNMBCKNAAS,170130.0,23:46:16.023,S,132.8,RS,453.1,328.1
MNMBCKNAAS,170130.0,23:46:16.594,L,171.9,SL,531.3,398.4
MNMBCKNAAS,170130.0,23:46:16.797,R,109.4,LR,265.6,93.8
MNMBCKNAAS,170130.0,23:46:17.211,R,117.2,RR,406.3,296.9
MNMBCKNAAS,170130.0,23:46:17.977,R,101.6,RR,781.3,664.1
MNMBCKNAAS,170130.0,23:46:18.453,S,125.0,RS,453.1,351.6
MNMBCKNAAS,170130.0,23:46:19.883,R,132.8,LR,234.4,109.4
MNMBCKNAAS,170130.0,23:46:20.156,L,195.3,RL,210.9,78.1
MNMBCKNAAS,170130.0,23:46:20.398,L,148.4,LL,289.1,93.8
MNMBCKNAAS,170130.0,23:46:20.617,S,125.0,LS,242.2,93.8
MNMBCKNAAS,170130.0,23:46:21.125,R,117.2,SR,195.3,390.6
MNMBCKNAAS,170130.0,23:46:21.898,R,140.6,SR,343.8,210.9
MNMBCKNAAS,170130.0,23:46:22.258,L,226.6,RL,273.4,132.8
MNMBCKNAAS,170130.0,23:46:22.562,L,171.9,LL,359.4,132.8
MNMBCKNAAS,170130.0,23:46:22.766,L,156.3,LL,218.8,46.9
MNMBCKNAAS,170130.0,23:46:23.047,S,148.4,LS,289.1,132.8
MNMBCKNAAS,170130.0,23:46:23.531,R,148.4,SR,484.4,335.9
MNMBCKNAAS,170130.0,23:46:23.906,R,156.3,RR,367.2,218.8
MNMBCKNAAS,170130.0,23:46:24.156,L,164.1,RL,242.2,85.9
MNMBCKNAAS,170130.0,23:46:24.430,S,132.8,LS,304.7,140.6
MNMBCKNAAS,170130.0,23:46:25.203,L,171.9,SL,734.4,601.6
MNMBCKNAAS,170130.0,23:46:25.898,L,148.4,LL,718.8,546.9
MNMBCKNAAS,170130.0,23:46:28.383,L,140.6,LL,312.5,125.0
MNMBCKNAAS,170130.0,23:46:28.594,R,156.3,LR,203.1,62.5
MNMBCKNAAS,170130.0,23:46:28.992,L,171.9,RL,382.8,226.6
MNMBCKNAAS,170130.0,23:46:29.297,L,132.8,LL,343.8,171.9
MNMBCKNAAS,170130.0,23:46:29.578,L,125.0,LL,289.1,156.3
MNMBCKNAAS,170130.0,23:46:30.328,S,125.0,LS,750.0,625.0
MNMBCKNAAS,170130.0,23:46:31.516,L,179.7,RL,210.9,85.9
MNMBCKNAAS,170130.0,23:46:32.062,L,132.8,LL,593.8,414.1
MNMBCKNAAS,170130.0,23:46:36.773,S,125.0,RS,250.0,140.6
MNMBCKNAAS,170130.0,23:46:39.000,R,101.6,SR,265.6,796.9
MNMBCKNAAS,170130.0,23:46:40.031,R,148.4,SR,523.4,390.6
MNMBCKNAAS,170130.0,23:46:40.312,R,140.6,RR,289.1,140.6
MNMBCKNAAS,170130.0,23:46:42.875,S,132.8,LS,679.7,523.4
MNMBCKNAAS,170130.0,23:46:43.406,R,140.6,SR,523.4,390.6
MNMBCKNAAS,170130.0,23:46:43.633,L,132.8,RL,234.4,93.8
MNMBCKNAAS,170130.0,23:46:43.922,S,132.8,LS,289.1,156.3
MNMBCKNAAS,170130.0,23:46:44.156,R,140.6,SR,226.6,93.8
MNMBCKNAAS,170130.0,23:46:44.391,L,148.4,RL,226.6,85.9
MNMBCKNAAS,170130.0,23:46:44.680,S,117.2,LS,320.3,171.9
MNMBCKNAAS,170130.0,23:46:45.930,R,125.0,LR,242.2,101.6
MNMBCKNAAS,170130.0,23:46:46.133,L,148.4,RL,179.7,54.7
MNMBCKNAAS,170130.0,23:46:48.703,R,62.5,RR,242.2,140.6
MNMBCKNAAS,170130.0,23:46:48.883,R,62.5,RR,179.7,117.2
MNMBCKNAAS,170130.0,23:49:13.484,L,179.7,RL,664.1,539.1
MNMBCKNAAS,170130.0,23:49:13.688,R,125.0,LR,257.8,78.1
MNMBCKNAAS,170130.0,23:49:13.992,R,109.4,RR,320.3,195.3
MNMBCKNAAS,170130.0,23:49:14.367,L,187.5,RL,296.9,187.5
MNMBCKNAAS,170130.0,23:49:14.695,L,187.5,LL,328.1,140.6
MNMBCKNAAS,170130.0,23:49:20.648,L,101.6,LL,429.7,281.3
MNMBCKNAAS,170130.0,23:49:20.859,L,132.8,LL,179.7,78.1
MNMBCKNAAS,170130.0,23:49:21.094,R,125.0,LR,234.4,101.6
MNMBCKNAAS,170130.0,23:49:21.523,R,171.9,RR,390.6,265.6
MNMBCKNAAS,170130.0,23:49:22.648,R,109.4,LR,304.7,156.3
MNMBCKNAAS,170130.0,23:58:35.773,R,132.8,LR,289.1,125.0
MNMBCKNAAS,170130.0,23:58:36.148,R,195.3,RR,312.5,179.7
MNMBCKNAAS,170130.0,23:58:36.406,L,164.1,RL,289.1,93.8
MNMBCKNAAS,170130.0,23:58:36.938,R,140.6,LR,554.7,390.6
MNMBCKNAAS,170130.0,23:58:37.266,L,203.1,RL,265.6,125.0
MNMBCKNAAS,170130.0,23:58:49.578,R,132.8,SR,367.2,203.1
MNMBCKNAAS,170130.0,23:58:49.859,L,148.4,RL,265.6,132.8
MNMBCKNAAS,170130.0,23:58:50.289,L,164.1,LL,414.1,265.6
MNMBCKNAAS,170130.0,23:58:50.578,L,140.6,LL,312.5,148.4
MNMBCKNAAS,170130.0,23:58:53.836,S,164.1,LS,343.8,226.6
MNMBCKNAAS,170130.0,23:58:54.820,R,117.2,LR,210.9,78.1
MNMBCKNAAS,170130.0,23:58:54.000,L,125.0,RL,171.9,54.7
MNMBCKNAAS,170130.0,23:58:55.258,S,109.4,LS,265.6,140.6
MNMBCKNAAS,170130.0,23:58:55.844,L,132.8,SL,570.3,460.9
MNMBCKNAAS,170130.0,23:58:56.133,S,117.2,LS,304.7,171.9
MNMBCKNAAS,170130.0,23:58:56.766,L,125.0,SL,625.0,507.8
MNMBCKNAAS,170130.0,23:58:57.195,R,187.5,LR,367.2,242.2
MNMBCKNAAS,170130.0,23:58:58.227,R,70.3,RR,304.7,203.1
MNMBCKNAAS,170130.0,23:58:58.648,S,117.2,RS,375.0,304.7
MNMBCKNAAS,170130.0,23:58:59.242,R,117.2,SR,593.8,476.6
MNMBCKNAAS,170130.0,23:58:59.570,R,156.3,RR,289.1,171.9
MNMBCKNAAS,170130.0,23:58:59.914,R,117.2,RR,382.8,226.6
MNMBCKNAAS,170130.0,23:59:01.258,L,125.0,RL,460.9,367.2
MNMBCKNAAS,170130.0,23:59:01.438,R,109.4,LR,195.3,70.3
MNMBCKNAAS,170130.0,23:59:01.820,L,125.0,RL,367.2,257.8
MNMBCKNAAS,170130.0,23:59:02.266,S,148.4,LS,421.9,296.9
MNMBCKNAAS,170130.0,23:59:02.992,L,171.9,SL,703.1,554.7
MNMBCKNAAS,170130.0,23:59:03.242,L,109.4,LL,312.5,140.6
MNMBCKNAAS,170130.0,23:59:03.656,L,156.3,LL,367.2,257.8
MNMBCKNAAS,170130.0,23:59:03.906,L,78.1,LL,328.1,171.9
MNMBCKNAAS,170130.0,23:59:04.109,L,93.8,LL,187.5,109.4
MNMBCKNAAS,170130.0,23:59:04.523,R,109.4,LR,398.4,304.7
MNMBCKNAAS,170131.0,00:00:44.676,R,159.0,LR,512.0,353.0
MNMBCKNAAS,170131.0,00:01:16.060,R,128.0,SR,303.0,503.0
MNMBCKNAAS,170131.0,00:01:37.292,R,144.0,LR,256.0,128.0
MNMBCKNAAS,170131.0,00:01:37.572,R,120.0,RR,304.0,160.0
MNMBCKNAAS,170131.0,00:01:41.052,S,152.0,LS,312.0,184.0
MNMBCKNAAS,170131.0,00:01:41.380,R,136.0,SR,344.0,192.0
MNMBCKNAAS,170131.0,00:01:41.636,L,136.0,RL,256.0,120.0
MNMBCKNAAS,170131.0,00:01:42.060,L,136.0,LL,424.0,288.0
MNMBCKNAAS,170131.0,00:01:42.316,L,144.0,LL,248.0,112.0
MNMBCKNAAS,170131.0,00:01:42.644,S,112.0,LS,360.0,216.0
MNMBCKNAAS,170131.0,00:01:43.372,L,152.0,SL,688.0,576.0
MNMBCKNAAS,170131.0,00:01:43.668,S,136.0,LS,312.0,160.0
MNMBCKNAAS,170131.0,00:01:44.413,L,136.0,SL,745.0,609.0
MNMBCKNAAS,170131.0,00:01:44.749,R,120.0,LR,352.0,216.0
MNMBCKNAAS,170131.0,00:01:45.453,R,104.0,RR,720.0,600.0
MNMBCKNAAS,170131.0,00:01:45.653,R,88.0,RR,216.0,112.0
MNMBCKNAAS,170131.0,00:01:46.061,S,168.0,RS,328.0,240.0
MNMBCKNAAS,170131.0,00:01:46.477,L,175.0,SL,408.0,240.0
MNMBCKNAAS,170131.0,00:01:47.981,L,152.0,LL,359.0,216.0
MNMBCKNAAS,170131.0,00:01:48.252,L,96.0,LL,328.0,176.0
MNMBCKNAAS,170131.0,00:01:48.420,L,64.0,LL,200.0,104.0
MNMBCKNAAS,170131.0,00:01:48.836,R,136.0,LR,344.0,280.0
MNMBCKNAAS,170131.0,00:01:49.148,S,136.0,RS,312.0,176.0
MNMBCKNAAS,170131.0,00:01:49.620,R,144.0,SR,464.0,328.0
MNMBCKNAAS,170131.0,00:01:49.980,R,136.0,RR,368.0,224.0
MNMBCKNAAS,170131.0,00:01:50.244,S,120.0,RS,280.0,144.0
MNMBCKNAAS,170131.0,00:01:50.500,R,120.0,SR,256.0,136.0
MNMBCKNAAS,170131.0,00:01:50.836,R,136.0,RR,320.0,200.0
MNMBCKNAAS,170131.0,00:01:51.164,S,128.0,RS,336.0,200.0
MNMBCKNAAS,170131.0,00:01:52.044,R,304.0,SR,704.0,576.0
MNMBCKNAAS,170131.0,00:01:53.420,R,168.0,RR,672.0,480.0
MNMBCKNAAS,170131.0,00:01:53.772,R,144.0,RR,376.0,208.0
MNMBCKNAAS,170131.0,00:01:54.060,L,136.0,RL,296.0,152.0
MNMBCKNAAS,170131.0,00:01:54.652,R,136.0,LR,592.0,456.0
MNMBCKNAAS,170131.0,00:01:54.996,L,128.0,RL,352.0,216.0
MNMBCKNAAS,170131.0,00:01:58.532,L,160.0,SL,224.0,88.0
MNMBCKNAAS,170131.0,00:01:58.788,L,111.0,LL,305.0,145.0
MNMBCKNAAS,170131.0,00:01:59.156,R,120.0,LR,359.0,248.0
MNMBCKNAAS,170131.0,00:01:59.396,S,112.0,RS,248.0,128.0
MNMBCKNAAS,170131.0,00:02:00.084,R,144.0,SR,656.0,544.0
MNMBCKNAAS,170131.0,00:02:00.244,R,136.0,RR,168.0,24.0
MNMBCKNAAS,170131.0,00:02:00.517,R,137.0,RR,272.0,136.0
MNMBCKNAAS,170131.0,00:02:00.796,S,128.0,RS,288.0,151.0
MNMBCKNAAS,170131.0,00:02:01.452,R,152.0,SR,632.0,504.0
MNMBCKNAAS,170131.0,00:02:01.781,L,153.0,RL,328.0,176.0
MNMBCKNAAS,170131.0,00:02:03.036,R,127.0,RR,288.0,185.0
MNMBCKNAAS,170131.0,00:02:03.381,S,152.0,RS,319.0,192.0
MNMBCKNAAS,170131.0,00:02:03.652,R,120.0,SR,304.0,152.0
MNMBCKNAAS,170131.0,00:02:03.860,L,128.0,RL,200.0,80.0
MNMBCKNAAS,170131.0,00:03:18.068,R,136.0,LR,296.0,128.0
MNMBCKNAAS,170131.0,00:03:18.396,R,128.0,RR,336.0,200.0
MNMBCKNAAS,170131.0,00:03:22.987,S,108.0,LS,340.0,220.0
MNMBCKNAAS,170131.0,00:03:23.291,R,120.0,SR,292.0,184.0
MNMBCKNAAS,170131.0,00:03:23.555,L,136.0,RL,248.0,128.0
MNMBCKNAAS,170131.0,00:03:23.819,L,136.0,LL,264.0,128.0
MNMBCKNAAS,170131.0,00:03:24.059,L,136.0,LL,240.0,104.0
MNMBCKNAAS,170131.0,00:03:24.307,S,136.0,LS,248.0,112.0
MNMBCKNAAS,170131.0,00:03:24.539,L,128.0,SL,240.0,104.0
MNMBCKNAAS,170131.0,00:03:24.755,S,112.0,LS,232.0,104.0
MNMBCKNAAS,170131.0,00:03:25.395,L,120.0,SL,632.0,520.0
MNMBCKNAAS,170131.0,00:03:25.659,R,120.0,LR,264.0,144.0
MNMBCKNAAS,170131.0,00:03:26.203,R,88.0,RR,576.0,456.0
MNMBCKNAAS,170131.0,00:03:26.403,R,88.0,RR,200.0,112.0
MNMBCKNAAS,170131.0,00:03:26.835,S,104.0,RS,416.0,328.0
MNMBCKNAAS,170131.0,00:03:27.979,L,168.0,LL,256.0,88.0
MNMBCKNAAS,170131.0,00:03:28.323,L,160.0,LL,352.0,184.0
MNMBCKNAAS,170131.0,00:03:28.563,L,96.0,LL,304.0,144.0
MNMBCKNAAS,170131.0,00:03:28.755,L,96.0,LL,192.0,96.0
MNMBCKNAAS,170131.0,00:03:29.156,R,121.0,LR,376.0,280.0
MNMBCKNAAS,170131.0,00:03:29.404,S,104.0,RS,265.0,144.0
MNMBCKNAAS,170131.0,00:03:30.220,R,152.0,SR,768.0,664.0
MNMBCKNAAS,170131.0,00:03:30.597,R,89.0,RR,440.0,288.0
MNMBCKNAAS,170131.0,00:03:31.212,S,144.0,RS,560.0,471.0
MNMBCKNAAS,170131.0,00:03:31.948,R,120.0,SR,760.0,616.0
MNMBCKNAAS,170131.0,00:03:32.620,R,144.0,RR,648.0,528.0
MNMBCKNAAS,170131.0,00:03:33.012,S,120.0,RS,416.0,272.0
MNMBCKNAAS,170131.0,00:03:34.284,R,144.0,RR,336.0,160.0
MNMBCKNAAS,170131.0,00:03:34.820,R,144.0,RR,536.0,392.0
MNMBCKNAAS,170131.0,00:03:35.156,R,136.0,RR,344.0,200.0
MNMBCKNAAS,170131.0,00:03:35.524,L,144.0,RL,360.0,224.0
MNMBCKNAAS,170131.0,00:03:37.164,L,136.0,RL,312.0,192.0
MNMBCKNAAS,170131.0,00:03:45.601,R,94.0,RR,224.0,120.0
MNMBCKNAAS,170131.0,00:03:45.747,R,88.0,RR,152.0,58.0
MNMBCKNAAS,170131.0,00:03:46.307,R,104.0,RR,264.0,456.0
MNMBCKNAAS,170131.0,00:03:47.820,R,120.0,LR,376.0,208.0
MNMBCKNAAS,170131.0,00:03:48.084,S,96.0,RS,288.0,168.0
MNMBCKNAAS,170131.0,00:03:48.708,R,120.0,SR,600.0,504.0
MNMBCKNAAS,170131.0,00:03:48.964,L,48.0,RL,328.0,208.0
MNMBCKNAAS,170131.0,00:03:54.115,L,112.0,LL,200.0,88.0
MNMBCKNAAS,170131.0,00:03:54.427,R,128.0,LR,296.0,184.0
MNMBCKNAAS,170131.0,00:03:54.923,R,144.0,RR,480.0,352.0
MNMBCKNAAS,170131.0,00:03:56.187,S,128.0,LS,384.0,264.0
MNMBCKNAAS,170131.0,00:03:57.619,R,136.0,LR,296.0,128.0
MNMBCKNAAS,170131.0,00:03:57.995,R,136.0,RR,376.0,240.0
MNMBCKNAAS,170131.0,00:03:58.307,R,160.0,RR,288.0,152.0
MNMBCKNAAS,170131.0,00:03:58.675,L,128.0,RL,400.0,240.0
MNMBCKNAAS,170131.0,00:03:59.339,L,144.0,LL,648.0,520.0
MNMBCKNAAS,170131.0,00:03:59.747,S,136.0,LS,416.0,272.0
MNMBCKNAAS,170131.0,00:04:00.275,L,136.0,SL,528.0,392.0
MNMBCKNAAS,170131.0,00:04:00.923,S,112.0,LS,672.0,536.0
MNMBCKNAAS,170131.0,00:04:01.587,R,144.0,SR,632.0,520.0
MNMBCKNAAS,170131.0,00:04:01.915,R,152.0,RR,320.0,176.0
MNMBCKNAAS,170131.0,00:04:02.219,L,160.0,RL,296.0,144.0
MNMBCKNAAS,170131.0,00:13:57.575,R,199.0,SR,248.0,504.0
MNMBCKNAAS,170131.0,00:13:58.454,L,168.0,LL,191.0,47.0
MNMBCKNAAS,170131.0,00:14:01.343,S,152.0,LS,336.0,168.0
MNMBCKNAAS,170131.0,00:14:01.887,L,152.0,SL,544.0,392.0
MNMBCKNAAS,170131.0,00:14:02.159,S,120.0,LS,304.0,152.0
MNMBCKNAAS,170131.0,00:14:02.647,L,168.0,SL,440.0,320.0
MNMBCKNAAS,170131.0,00:14:03.319,R,207.9,LR,632.0,464.1
MNMBCKNAAS,170131.0,00:14:03.975,R,95.9,RR,768.0,560.1
MNMBCKNAAS,170131.0,00:14:04.239,R,88.0,RR,272.0,176.0
MNMBCKNAAS,170131.0,00:14:04.591,S,80.0,RS,360.0,272.0
MNMBCKNAAS,170131.0,00:14:05.191,R,120.0,SR,312.0,480.0
MNMBCKNAAS,170131.0,00:14:06.047,R,144.0,RR,384.0,224.0
MNMBCKNAAS,170131.0,00:14:06.471,R,136.0,RR,432.0,288.0
MNMBCKNAAS,170131.0,00:14:06.879,L,152.0,RL,392.0,256.0
MNMBCKNAAS,170131.0,00:14:07.255,R,136.0,LR,392.0,240.0
MNMBCKNAAS,170131.0,00:14:07.647,L,152.0,RL,376.0,240.0
MNMBCKNAAS,170131.0,00:14:07.943,S,112.0,LS,336.0,184.0
MNMBCKNAAS,170131.0,00:14:11.367,L,160.0,RL,207.9,40.0
MNMBCKNAAS,170131.0,00:14:11.631,S,136.0,LS,288.0,128.0
MNMBCKNAAS,170131.0,00:14:13.503,L,208.0,RL,264.0,88.0
MNMBCKNAAS,170131.0,00:14:13.775,S,152.0,LS,328.0,120.0
MNMBCKNAAS,170131.0,00:14:14.319,R,168.0,SR,528.0,376.0
MNMBCKNAAS,170131.0,00:14:15.031,R,168.0,RR,711.0,543.0
MNMBCKNAAS,170131.0,00:14:15.270,L,144.0,RL,264.0,95.9
MNMBCKNAAS,170131.0,00:14:15.614,S,112.0,LS,376.0,232.0
MNMBCKNAAS,170131.0,00:14:17.423,L,136.0,RL,264.0,136.0
MNMBCKNAAS,170131.0,00:14:17.911,R,120.0,LR,504.0,368.0
MNMBCKNAAS,170131.0,00:14:18.119,R,88.0,RR,240.0,120.0
MNMBCKNAAS,170131.0,00:14:23.687,R,120.0,LR,288.0,104.0
MNMBCKNAAS,170131.0,00:14:24.439,R,136.0,RR,736.0,616.0
MNMBCKNAAS,170131.0,00:14:24.775,R,136.0,RR,336.0,200.0
MNMBCKNAAS,170131.0,00:14:24.999,L,152.0,RL,208.0,72.0
MNMBCKNAAS,170131.0,00:14:28.343,R,56.0,RR,240.0,144.0
MNMBCKNAAS,170131.0,00:14:28.535,R,88.0,RR,160.0,104.0
MNMBCKNAAS,170131.0,00:14:29.359,S,120.0,RS,791.0,703.0
MNMBCKNAAS,170131.0,00:14:29.998,R,143.0,SR,288.0,497.0
MNMBCKNAAS,170131.0,00:14:30.678,R,144.0,SR,368.0,224.0
MNMBCKNAAS,170131.0,00:14:30.990,L,184.0,RL,272.0,128.1
MNMBCKNAAS,170131.0,00:14:31.390,L,200.0,LL,384.0,200.0
MNMBCKNAAS,170131.0,00:14:31.702,L,168.0,LL,344.0,144.0
MNMBCKNAAS,170131.0,00:14:31.934,S,120.0,LS,280.0,112.0
MNMBCKNAAS,170131.0,00:14:32.342,L,144.0,SL,384.0,264.0
MNMBCKNAAS,170131.0,00:14:32.606,R,136.0,LR,272.0,128.0
MNMBCKNAAS,170131.0,00:14:33.110,R,144.0,RR,496.0,360.0
MNMBCKNAAS,170131.0,00:14:33.671,L,152.0,RL,553.0,409.0
MNMBCKNAAS,170131.0,00:14:33.911,S,104.0,LS,288.0,136.0
MNMBCKNAAS,170131.0,00:14:34.687,L,176.0,SL,704.0,600.0
MNMBCKNAAS,170131.0,00:14:35.167,L,168.0,LL,488.0,312.0
MNMBCKNAAS,170131.0,00:14:35.511,L,208.0,LL,304.0,136.0
MNMBCKNAAS,170131.0,00:14:35.719,L,128.0,LL,288.0,80.0
MNMBCKNAAS,170131.0,00:14:36.087,L,184.0,LL,312.0,184.0
MNMBCKNAAS,170131.0,00:14:36.319,R,152.0,LR,264.0,80.0
MNMBCKNAAS,170131.0,00:14:36.671,R,184.0,RR,320.0,168.0
MNMBCKNAAS,170131.0,00:14:36.959,R,120.0,RR,352.0,168.0
MNMBCKNAAS,170131.0,00:14:37.239,L,200.0,RL,200.0,80.0
MNMBCKNAAS,170131.0,00:15:12.671,R,112.0,LR,288.0,120.0
MNMBCKNAAS,170131.0,00:15:16.095,S,128.0,LS,440.0,280.0
MNMBCKNAAS,170131.0,00:15:17.734,L,208.0,LL,344.0,128.0
MNMBCKNAAS,170131.0,00:15:18.158,L,232.0,LL,400.0,192.0
MNMBCKNAAS,170131.0,00:15:20.998,L,160.0,LL,376.0,184.0
MNMBCKNAAS,170131.0,00:15:22.206,L,136.0,LL,256.0,96.0
MNMBCKNAAS,170131.0,00:15:24.254,R,200.0,LR,304.0,144.0
MNMBCKNAAS,170131.0,00:15:25.902,R,240.0,LR,272.0,120.0
MNMBCKNAAS,170131.0,00:15:27.879,L,152.0,LL,272.0,120.0
MNMBCKNAAS,170131.0,00:15:28.215,L,176.0,LL,312.0,160.0
MNMBCKNAAS,170131.0,00:15:41.806,L,168.0,LL,456.0,240.0
MNMBCKNAAS,170131.0,00:15:42.286,L,184.0,LL,464.0,296.0
MNMBCKNAAS,170131.0,00:15:42.614,R,160.0,LR,352.0,168.0
MNMBCKNAAS,170131.0,00:15:43.206,L,216.0,RL,536.0,376.0
MNMBCKNAAS,170131.0,00:15:45.023,L,128.0,LL,304.0,152.0
MNMBCKNAAS,170131.0,00:15:46.999,L,144.0,SL,472.0,272.0
MNMBCKNAAS,170131.0,00:15:47.270,R,183.0,LR,232.0,88.0
MNMBCKNAAS,170131.0,00:15:47.511,S,160.0,RS,264.0,81.0
MNMBCKNAAS,170131.0,00:15:47.799,R,129.0,SR,319.0,159.0
MNMBCKNAAS,170131.0,00:15:48.015,L,152.0,RL,192.0,63.0
MNMBCKNAAS,170131.0,00:15:50.846,R,72.0,RR,320.0,240.0
MNMBCKNAAS,170131.0,00:15:51.070,R,72.0,RR,224.0,152.0
MNMBCKNAAS,170131.0,00:15:53.790,L,192.0,RL,264.0,136.0
MNMBCKNAAS,170131.0,00:15:54.318,S,120.0,LS,600.0,408.0
MNMBCKNAAS,170131.0,00:15:54.974,R,104.0,SR,288.0,552.0
MNMBCKNAAS,170131.0,00:15:55.830,L,144.0,RL,216.0,80.0
MNMBCKNAAS,170131.0,00:15:56.150,S,136.0,LS,328.0,184.0
MNMBCKNAAS,170131.0,00:15:56.942,L,184.0,SL,744.0,608.0
MNMBCKNAAS,170131.0,00:15:57.126,R,128.0,LR,240.0,56.0
MNMBCKNAAS,170131.0,00:15:57.942,L,216.0,RL,728.0,600.0
MNMBCKNAAS,170131.0,00:15:58.318,S,128.0,LS,464.0,248.0
MNMBCKNAAS,170131.0,00:15:58.662,R,136.0,SR,336.0,208.0
MNMBCKNAAS,170131.0,00:15:58.870,L,160.0,RL,184.0,48.0
MNMBCKNAAS,170131.0,00:16:01.503,R,64.0,RR,208.0,152.0
MNMBCKNAAS,170131.0,00:16:01.663,R,40.0,RR,184.0,120.0
MNMBCKNAAS,170131.0,00:17:10.477,R,128.1,RR,672.0,520.0
MNMBCKNAAS,170131.0,00:17:10.846,R,144.9,RR,352.1,224.0
MNMBCKNAAS,170131.0,00:17:11.246,L,181.0,RL,363.9,219.0
MNMBCKNAAS,170131.0,00:18:01.117,R,143.9,SR,488.0,304.1
MNMBCKNAAS,170131.0,00:18:24.213,L,192.0,RL,488.0,368.0
MNMBCKNAAS,170131.0,00:18:24.429,R,120.0,LR,288.0,95.9
MNMBCKNAAS,170131.0,00:18:24.757,R,127.9,RR,320.1,200.1
MNMBCKNAAS,170131.0,00:18:25.157,L,176.0,RL,351.9,224.0
MNMBCKNAAS,170131.0,00:18:25.485,L,104.0,LL,400.0,224.0
MNMBCKNAAS,170131.0,00:18:28.941,R,112.1,SR,231.9,688.0
MNMBCKNAAS,170131.0,00:18:29.877,R,152.0,LR,263.9,95.9
MNMBCKNAAS,170131.0,00:18:30.357,L,168.1,RL,464.0,312.0
MNMBCKNAAS,170131.0,00:18:30.765,L,152.0,LL,424.1,256.0
MNMBCKNAAS,170131.0,00:18:34.669,L,136.0,RL,767.9,640.0
MNMBCKNAAS,170131.0,00:18:35.045,L,152.1,LL,360.0,224.0
MNMBCKNAAS,170131.0,00:20:59.972,L,144.0,RL,248.0,120.0
MNMBCKNAAS,170131.0,00:21:00.308,R,144.0,LR,335.9,191.9
MNMBCKNAAS,170131.0,00:21:00.628,R,120.0,RR,344.1,200.1
MNMBCKNAAS,170131.0,00:21:00.956,L,168.1,RL,279.9,159.9
MNMBCKNAAS,170131.0,00:21:01.172,L,176.0,LL,208.0,39.9
MNMBCKNAAS,170131.0,00:21:11.020,R,80.1,RR,215.9,127.9
MNMBCKNAAS,170131.0,00:21:11.676,L,128.1,RL,608.0,528.0
MNMBCKNAAS,170131.0,00:21:11.940,R,120.0,LR,272.0,143.9
MNMBCKNAAS,170131.0,00:21:16.708,L,136.0,RL,624.0,504.0
MNMBCKNAAS,170131.0,00:21:16.988,R,152.0,LR,264.0,128.1
MNMBCKNAAS,170131.0,00:21:17.484,R,112.1,RR,535.9,383.9
MNMBCKNAAS,170131.0,00:21:17.764,L,120.0,RL,272.1,160.0
