User_ID,Date,Timestamp,Hand,Hold_Time,Direction,Latency_Time,Flight_Time
PHOPRDDRXM,160912.0,16:29:40.445,L,109.4,LL,578.1,386.7
PHOPRDDRXM,160912.0,16:29:46.672,L,160.2,RL,418.0,242.2
PHOPRDDRXM,160912.0,16:29:47.191,L,105.5,LL,574.2,414.1
PHOPRDDRXM,160912.0,16:29:48.477,R,101.6,RR,480.5,378.9
PHOPRDDRXM,160912.0,16:29:48.988,R,101.6,RR,511.7,410.2
PHOPRDDRXM,160912.0,16:29:52.047,R,168.0,RR,703.1,601.6
PHOPRDDRXM,160912.0,16:29:58.309,R,144.5,LR,460.9,335.9
PHOPRDDRXM,160912.0,16:29:58.805,L,117.2,RL,523.4,378.9
PHOPRDDRXM,160912.0,16:30:26.629,L,117.2,LL,699.2,578.1
PHOPRDDRXM,160913.0,08:07:40.307,R,103.5,LR,279.3,144.5
PHOPRDDRXM,160913.0,08:07:40.707,L,136.7,RL,367.2,263.7
PHOPRDDRXM,160913.0,08:07:40.979,R,54.7,LR,353.5,216.8
PHOPRDDRXM,160913.0,08:07:45.299,L,152.3,LL,328.1,183.6
PHOPRDDRXM,160913.0,08:07:45.650,L,183.6,LL,320.3,168.0
PHOPRDDRXM,160913.0,08:07:45.826,R,142.6,LR,216.8,33.2
PHOPRDDRXM,160913.0,08:07:46.355,L,103.5,RL,568.4,425.8
PHOPRDDRXM,160913.0,08:07:51.242,L,150.4,LL,697.3,496.1
PHOPRDDRXM,160913.0,08:08:09.836,R,152.3,RR,552.7,441.4
PHOPRDDRXM,160913.0,08:08:10.123,R,191.4,RR,248.0,95.7
PHOPRDDRXM,160913.0,08:08:10.379,S,119.1,RS,328.1,136.7
PHOPRDDRXM,160913.0,08:08:10.811,L,134.8,SL,416.0,296.9
PHOPRDDRXM,160913.0,08:08:13.082,L,134.8,RL,209.0,87.9
PHOPRDDRXM,160913.0,08:08:13.410,L,168.0,LL,294.9,160.2
PHOPRDDRXM,160913.0,08:08:13.811,L,119.1,LL,449.2,281.3
PHOPRDDRXM,160913.0,08:08:16.643,R,127.0,RR,384.8,263.7
PHOPRDDRXM,160913.0,08:08:16.891,L,95.7,RL,279.3,152.3
PHOPRDDRXM,160913.0,08:08:17.059,L,80.1,LL,183.6,87.9
PHOPRDDRXM,160913.0,08:08:17.475,L,232.4,LL,263.7,183.6
PHOPRDDRXM,160913.0,08:08:17.602,R,80.1,LR,279.3,46.9
PHOPRDDRXM,160913.0,08:08:17.938,S,142.6,RS,273.4,193.4
PHOPRDDRXM,160913.0,08:08:18.195,R,103.5,SR,294.9,152.3
PHOPRDDRXM,160913.0,08:08:18.637,R,146.5,RR,400.4,296.9
PHOPRDDRXM,160913.0,17:47:08.621,R,78.1,RR,503.9,406.3
PHOPRDDRXM,160913.0,17:47:26.305,R,105.5,RR,398.4,304.7
PHOPRDDRXM,160913.0,17:47:26.801,R,128.9,RR,472.7,367.2
PHOPRDDRXM,160913.0,17:47:27.336,R,136.7,RR,527.3,398.4
PHOPRDDRXM,160913.0,17:48:15.008,R,97.7,RR,421.9,320.3
PHOPRDDRXM,160913.0,17:48:15.488,R,89.8,RR,488.3,390.6
PHOPRDDRXM,160913.0,17:48:16.055,R,93.8,RR,562.5,472.7
PHOPRDDRXM,160913.0,17:49:10.969,L,97.7,LL,640.6,527.3
PHOPRDDRXM,160913.0,17:49:11.359,L,54.7,LL,433.6,335.9
PHOPRDDRXM,160913.0,17:49:12.719,L,78.1,RL,503.9,402.3
PHOPRDDRXM,160913.0,17:49:30.879,R,144.5,LR,343.8,214.8
PHOPRDDRXM,160913.0,17:49:31.320,R,128.9,RR,457.0,312.5
PHOPRDDRXM,160913.0,17:49:33.238,L,128.9,LL,527.3,398.4
PHOPRDDRXM,160913.0,17:49:33.605,L,117.2,LL,378.9,250.0
PHOPRDDRXM,160913.0,17:49:35.871,L,82.0,RL,558.6,414.1
PHOPRDDRXM,160913.0,18:05:38.750,R,136.7,LR,390.6,269.5
PHOPRDDRXM,160913.0,18:05:39.285,S,140.6,RS,531.3,394.5
PHOPRDDRXM,160913.0,18:05:39.879,L,109.4,SL,625.0,484.4
PHOPRDDRXM,160913.0,18:05:40.520,R,105.5,LR,644.5,535.2
PHOPRDDRXM,160913.0,18:05:41.199,L,109.4,RL,675.8,570.3
PHOPRDDRXM,160913.0,18:05:41.602,L,121.1,LL,390.6,281.3
PHOPRDDRXM,160913.0,18:05:42.199,R,121.1,LR,597.7,476.6
PHOPRDDRXM,160913.0,18:05:45.617,R,234.4,LR,359.4,230.5
PHOPRDDRXM,160913.0,18:05:46.215,L,101.6,RL,730.5,496.1
PHOPRDDRXM,160913.0,18:05:46.719,S,125.0,LS,480.5,378.9
PHOPRDDRXM,160913.0,18:06:00.305,R,136.7,LR,328.1,175.8
PHOPRDDRXM,160913.0,18:06:00.809,R,136.7,RR,503.9,367.2
PHOPRDDRXM,160913.0,18:06:04.031,S,152.3,LS,695.3,597.7
PHOPRDDRXM,160913.0,18:06:04.527,L,121.1,SL,527.3,375.0
PHOPRDDRXM,160913.0,18:06:05.016,L,105.5,LL,503.9,382.8
PHOPRDDRXM,160913.0,18:06:06.832,R,136.7,LR,625.0,543.0
PHOPRDDRXM,160913.0,18:06:07.320,S,152.3,RS,472.7,335.9
PHOPRDDRXM,160913.0,18:06:07.734,L,101.6,SL,464.8,312.5
PHOPRDDRXM,160913.0,18:06:08.090,R,136.7,LR,316.4,214.8
PHOPRDDRXM,160913.0,18:06:08.535,S,136.7,RS,449.2,312.5
PHOPRDDRXM,160913.0,18:06:08.910,L,101.6,SL,410.2,273.4
PHOPRDDRXM,160913.0,18:06:10.039,S,136.7,LS,289.1,191.4
PHOPRDDRXM,160913.0,18:06:10.527,L,144.5,SL,480.5,343.8
PHOPRDDRXM,160913.0,18:06:11.238,L,144.5,LL,710.9,566.4
PHOPRDDRXM,160913.0,18:06:12.078,R,191.4,LR,793.0,648.4
PHOPRDDRXM,160913.0,18:06:17.273,R,168.0,LR,519.5,410.2
PHOPRDDRXM,160913.0,18:06:22.168,R,144.5,LR,437.5,304.7
PHOPRDDRXM,160913.0,18:06:29.137,R,128.9,LR,472.7,359.4
PHOPRDDRXM,160913.0,18:06:29.961,R,171.9,RR,781.3,652.3
PHOPRDDRXM,160913.0,18:06:30.633,L,113.3,RL,730.5,558.6
PHOPRDDRXM,160913.0,18:06:31.055,S,128.9,LS,406.3,293.0
PHOPRDDRXM,160913.0,18:06:31.445,L,109.4,SL,410.2,281.3
PHOPRDDRXM,160913.0,18:06:31.941,R,152.3,LR,453.1,343.8
PHOPRDDRXM,160913.0,18:06:32.375,L,109.4,RL,476.6,324.2
PHOPRDDRXM,160913.0,18:06:32.816,S,113.3,LS,437.5,328.1
PHOPRDDRXM,160913.0,18:06:36.215,R,136.7,LR,671.9,558.6
PHOPRDDRXM,160913.0,18:06:36.801,S,152.3,RS,570.3,433.6
PHOPRDDRXM,160913.0,18:06:37.367,R,144.5,SR,574.2,421.9
PHOPRDDRXM,160913.0,18:06:38.754,R,121.1,RR,464.8,359.4
PHOPRDDRXM,160913.0,18:06:39.328,S,128.9,RS,566.4,445.3
PHOPRDDRXM,160913.0,18:06:41.086,L,125.0,LL,793.0,699.2
PHOPRDDRXM,160913.0,18:06:41.688,R,160.2,LR,566.4,441.4
PHOPRDDRXM,160913.0,18:06:42.281,L,97.7,RL,7.8,496.1
PHOPRDDRXM,160913.0,18:06:42.289,L,105.5,LL,7.8,496.1
PHOPRDDRXM,160913.0,18:06:44.824,L,121.1,RL,543.0,406.3
PHOPRDDRXM,160913.0,18:07:07.449,S,74.2,SS,441.4,367.2
PHOPRDDRXM,160913.0,18:07:11.441,L,121.1,SL,632.8,543.0
PHOPRDDRXM,160913.0,18:07:12.137,R,168.0,LR,648.4,527.3
PHOPRDDRXM,160913.0,18:07:12.672,L,128.9,RL,574.2,406.3
PHOPRDDRXM,160913.0,18:07:20.168,S,136.7,LS,351.6,242.2
PHOPRDDRXM,160913.0,18:07:20.633,L,121.1,SL,480.5,343.8
PHOPRDDRXM,160913.0,18:07:21.102,L,125.0,LL,464.8,343.8
PHOPRDDRXM,160913.0,18:07:22.566,R,121.1,LR,621.1,460.9
PHOPRDDRXM,160913.0,18:07:23.055,R,152.3,RR,457.0,335.9
PHOPRDDRXM,160913.0,18:07:28.754,L,105.5,RL,648.4,488.3
PHOPRDDRXM,160913.0,18:07:29.328,S,136.7,LS,543.0,437.5
PHOPRDDRXM,160913.0,18:07:31.945,R,105.5,LR,312.5,183.6
PHOPRDDRXM,160913.0,18:07:32.383,R,136.7,RR,406.3,300.8
PHOPRDDRXM,160913.0,18:07:32.961,R,128.9,RR,585.9,449.2
PHOPRDDRXM,160913.0,18:07:33.574,L,132.8,RL,609.4,480.5
PHOPRDDRXM,160913.0,18:07:34.078,S,140.6,LS,496.1,363.3
PHOPRDDRXM,160913.0,18:07:34.504,L,144.5,SL,421.9,281.3
PHOPRDDRXM,160913.0,18:07:34.855,R,144.5,LR,351.6,207.0
PHOPRDDRXM,160913.0,18:07:35.297,S,113.3,RS,472.7,328.1
PHOPRDDRXM,160913.0,18:07:36.633,L,105.5,LL,398.4,281.3
PHOPRDDRXM,160913.0,18:07:36.000,S,144.5,LS,328.1,222.7
PHOPRDDRXM,160913.0,18:07:37.520,L,121.1,SL,543.0,398.4
PHOPRDDRXM,160913.0,18:07:37.984,R,136.7,LR,449.2,328.1
PHOPRDDRXM,160913.0,18:07:38.688,L,113.3,RL,726.6,589.8
PHOPRDDRXM,160913.0,18:07:38.895,L,85.9,LL,234.4,121.1
PHOPRDDRXM,160913.0,18:07:40.863,L,105.5,RL,781.3,640.6
PHOPRDDRXM,160913.0,18:07:42.602,R,128.9,RR,664.1,539.1
PHOPRDDRXM,160913.0,18:07:46.688,L,113.3,LL,414.1,285.2
PHOPRDDRXM,160913.0,18:07:47.047,S,144.5,LS,328.1,214.8
PHOPRDDRXM,160913.0,18:07:48.664,L,97.7,RL,589.8,437.5
PHOPRDDRXM,160913.0,18:07:49.230,S,117.2,LS,546.9,449.2
PHOPRDDRXM,160913.0,18:07:49.551,L,70.3,SL,367.2,250.0
PHOPRDDRXM,160913.0,18:07:50.016,L,78.1,LL,457.0,386.7
PHOPRDDRXM,160913.0,18:07:50.375,L,54.7,LL,382.8,304.7
PHOPRDDRXM,160913.0,18:08:07.977,L,113.3,SL,503.9,367.2
PHOPRDDRXM,160913.0,18:08:08.406,R,117.2,LR,425.8,312.5
PHOPRDDRXM,160913.0,18:08:10.191,R,128.9,RR,589.8,453.1
PHOPRDDRXM,160913.0,18:08:11.383,R,128.9,LR,335.9,230.5
PHOPRDDRXM,160913.0,18:08:23.688,R,175.8,LR,375.0,265.6
PHOPRDDRXM,160913.0,18:08:24.191,L,113.3,RL,566.4,390.6
PHOPRDDRXM,160913.0,18:08:38.246,R,199.2,LR,261.7,152.3
PHOPRDDRXM,160913.0,18:08:40.031,L,85.9,LL,687.5,578.1
PHOPRDDRXM,160913.0,18:08:40.863,S,144.5,LS,773.4,687.5
PHOPRDDRXM,160913.0,18:08:44.672,L,128.9,SL,488.3,382.8
PHOPRDDRXM,160913.0,18:08:45.070,R,144.5,LR,382.8,253.9
PHOPRDDRXM,160913.0,18:08:46.488,L,113.3,LL,597.7,511.7
PHOPRDDRXM,160913.0,18:08:46.789,L,85.9,LL,328.1,214.8
PHOPRDDRXM,160913.0,18:08:48.207,L,105.5,LL,519.5,421.9
PHOPRDDRXM,160913.0,18:08:48.879,S,128.9,LS,648.4,543.0
PHOPRDDRXM,160913.0,18:08:56.504,L,89.8,LL,757.8,636.7
PHOPRDDRXM,160913.0,18:08:57.055,L,117.2,LL,523.4,433.6
PHOPRDDRXM,160913.0,18:08:57.344,L,105.5,LL,300.8,183.6
PHOPRDDRXM,160913.0,18:09:04.039,L,152.3,LL,441.4,335.9
PHOPRDDRXM,160913.0,18:09:04.434,L,113.3,LL,433.6,281.3
PHOPRDDRXM,160913.0,18:09:10.742,S,101.6,SS,433.6,234.4
PHOPRDDRXM,160913.0,18:09:14.938,S,160.2,LS,304.7,183.6
PHOPRDDRXM,160913.0,18:09:18.008,L,105.5,SL,574.2,476.6
PHOPRDDRXM,160913.0,18:09:18.465,R,128.9,LR,433.6,328.1
PHOPRDDRXM,160913.0,18:09:18.832,L,89.8,RL,406.3,277.3
PHOPRDDRXM,160913.0,18:09:19.230,R,101.6,LR,386.7,296.9
PHOPRDDRXM,160913.0,18:09:26.582,S,191.4,LS,601.6,457.0
PHOPRDDRXM,160913.0,18:09:36.426,L,160.2,SL,679.7,562.5
PHOPRDDRXM,160913.0,18:09:37.191,R,144.5,LR,781.3,621.1
PHOPRDDRXM,160913.0,18:09:37.703,L,121.1,RL,535.2,390.6
PHOPRDDRXM,160913.0,18:09:38.098,L,136.7,LL,378.9,257.8
PHOPRDDRXM,160913.0,18:09:41.551,L,113.3,SL,621.1,445.3
PHOPRDDRXM,160913.0,18:09:42.094,R,109.4,LR,546.9,433.6
PHOPRDDRXM,160913.0,18:10:11.703,R,117.2,LR,320.3,203.1
PHOPRDDRXM,160913.0,18:10:12.910,R,132.8,RR,378.9,250.0
PHOPRDDRXM,160913.0,18:10:13.473,S,128.9,RS,566.4,433.6
PHOPRDDRXM,160913.0,18:10:13.887,L,125.0,SL,418.0,289.1
PHOPRDDRXM,160913.0,18:10:15.246,S,109.4,LS,457.0,335.9
PHOPRDDRXM,160913.0,18:10:15.801,L,128.9,SL,535.2,425.8
PHOPRDDRXM,160913.0,18:10:16.297,L,89.8,LL,535.2,406.3
PHOPRDDRXM,160913.0,18:10:17.910,R,136.7,RR,621.1,468.8
PHOPRDDRXM,160913.0,18:10:18.445,R,117.2,RR,554.7,418.0
PHOPRDDRXM,160913.0,18:10:19.055,L,121.1,RL,605.5,488.3
PHOPRDDRXM,160913.0,18:10:22.391,R,109.4,LR,511.7,378.9
PHOPRDDRXM,160913.0,18:10:34.078,L,78.1,LL,464.8,351.6
PHOPRDDRXM,160913.0,18:10:34.656,R,144.5,LR,511.7,433.6
PHOPRDDRXM,160913.0,18:10:35.414,R,183.6,RR,718.8,574.2
PHOPRDDRXM,160913.0,18:10:36.086,L,85.9,RL,769.5,585.9
PHOPRDDRXM,160913.0,18:10:36.809,L,97.7,LL,710.9,625.0
PHOPRDDRXM,160913.0,18:10:38.625,R,128.9,SR,496.1,367.2
PHOPRDDRXM,160913.0,18:10:40.078,S,125.0,RS,632.8,527.3
PHOPRDDRXM,160913.0,18:10:43.930,L,113.3,RL,769.5,632.8
PHOPRDDRXM,160913.0,18:10:44.609,S,128.9,LS,664.1,550.8
PHOPRDDRXM,160913.0,18:10:46.352,L,113.3,LL,335.9,214.8
PHOPRDDRXM,160913.0,18:10:46.945,R,144.5,LR,562.5,449.2
PHOPRDDRXM,160913.0,18:10:47.488,R,136.7,RR,550.8,406.3
PHOPRDDRXM,160913.0,18:10:50.238,R,117.2,LR,554.7,441.4
