User_ID,Date,Timestamp,Hand,Hold_Time,Direction,Latency_Time,Flight_Time
PW8A521Y5K,160821.0,19:32:44.359,R,85.9,LR,250.0,93.8
PW8A521Y5K,160821.0,19:32:44.688,L,117.2,RL,296.9,210.9
PW8A521Y5K,160821.0,19:32:44.805,R,78.1,LR,156.3,39.1
PW8A521Y5K,160821.0,19:32:46.398,R,93.8,RR,390.6,312.5
PW8A521Y5K,160821.0,19:32:46.594,L,140.6,RL,148.4,54.7
PW8A521Y5K,160821.0,19:32:46.844,L,117.2,LL,273.4,132.8
PW8A521Y5K,160821.0,19:32:47.195,L,78.1,LL,390.6,273.4
PW8A521Y5K,160821.0,19:32:48.719,R,70.3,LR,406.3,296.9
PW8A521Y5K,160821.0,19:32:48.992,R,70.3,RR,273.4,203.1
PW8A521Y5K,160821.0,19:32:53.945,R,54.7,RR,390.6,320.3
PW8A521Y5K,160823.0,03:07:02.852,L,92.8,LL,382.8,256.8
PW8A521Y5K,160823.0,03:07:03.148,R,92.8,LR,296.9,204.1
PW8A521Y5K,160823.0,03:07:03.570,S,92.8,RS,421.9,329.1
PW8A521Y5K,160823.0,03:07:03.856,R,70.3,SR,308.6,215.8
PW8A521Y5K,160823.0,03:07:04.884,S,70.3,LS,423.8,354.5
PW8A521Y5K,160823.0,03:07:12.998,S,91.8,RS,297.9,195.3
PW8A521Y5K,160823.0,03:07:15.352,R,92.8,RR,398.4,318.4
PW8A521Y5K,160823.0,03:07:17.225,L,116.2,LL,245.1,152.3
PW8A521Y5K,160823.0,03:07:17.441,L,92.8,LL,241.2,125.0
PW8A521Y5K,160823.0,07:38:18.934,R,66.4,LR,281.3,168.0
PW8A521Y5K,160823.0,07:38:19.229,R,72.3,RR,289.1,222.7
PW8A521Y5K,160823.0,07:38:19.641,L,103.5,RL,380.9,308.6
PW8A521Y5K,160823.0,07:38:20.012,L,93.8,LL,380.9,277.3
PW8A521Y5K,160823.0,07:38:20.227,L,103.5,LL,205.1,111.3
PW8A521Y5K,160823.0,07:38:22.502,R,80.1,RR,240.2,150.4
PW8A521Y5K,160823.0,07:38:22.713,R,87.9,RR,203.1,123.0
PW8A521Y5K,160823.0,07:38:26.797,S,72.3,LS,482.4,392.6
PW8A521Y5K,160823.0,07:38:27.959,L,80.1,LL,335.9,255.9
PW8A521Y5K,160823.0,07:38:28.418,S,91.8,LS,447.3,367.2
PW8A521Y5K,160823.0,07:38:39.020,L,76.2,LL,285.2,205.1
PW8A521Y5K,160823.0,07:38:40.451,R,93.8,RR,259.8,191.4
PW8A521Y5K,160823.0,07:38:42.119,L,115.2,SL,484.4,390.6
PW8A521Y5K,160823.0,07:38:42.387,R,80.1,LR,302.7,187.5
PW8A521Y5K,160823.0,07:38:42.643,R,68.4,RR,267.6,187.5
PW8A521Y5K,160823.0,07:38:43.105,S,80.1,RS,451.2,382.8
PW8A521Y5K,160823.0,07:38:52.984,R,82.0,RR,279.3,199.2
PW8A521Y5K,160823.0,07:38:53.260,R,91.8,RR,265.6,183.6
PW8A521Y5K,160823.0,07:38:53.477,R,78.1,RR,230.5,138.7
PW8A521Y5K,160823.0,07:38:55.234,R,82.0,LR,384.8,302.7
PW8A521Y5K,160823.0,07:38:55.643,S,91.8,RS,398.4,316.4
PW8A521Y5K,160823.0,07:38:56.090,R,82.0,SR,457.0,365.2
PW8A521Y5K,160823.0,07:38:58.369,L,80.1,LL,365.2,261.7
PW8A521Y5K,160823.0,07:38:58.732,R,80.1,LR,363.3,283.2
PW8A521Y5K,160823.0,07:38:59.219,L,80.1,RL,486.3,406.3
PW8A521Y5K,160823.0,07:38:59.617,S,93.8,LS,384.8,304.7
PW8A521Y5K,160823.0,07:39:00.432,L,62.5,LL,335.9,273.4
PW8A521Y5K,160823.0,07:39:14.164,R,93.8,RR,248.0,169.9
PW8A521Y5K,160823.0,07:39:16.049,R,70.3,RR,283.2,212.9
PW8A521Y5K,160823.0,07:39:16.512,R,70.3,RR,462.9,392.6
PW8A521Y5K,160823.0,07:39:21.295,R,80.1,LR,310.5,230.5
PW8A521Y5K,160823.0,07:39:21.707,L,68.4,RL,425.8,345.7
PW8A521Y5K,160823.0,07:39:23.414,L,89.8,LL,308.6,216.8
PW8A521Y5K,160823.0,07:39:23.854,S,101.6,LS,427.7,337.9
PW8A521Y5K,160823.0,07:39:27.867,S,93.8,RS,302.7,210.9
PW8A521Y5K,160823.0,07:39:28.232,R,91.8,SR,367.2,273.4
PW8A521Y5K,160823.0,07:39:29.713,S,91.8,LS,269.5,168.0
PW8A521Y5K,160823.0,07:39:30.789,L,80.1,LL,466.8,384.8
PW8A521Y5K,160823.0,07:39:32.824,L,80.1,RL,218.8,127.0
PW8A521Y5K,160823.0,07:39:33.279,L,91.8,LL,443.4,363.3
PW8A521Y5K,160823.0,07:39:33.424,L,93.8,LL,142.6,50.8
PW8A521Y5K,160823.0,07:43:21.406,R,66.4,RR,273.4,181.6
PW8A521Y5K,160823.0,07:43:21.662,R,58.6,RR,263.7,197.3
PW8A521Y5K,160823.0,07:43:22.779,S,91.8,RS,410.2,328.1
PW8A521Y5K,160823.0,07:43:25.531,L,80.1,LL,291.0,197.3
PW8A521Y5K,160823.0,07:43:26.553,L,91.8,RL,293.0,222.7
PW8A521Y5K,160823.0,07:43:27.002,L,80.1,LL,460.9,369.1
PW8A521Y5K,160823.0,07:43:27.441,L,93.8,LL,425.8,345.7
PW8A521Y5K,160823.0,07:43:27.721,L,78.1,LL,294.9,201.2
PW8A521Y5K,160823.0,07:47:18.137,L,117.2,LL,425.8,335.9
PW8A521Y5K,160823.0,07:47:18.428,R,103.5,LR,304.7,187.5
PW8A521Y5K,160823.0,07:47:18.586,L,103.5,RL,158.2,54.7
PW8A521Y5K,160823.0,07:47:19.031,L,103.5,LL,445.3,341.8
PW8A521Y5K,160823.0,07:47:19.139,L,80.1,LL,130.9,27.3
PW8A521Y5K,160823.0,08:22:56.535,L,103.5,LL,312.5,232.4
PW8A521Y5K,160823.0,08:22:56.984,L,91.8,LL,459.0,355.5
PW8A521Y5K,160823.0,08:22:57.369,L,82.0,LL,396.5,304.7
PW8A521Y5K,160823.0,08:22:57.699,L,91.8,LL,320.3,238.3
PW8A521Y5K,160823.0,08:23:01.391,R,70.3,RR,472.7,402.3
PW8A521Y5K,160823.0,08:23:32.561,L,115.2,RL,228.5,136.7
PW8A521Y5K,160823.0,08:23:32.713,R,93.8,LR,173.8,58.6
PW8A521Y5K,160823.0,08:23:34.656,L,91.8,RL,115.2,19.5
PW8A521Y5K,160823.0,08:23:35.002,L,103.5,LL,334.0,242.2
PW8A521Y5K,160823.0,08:23:37.773,R,91.8,RR,283.2,214.8
PW8A521Y5K,160823.0,08:23:38.250,R,70.3,RR,498.0,406.3
PW8A521Y5K,160823.0,08:23:40.014,R,70.3,RR,462.9,382.8
PW8A521Y5K,160823.0,08:23:47.254,R,80.1,LR,431.6,341.8
PW8A521Y5K,160823.0,08:23:47.564,L,93.8,RL,296.9,216.8
PW8A521Y5K,160823.0,08:23:47.918,L,105.5,LL,341.8,248.0
PW8A521Y5K,160823.0,08:23:49.074,S,82.0,RS,392.6,312.5
PW8A521Y5K,160823.0,08:23:50.980,R,70.3,RR,353.5,273.4
PW8A521Y5K,160823.0,08:23:51.816,L,58.6,LL,294.9,214.8
PW8A521Y5K,160823.0,08:23:52.949,R,80.1,RR,343.8,263.7
PW8A521Y5K,160823.0,08:23:53.281,R,68.4,RR,345.7,265.6
PW8A521Y5K,160823.0,08:23:53.594,L,115.2,RL,265.6,197.3
PW8A521Y5K,160823.0,08:23:53.904,L,89.8,LL,335.9,220.7
PW8A521Y5K,160823.0,08:24:06.803,L,140.6,RL,146.5,31.3
PW8A521Y5K,160823.0,08:24:06.951,R,105.5,LR,183.6,43.0
PW8A521Y5K,160823.0,08:24:07.918,L,93.8,LL,279.3,189.5
PW8A521Y5K,160823.0,08:24:08.068,L,146.5,LL,95.7,2.0
PW8A521Y5K,160823.0,08:25:15.945,R,68.4,RR,382.8,306.6
PW8A521Y5K,160823.0,08:25:16.732,L,80.1,LL,228.5,160.2
PW8A521Y5K,160823.0,08:25:17.863,R,80.1,RR,369.1,289.1
PW8A521Y5K,160823.0,08:25:23.113,R,82.0,LR,480.5,355.5
PW8A521Y5K,160823.0,08:25:23.338,R,80.1,RR,226.6,144.5
PW8A521Y5K,160823.0,08:25:23.559,L,103.5,RL,197.3,117.2
PW8A521Y5K,160823.0,21:14:16.984,L,132.8,LL,148.4,31.3
PW8A521Y5K,160823.0,21:14:17.219,L,85.9,LL,289.1,156.3
PW8A521Y5K,160823.0,21:14:18.305,L,109.4,RL,273.4,179.7
PW8A521Y5K,160823.0,21:14:18.578,S,125.0,LS,257.8,148.4
PW8A521Y5K,160823.0,21:14:19.047,L,140.6,SL,453.1,328.1
PW8A521Y5K,160823.0,21:14:20.617,L,117.2,LL,312.5,218.8
PW8A521Y5K,160823.0,21:14:21.609,R,85.9,RR,289.1,210.9
PW8A521Y5K,160823.0,21:14:22.008,R,70.3,RR,414.1,328.1
PW8A521Y5K,160824.0,07:14:02.633,R,82.0,RR,375.0,283.2
PW8A521Y5K,160824.0,07:14:03.516,L,80.1,LL,324.2,240.2
PW8A521Y5K,160824.0,07:14:06.965,R,78.1,SR,443.4,351.6
PW8A521Y5K,160824.0,07:14:09.289,L,82.0,LL,306.6,224.6
PW8A521Y5K,160824.0,07:14:34.340,L,93.8,LL,310.5,218.8
PW8A521Y5K,160824.0,07:14:34.596,L,82.0,LL,267.6,173.8
PW8A521Y5K,160826.0,22:39:35.422,L,101.6,RL,453.1,367.2
PW8A521Y5K,160826.0,22:39:35.812,L,101.6,LL,390.6,289.1
PW8A521Y5K,160826.0,22:39:38.039,L,101.6,RL,320.3,226.6
PW8A521Y5K,160826.0,22:39:38.766,L,117.2,RL,187.5,78.1
PW8A521Y5K,160826.0,22:39:40.320,R,93.8,RR,367.2,289.1
PW8A521Y5K,160826.0,22:39:43.977,R,62.5,RR,351.6,265.6
PW8A521Y5K,160827.0,05:15:39.328,L,125.0,RL,140.6,25.4
PW8A521Y5K,160827.0,05:15:39.770,L,117.2,LL,449.2,324.2
PW8A521Y5K,160827.0,05:15:39.936,L,138.7,LL,144.5,27.3
PW8A521Y5K,160827.0,05:15:42.404,L,91.8,LL,308.6,205.1
PW8A521Y5K,160827.0,05:15:42.549,L,127.0,LL,109.4,17.6
PW8A521Y5K,160827.0,05:17:02.135,L,80.1,LL,291.0,199.2
PW8A521Y5K,160827.0,05:17:03.035,L,91.8,LL,273.4,160.2
PW8A521Y5K,160827.0,05:17:03.434,L,80.1,LL,410.2,318.4
PW8A521Y5K,160827.0,05:17:04.576,S,80.1,RS,390.6,310.5
PW8A521Y5K,160827.0,05:17:05.053,L,103.5,SL,453.1,373.0
PW8A521Y5K,160827.0,05:17:05.436,L,101.6,LL,384.8,281.3
PW8A521Y5K,160827.0,05:17:05.814,L,80.1,LL,400.4,298.8
PW8A521Y5K,160827.0,05:17:08.057,R,80.1,LR,271.5,168.0
PW8A521Y5K,160827.0,05:17:09.400,L,80.1,LL,355.5,263.7
PW8A521Y5K,160827.0,05:17:09.814,S,70.3,LS,423.8,343.8
PW8A521Y5K,160827.0,05:17:10.846,R,80.1,RR,382.8,302.7
PW8A521Y5K,160827.0,05:17:11.109,S,70.3,RS,273.4,193.4
PW8A521Y5K,160827.0,05:17:12.584,R,80.1,LR,349.6,269.5
PW8A521Y5K,160827.0,05:17:12.994,L,80.1,RL,410.2,330.1
PW8A521Y5K,160827.0,05:17:16.805,L,93.8,LL,410.2,330.1
PW8A521Y5K,160827.0,05:17:16.990,L,82.0,LL,197.3,103.5
PW8A521Y5K,160827.0,05:17:17.344,L,127.0,LL,308.6,226.6
PW8A521Y5K,160827.0,05:17:18.260,R,93.8,RR,296.9,203.1
PW8A521Y5K,160827.0,05:17:18.750,R,103.5,RR,480.5,386.7
PW8A521Y5K,160827.0,05:17:19.809,R,89.8,RR,277.3,197.3
PW8A521Y5K,160827.0,05:17:20.064,R,58.6,RR,287.1,197.3
PW8A521Y5K,160828.0,07:19:34.195,S,82.0,RS,460.9,384.8
PW8A521Y5K,160829.0,07:50:46.225,L,115.2,LL,494.1,390.6
PW8A521Y5K,160829.0,07:50:46.529,R,82.0,LR,337.9,222.7
PW8A521Y5K,160829.0,07:50:47.363,L,115.2,RL,185.5,82.0
PW8A521Y5K,160829.0,07:50:47.598,S,93.8,LS,255.9,140.6
PW8A521Y5K,160829.0,07:50:48.109,L,109.4,SL,496.1,402.3
PW8A521Y5K,160829.0,07:50:48.387,L,95.7,LL,291.0,181.6
PW8A521Y5K,160829.0,20:38:17.078,L,109.4,RL,406.3,273.4
PW8A521Y5K,160829.0,20:38:17.461,L,140.6,LL,351.6,242.2
PW8A521Y5K,160829.0,21:20:11.930,L,78.1,LL,273.4,179.7
PW8A521Y5K,160829.0,21:20:12.266,L,109.4,LL,296.9,218.8
PW8A521Y5K,160829.0,21:20:14.492,R,70.3,LR,296.9,226.6
PW8A521Y5K,160829.0,21:20:15.352,L,85.9,LL,242.2,164.1
PW8A521Y5K,160829.0,21:22:27.336,R,117.2,LR,281.3,171.9
PW8A521Y5K,160829.0,21:29:22.281,L,93.8,LL,453.1,335.9
PW8A521Y5K,160829.0,21:29:25.656,S,85.9,LS,296.9,210.9
PW8A521Y5K,160829.0,21:29:26.016,L,93.8,SL,351.6,265.6
PW8A521Y5K,160829.0,21:29:27.625,R,78.1,LR,296.9,210.9
PW8A521Y5K,160829.0,21:29:28.047,S,85.9,RS,414.1,335.9
PW8A521Y5K,160829.0,21:29:29.672,R,62.5,RR,296.9,218.8
PW8A521Y5K,160829.0,21:29:46.523,L,78.1,LL,437.5,312.5
PW8A521Y5K,160829.0,21:29:47.477,L,125.0,RL,125.0,23.4
PW8A521Y5K,160829.0,21:29:48.445,L,78.1,RL,484.4,390.6
PW8A521Y5K,160829.0,21:29:49.898,S,117.2,LS,273.4,195.3
PW8A521Y5K,160829.0,21:29:52.695,L,70.3,RL,460.9,390.6
PW8A521Y5K,160829.0,21:29:53.023,R,70.3,LR,328.1,257.8
PW8A521Y5K,160829.0,21:29:53.375,S,78.1,RS,343.8,273.4
PW8A521Y5K,160829.0,21:30:24.727,L,78.1,LL,429.7,320.3
PW8A521Y5K,160829.0,21:30:25.898,R,93.8,LR,414.1,304.7
PW8A521Y5K,160829.0,21:30:26.336,L,85.9,RL,445.3,351.6
PW8A521Y5K,160829.0,21:30:28.047,S,93.8,LS,289.1,210.9
PW8A521Y5K,160829.0,21:30:28.367,L,85.9,SL,328.1,234.4
PW8A521Y5K,160829.0,21:30:29.953,L,85.9,RL,468.8,390.6
PW8A521Y5K,160829.0,21:30:30.234,R,70.3,LR,296.9,210.9
PW8A521Y5K,160829.0,21:30:36.070,R,85.9,SR,359.4,281.3
PW8A521Y5K,160829.0,21:30:36.305,R,70.3,RR,250.0,164.1
PW8A521Y5K,160829.0,21:34:21.484,R,78.1,RR,335.9,242.2
PW8A521Y5K,160829.0,21:34:21.906,S,109.4,RS,390.6,312.5
PW8A521Y5K,160829.0,21:34:23.750,L,93.8,LL,234.4,148.4
PW8A521Y5K,160829.0,21:34:24.039,L,85.9,LL,296.9,203.1
PW8A521Y5K,160829.0,21:34:24.492,S,93.8,LS,445.3,359.4
PW8A521Y5K,160829.0,21:35:56.133,L,78.1,LL,359.4,250.0
PW8A521Y5K,160829.0,21:35:56.891,L,93.8,RL,132.8,23.4
PW8A521Y5K,160829.0,21:35:58.031,L,85.9,RL,492.2,398.4
PW8A521Y5K,160829.0,21:35:59.609,S,101.6,LS,281.3,195.3
PW8A521Y5K,160829.0,21:35:59.875,L,78.1,SL,296.9,195.3
PW8A521Y5K,160829.0,21:36:01.219,R,85.9,LR,257.8,179.7
PW8A521Y5K,160829.0,21:36:01.570,S,85.9,RS,351.6,265.6
PW8A521Y5K,160829.0,21:39:24.273,L,93.8,LL,453.1,335.9
PW8A521Y5K,160829.0,21:39:25.281,L,109.4,RL,125.0,31.3
PW8A521Y5K,160829.0,21:39:28.047,S,93.8,LS,304.7,226.6
PW8A521Y5K,160829.0,21:39:31.469,R,85.9,LR,289.1,203.1
PW8A521Y5K,160829.0,21:39:31.859,S,70.3,RS,406.3,320.3
