User_ID,Date,Timestamp,Hand,Hold_Time,Direction,Latency_Time,Flight_Time
QDV7XQWLI7,170302.0,16:18:05.477,L,156.3,LL,605.5,441.4
QDV7XQWLI7,170302.0,16:18:06.852,S,125.0,LS,488.3,363.3
QDV7XQWLI7,170302.0,16:18:07.309,L,132.8,SL,449.2,324.2
QDV7XQWLI7,170302.0,16:18:07.770,L,132.8,LL,460.9,328.1
QDV7XQWLI7,170302.0,16:18:09.344,L,109.4,RL,687.5,570.3
QDV7XQWLI7,170302.0,16:18:09.641,L,175.8,LL,230.5,121.1
QDV7XQWLI7,170302.0,16:18:10.203,L,140.6,LL,597.7,421.9
QDV7XQWLI7,170302.0,16:20:02.242,L,277.3,LL,570.3,242.2
QDV7XQWLI7,170302.0,16:20:02.773,L,293.0,LL,515.6,238.3
QDV7XQWLI7,170302.0,16:20:12.734,R,175.8,LR,570.3,460.9
QDV7XQWLI7,170302.0,16:20:13.242,L,140.6,RL,543.0,367.2
QDV7XQWLI7,170302.0,16:20:13.648,L,152.3,LL,394.5,253.9
QDV7XQWLI7,170302.0,16:20:14.414,L,144.5,LL,773.4,621.1
QDV7XQWLI7,170302.0,20:17:41.156,R,132.8,RR,351.6,195.3
QDV7XQWLI7,170302.0,20:17:41.781,L,132.8,RL,625.0,492.2
QDV7XQWLI7,170302.0,20:17:42.406,R,125.0,LR,632.8,500.0
QDV7XQWLI7,170302.0,20:17:43.086,L,148.4,RL,656.3,531.3
QDV7XQWLI7,170302.0,20:18:06.734,L,148.4,LL,460.9,328.1
QDV7XQWLI7,170302.0,20:18:52.930,L,164.1,RL,507.8,351.6
QDV7XQWLI7,170302.0,20:19:05.812,L,187.5,RL,539.1,359.4
QDV7XQWLI7,170302.0,20:20:10.711,L,140.6,LL,445.3,273.4
QDV7XQWLI7,170302.0,20:20:20.125,L,148.4,LL,445.3,289.1
QDV7XQWLI7,170302.0,20:20:54.344,L,164.1,LL,726.6,570.3
QDV7XQWLI7,170302.0,20:26:51.414,R,156.3,RR,500.0,312.5
QDV7XQWLI7,170302.0,20:26:51.891,L,179.7,RL,453.1,296.9
QDV7XQWLI7,170302.0,20:26:52.367,S,164.1,LS,492.2,312.5
QDV7XQWLI7,170302.0,20:26:52.727,L,203.1,SL,320.3,156.3
QDV7XQWLI7,170302.0,20:26:53.047,S,171.9,LS,351.6,148.4
QDV7XQWLI7,170302.0,20:26:53.438,L,195.3,SL,367.2,195.3
QDV7XQWLI7,170302.0,20:26:53.828,R,187.5,LR,398.4,203.1
QDV7XQWLI7,170302.0,20:26:54.273,L,132.8,RL,500.0,312.5
QDV7XQWLI7,170302.0,20:26:55.047,R,148.4,LR,757.8,625.0
QDV7XQWLI7,170302.0,20:26:56.422,L,148.4,LL,281.3,117.2
QDV7XQWLI7,170302.0,20:26:57.023,R,125.0,LR,625.0,476.6
QDV7XQWLI7,170302.0,20:26:57.422,R,140.6,RR,382.8,257.8
QDV7XQWLI7,170302.0,20:26:57.859,S,132.8,RS,445.3,304.7
QDV7XQWLI7,170302.0,20:26:58.188,L,171.9,SL,289.1,156.3
QDV7XQWLI7,170302.0,20:26:58.570,L,125.0,LL,429.7,257.8
QDV7XQWLI7,170302.0,20:27:00.320,L,203.1,RL,507.8,335.9
QDV7XQWLI7,170302.0,20:27:00.828,R,187.5,LR,523.4,320.3
QDV7XQWLI7,170302.0,20:27:10.164,L,156.3,SL,570.3,414.1
QDV7XQWLI7,170302.0,20:27:10.766,R,125.0,LR,632.8,476.6
QDV7XQWLI7,170302.0,20:27:11.000,R,117.2,RR,242.2,117.2
QDV7XQWLI7,170302.0,20:27:11.453,R,132.8,RR,437.5,320.3
QDV7XQWLI7,170302.0,20:27:14.828,L,156.3,SL,351.6,179.7
QDV7XQWLI7,170302.0,20:27:15.133,S,148.4,LS,312.5,156.3
QDV7XQWLI7,170302.0,20:27:15.773,R,140.6,SR,648.4,500.0
QDV7XQWLI7,170302.0,20:27:16.297,R,148.4,RR,515.6,375.0
QDV7XQWLI7,170302.0,20:27:16.883,L,101.6,RL,632.8,484.4
QDV7XQWLI7,170302.0,20:27:17.141,L,117.2,LL,242.2,140.6
QDV7XQWLI7,170302.0,20:27:17.547,R,125.0,LR,398.4,281.3
QDV7XQWLI7,170302.0,20:27:17.914,L,109.4,RL,382.8,257.8
QDV7XQWLI7,170302.0,20:27:18.312,S,125.0,LS,382.8,273.4
QDV7XQWLI7,170302.0,20:27:18.570,S,109.4,SS,273.4,148.4
QDV7XQWLI7,170302.0,20:27:27.867,L,140.6,SL,546.9,328.1
QDV7XQWLI7,170302.0,20:27:28.422,L,179.7,LL,515.6,375.0
QDV7XQWLI7,170302.0,20:27:29.086,R,210.9,LR,632.8,453.1
QDV7XQWLI7,170302.0,20:27:29.352,L,148.4,RL,328.1,117.2
QDV7XQWLI7,170302.0,20:27:29.828,L,179.7,LL,445.3,296.9
QDV7XQWLI7,170302.0,20:27:33.805,L,156.3,RL,687.5,515.6
QDV7XQWLI7,170302.0,20:27:34.352,L,164.1,LL,539.1,382.8
QDV7XQWLI7,170302.0,20:27:40.461,R,148.4,LR,382.8,218.8
QDV7XQWLI7,170302.0,20:27:41.031,S,140.6,RS,578.1,429.7
QDV7XQWLI7,170302.0,20:27:41.469,L,140.6,SL,437.5,296.9
QDV7XQWLI7,170302.0,20:27:41.859,R,171.9,LR,359.4,218.8
QDV7XQWLI7,170302.0,20:27:42.117,L,117.2,RL,312.5,140.6
QDV7XQWLI7,170302.0,20:27:42.461,S,164.1,LS,296.9,179.7
QDV7XQWLI7,170302.0,20:27:42.875,L,179.7,SL,398.4,234.4
QDV7XQWLI7,170302.0,20:27:43.289,R,187.5,LR,406.3,226.6
QDV7XQWLI7,170302.0,20:27:43.516,L,125.0,RL,289.1,101.6
QDV7XQWLI7,170302.0,20:27:44.141,L,125.0,LL,625.0,500.0
QDV7XQWLI7,170302.0,20:27:44.688,L,140.6,LL,531.3,406.3
QDV7XQWLI7,170302.0,20:27:45.203,S,148.4,LS,507.8,367.2
QDV7XQWLI7,170302.0,20:27:45.516,L,164.1,SL,296.9,148.4
QDV7XQWLI7,170302.0,20:27:45.875,R,156.3,LR,367.2,203.1
QDV7XQWLI7,170302.0,20:27:46.219,R,156.3,RR,343.8,187.5
QDV7XQWLI7,170302.0,20:27:46.922,L,156.3,RL,703.1,546.9
QDV7XQWLI7,170302.0,20:27:53.633,R,171.9,SR,632.8,468.8
QDV7XQWLI7,170302.0,20:27:57.352,S,156.3,RS,367.2,218.8
QDV7XQWLI7,170302.0,20:27:57.719,L,164.1,SL,359.4,203.1
QDV7XQWLI7,170302.0,20:27:58.062,R,179.7,LR,328.1,164.1
QDV7XQWLI7,170302.0,20:27:58.344,L,117.2,RL,343.8,164.1
QDV7XQWLI7,170302.0,20:27:58.648,S,156.3,LS,265.6,148.4
QDV7XQWLI7,170302.0,20:27:58.898,L,125.0,SL,281.3,125.0
QDV7XQWLI7,170302.0,20:27:59.227,L,117.2,LL,335.9,210.9
QDV7XQWLI7,170302.0,20:27:59.883,L,148.4,LL,625.0,507.8
QDV7XQWLI7,170302.0,20:28:00.500,L,117.2,LL,648.4,500.0
QDV7XQWLI7,170302.0,20:28:03.844,R,148.4,LR,421.9,273.4
QDV7XQWLI7,170302.0,20:28:04.188,L,179.7,RL,312.5,164.1
QDV7XQWLI7,170302.0,20:28:04.898,L,132.8,LL,757.8,578.1
QDV7XQWLI7,170302.0,20:28:11.969,L,195.3,RL,570.3,414.1
QDV7XQWLI7,170302.0,20:28:12.531,L,117.2,LL,640.6,445.3
QDV7XQWLI7,170302.0,20:28:12.828,L,148.4,LL,265.6,148.4
QDV7XQWLI7,170302.0,20:28:13.516,S,125.0,LS,710.9,562.5
QDV7XQWLI7,170302.0,20:28:44.727,L,179.7,LL,304.7,148.4
QDV7XQWLI7,170302.0,20:28:45.188,R,156.3,LR,484.4,304.7
QDV7XQWLI7,170302.0,20:28:45.766,R,148.4,RR,585.9,429.7
QDV7XQWLI7,170302.0,20:28:46.367,S,195.3,RS,554.7,406.3
QDV7XQWLI7,170302.0,20:28:48.156,L,156.3,RL,367.2,195.3
QDV7XQWLI7,170302.0,20:28:48.523,R,156.3,LR,367.2,210.9
QDV7XQWLI7,170302.0,20:28:48.984,R,132.8,RR,484.4,328.1
QDV7XQWLI7,170302.0,20:28:49.414,L,125.0,RL,437.5,304.7
QDV7XQWLI7,170302.0,20:28:49.844,S,132.8,LS,421.9,296.9
QDV7XQWLI7,170302.0,20:28:50.102,L,125.0,SL,265.6,132.8
QDV7XQWLI7,170302.0,20:28:50.453,S,140.6,LS,335.9,210.9
QDV7XQWLI7,170302.0,20:28:50.922,L,226.6,SL,382.8,242.2
QDV7XQWLI7,170302.0,20:28:51.273,R,179.7,LR,398.4,171.9
QDV7XQWLI7,170302.0,20:28:51.609,L,156.3,RL,359.4,179.7
QDV7XQWLI7,170302.0,20:28:52.344,R,156.3,LR,734.4,578.1
QDV7XQWLI7,170302.0,20:28:53.883,L,148.4,LL,445.3,296.9
QDV7XQWLI7,170302.0,20:28:54.273,R,132.8,LR,406.3,257.8
QDV7XQWLI7,170302.0,20:28:54.664,R,156.3,RR,367.2,234.4
QDV7XQWLI7,170302.0,20:28:55.094,S,132.8,RS,453.1,296.9
QDV7XQWLI7,170302.0,20:28:55.531,L,226.6,SL,343.8,210.9
QDV7XQWLI7,170302.0,20:28:55.922,L,140.6,LL,476.6,250.0
QDV7XQWLI7,170302.0,20:28:57.602,L,203.1,RL,593.8,445.3
QDV7XQWLI7,170302.0,20:28:58.102,R,140.6,LR,562.5,359.4
QDV7XQWLI7,170302.0,20:29:31.492,R,125.0,LR,562.5,421.9
QDV7XQWLI7,170302.0,20:29:31.719,R,132.8,RR,218.8,93.8
QDV7XQWLI7,170302.0,20:29:32.094,R,187.5,RR,320.3,187.5
QDV7XQWLI7,170302.0,20:29:32.805,R,187.5,RR,710.9,523.4
QDV7XQWLI7,170302.0,20:29:38.562,L,179.7,RL,757.8,601.6
QDV7XQWLI7,170302.0,20:29:39.297,L,148.4,LL,765.6,585.9
QDV7XQWLI7,170302.0,20:29:40.414,L,218.8,SL,523.4,335.9
QDV7XQWLI7,170302.0,20:29:41.055,L,148.4,LL,710.9,492.2
QDV7XQWLI7,170302.0,20:29:41.641,R,140.6,LR,593.8,445.3
QDV7XQWLI7,170302.0,20:29:41.938,L,125.0,RL,312.5,171.9
QDV7XQWLI7,170302.0,20:29:42.367,L,117.2,LL,437.5,312.5
QDV7XQWLI7,170302.0,20:29:44.344,L,140.6,RL,632.8,484.4
QDV7XQWLI7,170302.0,20:29:51.945,R,179.7,LR,484.4,343.8
QDV7XQWLI7,170302.0,20:29:52.516,S,195.3,RS,554.7,375.0
QDV7XQWLI7,170302.0,20:29:52.828,L,195.3,SL,312.5,117.2
QDV7XQWLI7,170302.0,20:29:53.305,R,164.1,LR,507.8,312.5
QDV7XQWLI7,170302.0,20:29:53.836,L,171.9,RL,523.4,359.4
QDV7XQWLI7,170302.0,20:29:54.180,S,203.1,LS,312.5,140.6
QDV7XQWLI7,170302.0,20:29:54.406,L,125.0,SL,304.7,101.6
QDV7XQWLI7,170302.0,20:29:54.750,L,148.4,LL,320.3,195.3
QDV7XQWLI7,170302.0,20:29:56.227,L,156.3,LL,625.0,453.1
QDV7XQWLI7,170302.0,20:29:56.742,S,164.1,LS,507.8,351.6
QDV7XQWLI7,170302.0,20:29:57.094,L,203.1,SL,312.5,148.4
QDV7XQWLI7,170302.0,20:29:57.586,R,164.1,LR,531.3,328.1
QDV7XQWLI7,170302.0,20:29:57.930,R,148.4,RR,359.4,195.3
QDV7XQWLI7,170302.0,20:29:58.531,L,171.9,RL,578.1,429.7
QDV7XQWLI7,170302.0,20:30:05.359,R,156.3,RR,515.6,375.0
QDV7XQWLI7,170302.0,20:30:05.719,S,101.6,RS,414.1,257.8
QDV7XQWLI7,170302.0,20:30:06.117,L,54.7,SL,15.6,343.8
QDV7XQWLI7,170302.0,20:30:06.188,L,125.0,LL,15.6,343.8
QDV7XQWLI7,170302.0,20:30:06.547,R,218.8,LR,265.6,140.6
QDV7XQWLI7,170302.0,20:30:12.109,L,148.4,RL,281.3,132.8
QDV7XQWLI7,170302.0,20:30:12.484,S,179.7,LS,343.8,195.3
QDV7XQWLI7,170302.0,20:30:12.758,L,140.6,SL,312.5,132.8
QDV7XQWLI7,170302.0,20:30:13.211,R,179.7,LR,414.1,273.4
QDV7XQWLI7,170302.0,20:30:13.648,R,164.1,RR,453.1,273.4
QDV7XQWLI7,170302.0,20:30:14.062,L,132.8,RL,445.3,281.3
QDV7XQWLI7,170302.0,20:30:14.562,S,179.7,LS,453.1,320.3
QDV7XQWLI7,170302.0,20:30:14.930,L,203.1,SL,343.8,164.1
QDV7XQWLI7,170302.0,20:30:15.344,R,156.3,LR,460.9,257.8
QDV7XQWLI7,170302.0,20:30:15.570,R,140.6,RR,242.2,85.9
QDV7XQWLI7,170302.0,20:30:16.305,L,179.7,RL,695.3,554.7
QDV7XQWLI7,170302.0,20:30:24.695,L,148.4,RL,296.9,125.0
QDV7XQWLI7,170302.0,20:30:25.352,R,156.3,LR,648.4,500.0
QDV7XQWLI7,170302.0,20:30:25.703,L,187.5,RL,320.3,164.1
QDV7XQWLI7,170302.0,20:30:26.023,L,101.6,LL,406.3,218.8
QDV7XQWLI7,170302.0,20:30:30.484,L,250.0,RL,640.6,500.0
QDV7XQWLI7,170302.0,20:30:30.914,L,117.2,LL,562.5,312.5
QDV7XQWLI7,170302.0,20:30:31.234,L,148.4,LL,289.1,171.9
QDV7XQWLI7,170302.0,20:32:42.102,L,148.4,RL,773.4,593.8
QDV7XQWLI7,170302.0,20:32:42.539,L,234.4,LL,351.6,203.1
QDV7XQWLI7,170302.0,20:32:42.883,L,140.6,LL,437.5,203.1
QDV7XQWLI7,170302.0,20:32:43.375,L,140.6,LL,492.2,351.6
QDV7XQWLI7,170302.0,20:32:46.648,L,187.5,SL,585.9,390.6
QDV7XQWLI7,170302.0,20:32:47.070,R,164.1,LR,445.3,257.8
QDV7XQWLI7,170302.0,20:32:47.344,L,179.7,RL,257.8,93.8
QDV7XQWLI7,170302.0,20:32:47.641,S,156.3,LS,320.3,140.6
QDV7XQWLI7,170302.0,20:32:47.945,L,195.3,SL,265.6,109.4
QDV7XQWLI7,170302.0,20:32:48.305,R,140.6,LR,414.1,218.8
QDV7XQWLI7,170302.0,20:32:48.742,R,132.8,RR,445.3,304.7
QDV7XQWLI7,170302.0,20:32:50.070,S,140.6,LS,445.3,312.5
QDV7XQWLI7,170302.0,20:32:50.641,L,156.3,SL,554.7,414.1
QDV7XQWLI7,170302.0,20:32:51.047,R,132.8,LR,429.7,273.4
QDV7XQWLI7,170302.0,20:32:51.297,R,117.2,RR,265.6,132.8
QDV7XQWLI7,170302.0,20:32:51.602,L,156.3,RL,265.6,148.4
QDV7XQWLI7,170302.0,20:32:51.938,S,117.2,LS,375.0,218.8
QDV7XQWLI7,170302.0,20:32:52.578,L,171.9,SL,585.9,468.8
QDV7XQWLI7,170302.0,20:32:52.977,R,125.0,LR,445.3,273.4
QDV7XQWLI7,170302.0,20:32:53.352,L,140.6,RL,359.4,234.4
QDV7XQWLI7,170302.0,20:32:53.883,R,156.3,LR,515.6,375.0
QDV7XQWLI7,170302.0,20:32:54.305,L,218.8,RL,359.4,203.1
QDV7XQWLI7,170302.0,20:32:54.734,L,164.1,LL,484.4,265.6
QDV7XQWLI7,170302.0,20:33:01.766,L,226.6,RL,640.6,468.8
QDV7XQWLI7,170302.0,20:33:02.258,L,156.3,LL,562.5,335.9
QDV7XQWLI7,170302.0,20:33:02.547,L,171.9,LL,273.4,117.2
QDV7XQWLI7,170302.0,20:33:03.164,S,156.3,LS,632.8,460.9
QDV7XQWLI7,170302.0,20:33:14.555,R,148.4,SR,585.9,421.9
QDV7XQWLI7,170302.0,20:33:14.961,R,140.6,RR,414.1,265.6
QDV7XQWLI7,170302.0,20:33:15.469,L,109.4,RL,539.1,398.4
QDV7XQWLI7,170302.0,20:33:17.156,S,125.0,RS,507.8,351.6
QDV7XQWLI7,170302.0,20:33:17.750,L,117.2,SL,601.6,476.6
QDV7XQWLI7,170302.0,20:33:18.180,R,132.8,LR,414.1,296.9
QDV7XQWLI7,170302.0,20:33:18.516,L,164.1,RL,304.7,171.9
QDV7XQWLI7,170302.0,20:33:18.852,S,156.3,LS,343.8,179.7
QDV7XQWLI7,170302.0,20:33:19.266,L,203.1,SL,367.2,210.9
QDV7XQWLI7,170302.0,20:33:19.656,R,195.3,LR,398.4,195.3
QDV7XQWLI7,170302.0,20:33:19.867,L,125.0,RL,281.3,85.9
QDV7XQWLI7,170302.0,20:33:20.617,L,171.9,LL,703.1,578.1
QDV7XQWLI7,170302.0,20:33:20.977,L,132.8,LL,398.4,226.6
QDV7XQWLI7,170302.0,20:33:21.477,S,164.1,LS,468.8,335.9
QDV7XQWLI7,170302.0,20:33:21.844,L,210.9,SL,320.3,156.3
QDV7XQWLI7,170302.0,20:33:22.094,R,164.1,LR,296.9,85.9
QDV7XQWLI7,170302.0,20:33:22.492,R,195.3,RR,367.2,203.1
QDV7XQWLI7,170302.0,20:33:23.234,L,148.4,RL,789.1,593.8
QDV7XQWLI7,170302.0,20:33:23.727,S,148.4,LS,492.2,343.8
QDV7XQWLI7,170302.0,20:33:24.289,R,195.3,SR,515.6,367.2
QDV7XQWLI7,170302.0,20:33:24.828,L,132.8,RL,601.6,406.3
QDV7XQWLI7,170302.0,20:33:25.148,S,148.4,LS,304.7,171.9
QDV7XQWLI7,170302.0,20:33:25.508,L,156.3,SL,351.6,203.1
QDV7XQWLI7,170302.0,20:33:25.859,R,179.7,LR,328.1,171.9
QDV7XQWLI7,170302.0,20:33:26.297,L,125.0,RL,492.2,312.5
QDV7XQWLI7,170302.0,20:33:26.617,S,132.8,LS,312.5,187.5
QDV7XQWLI7,170302.0,20:33:26.922,L,132.8,SL,304.7,171.9
QDV7XQWLI7,170302.0,20:33:27.258,L,109.4,LL,359.4,226.6
QDV7XQWLI7,170302.0,20:33:28.695,L,117.2,LL,593.8,437.5
QDV7XQWLI7,170302.0,20:33:29.086,S,171.9,LS,335.9,218.8
QDV7XQWLI7,170302.0,20:33:29.477,L,179.7,SL,382.8,210.9
QDV7XQWLI7,170302.0,20:33:29.961,R,156.3,LR,507.8,328.1
QDV7XQWLI7,170302.0,20:33:30.492,L,156.3,RL,531.3,375.0
QDV7XQWLI7,170302.0,20:33:31.125,L,164.1,LL,625.0,468.8
QDV7XQWLI7,170302.0,20:33:43.242,L,203.1,RL,656.3,500.0
QDV7XQWLI7,170302.0,20:33:43.680,L,132.8,LL,507.8,304.7
QDV7XQWLI7,170302.0,20:33:43.977,L,156.3,LL,273.4,140.6
QDV7XQWLI7,170302.0,20:33:44.742,S,156.3,LS,765.6,609.4
QDV7XQWLI7,170302.0,20:34:10.188,R,117.2,RR,789.1,671.9
QDV7XQWLI7,170302.0,20:34:11.031,L,179.7,RL,781.3,664.1
QDV7XQWLI7,170302.0,20:34:11.438,R,140.6,LR,445.3,265.6
QDV7XQWLI7,170302.0,20:34:12.953,R,132.8,RR,609.4,484.4
QDV7XQWLI7,170302.0,20:34:13.531,S,164.1,RS,546.9,414.1
QDV7XQWLI7,170302.0,20:34:13.977,R,125.0,SR,484.4,320.3
QDV7XQWLI7,170302.0,20:34:14.430,R,179.7,RR,398.4,273.4
QDV7XQWLI7,170302.0,20:34:15.109,L,171.9,RL,687.5,507.8
QDV7XQWLI7,170302.0,20:34:15.641,L,203.1,LL,500.0,328.1
QDV7XQWLI7,170302.0,20:34:15.930,S,179.7,LS,312.5,109.4
QDV7XQWLI7,170302.0,20:34:16.414,L,226.6,SL,437.5,257.8
QDV7XQWLI7,170302.0,20:34:16.695,R,187.5,LR,320.3,93.8
QDV7XQWLI7,170302.0,20:34:17.320,S,125.0,RS,687.5,500.0
QDV7XQWLI7,170302.0,20:34:17.766,L,171.9,SL,398.4,273.4
QDV7XQWLI7,170302.0,20:34:18.422,L,164.1,LL,664.1,492.2
QDV7XQWLI7,170302.0,20:34:19.102,L,109.4,LL,734.4,570.3
QDV7XQWLI7,170302.0,20:34:19.711,R,164.1,LR,554.7,445.3
QDV7XQWLI7,170302.0,20:34:20.195,S,125.0,RS,523.4,359.4
QDV7XQWLI7,170302.0,20:35:17.195,L,164.1,LL,757.8,617.2
QDV7XQWLI7,170302.0,20:36:08.672,R,203.1,LR,539.1,382.8
QDV7XQWLI7,170302.0,20:36:47.461,L,132.8,LL,265.6,132.8
QDV7XQWLI7,170302.0,20:36:47.922,S,132.8,LS,460.9,328.1
QDV7XQWLI7,170302.0,20:36:48.477,L,187.5,SL,500.0,367.2
QDV7XQWLI7,170302.0,20:36:48.719,S,140.6,LS,289.1,101.6
QDV7XQWLI7,170302.0,20:36:49.109,L,195.3,SL,335.9,195.3
QDV7XQWLI7,170302.0,20:36:49.531,L,140.6,LL,476.6,281.3
QDV7XQWLI7,170302.0,20:36:50.023,L,117.2,LL,515.6,375.0
QDV7XQWLI7,170302.0,20:36:50.367,S,148.4,LS,312.5,195.3
QDV7XQWLI7,170302.0,20:36:50.820,L,125.0,SL,476.6,328.1
QDV7XQWLI7,170302.0,20:36:53.805,L,164.1,RL,367.2,226.6
QDV7XQWLI7,170302.0,20:36:54.516,L,140.6,LL,734.4,570.3
QDV7XQWLI7,170302.0,20:36:54.852,L,164.1,LL,312.5,171.9
QDV7XQWLI7,170302.0,20:36:55.289,S,148.4,LS,453.1,289.1
QDV7XQWLI7,170302.0,20:36:55.859,L,187.5,SL,531.3,382.8
QDV7XQWLI7,170302.0,20:36:56.180,R,187.5,LR,320.3,132.8
QDV7XQWLI7,170302.0,20:37:01.305,R,148.4,LR,460.9,281.3
QDV7XQWLI7,170302.0,20:37:01.656,L,125.0,RL,375.0,226.6
QDV7XQWLI7,170302.0,20:37:02.250,R,179.7,LR,539.1,414.1
QDV7XQWLI7,170302.0,20:37:02.609,L,109.4,RL,429.7,250.0
QDV7XQWLI7,170302.0,20:37:02.969,L,117.2,LL,351.6,242.2
QDV7XQWLI7,170302.0,20:37:06.086,R,140.6,LR,375.0,250.0
QDV7XQWLI7,170302.0,20:37:06.477,L,132.8,RL,398.4,257.8
QDV7XQWLI7,170302.0,20:37:06.797,S,140.6,LS,312.5,179.7
QDV7XQWLI7,170302.0,20:37:07.406,R,132.8,SR,617.2,476.6
QDV7XQWLI7,170302.0,20:37:07.758,L,125.0,RL,359.4,226.6
QDV7XQWLI7,170302.0,20:37:08.422,L,125.0,LL,664.1,539.1
QDV7XQWLI7,170302.0,20:37:08.992,L,203.1,LL,492.2,367.2
QDV7XQWLI7,170302.0,20:37:09.367,L,156.3,LL,421.9,218.8
QDV7XQWLI7,170302.0,20:37:13.172,R,210.9,LR,640.6,414.1
QDV7XQWLI7,170302.0,20:37:13.438,L,125.0,RL,351.6,140.6
QDV7XQWLI7,170302.0,20:37:14.992,S,140.6,RS,414.1,281.3
QDV7XQWLI7,170302.0,20:37:15.797,L,203.1,SL,742.2,601.6
QDV7XQWLI7,170302.0,20:37:20.055,L,164.1,SL,695.3,570.3
QDV7XQWLI7,170302.0,20:37:20.398,L,132.8,LL,375.0,210.9
QDV7XQWLI7,170302.0,20:37:21.008,L,187.5,LL,554.7,421.9
QDV7XQWLI7,170302.0,20:37:21.531,L,148.4,LL,562.5,375.0
QDV7XQWLI7,170302.0,20:37:22.031,L,156.3,LL,492.2,343.8
QDV7XQWLI7,170302.0,20:37:22.336,L,156.3,LL,304.7,148.4
QDV7XQWLI7,170302.0,20:37:24.688,L,250.0,SL,687.5,476.6
QDV7XQWLI7,170302.0,20:37:25.250,R,132.8,LR,679.7,429.7
QDV7XQWLI7,170302.0,20:37:28.133,R,140.6,LR,757.8,601.6
QDV7XQWLI7,170302.0,20:37:34.641,S,125.0,RS,382.8,273.4
QDV7XQWLI7,170302.0,20:37:38.531,R,179.7,RR,382.8,242.2
QDV7XQWLI7,170302.0,20:37:39.297,L,242.2,RL,703.1,523.4
QDV7XQWLI7,170302.0,20:37:39.578,L,148.4,LL,375.0,132.8
QDV7XQWLI7,170302.0,20:37:40.086,S,101.6,LS,554.7,406.3
QDV7XQWLI7,170302.0,20:37:40.547,L,218.8,SL,343.8,242.2
QDV7XQWLI7,170302.0,20:37:40.883,L,132.8,LL,421.9,203.1
QDV7XQWLI7,170302.0,20:37:41.180,S,140.6,LS,289.1,156.3
QDV7XQWLI7,170302.0,20:37:41.961,R,132.8,SR,789.1,648.4
QDV7XQWLI7,170302.0,20:37:42.484,L,117.2,RL,539.1,406.3
QDV7XQWLI7,170302.0,20:37:42.961,L,109.4,LL,484.4,367.2
QDV7XQWLI7,170302.0,20:37:43.359,L,125.0,LL,382.8,273.4
QDV7XQWLI7,170302.0,20:37:43.930,L,117.2,LL,578.1,453.1
QDV7XQWLI7,170302.0,20:37:44.344,L,109.4,LL,421.9,304.7
QDV7XQWLI7,170302.0,20:37:52.805,S,117.2,SS,320.3,156.3
QDV7XQWLI7,170302.0,20:37:56.102,S,125.0,LS,437.5,320.3
QDV7XQWLI7,170302.0,20:37:56.617,R,132.8,SR,507.8,382.8
QDV7XQWLI7,170302.0,20:37:57.156,L,156.3,RL,515.6,382.8
QDV7XQWLI7,170302.0,20:37:57.438,S,140.6,LS,296.9,140.6
QDV7XQWLI7,170302.0,20:37:59.016,L,125.0,LL,414.1,218.8
QDV7XQWLI7,170302.0,20:37:59.375,L,117.2,LL,367.2,242.2
QDV7XQWLI7,170302.0,20:37:59.984,R,203.1,LR,523.4,406.3
QDV7XQWLI7,170302.0,20:38:06.523,L,156.3,RL,726.6,585.9
QDV7XQWLI7,170302.0,20:38:11.430,R,132.8,RR,562.5,390.6
QDV7XQWLI7,170302.0,20:38:12.180,R,117.2,RR,765.6,632.8
QDV7XQWLI7,170302.0,20:38:12.531,R,132.8,RR,335.9,218.8
QDV7XQWLI7,170302.0,20:38:13.133,L,195.3,RL,539.1,406.3
QDV7XQWLI7,170302.0,20:38:13.477,L,117.2,LL,421.9,226.6
QDV7XQWLI7,170302.0,20:38:14.812,R,132.8,LR,437.5,312.5
QDV7XQWLI7,170302.0,20:38:15.539,L,210.9,RL,648.4,515.6
QDV7XQWLI7,170302.0,20:38:22.023,L,132.8,SL,703.1,531.3
QDV7XQWLI7,170302.0,20:38:22.500,R,156.3,LR,453.1,320.3
QDV7XQWLI7,170302.0,20:38:22.969,L,125.0,RL,500.0,343.8
QDV7XQWLI7,170302.0,20:38:23.336,L,132.8,LL,359.4,234.4
QDV7XQWLI7,170302.0,20:38:23.844,S,148.4,LS,492.2,359.4
QDV7XQWLI7,170302.0,20:38:24.156,L,109.4,SL,351.6,203.1
QDV7XQWLI7,170302.0,20:38:24.516,R,156.3,LR,312.5,203.1
QDV7XQWLI7,170302.0,20:38:24.875,L,117.2,RL,398.4,242.2
QDV7XQWLI7,170302.0,20:38:25.203,S,148.4,LS,296.9,179.7
QDV7XQWLI7,170302.0,20:38:25.562,L,140.6,SL,367.2,218.8
QDV7XQWLI7,170302.0,20:38:26.047,R,148.4,LR,476.6,335.9
QDV7XQWLI7,170302.0,20:38:27.500,R,210.9,LR,359.4,242.2
QDV7XQWLI7,170302.0,20:38:28.047,L,109.4,RL,648.4,437.5
QDV7XQWLI7,170302.0,20:38:28.359,S,125.0,LS,296.9,187.5
QDV7XQWLI7,170302.0,20:38:29.070,R,171.9,SR,664.1,539.1
QDV7XQWLI7,170302.0,20:38:30.148,S,109.4,LS,304.7,195.3
QDV7XQWLI7,170302.0,20:38:32.844,L,125.0,SL,757.8,640.6
QDV7XQWLI7,170302.0,20:38:33.211,L,117.2,LL,375.0,250.0
QDV7XQWLI7,170302.0,20:38:33.836,L,132.8,LL,609.4,492.2
QDV7XQWLI7,170302.0,20:38:34.375,L,156.3,LL,515.6,382.8
QDV7XQWLI7,170302.0,20:38:34.836,L,132.8,LL,484.4,328.1
QDV7XQWLI7,170302.0,20:38:35.055,L,125.0,LL,226.6,93.8
QDV7XQWLI7,170302.0,20:38:35.484,L,140.6,LL,414.1,289.1
QDV7XQWLI7,170302.0,20:38:41.688,S,109.4,RS,507.8,382.8
QDV7XQWLI7,170302.0,20:38:41.938,S,125.0,SS,234.4,125.0
QDV7XQWLI7,170302.0,20:38:42.883,L,179.7,SL,15.6,765.6
QDV7XQWLI7,170302.0,20:38:43.773,R,140.6,RR,234.4,93.8
QDV7XQWLI7,170302.0,20:38:44.109,R,140.6,RR,335.9,195.3
QDV7XQWLI7,170302.0,20:38:45.562,S,140.6,LS,515.6,390.6
QDV7XQWLI7,170302.0,20:38:45.781,S,109.4,SS,250.0,109.4
QDV7XQWLI7,170302.0,20:38:46.219,L,125.0,SL,421.9,312.5
QDV7XQWLI7,170302.0,20:38:46.555,R,164.1,LR,296.9,171.9
QDV7XQWLI7,170302.0,20:38:47.016,S,125.0,RS,500.0,335.9
QDV7XQWLI7,170302.0,20:38:47.266,S,125.0,SS,250.0,125.0
QDV7XQWLI7,170302.0,20:38:47.656,L,179.7,SL,335.9,210.9
QDV7XQWLI7,170302.0,20:38:48.008,L,117.2,LL,414.1,234.4
QDV7XQWLI7,170302.0,20:38:48.680,R,140.6,LR,648.4,531.3
QDV7XQWLI7,170302.0,20:38:49.156,S,132.8,RS,484.4,343.8
QDV7XQWLI7,170302.0,20:38:49.523,S,148.4,SS,351.6,218.8
QDV7XQWLI7,170302.0,20:38:50.242,L,148.4,SL,718.8,570.3
QDV7XQWLI7,170302.0,20:38:50.828,R,187.5,LR,546.9,398.4
QDV7XQWLI7,170302.0,20:38:51.234,R,125.0,RR,468.8,281.3
QDV7XQWLI7,170302.0,20:38:51.688,R,140.6,RR,437.5,312.5
QDV7XQWLI7,170302.0,20:38:52.172,R,109.4,RR,515.6,375.0
QDV7XQWLI7,170302.0,20:38:52.992,L,132.8,RL,796.9,687.5
QDV7XQWLI7,170302.0,20:38:53.430,L,109.4,LL,460.9,328.1
QDV7XQWLI7,170302.0,20:38:53.898,L,117.2,LL,460.9,351.6
QDV7XQWLI7,170302.0,20:38:55.484,R,210.9,RR,679.7,539.1
QDV7XQWLI7,170303.0,12:50:40.609,R,187.5,RR,335.9,203.1
QDV7XQWLI7,170303.0,12:50:41.359,L,144.5,RL,793.0,605.5
QDV7XQWLI7,170303.0,12:50:41.988,R,148.4,LR,625.0,480.5
QDV7XQWLI7,170303.0,12:50:42.562,L,210.9,RL,511.7,363.3
QDV7XQWLI7,170303.0,12:51:11.039,L,210.9,LL,488.3,296.9
QDV7XQWLI7,170303.0,12:51:12.777,R,183.6,LR,644.5,429.7
QDV7XQWLI7,170303.0,12:51:13.270,R,152.3,RR,523.4,339.8
QDV7XQWLI7,170303.0,12:51:13.793,L,203.1,RL,472.7,320.3
QDV7XQWLI7,170303.0,13:19:38.176,L,136.7,LL,382.8,273.4
QDV7XQWLI7,170303.0,13:19:38.738,L,160.2,LL,539.1,402.3
QDV7XQWLI7,170303.0,13:19:47.027,R,187.5,LR,628.9,476.6
QDV7XQWLI7,170303.0,13:19:47.672,L,152.3,RL,679.7,492.2
QDV7XQWLI7,170303.0,13:19:48.078,L,183.6,LL,375.0,222.7
QDV7XQWLI7,170303.0,13:20:07.570,R,121.1,LR,437.5,277.3
QDV7XQWLI7,170303.0,13:20:08.312,R,125.0,RR,738.3,617.2
QDV7XQWLI7,170303.0,13:20:08.984,L,128.9,RL,668.0,543.0
QDV7XQWLI7,170303.0,13:20:09.316,L,175.8,LL,285.2,156.3
QDV7XQWLI7,170303.0,16:42:12.074,R,168.0,RR,382.8,234.4
QDV7XQWLI7,170303.0,16:42:12.648,L,156.3,RL,585.9,418.0
QDV7XQWLI7,170303.0,16:42:13.141,R,203.1,LR,445.3,289.1
QDV7XQWLI7,170303.0,16:42:13.480,L,117.2,RL,425.8,222.7
QDV7XQWLI7,170303.0,16:47:11.211,L,140.6,LL,406.3,210.9
QDV7XQWLI7,170303.0,16:47:12.605,R,207.0,LR,484.4,242.2
QDV7XQWLI7,170303.0,16:47:13.906,L,121.1,RL,511.7,343.8
QDV7XQWLI7,170303.0,16:47:14.402,S,168.0,LS,449.2,328.1
QDV7XQWLI7,170303.0,16:47:15.059,R,164.1,SR,660.2,492.2
QDV7XQWLI7,170303.0,16:49:28.070,L,117.2,LL,570.3,418.0
QDV7XQWLI7,170303.0,16:49:28.664,L,132.8,LL,578.1,460.9
QDV7XQWLI7,170303.0,16:49:29.285,R,164.1,LR,589.8,457.0
QDV7XQWLI7,170303.0,16:49:29.828,R,171.9,RR,535.2,371.1
QDV7XQWLI7,170303.0,16:49:30.297,L,132.8,RL,507.8,335.9
QDV7XQWLI7,170303.0,16:49:31.062,S,128.9,LS,769.5,636.7
QDV7XQWLI7,170303.0,16:49:31.676,R,152.3,SR,589.8,460.9
QDV7XQWLI7,170303.0,16:49:32.113,R,164.1,RR,425.8,273.4
QDV7XQWLI7,170303.0,16:49:49.355,L,160.2,SL,722.7,550.8
QDV7XQWLI7,170303.0,16:49:49.973,L,121.1,LL,656.3,496.1
QDV7XQWLI7,170303.0,16:49:50.695,L,117.2,LL,726.6,605.5
QDV7XQWLI7,170303.0,16:49:51.062,L,136.7,LL,347.7,230.5
QDV7XQWLI7,170303.0,16:49:51.406,L,125.0,LL,355.5,218.8
QDV7XQWLI7,170303.0,16:56:36.230,L,191.4,RL,750.0,589.8
QDV7XQWLI7,170303.0,16:56:36.723,L,156.3,LL,527.3,335.9
QDV7XQWLI7,170303.0,16:56:37.211,L,281.3,LL,363.3,207.0
