User_ID,Date,Timestamp,Hand,Hold_Time,Direction,Latency_Time,Flight_Time
RTBOZILJFT,170114.0,11:51:34.969,L,62.5,LL,296.9,246.1
RTBOZILJFT,170114.0,11:51:35.426,L,128.9,LL,390.6,328.1
RTBOZILJFT,170114.0,11:51:35.766,R,62.5,LR,406.3,277.3
RTBOZILJFT,170114.0,11:51:36.309,L,66.4,RL,539.1,476.6
RTBOZILJFT,170114.0,11:51:36.555,L,89.8,LL,222.7,156.3
RTBOZILJFT,170114.0,11:55:23.777,L,160.2,RL,226.6,117.2
RTBOZILJFT,170114.0,11:55:24.051,L,82.0,LL,351.6,191.4
RTBOZILJFT,170114.0,11:55:24.328,L,140.6,LL,218.8,136.7
RTBOZILJFT,170114.0,11:55:24.730,L,140.6,LL,402.3,261.7
RTBOZILJFT,170114.0,11:55:25.020,L,109.4,LL,320.3,179.7
RTBOZILJFT,170114.0,11:55:25.309,L,97.7,LL,300.8,191.4
RTBOZILJFT,170114.0,11:55:31.961,R,58.6,LR,312.5,191.4
RTBOZILJFT,170114.0,11:55:32.504,L,121.1,RL,480.5,421.9
RTBOZILJFT,170114.0,11:55:32.812,R,58.6,LR,371.1,250.0
RTBOZILJFT,170114.0,11:55:33.191,R,58.6,RR,378.9,320.3
RTBOZILJFT,170114.0,11:55:33.723,R,58.6,RR,531.3,472.7
RTBOZILJFT,170114.0,11:55:34.121,L,97.7,RL,359.4,300.8
RTBOZILJFT,170114.0,11:55:34.371,R,46.9,LR,300.8,203.1
RTBOZILJFT,170114.0,11:55:34.691,R,89.8,RR,277.3,230.5
RTBOZILJFT,170114.0,11:55:40.426,R,70.3,RR,371.1,300.8
RTBOZILJFT,170114.0,11:55:40.676,L,109.4,RL,210.9,140.6
RTBOZILJFT,170114.0,11:55:40.895,L,78.1,LL,250.0,140.6
RTBOZILJFT,170114.0,11:55:41.137,L,62.5,LL,257.8,179.7
RTBOZILJFT,170114.0,11:55:41.414,L,70.3,LL,269.5,207.0
RTBOZILJFT,170114.0,11:55:41.664,L,117.2,LL,203.1,132.8
RTBOZILJFT,170114.0,11:55:41.824,L,70.3,LL,207.0,89.8
RTBOZILJFT,170114.0,11:55:42.465,R,70.3,LR,640.6,570.3
RTBOZILJFT,170114.0,11:55:42.777,R,82.0,RR,300.8,230.5
RTBOZILJFT,170114.0,11:55:44.027,L,82.0,LL,418.0,347.7
RTBOZILJFT,170114.0,11:55:57.402,R,58.6,RR,242.2,171.9
RTBOZILJFT,170114.0,11:55:57.785,L,101.6,RL,339.8,281.3
RTBOZILJFT,170114.0,11:55:57.934,L,70.3,LL,179.7,78.1
RTBOZILJFT,170114.0,11:55:58.113,L,89.8,LL,160.2,89.8
RTBOZILJFT,170114.0,11:55:58.395,R,89.8,LR,281.3,191.4
RTBOZILJFT,170114.0,11:55:58.836,L,82.0,RL,449.2,359.4
RTBOZILJFT,170114.0,11:55:59.164,L,89.8,LL,320.3,238.3
RTBOZILJFT,170114.0,11:55:59.477,R,82.0,LR,320.3,230.5
RTBOZILJFT,170114.0,11:55:59.676,R,70.3,RR,210.9,128.9
RTBOZILJFT,170114.0,11:55:59.934,R,78.1,RR,250.0,179.7
RTBOZILJFT,170114.0,11:56:01.426,R,70.3,RR,242.2,179.7
RTBOZILJFT,170114.0,11:56:01.785,L,70.3,RL,359.4,289.1
RTBOZILJFT,170114.0,11:56:02.203,L,97.7,LL,390.6,320.3
RTBOZILJFT,170114.0,11:56:02.566,R,70.3,LR,390.6,293.0
RTBOZILJFT,170114.0,11:56:02.918,L,82.0,RL,339.8,269.5
RTBOZILJFT,170114.0,11:56:03.188,R,58.6,LR,293.0,210.9
RTBOZILJFT,170114.0,11:56:03.508,R,89.8,RR,289.1,230.5
RTBOZILJFT,170114.0,11:56:07.168,R,89.8,RR,339.8,261.7
RTBOZILJFT,170114.0,11:56:07.406,L,78.1,RL,250.0,160.2
RTBOZILJFT,170114.0,11:56:07.629,L,101.6,LL,199.2,121.1
RTBOZILJFT,170114.0,11:56:07.820,L,70.3,LL,222.7,121.1
RTBOZILJFT,170114.0,11:56:08.109,L,58.6,LL,300.8,230.5
RTBOZILJFT,170114.0,11:56:08.340,L,82.0,LL,207.0,148.4
RTBOZILJFT,170114.0,11:56:08.520,L,50.8,LL,210.9,128.9
RTBOZILJFT,170114.0,11:56:09.059,R,58.6,LR,531.3,480.5
RTBOZILJFT,170114.0,11:56:09.348,R,70.3,RR,277.3,218.8
RTBOZILJFT,170114.0,11:56:09.699,L,58.6,RL,363.3,293.0
RTBOZILJFT,170114.0,11:56:10.090,L,89.8,LL,359.4,300.8
RTBOZILJFT,170114.0,11:56:36.039,L,89.8,RL,449.2,378.9
RTBOZILJFT,170114.0,11:56:36.262,L,82.0,LL,230.5,140.6
RTBOZILJFT,170114.0,11:56:36.609,L,78.1,LL,351.6,269.5
RTBOZILJFT,170114.0,11:56:36.812,L,89.8,LL,191.4,113.3
RTBOZILJFT,170114.0,11:56:37.152,R,82.0,LR,347.7,257.8
RTBOZILJFT,170114.0,11:56:37.449,L,66.4,RL,312.5,230.5
RTBOZILJFT,170114.0,11:56:37.691,L,89.8,LL,218.8,152.3
RTBOZILJFT,170114.0,11:56:38.422,S,58.6,LS,761.7,671.9
RTBOZILJFT,170114.0,11:56:39.043,L,50.8,SL,277.3,570.3
RTBOZILJFT,170114.0,11:56:39.582,L,78.1,LL,242.2,152.3
RTBOZILJFT,170114.0,11:56:39.941,R,89.8,LR,347.7,269.5
RTBOZILJFT,170114.0,11:56:40.172,R,50.8,RR,269.5,179.7
RTBOZILJFT,170114.0,11:56:40.465,R,62.5,RR,281.3,230.5
RTBOZILJFT,170114.0,11:56:40.812,L,70.3,RL,339.8,277.3
RTBOZILJFT,170114.0,11:56:55.551,L,121.1,RL,210.9,140.6
RTBOZILJFT,170114.0,11:56:56.168,R,58.6,LR,679.7,558.6
RTBOZILJFT,170114.0,11:56:56.508,L,97.7,RL,300.8,242.2
RTBOZILJFT,170114.0,11:56:56.730,S,62.5,LS,257.8,160.2
RTBOZILJFT,170114.0,11:56:57.438,R,39.1,SR,480.5,668.0
RTBOZILJFT,170114.0,11:56:58.191,R,101.6,RR,320.3,261.7
RTBOZILJFT,170114.0,11:56:58.461,L,89.8,RL,281.3,179.7
RTBOZILJFT,170114.0,11:57:31.234,L,128.9,RL,492.2,421.9
RTBOZILJFT,170114.0,11:57:31.414,L,70.3,LL,238.3,109.4
RTBOZILJFT,170114.0,11:57:31.703,L,109.4,LL,250.0,179.7
RTBOZILJFT,170114.0,11:57:32.887,R,89.8,LR,402.3,300.8
RTBOZILJFT,170114.0,11:57:33.195,R,46.9,RR,351.6,261.7
RTBOZILJFT,170114.0,11:57:38.641,L,70.3,LL,242.2,171.9
RTBOZILJFT,170114.0,11:57:39.309,R,58.6,LR,679.7,609.4
RTBOZILJFT,170114.0,11:57:39.590,R,62.5,RR,277.3,218.8
RTBOZILJFT,170114.0,11:57:40.230,L,70.3,RL,632.8,570.3
RTBOZILJFT,170114.0,11:57:48.062,R,62.5,RR,218.8,160.2
RTBOZILJFT,170114.0,11:57:51.582,R,58.6,RR,199.2,140.6
RTBOZILJFT,170114.0,11:57:52.352,L,70.3,RL,757.8,699.2
RTBOZILJFT,170114.0,11:57:55.953,R,78.1,SR,339.8,281.3
RTBOZILJFT,170114.0,11:57:56.336,R,70.3,RR,390.6,312.5
RTBOZILJFT,170114.0,11:57:56.824,L,70.3,RL,488.3,418.0
RTBOZILJFT,170114.0,11:57:57.164,S,58.6,LS,351.6,281.3
RTBOZILJFT,170114.0,11:57:58.605,L,70.3,RL,410.2,347.7
RTBOZILJFT,170114.0,11:57:58.797,L,58.6,LL,203.1,132.8
RTBOZILJFT,170114.0,11:57:59.086,L,109.4,LL,238.3,179.7
RTBOZILJFT,170114.0,11:57:59.398,L,140.6,LL,281.3,171.9
RTBOZILJFT,170114.0,11:58:01.086,R,89.8,RR,269.5,210.9
RTBOZILJFT,170114.0,11:58:01.387,L,70.3,RL,320.3,230.5
RTBOZILJFT,170114.0,11:58:01.926,S,70.3,LS,539.1,468.8
RTBOZILJFT,170114.0,11:58:05.301,L,101.6,RL,410.2,339.8
RTBOZILJFT,170114.0,11:58:05.648,L,89.8,LL,359.4,257.8
RTBOZILJFT,170114.0,11:58:06.070,L,89.8,LL,421.9,332.0
RTBOZILJFT,170114.0,11:58:06.301,L,113.3,LL,207.0,117.2
RTBOZILJFT,170114.0,11:58:06.578,R,78.1,LR,312.5,199.2
RTBOZILJFT,170114.0,11:58:06.879,L,78.1,RL,300.8,222.7
RTBOZILJFT,170114.0,11:58:07.129,L,109.4,LL,218.8,140.6
RTBOZILJFT,170114.0,11:58:07.719,S,50.8,LS,648.4,539.1
RTBOZILJFT,170114.0,11:58:08.027,L,89.8,SL,269.5,218.8
RTBOZILJFT,170114.0,11:58:08.211,R,50.8,LR,222.7,132.8
RTBOZILJFT,170114.0,11:58:08.500,L,78.1,RL,261.7,210.9
RTBOZILJFT,170114.0,11:58:08.910,L,128.9,LL,359.4,281.3
RTBOZILJFT,170114.0,11:58:09.352,R,89.8,LR,480.5,351.6
RTBOZILJFT,170114.0,11:58:09.621,R,50.8,RR,308.6,218.8
RTBOZILJFT,170114.0,11:58:09.902,R,70.3,RR,261.7,210.9
RTBOZILJFT,170114.0,11:58:10.180,L,70.3,RL,277.3,207.0
RTBOZILJFT,170114.0,11:58:10.441,S,58.6,LS,273.4,203.1
RTBOZILJFT,170114.0,11:58:10.742,L,82.0,SL,277.3,218.8
RTBOZILJFT,170114.0,11:58:11.000,L,89.8,LL,250.0,168.0
RTBOZILJFT,170114.0,11:58:11.301,L,58.6,LL,332.0,242.2
RTBOZILJFT,170114.0,11:58:11.570,L,78.1,LL,250.0,191.4
RTBOZILJFT,170114.0,11:58:11.910,R,58.6,LR,359.4,281.3
RTBOZILJFT,170114.0,11:58:13.000,L,78.1,LL,242.2,179.7
RTBOZILJFT,170114.0,11:58:13.254,L,101.6,LL,230.5,152.3
RTBOZILJFT,170114.0,11:58:13.434,S,70.3,LS,210.9,109.4
RTBOZILJFT,170114.0,11:58:14.812,R,78.1,LR,269.5,140.6
RTBOZILJFT,170114.0,11:58:15.113,S,70.3,RS,308.6,230.5
RTBOZILJFT,170114.0,11:58:17.504,R,89.8,LR,222.7,121.1
RTBOZILJFT,170114.0,11:58:17.703,L,89.8,RL,199.2,109.4
RTBOZILJFT,170114.0,11:58:17.805,S,62.5,LS,128.9,39.1
RTBOZILJFT,170114.0,11:58:18.031,L,89.8,SL,199.2,136.7
RTBOZILJFT,170114.0,11:58:18.266,L,82.0,LL,242.2,152.3
RTBOZILJFT,170114.0,11:58:18.605,L,70.3,LL,351.6,269.5
RTBOZILJFT,170114.0,11:58:19.906,L,89.8,RL,242.2,171.9
RTBOZILJFT,170114.0,11:58:20.125,L,89.8,LL,218.8,128.9
RTBOZILJFT,170114.0,11:58:20.406,R,70.3,LR,300.8,210.9
RTBOZILJFT,170114.0,11:58:20.773,L,70.3,RL,367.2,296.9
RTBOZILJFT,170114.0,11:58:21.055,L,89.8,LL,261.7,191.4
RTBOZILJFT,170114.0,11:58:21.246,S,50.8,LS,230.5,140.6
RTBOZILJFT,170114.0,11:58:40.344,L,89.8,SL,562.5,492.2
RTBOZILJFT,170114.0,11:58:40.723,L,101.6,LL,367.2,277.3
RTBOZILJFT,170114.0,11:58:40.973,L,101.6,LL,250.0,148.4
RTBOZILJFT,170114.0,11:58:50.695,L,58.6,LL,359.4,289.1
RTBOZILJFT,170114.0,11:58:50.906,L,50.8,LL,218.8,160.2
RTBOZILJFT,170114.0,11:58:51.246,L,109.4,LL,281.3,230.5
RTBOZILJFT,170114.0,11:58:51.605,L,58.6,LL,410.2,300.8
RTBOZILJFT,170114.0,11:58:51.906,S,58.6,LS,300.8,242.2
RTBOZILJFT,170114.0,11:58:52.406,L,70.3,SL,488.3,429.7
RTBOZILJFT,170114.0,11:58:52.648,L,113.3,LL,199.2,128.9
RTBOZILJFT,170114.0,11:58:52.746,L,70.3,LL,140.6,27.3
RTBOZILJFT,170114.0,11:58:53.047,L,58.6,LL,312.5,242.2
RTBOZILJFT,170114.0,11:58:53.309,L,70.3,LL,250.0,191.4
RTBOZILJFT,170114.0,11:59:02.910,L,50.8,SL,289.1,539.1
RTBOZILJFT,170114.0,11:59:07.852,L,78.1,LL,250.0,128.9
RTBOZILJFT,170114.0,11:59:08.152,R,70.3,LR,308.6,230.5
RTBOZILJFT,170114.0,11:59:09.363,L,89.8,LL,289.1,187.5
RTBOZILJFT,170114.0,11:59:09.734,L,89.8,LL,371.1,281.3
RTBOZILJFT,170114.0,11:59:10.105,L,39.1,LL,421.9,332.0
RTBOZILJFT,170114.0,11:59:10.453,R,39.1,LR,347.7,308.6
RTBOZILJFT,170114.0,11:59:10.805,L,70.3,RL,320.3,281.3
RTBOZILJFT,170114.0,11:59:10.977,S,50.8,LS,191.4,121.1
RTBOZILJFT,170114.0,11:59:11.445,L,58.6,SL,460.9,410.2
RTBOZILJFT,170114.0,11:59:11.715,L,109.4,LL,218.8,160.2
RTBOZILJFT,170114.0,11:59:11.836,L,70.3,LL,160.2,50.8
RTBOZILJFT,170114.0,11:59:12.086,L,109.4,LL,210.9,140.6
RTBOZILJFT,170114.0,11:59:12.324,L,89.8,LL,257.8,148.4
RTBOZILJFT,170114.0,11:59:12.516,S,62.5,LS,218.8,128.9
RTBOZILJFT,170114.0,11:59:16.797,S,70.3,RS,218.8,160.2
RTBOZILJFT,170114.0,11:59:17.207,R,78.1,SR,402.3,332.0
RTBOZILJFT,170114.0,11:59:17.738,L,109.4,RL,500.0,421.9
RTBOZILJFT,170114.0,11:59:18.066,R,70.3,LR,367.2,257.8
RTBOZILJFT,170114.0,11:59:18.457,R,70.3,RR,390.6,320.3
RTBOZILJFT,170114.0,11:59:21.898,L,89.8,RL,339.8,281.3
RTBOZILJFT,170114.0,11:59:22.520,S,58.6,LS,652.3,562.5
RTBOZILJFT,170114.0,11:59:24.109,L,97.7,LL,250.0,152.3
RTBOZILJFT,170114.0,11:59:24.340,L,58.6,LL,269.5,171.9
RTBOZILJFT,170114.0,11:59:24.641,L,58.6,LL,300.8,242.2
RTBOZILJFT,170114.0,11:59:26.012,L,101.6,RL,230.5,168.0
RTBOZILJFT,170114.0,11:59:26.301,L,101.6,LL,289.1,187.5
RTBOZILJFT,170114.0,11:59:35.227,S,62.5,RS,187.5,117.2
RTBOZILJFT,170114.0,11:59:35.863,L,117.2,SL,582.0,519.5
RTBOZILJFT,170114.0,11:59:36.137,R,70.3,LR,320.3,203.1
RTBOZILJFT,170114.0,11:59:36.453,R,78.1,RR,308.6,238.3
RTBOZILJFT,170114.0,11:59:36.836,L,62.5,RL,398.4,320.3
RTBOZILJFT,170114.0,11:59:37.395,L,58.6,LL,562.5,500.0
RTBOZILJFT,170114.0,11:59:37.715,L,70.3,LL,308.6,250.0
RTBOZILJFT,170114.0,11:59:38.227,R,62.5,LR,519.5,449.2
RTBOZILJFT,170114.0,11:59:38.504,R,70.3,RR,269.5,207.0
RTBOZILJFT,170114.0,11:59:38.746,L,97.7,RL,214.8,144.5
RTBOZILJFT,170114.0,12:00:15.781,S,58.6,RS,750.0,703.1
RTBOZILJFT,170114.0,12:00:33.367,R,70.3,LR,449.2,378.9
RTBOZILJFT,170114.0,12:00:34.660,S,62.5,LS,207.0,109.4
RTBOZILJFT,170114.0,12:00:35.438,R,78.1,SR,761.7,699.2
RTBOZILJFT,170114.0,12:00:35.859,R,70.3,RR,429.7,351.6
RTBOZILJFT,170114.0,12:00:36.320,L,101.6,RL,429.7,359.4
RTBOZILJFT,170114.0,12:00:36.508,S,70.3,LS,218.8,117.2
RTBOZILJFT,170114.0,12:00:36.828,L,109.4,SL,281.3,210.9
RTBOZILJFT,170114.0,12:00:37.090,R,62.5,LR,308.6,199.2
RTBOZILJFT,170114.0,12:00:37.379,S,58.6,RS,293.0,230.5
RTBOZILJFT,170114.0,12:00:37.738,R,70.3,SR,347.7,289.1
RTBOZILJFT,170114.0,12:00:38.258,R,70.3,RR,519.5,449.2
RTBOZILJFT,170114.0,12:00:38.777,L,97.7,RL,492.2,421.9
RTBOZILJFT,170114.0,12:00:39.102,R,70.3,LR,351.6,253.9
RTBOZILJFT,170114.0,12:00:39.340,S,58.6,RS,250.0,179.7
RTBOZILJFT,170114.0,12:00:39.641,R,78.1,SR,281.3,222.7
RTBOZILJFT,170114.0,12:00:39.941,R,82.0,RR,296.9,218.8
RTBOZILJFT,170114.0,12:00:40.172,S,70.3,RS,242.2,160.2
RTBOZILJFT,170114.0,12:00:40.473,L,89.8,SL,281.3,210.9
RTBOZILJFT,170114.0,12:00:40.621,S,70.3,LS,168.0,78.1
RTBOZILJFT,170114.0,12:00:41.742,L,109.4,LL,210.9,152.3
RTBOZILJFT,170114.0,12:00:41.980,L,70.3,LL,277.3,168.0
RTBOZILJFT,170114.0,12:00:42.281,L,109.4,LL,261.7,191.4
RTBOZILJFT,170114.0,12:00:42.492,S,82.0,LS,238.3,128.9
RTBOZILJFT,170114.0,12:00:42.840,L,97.7,SL,332.0,250.0
RTBOZILJFT,170114.0,12:00:43.391,R,89.8,LR,558.6,460.9
RTBOZILJFT,170114.0,12:00:43.711,L,89.8,RL,320.3,230.5
RTBOZILJFT,170114.0,12:00:43.914,S,62.5,LS,230.5,140.6
RTBOZILJFT,170114.0,12:00:44.293,L,89.8,SL,351.6,289.1
RTBOZILJFT,170114.0,12:00:44.543,R,58.6,LR,281.3,191.4
RTBOZILJFT,170114.0,12:00:44.812,R,78.1,RR,250.0,191.4
RTBOZILJFT,170114.0,12:00:45.082,L,78.1,RL,269.5,191.4
RTBOZILJFT,170114.0,12:01:42.707,R,62.5,RR,238.3,179.7
RTBOZILJFT,170114.0,12:01:43.164,L,109.4,RL,410.2,347.7
RTBOZILJFT,170114.0,12:01:43.348,L,70.3,LL,222.7,113.3
RTBOZILJFT,170114.0,12:01:43.559,L,101.6,LL,179.7,109.4
RTBOZILJFT,170114.0,12:01:43.816,R,78.1,LR,281.3,179.7
RTBOZILJFT,170114.0,12:01:44.230,L,82.0,RL,410.2,332.0
RTBOZILJFT,170114.0,12:01:44.590,L,78.1,LL,363.3,281.3
RTBOZILJFT,170114.0,12:01:44.949,R,58.6,LR,378.9,300.8
RTBOZILJFT,170114.0,12:01:45.160,R,70.3,RR,199.2,140.6
RTBOZILJFT,170114.0,12:01:45.422,R,62.5,RR,269.5,199.2
RTBOZILJFT,170114.0,12:01:47.648,R,58.6,RR,269.5,210.9
RTBOZILJFT,170114.0,12:01:48.020,L,58.6,RL,371.1,312.5
RTBOZILJFT,170114.0,12:01:48.422,L,101.6,LL,359.4,300.8
RTBOZILJFT,170114.0,12:01:48.781,R,62.5,LR,398.4,296.9
RTBOZILJFT,170114.0,12:01:49.199,L,89.8,RL,390.6,328.1
RTBOZILJFT,170114.0,12:01:49.492,R,58.6,LR,324.2,234.4
RTBOZILJFT,170114.0,12:01:49.820,R,66.4,RR,320.3,261.7
RTBOZILJFT,170114.0,12:01:56.219,R,70.3,LR,410.2,308.6
RTBOZILJFT,170114.0,12:01:56.617,L,70.3,RL,398.4,328.1
RTBOZILJFT,170114.0,12:01:57.008,L,78.1,LL,382.8,312.5
RTBOZILJFT,170114.0,12:01:57.359,L,82.0,LL,347.7,269.5
RTBOZILJFT,170114.0,14:59:40.414,R,105.5,LR,613.3,410.2
RTBOZILJFT,170114.0,14:59:40.906,R,121.1,RR,476.6,371.1
RTBOZILJFT,170114.0,14:59:41.164,R,89.8,RR,289.1,168.0
RTBOZILJFT,170114.0,15:04:22.012,L,97.7,RL,402.3,320.3
RTBOZILJFT,170114.0,15:04:22.434,L,89.8,LL,429.7,332.0
RTBOZILJFT,170114.0,15:04:22.805,R,43.0,LR,418.0,328.1
RTBOZILJFT,170114.0,15:04:23.023,R,58.6,RR,203.1,160.2
RTBOZILJFT,170114.0,15:04:23.297,R,74.2,RR,257.8,199.2
RTBOZILJFT,170114.0,15:04:23.523,R,58.6,RR,242.2,168.0
RTBOZILJFT,170114.0,15:04:23.824,R,78.1,RR,281.3,222.7
RTBOZILJFT,170114.0,15:04:24.344,L,97.7,RL,500.0,421.9
RTBOZILJFT,170114.0,15:04:24.605,R,70.3,LR,289.1,191.4
RTBOZILJFT,170114.0,15:04:24.906,R,62.5,RR,308.6,238.3
RTBOZILJFT,170114.0,15:04:25.195,L,101.6,RL,250.0,187.5
