User_ID,Date,Timestamp,Hand,Hold_Time,Direction,Latency_Time,Flight_Time
TQCMYNHOSM,160816.0,19:14:35.367,L,101.6,LL,257.8,148.4
TQCMYNHOSM,160816.0,19:14:35.547,L,140.6,LL,140.6,39.1
TQCMYNHOSM,160816.0,19:15:04.289,L,140.6,LL,218.8,109.4
TQCMYNHOSM,160816.0,19:15:04.500,L,101.6,LL,250.0,109.4
TQCMYNHOSM,160816.0,19:15:04.680,L,101.6,LL,179.7,78.1
TQCMYNHOSM,160816.0,19:15:04.898,L,109.4,LL,210.9,109.4
TQCMYNHOSM,160816.0,19:15:05.078,L,62.5,LL,226.6,117.2
TQCMYNHOSM,160816.0,19:15:05.945,L,117.2,LL,273.4,132.8
TQCMYNHOSM,160816.0,19:15:06.305,L,140.6,LL,335.9,218.8
TQCMYNHOSM,160816.0,19:15:06.734,L,140.6,LL,429.7,289.1
TQCMYNHOSM,160816.0,19:15:07.133,L,148.4,LL,390.6,250.0
TQCMYNHOSM,160816.0,19:15:07.492,L,109.4,LL,398.4,250.0
TQCMYNHOSM,160816.0,19:15:07.883,L,140.6,LL,359.4,250.0
TQCMYNHOSM,160816.0,19:15:08.781,L,140.6,LL,398.4,289.1
TQCMYNHOSM,160816.0,19:15:09.141,L,140.6,LL,359.4,218.8
TQCMYNHOSM,160816.0,20:00:43.281,L,148.4,RL,343.8,234.4
TQCMYNHOSM,160816.0,20:00:44.828,R,109.4,LR,375.0,265.6
TQCMYNHOSM,160816.0,20:00:53.375,L,109.4,RL,398.4,289.1
TQCMYNHOSM,160816.0,20:00:53.812,L,187.5,LL,359.4,250.0
TQCMYNHOSM,160816.0,20:00:56.062,L,109.4,LL,359.4,171.9
TQCMYNHOSM,160816.0,20:00:57.734,R,93.8,LR,296.9,203.1
TQCMYNHOSM,160816.0,20:00:58.078,R,140.6,RR,296.9,203.1
TQCMYNHOSM,160816.0,20:00:58.422,L,140.6,RL,343.8,203.1
