User_ID,Date,Timestamp,Hand,Hold_Time,Direction,Latency_Time,Flight_Time
WCNUFGGLYB,170301.0,07:44:36.822,L,132.8,LL,488.3,349.6
WCNUFGGLYB,170301.0,07:44:37.234,R,132.8,LR,412.1,279.3
WCNUFGGLYB,170301.0,07:44:37.703,L,168.0,RL,433.6,300.8
WCNUFGGLYB,170301.0,07:44:49.012,R,103.5,RR,498.0,382.8
WCNUFGGLYB,170301.0,07:44:49.459,R,76.2,RR,474.6,371.1
WCNUFGGLYB,170301.0,07:44:49.848,R,113.3,RR,351.6,275.4
WCNUFGGLYB,170301.0,07:44:50.229,R,132.8,RR,361.3,248.0
WCNUFGGLYB,170301.0,07:44:50.734,L,113.3,RL,525.4,392.6
WCNUFGGLYB,170301.0,07:44:51.047,R,105.5,LR,320.3,207.0
WCNUFGGLYB,170301.0,07:46:15.289,L,43.0,RL,486.3,322.3
WCNUFGGLYB,170301.0,07:46:15.912,L,255.9,LL,410.2,367.2
WCNUFGGLYB,170301.0,07:46:16.232,L,199.2,LL,375.0,119.1
WCNUFGGLYB,170301.0,07:46:16.598,S,175.8,LS,390.6,191.4
WCNUFGGLYB,170301.0,07:46:20.053,R,119.1,RR,462.9,341.8
WCNUFGGLYB,170301.0,07:46:20.502,L,121.1,RL,447.3,328.1
WCNUFGGLYB,170301.0,07:46:21.801,L,185.5,LL,279.3,214.8
WCNUFGGLYB,170301.0,07:46:22.178,L,117.2,LL,445.3,259.8
WCNUFGGLYB,170301.0,07:46:22.562,R,123.0,LR,378.9,261.7
WCNUFGGLYB,170301.0,07:46:22.998,S,113.3,RS,445.3,322.3
WCNUFGGLYB,170301.0,07:46:23.479,L,80.1,SL,513.7,400.4
WCNUFGGLYB,170301.0,07:46:23.967,L,85.9,LL,482.4,402.3
WCNUFGGLYB,170301.0,07:46:31.445,L,84.0,RL,478.5,375.0
WCNUFGGLYB,170301.0,07:46:34.213,R,121.1,LR,394.5,285.2
WCNUFGGLYB,170301.0,07:46:35.018,R,160.2,RR,765.6,644.5
WCNUFGGLYB,170301.0,07:46:35.459,L,87.9,RL,513.7,353.5
WCNUFGGLYB,170301.0,07:46:35.873,L,146.5,LL,355.5,267.6
WCNUFGGLYB,170301.0,07:46:36.178,R,109.4,LR,341.8,195.3
WCNUFGGLYB,170301.0,07:46:36.574,R,111.3,RR,394.5,285.2
WCNUFGGLYB,170301.0,07:46:51.771,R,136.7,LR,621.1,418.0
WCNUFGGLYB,170301.0,07:46:52.098,R,134.8,RR,328.1,191.4
WCNUFGGLYB,170301.0,07:46:52.480,L,109.4,RL,408.2,273.4
WCNUFGGLYB,170301.0,07:46:52.973,L,175.8,LL,425.8,316.4
WCNUFGGLYB,170301.0,07:46:53.277,R,117.2,LR,363.3,187.5
WCNUFGGLYB,170301.0,07:46:53.660,L,199.2,RL,300.8,183.6
WCNUFGGLYB,170301.0,07:46:54.037,R,152.3,LR,423.8,224.6
WCNUFGGLYB,170301.0,07:46:58.506,L,109.4,RL,466.8,293.0
WCNUFGGLYB,170301.0,07:46:58.902,R,187.5,LR,318.4,209.0
WCNUFGGLYB,170301.0,07:46:59.213,L,113.3,RL,384.8,197.3
WCNUFGGLYB,170301.0,07:46:59.684,R,156.3,LR,427.7,314.5
WCNUFGGLYB,170301.0,07:47:04.861,L,156.3,RL,619.1,423.8
WCNUFGGLYB,170301.0,07:47:05.203,R,105.5,LR,392.6,236.3
WCNUFGGLYB,170301.0,07:47:05.633,R,97.7,RR,437.5,332.0
WCNUFGGLYB,170301.0,07:47:10.004,R,109.4,LR,367.2,228.5
WCNUFGGLYB,170301.0,07:47:10.328,R,127.0,RR,306.6,197.3
WCNUFGGLYB,170301.0,07:47:10.672,L,127.0,RL,343.8,216.8
WCNUFGGLYB,170301.0,07:47:11.162,L,199.2,LL,416.0,289.1
WCNUFGGLYB,170301.0,07:47:11.465,R,132.8,LR,371.1,171.9
WCNUFGGLYB,170301.0,07:47:11.838,L,175.8,RL,330.1,197.3
WCNUFGGLYB,170301.0,07:47:12.070,R,144.5,LR,263.7,87.9
WCNUFGGLYB,170301.0,07:47:16.104,L,150.4,RL,459.0,281.3
WCNUFGGLYB,170301.0,07:47:16.506,R,191.4,LR,361.3,210.9
WCNUFGGLYB,170301.0,07:47:16.895,L,162.1,RL,418.0,226.6
WCNUFGGLYB,170301.0,07:47:17.254,R,154.3,LR,367.2,205.1
WCNUFGGLYB,170301.0,07:47:23.379,R,105.5,LR,400.4,230.5
WCNUFGGLYB,170301.0,07:47:23.705,R,138.7,RR,291.0,185.5
WCNUFGGLYB,170301.0,07:47:24.008,L,119.1,RL,324.2,185.5
WCNUFGGLYB,170301.0,07:47:24.461,L,171.9,LL,400.4,281.3
WCNUFGGLYB,170301.0,07:47:24.846,R,132.8,LR,423.8,252.0
WCNUFGGLYB,170301.0,07:47:25.174,L,140.6,RL,320.3,187.5
WCNUFGGLYB,170301.0,07:47:25.449,R,132.8,LR,283.2,142.6
WCNUFGGLYB,170301.0,07:47:29.816,L,84.0,RL,390.6,259.8
WCNUFGGLYB,170301.0,07:47:30.229,R,111.3,LR,384.8,300.8
WCNUFGGLYB,170301.0,07:47:30.629,L,93.8,RL,418.0,306.6
WCNUFGGLYB,170301.0,07:47:31.025,R,132.8,LR,357.4,263.7
WCNUFGGLYB,170301.0,07:47:32.607,L,125.0,RL,457.0,304.7
WCNUFGGLYB,170301.0,07:47:32.891,R,115.2,LR,293.0,168.0
WCNUFGGLYB,170301.0,07:47:33.424,R,97.7,RR,550.8,435.5
WCNUFGGLYB,170301.0,08:04:27.090,L,173.8,RL,628.9,457.0
WCNUFGGLYB,170301.0,08:04:27.689,R,115.2,LR,658.2,484.4
WCNUFGGLYB,170301.0,08:04:27.977,R,87.9,RR,314.5,199.2
WCNUFGGLYB,170301.0,08:04:28.637,R,111.3,RR,636.7,548.8
WCNUFGGLYB,170301.0,08:04:29.303,S,127.0,RS,650.4,541.0
WCNUFGGLYB,170301.0,08:04:29.992,L,101.6,SL,712.9,585.9
WCNUFGGLYB,170301.0,08:04:30.322,R,123.0,LR,310.5,209.0
WCNUFGGLYB,170301.0,08:04:30.629,L,138.7,RL,291.0,168.0
WCNUFGGLYB,170301.0,08:04:30.973,L,128.9,LL,353.5,214.8
WCNUFGGLYB,170301.0,08:04:31.287,R,140.6,LR,302.7,173.8
WCNUFGGLYB,170301.0,08:04:31.678,L,95.7,RL,435.5,294.9
WCNUFGGLYB,170301.0,08:04:33.082,R,130.9,LR,427.7,300.8
WCNUFGGLYB,170301.0,08:04:36.582,R,117.2,SR,427.7,296.9
WCNUFGGLYB,170301.0,08:04:37.057,R,189.5,RR,402.3,285.2
WCNUFGGLYB,170301.0,08:04:37.609,R,119.1,RR,623.0,433.6
WCNUFGGLYB,170301.0,08:04:37.982,R,97.7,RR,394.5,275.4
WCNUFGGLYB,170301.0,08:04:38.580,L,93.8,RL,601.6,503.9
WCNUFGGLYB,170301.0,09:09:46.992,L,62.5,RL,449.2,316.4
WCNUFGGLYB,170301.0,09:09:47.488,L,156.3,LL,402.3,339.8
WCNUFGGLYB,170301.0,09:09:47.797,R,113.3,LR,351.6,195.3
WCNUFGGLYB,170301.0,09:09:48.195,S,144.5,RS,367.2,253.9
WCNUFGGLYB,170301.0,09:09:48.965,L,164.1,SL,750.0,605.5
WCNUFGGLYB,170301.0,09:09:49.324,R,136.7,LR,386.7,222.7
WCNUFGGLYB,170301.0,09:09:50.426,L,117.2,RL,222.7,117.2
WCNUFGGLYB,170301.0,09:09:50.734,L,105.5,LL,320.3,203.1
WCNUFGGLYB,170301.0,09:09:51.441,L,105.5,LL,707.0,601.6
WCNUFGGLYB,170301.0,09:12:13.758,R,125.0,SR,449.2,308.6
WCNUFGGLYB,170301.0,09:12:14.137,L,156.3,RL,347.7,222.7
WCNUFGGLYB,170301.0,09:12:14.551,L,136.7,LL,433.6,277.3
WCNUFGGLYB,170301.0,09:12:15.012,R,105.5,LR,492.2,355.5
WCNUFGGLYB,170301.0,09:12:18.594,R,148.4,LR,593.8,464.8
WCNUFGGLYB,170301.0,09:12:20.090,L,132.8,RL,378.9,257.8
WCNUFGGLYB,170301.0,09:12:20.504,L,132.8,LL,414.1,281.3
WCNUFGGLYB,170302.0,07:13:49.262,R,125.0,LR,324.2,179.7
WCNUFGGLYB,170302.0,07:15:22.951,S,130.9,RS,630.9,523.4
WCNUFGGLYB,170302.0,07:15:23.480,R,148.4,SR,511.7,380.9
WCNUFGGLYB,170302.0,07:15:23.859,L,107.4,RL,418.0,269.5
WCNUFGGLYB,170302.0,07:15:24.355,L,136.7,LL,468.8,361.3
WCNUFGGLYB,170302.0,07:15:24.697,R,101.6,LR,377.0,240.2
WCNUFGGLYB,170302.0,07:15:25.123,S,123.0,RS,404.3,302.7
WCNUFGGLYB,170302.0,07:15:25.676,L,144.5,SL,531.3,408.2
WCNUFGGLYB,170302.0,07:15:26.111,R,187.5,LR,390.6,246.1
WCNUFGGLYB,170302.0,07:15:27.318,L,134.8,RL,388.7,259.8
WCNUFGGLYB,170302.0,07:15:27.684,L,107.4,LL,392.6,257.8
WCNUFGGLYB,170302.0,07:26:18.629,R,140.6,RR,427.7,294.9
WCNUFGGLYB,170302.0,07:26:18.975,R,105.5,RR,380.9,240.2
WCNUFGGLYB,170302.0,07:26:19.383,R,115.2,RR,398.4,293.0
WCNUFGGLYB,170302.0,07:26:19.797,R,152.3,RR,377.0,261.7
WCNUFGGLYB,170302.0,07:26:20.201,L,146.5,RL,410.2,257.8
WCNUFGGLYB,170302.0,07:26:20.715,R,113.3,LR,546.9,400.4
WCNUFGGLYB,170302.0,07:27:13.486,R,119.1,LR,285.2,187.5
WCNUFGGLYB,170302.0,07:27:13.805,R,138.7,RR,296.9,177.7
WCNUFGGLYB,170302.0,07:27:14.139,L,127.0,RL,347.7,209.0
WCNUFGGLYB,170302.0,07:27:14.654,L,89.8,LL,552.7,425.8
WCNUFGGLYB,170302.0,07:27:14.967,R,115.2,LR,287.1,197.3
WCNUFGGLYB,170302.0,07:27:15.643,L,150.4,RL,640.6,525.4
WCNUFGGLYB,170302.0,07:27:15.926,R,148.4,LR,285.2,134.8
WCNUFGGLYB,170302.0,07:27:20.113,L,107.4,RL,388.7,275.4
WCNUFGGLYB,170302.0,07:27:20.461,R,123.0,LR,332.0,224.6
WCNUFGGLYB,170302.0,07:27:20.904,L,127.0,RL,439.5,316.4
WCNUFGGLYB,170302.0,07:27:21.178,R,107.4,LR,293.0,166.0
WCNUFGGLYB,170302.0,07:27:23.502,L,128.9,RL,709.0,591.8
WCNUFGGLYB,170302.0,07:27:23.904,R,109.4,LR,421.9,293.0
WCNUFGGLYB,170302.0,07:27:24.457,R,87.9,RR,574.2,464.8
WCNUFGGLYB,170302.0,07:27:56.678,R,113.3,LR,490.2,365.2
WCNUFGGLYB,170302.0,07:27:57.139,L,95.7,RL,476.6,363.3
WCNUFGGLYB,170302.0,07:27:57.436,L,107.4,LL,287.1,191.4
WCNUFGGLYB,170302.0,07:27:57.893,R,179.7,LR,384.8,277.3
WCNUFGGLYB,170302.0,07:28:06.689,R,95.7,LR,349.6,242.2
WCNUFGGLYB,170302.0,07:28:07.102,L,89.8,RL,418.0,322.3
WCNUFGGLYB,170302.0,07:28:07.490,L,164.1,LL,314.5,224.6
WCNUFGGLYB,170302.0,07:28:07.816,R,154.3,LR,335.9,171.9
WCNUFGGLYB,170302.0,07:41:38.482,R,99.6,LR,441.4,339.8
WCNUFGGLYB,170302.0,07:41:39.012,L,134.8,RL,494.1,394.5
WCNUFGGLYB,170302.0,07:41:39.518,L,113.3,LL,527.3,392.6
WCNUFGGLYB,170302.0,07:41:39.969,S,123.0,LS,441.4,328.1
WCNUFGGLYB,170302.0,07:41:40.486,R,121.1,SR,519.5,396.5
WCNUFGGLYB,170302.0,07:41:41.754,S,146.5,LS,365.2,238.3
WCNUFGGLYB,170302.0,07:41:42.188,L,111.3,SL,468.8,322.3
WCNUFGGLYB,170302.0,07:41:42.486,R,136.7,LR,273.4,162.1
WCNUFGGLYB,170302.0,07:41:42.920,S,111.3,RS,459.0,322.3
WCNUFGGLYB,170302.0,07:41:43.400,L,128.9,SL,462.9,351.6
WCNUFGGLYB,170302.0,07:41:43.891,R,142.6,LR,476.6,347.7
WCNUFGGLYB,170302.0,07:41:44.303,L,105.5,RL,449.2,306.6
WCNUFGGLYB,170302.0,07:41:44.807,L,85.9,LL,523.4,418.0
WCNUFGGLYB,170302.0,14:31:42.348,L,132.8,LL,476.6,335.9
WCNUFGGLYB,170302.0,14:31:42.719,L,101.6,LL,402.3,269.5
WCNUFGGLYB,170302.0,14:31:54.891,L,121.1,RL,726.6,589.8
WCNUFGGLYB,170302.0,14:31:55.586,L,132.8,LL,683.6,562.5
WCNUFGGLYB,170302.0,14:31:56.336,L,136.7,LL,746.1,613.3
WCNUFGGLYB,170302.0,14:32:01.301,L,125.0,RL,597.7,480.5
WCNUFGGLYB,170302.0,14:32:01.887,L,109.4,LL,601.6,476.6
WCNUFGGLYB,170302.0,14:33:30.605,L,168.0,RL,593.8,418.0
WCNUFGGLYB,170302.0,14:33:33.824,R,183.6,LR,476.6,296.9
WCNUFGGLYB,170302.0,14:33:37.680,R,257.8,LR,527.3,375.0
WCNUFGGLYB,170302.0,14:35:37.398,R,128.9,LR,773.4,648.4
WCNUFGGLYB,170303.0,07:44:36.234,L,142.6,LL,353.5,234.4
WCNUFGGLYB,170303.0,07:44:36.549,L,128.9,LL,328.1,185.5
WCNUFGGLYB,170303.0,07:44:37.326,L,123.0,LL,783.2,654.3
WCNUFGGLYB,170303.0,07:44:37.879,L,78.1,LL,597.7,474.6
WCNUFGGLYB,170303.0,07:44:38.625,S,127.0,LS,697.3,619.1
WCNUFGGLYB,170303.0,07:44:40.275,L,142.6,RL,753.9,627.0
WCNUFGGLYB,170303.0,07:44:40.988,L,101.6,LL,769.5,627.0
WCNUFGGLYB,170303.0,07:44:41.662,R,101.6,LR,673.8,572.3
WCNUFGGLYB,170303.0,07:44:42.209,L,109.4,RL,539.1,437.5
WCNUFGGLYB,170303.0,07:44:42.527,L,101.6,LL,326.2,216.8
WCNUFGGLYB,170303.0,07:44:43.326,L,107.4,LL,793.0,691.4
WCNUFGGLYB,170219.0,08:53:36.809,L,177.7,RL,441.4,277.3
WCNUFGGLYB,170219.0,08:53:37.139,L,130.9,LL,377.0,199.2
WCNUFGGLYB,170219.0,08:53:37.572,S,128.9,LS,435.5,304.7
WCNUFGGLYB,170219.0,08:53:38.182,L,109.4,SL,628.9,500.0
WCNUFGGLYB,170219.0,08:53:38.576,R,148.4,LR,355.5,246.1
WCNUFGGLYB,170219.0,08:53:39.094,R,164.1,RR,502.0,353.5
WCNUFGGLYB,170219.0,08:53:40.955,R,119.1,RR,433.6,281.3
WCNUFGGLYB,170219.0,08:53:41.355,L,119.1,RL,400.4,281.3
WCNUFGGLYB,170219.0,08:53:41.670,S,130.9,LS,302.7,183.6
WCNUFGGLYB,170219.0,08:53:42.074,R,39.1,SR,496.1,365.2
WCNUFGGLYB,170219.0,08:53:42.197,R,29.3,RR,132.8,93.8
WCNUFGGLYB,170219.0,08:53:42.533,R,87.9,RR,277.3,248.0
WCNUFGGLYB,170219.0,08:53:42.988,S,132.8,RS,410.2,322.3
WCNUFGGLYB,170219.0,08:53:43.523,L,113.3,SL,554.7,421.9
WCNUFGGLYB,170219.0,08:53:43.871,R,123.0,LR,337.9,224.6
WCNUFGGLYB,170219.0,08:53:44.229,L,117.2,RL,363.3,240.2
WCNUFGGLYB,170219.0,08:53:44.547,S,72.3,LS,363.3,246.1
WCNUFGGLYB,170219.0,08:53:44.873,L,74.2,SL,324.2,252.0
WCNUFGGLYB,170219.0,08:53:46.557,R,119.1,LR,771.5,660.2
WCNUFGGLYB,170219.0,08:53:46.904,R,64.5,RR,402.3,283.2
WCNUFGGLYB,170219.0,08:53:47.699,R,117.2,RR,742.2,677.7
WCNUFGGLYB,170219.0,08:53:48.545,S,166.0,RS,796.9,679.7
WCNUFGGLYB,170219.0,08:53:57.568,R,169.9,RR,449.2,341.8
WCNUFGGLYB,170219.0,08:53:58.008,R,121.1,RR,488.3,318.4
WCNUFGGLYB,170219.0,08:53:58.590,R,134.8,RR,568.4,447.3
WCNUFGGLYB,170219.0,08:54:01.023,L,123.0,RL,459.0,357.4
WCNUFGGLYB,170219.0,08:54:01.477,L,89.8,LL,486.3,363.3
WCNUFGGLYB,170219.0,08:54:02.092,S,107.4,LS,597.7,507.8
WCNUFGGLYB,170219.0,08:54:02.688,R,17.6,SR,685.5,578.1
WCNUFGGLYB,170219.0,08:54:03.348,L,128.9,RL,548.8,531.3
WCNUFGGLYB,170219.0,08:54:03.824,L,132.8,LL,472.7,343.8
WCNUFGGLYB,170219.0,08:54:05.363,R,140.6,RR,650.4,548.8
WCNUFGGLYB,170219.0,08:54:05.809,R,132.8,RR,453.1,312.5
WCNUFGGLYB,170219.0,08:54:07.033,R,144.5,LR,330.1,230.5
WCNUFGGLYB,170219.0,08:54:07.418,R,109.4,RR,419.9,275.4
WCNUFGGLYB,170219.0,08:54:07.941,L,85.9,RL,546.9,437.5
WCNUFGGLYB,170220.0,06:49:55.920,L,189.5,RL,599.6,365.2
WCNUFGGLYB,170220.0,06:49:56.357,L,134.8,LL,490.2,300.8
WCNUFGGLYB,170220.0,06:49:57.115,L,144.5,LL,750.0,615.2
WCNUFGGLYB,170221.0,09:39:29.938,R,148.4,RR,566.4,406.3
WCNUFGGLYB,170221.0,09:39:30.301,L,164.1,RL,347.7,199.2
WCNUFGGLYB,170221.0,09:39:30.789,L,152.3,LL,500.0,335.9
WCNUFGGLYB,170221.0,09:53:24.762,R,199.2,LR,441.4,250.0
WCNUFGGLYB,170221.0,09:53:25.508,R,160.2,RR,785.2,585.9
WCNUFGGLYB,170221.0,09:54:10.441,L,148.4,LL,781.3,613.3
WCNUFGGLYB,170221.0,09:54:26.098,R,70.3,RR,578.1,511.7
WCNUFGGLYB,170221.0,10:02:59.844,R,125.0,LR,500.0,359.4
WCNUFGGLYB,170221.0,10:03:00.207,R,160.2,RR,328.1,203.1
WCNUFGGLYB,170221.0,10:03:01.793,L,132.8,LL,519.5,402.3
WCNUFGGLYB,170221.0,10:03:02.391,R,128.9,LR,601.6,468.8
WCNUFGGLYB,170221.0,10:03:04.207,R,156.3,LR,683.6,589.8
WCNUFGGLYB,170221.0,10:03:58.980,L,93.8,LL,531.3,441.4
WCNUFGGLYB,170221.0,10:03:59.531,R,78.1,LR,566.4,472.7
WCNUFGGLYB,170221.0,10:04:00.934,L,109.4,LL,425.8,328.1
WCNUFGGLYB,170221.0,10:04:01.414,L,136.7,LL,453.1,343.8
WCNUFGGLYB,170222.0,07:17:05.359,L,111.3,LL,535.2,406.3
WCNUFGGLYB,170222.0,07:17:05.926,R,89.8,LR,587.9,476.6
WCNUFGGLYB,170222.0,07:17:07.559,R,128.9,LR,595.7,470.7
WCNUFGGLYB,170222.0,07:17:08.260,L,168.0,RL,662.1,533.2
WCNUFGGLYB,170222.0,07:17:10.010,L,107.4,LL,439.5,312.5
WCNUFGGLYB,170222.0,07:17:16.678,L,105.5,LL,564.5,447.3
WCNUFGGLYB,170222.0,07:17:19.236,R,19.5,LR,791.0,668.0
WCNUFGGLYB,170222.0,07:17:19.961,L,115.2,RL,628.9,609.4
WCNUFGGLYB,170222.0,07:17:20.428,L,107.4,LL,474.6,359.4
WCNUFGGLYB,170222.0,07:17:20.807,L,146.5,LL,339.8,232.4
WCNUFGGLYB,170222.0,07:30:42.893,L,140.6,RL,330.1,166.0
WCNUFGGLYB,170222.0,07:30:44.207,R,111.3,RR,289.1,175.8
WCNUFGGLYB,170222.0,07:30:44.719,R,121.1,RR,502.0,390.6
WCNUFGGLYB,170222.0,07:30:45.352,S,138.7,RS,615.2,494.1
WCNUFGGLYB,170222.0,07:30:48.871,R,89.8,LR,402.3,250.0
WCNUFGGLYB,170222.0,07:30:49.160,R,115.2,RR,263.7,173.8
WCNUFGGLYB,170222.0,07:30:49.764,R,128.9,RR,589.8,474.6
WCNUFGGLYB,170222.0,07:30:50.434,L,148.4,RL,650.4,521.5
WCNUFGGLYB,170222.0,07:30:52.469,L,89.8,LL,402.3,234.4
WCNUFGGLYB,170222.0,07:30:53.734,L,127.0,LL,378.9,281.3
WCNUFGGLYB,170222.0,07:30:54.281,L,130.9,LL,543.0,416.0
WCNUFGGLYB,170222.0,07:30:54.770,R,130.9,LR,488.3,357.4
WCNUFGGLYB,170222.0,07:46:02.535,R,197.3,RR,394.5,89.8
WCNUFGGLYB,170222.0,07:46:02.904,L,142.6,RL,423.8,226.6
WCNUFGGLYB,170222.0,07:46:03.240,S,166.0,LS,312.5,169.9
WCNUFGGLYB,170222.0,07:46:04.820,L,132.8,RL,365.2,232.4
WCNUFGGLYB,170222.0,07:46:05.154,S,173.8,LS,293.0,160.2
WCNUFGGLYB,170222.0,07:46:06.463,L,154.3,RL,377.0,242.2
WCNUFGGLYB,170222.0,07:46:06.867,L,132.8,LL,427.7,273.4
WCNUFGGLYB,170222.0,07:46:07.410,L,93.8,LL,582.0,449.2
WCNUFGGLYB,170222.0,07:46:07.916,L,146.5,LL,453.1,359.4
WCNUFGGLYB,170222.0,07:46:08.502,R,164.1,LR,568.4,421.9
WCNUFGGLYB,170222.0,07:46:09.025,R,146.5,RR,541.0,377.0
WCNUFGGLYB,170222.0,07:46:12.879,L,150.4,RL,490.2,316.4
WCNUFGGLYB,170222.0,07:48:02.895,L,166.0,RL,419.9,216.8
WCNUFGGLYB,170222.0,07:48:04.270,R,103.5,LR,505.9,349.6
WCNUFGGLYB,170222.0,07:48:04.713,L,140.6,RL,406.3,302.7
WCNUFGGLYB,170222.0,07:48:05.098,L,97.7,LL,427.7,287.1
WCNUFGGLYB,170222.0,07:48:05.865,L,93.8,LL,771.5,673.8
WCNUFGGLYB,170225.0,07:25:12.141,R,148.4,LR,535.2,437.5
WCNUFGGLYB,170225.0,07:25:13.564,L,119.1,RL,484.4,377.0
WCNUFGGLYB,170225.0,07:25:13.992,L,146.5,LL,400.4,281.3
WCNUFGGLYB,170225.0,07:25:14.414,L,123.0,LL,445.3,298.8
WCNUFGGLYB,170225.0,07:25:14.939,L,107.4,LL,541.0,418.0
WCNUFGGLYB,170225.0,07:25:15.402,R,89.8,LR,480.5,373.0
WCNUFGGLYB,170226.0,07:59:52.984,L,103.5,RL,627.0,488.3
WCNUFGGLYB,170226.0,07:59:53.305,R,72.3,LR,351.6,248.0
WCNUFGGLYB,170226.0,07:59:53.594,R,115.2,RR,246.1,173.8
WCNUFGGLYB,170226.0,07:59:54.070,R,89.8,RR,502.0,386.7
WCNUFGGLYB,170226.0,07:59:54.533,S,105.5,RS,447.3,357.4
WCNUFGGLYB,170226.0,07:59:55.021,L,105.5,SL,488.3,382.8
WCNUFGGLYB,170226.0,07:59:55.453,R,115.2,LR,421.9,316.4
WCNUFGGLYB,170226.0,07:59:55.719,L,97.7,RL,283.2,168.0
WCNUFGGLYB,170226.0,07:59:56.096,L,103.5,LL,371.1,273.4
WCNUFGGLYB,170226.0,07:59:56.426,R,103.5,LR,330.1,226.6
WCNUFGGLYB,170226.0,07:59:56.957,L,84.0,RL,550.8,447.3
WCNUFGGLYB,170226.0,07:59:57.643,L,115.2,LL,654.3,570.3
WCNUFGGLYB,170226.0,07:59:58.090,R,93.8,LR,468.8,353.5
WCNUFGGLYB,170226.0,07:59:58.777,S,87.9,RS,693.4,599.6
WCNUFGGLYB,170226.0,07:59:59.383,L,119.1,SL,574.2,486.3
WCNUFGGLYB,170226.0,07:59:59.969,R,128.9,LR,576.2,457.0
WCNUFGGLYB,170226.0,08:01:16.852,L,132.8,RL,476.6,343.8
WCNUFGGLYB,170226.0,08:01:17.246,R,128.9,LR,398.4,265.6
WCNUFGGLYB,170226.0,08:01:17.582,R,173.8,RR,291.0,162.1
WCNUFGGLYB,170226.0,08:01:18.234,R,117.2,RR,709.0,535.2
WCNUFGGLYB,170226.0,08:01:18.652,S,132.8,RS,402.3,285.2
WCNUFGGLYB,170226.0,08:01:19.256,L,117.2,SL,619.1,486.3
WCNUFGGLYB,170226.0,08:01:19.754,R,115.2,LR,500.0,382.8
WCNUFGGLYB,170226.0,08:01:20.188,L,115.2,RL,433.6,318.4
WCNUFGGLYB,170226.0,08:01:20.570,L,101.6,LL,396.5,281.3
WCNUFGGLYB,170226.0,08:01:20.922,R,117.2,LR,335.9,234.4
WCNUFGGLYB,170226.0,08:01:21.475,L,84.0,RL,585.9,468.8
WCNUFGGLYB,170226.0,08:01:22.264,L,117.2,LL,755.9,671.9
WCNUFGGLYB,170226.0,08:01:22.703,R,109.4,LR,447.3,330.1
WCNUFGGLYB,170226.0,08:01:25.488,R,68.4,LR,410.2,314.5
WCNUFGGLYB,170226.0,08:01:25.957,R,93.8,RR,443.4,375.0
WCNUFGGLYB,170226.0,08:02:15.326,L,113.3,LL,558.6,423.8
WCNUFGGLYB,170226.0,08:02:15.689,R,107.4,LR,369.1,255.9
WCNUFGGLYB,170226.0,08:02:16.197,L,130.9,RL,484.4,377.0
WCNUFGGLYB,170226.0,08:02:16.389,R,127.0,LR,195.3,64.5
WCNUFGGLYB,170226.0,08:02:16.703,L,156.3,RL,285.2,158.2
WCNUFGGLYB,170226.0,08:02:17.082,L,128.9,LL,406.3,250.0
WCNUFGGLYB,170226.0,08:02:17.340,L,93.8,LL,293.0,164.1
WCNUFGGLYB,170226.0,08:14:49.029,R,166.0,LR,468.8,326.2
WCNUFGGLYB,170226.0,08:14:49.342,L,146.5,RL,332.0,166.0
WCNUFGGLYB,170226.0,08:14:49.822,L,173.8,LL,453.1,306.6
WCNUFGGLYB,170226.0,08:14:50.254,R,134.8,LR,470.7,296.9
WCNUFGGLYB,170226.0,08:14:50.625,L,152.3,RL,353.5,218.8
WCNUFGGLYB,170226.0,08:16:00.004,L,87.9,LL,330.1,218.8
WCNUFGGLYB,170226.0,08:16:00.793,L,152.3,LL,724.6,636.7
WCNUFGGLYB,170226.0,08:51:23.627,L,111.3,LL,419.9,291.0
WCNUFGGLYB,170226.0,08:51:27.738,L,128.9,RL,503.9,400.4
WCNUFGGLYB,170226.0,08:51:28.158,L,123.0,LL,425.8,296.9
WCNUFGGLYB,170226.0,08:51:28.518,S,85.9,LS,396.5,273.4
WCNUFGGLYB,170226.0,08:51:29.723,S,125.0,LS,343.8,224.6
WCNUFGGLYB,170226.0,08:51:30.207,L,93.8,SL,515.6,390.6
WCNUFGGLYB,170226.0,08:51:32.428,R,113.3,LR,380.9,261.7
WCNUFGGLYB,170226.0,08:51:32.910,L,76.2,RL,519.5,406.3
WCNUFGGLYB,170226.0,08:51:33.258,R,138.7,LR,285.2,209.0
WCNUFGGLYB,170226.0,08:51:33.693,L,111.3,RL,462.9,324.2
WCNUFGGLYB,170226.0,08:51:34.105,R,111.3,LR,412.1,300.8
WCNUFGGLYB,170226.0,08:51:36.461,S,87.9,RS,644.5,521.5
WCNUFGGLYB,170226.0,08:51:37.223,L,130.9,SL,718.8,630.9
WCNUFGGLYB,170226.0,08:51:38.475,R,105.5,LR,447.3,359.4
WCNUFGGLYB,170226.0,09:12:46.109,L,113.3,LL,566.4,429.7
WCNUFGGLYB,170226.0,09:12:46.531,R,136.7,LR,398.4,285.2
WCNUFGGLYB,170226.0,09:12:47.141,L,171.9,RL,574.2,437.5
WCNUFGGLYB,170226.0,09:12:47.430,R,132.8,LR,328.1,156.3
WCNUFGGLYB,170226.0,09:12:48.578,L,121.1,LL,285.2,175.8
WCNUFGGLYB,170226.0,09:13:18.156,R,105.5,LR,343.8,187.5
WCNUFGGLYB,170226.0,09:13:18.953,R,109.4,RR,793.0,687.5
WCNUFGGLYB,170226.0,09:13:19.316,R,97.7,RR,375.0,265.6
WCNUFGGLYB,170226.0,09:13:20.656,L,171.9,RL,464.8,328.1
WCNUFGGLYB,170226.0,09:13:21.277,R,101.6,LR,691.4,519.5
WCNUFGGLYB,170226.0,09:16:09.816,L,132.8,LL,589.8,460.9
WCNUFGGLYB,170226.0,09:16:10.363,R,132.8,LR,546.9,414.1
WCNUFGGLYB,170226.0,09:16:11.074,L,144.5,RL,699.2,566.4
WCNUFGGLYB,170226.0,09:16:11.539,R,164.1,LR,445.3,300.8
WCNUFGGLYB,170226.0,09:16:15.582,L,125.0,LL,476.6,359.4
WCNUFGGLYB,170226.0,09:16:15.945,L,160.2,LL,328.1,203.1
WCNUFGGLYB,170226.0,18:06:20.320,L,105.5,LL,726.6,574.2
WCNUFGGLYB,170226.0,18:06:21.109,L,132.8,LL,761.7,656.3
WCNUFGGLYB,170227.0,08:36:17.906,R,44.9,LR,494.1,394.5
WCNUFGGLYB,170227.0,08:36:18.518,R,113.3,RR,544.9,500.0
WCNUFGGLYB,170227.0,08:36:27.029,L,99.6,RL,660.2,568.4
WCNUFGGLYB,170227.0,08:36:27.490,L,109.4,LL,451.2,351.6
WCNUFGGLYB,170227.0,08:36:27.889,R,91.8,LR,416.0,306.6
WCNUFGGLYB,170227.0,08:36:28.299,R,68.4,RR,433.6,341.8
WCNUFGGLYB,170227.0,08:36:30.023,L,93.8,RL,584.0,494.1
WCNUFGGLYB,170227.0,08:43:59.854,L,105.5,RL,648.4,505.9
WCNUFGGLYB,170227.0,08:44:00.227,R,111.3,LR,367.2,261.7
WCNUFGGLYB,170227.0,08:44:00.498,R,99.6,RR,283.2,171.9
WCNUFGGLYB,170227.0,08:44:01.016,R,82.0,RR,535.2,435.5
WCNUFGGLYB,170227.0,08:44:01.541,S,127.0,RS,480.5,398.4
WCNUFGGLYB,170227.0,08:44:02.133,L,101.6,SL,617.2,490.2
WCNUFGGLYB,170227.0,08:44:02.521,R,99.6,LR,390.6,289.1
WCNUFGGLYB,170227.0,08:44:02.822,L,105.5,RL,294.9,195.3
WCNUFGGLYB,170227.0,08:44:03.215,L,148.4,LL,349.6,244.1
WCNUFGGLYB,170227.0,08:44:03.531,R,121.1,LR,343.8,195.3
WCNUFGGLYB,170227.0,08:44:04.115,L,95.7,RL,609.4,488.3
WCNUFGGLYB,170227.0,08:44:04.865,L,107.4,LL,738.3,642.6
WCNUFGGLYB,170227.0,08:44:05.359,R,101.6,LR,500.0,392.6
WCNUFGGLYB,170228.0,06:48:55.271,R,168.0,LR,529.3,330.1
WCNUFGGLYB,170228.0,06:48:55.805,L,150.4,RL,550.8,382.8
WCNUFGGLYB,170228.0,06:48:56.293,R,134.8,LR,503.9,353.5
WCNUFGGLYB,170228.0,06:48:57.762,R,115.2,RR,503.9,386.7
WCNUFGGLYB,170228.0,06:49:05.141,L,121.1,SL,787.1,627.0
WCNUFGGLYB,170228.0,06:49:05.521,L,127.0,LL,375.0,253.9
WCNUFGGLYB,170228.0,06:49:06.012,L,113.3,LL,503.9,377.0
WCNUFGGLYB,170228.0,06:50:20.326,L,146.5,RL,445.3,222.7
WCNUFGGLYB,170228.0,06:50:20.957,R,134.8,LR,642.6,496.1
WCNUFGGLYB,170228.0,06:50:21.564,R,115.2,RR,627.0,492.2
WCNUFGGLYB,170228.0,06:50:21.994,L,132.8,RL,412.1,296.9
WCNUFGGLYB,170228.0,06:50:22.369,L,109.4,LL,398.4,265.6
WCNUFGGLYB,170228.0,06:50:23.006,L,72.3,LL,673.8,564.5
WCNUFGGLYB,170228.0,06:53:27.428,L,150.4,RL,560.5,419.9
WCNUFGGLYB,170228.0,06:53:27.816,R,113.3,LR,425.8,275.4
WCNUFGGLYB,170228.0,06:53:28.477,R,175.8,RR,597.7,484.4
WCNUFGGLYB,170228.0,06:53:28.969,L,66.4,RL,601.6,425.8
WCNUFGGLYB,170228.0,06:53:29.434,R,148.4,LR,382.8,316.4
WCNUFGGLYB,170228.0,06:53:29.746,R,144.5,RR,316.4,168.0
WCNUFGGLYB,170228.0,06:53:30.414,R,181.6,RR,630.9,486.3
WCNUFGGLYB,170228.0,06:53:30.775,R,156.3,RR,386.7,205.1
WCNUFGGLYB,170228.0,07:07:32.266,R,154.3,LR,601.6,464.8
WCNUFGGLYB,170228.0,07:07:32.736,L,113.3,RL,511.7,357.4
WCNUFGGLYB,170228.0,07:07:33.051,L,103.5,LL,324.2,210.9
WCNUFGGLYB,170228.0,07:07:33.678,R,93.8,LR,636.7,533.2
WCNUFGGLYB,170228.0,07:30:16.557,L,166.0,RL,492.2,328.1
WCNUFGGLYB,170228.0,07:30:17.205,R,158.2,LR,656.3,490.2
WCNUFGGLYB,170228.0,07:30:17.520,R,164.1,RR,308.6,150.4
WCNUFGGLYB,170228.0,07:30:18.092,R,87.9,RR,648.4,484.4
WCNUFGGLYB,170228.0,07:30:18.836,S,117.2,RS,714.8,627.0
WCNUFGGLYB,170228.0,07:30:19.398,L,111.3,SL,568.4,451.2
WCNUFGGLYB,170228.0,07:30:19.932,R,119.1,LR,525.4,414.1
WCNUFGGLYB,170228.0,07:30:20.297,L,117.2,RL,367.2,248.0
WCNUFGGLYB,170228.0,07:30:20.727,L,173.8,LL,373.0,255.9
WCNUFGGLYB,170228.0,07:30:21.133,R,193.4,LR,386.7,212.9
WCNUFGGLYB,170228.0,07:30:21.393,L,134.8,RL,318.4,125.0
WCNUFGGLYB,170228.0,07:30:22.957,R,140.6,LR,511.7,330.1
WCNUFGGLYB,170228.0,07:30:32.004,L,72.3,LL,794.9,720.7
WCNUFGGLYB,170228.0,12:48:11.723,L,187.5,LL,218.8,78.1
WCNUFGGLYB,170228.0,12:48:11.848,L,109.4,LL,203.1,15.6
WCNUFGGLYB,170228.0,12:50:40.348,R,89.8,RR,207.0,113.3
WCNUFGGLYB,170228.0,12:50:40.473,L,109.4,RL,105.5,15.6
WCNUFGGLYB,170228.0,12:50:40.738,R,125.0,LR,250.0,140.6
WCNUFGGLYB,170228.0,12:50:41.465,S,156.3,RS,695.3,570.3
WCNUFGGLYB,170228.0,12:50:42.746,L,97.7,LL,359.4,281.3
WCNUFGGLYB,170228.0,12:50:43.008,R,97.7,LR,261.7,164.1
WCNUFGGLYB,170228.0,12:51:11.676,L,109.4,LL,355.5,246.1
WCNUFGGLYB,170228.0,12:51:11.754,L,46.9,LL,140.6,31.3
WCNUFGGLYB,170228.0,14:55:23.992,L,156.3,LL,625.0,453.1
WCNUFGGLYB,170228.0,14:55:24.414,R,109.4,LR,468.8,312.5
WCNUFGGLYB,170228.0,14:55:24.898,L,109.4,RL,484.4,375.0
WCNUFGGLYB,170228.0,14:55:25.227,R,140.6,LR,296.9,187.5
WCNUFGGLYB,170228.0,14:55:25.523,L,140.6,RL,296.9,156.3
WCNUFGGLYB,170228.0,14:55:25.883,L,93.8,LL,406.3,265.6
WCNUFGGLYB,170228.0,14:55:26.133,L,109.4,LL,234.4,140.6
WCNUFGGLYB,170228.0,14:55:49.336,R,125.0,LR,343.8,203.1
WCNUFGGLYB,170228.0,14:55:49.836,L,93.8,RL,531.3,406.3
WCNUFGGLYB,170228.0,14:55:50.211,R,140.6,LR,328.1,234.4
WCNUFGGLYB,170228.0,14:55:50.492,L,125.0,RL,296.9,156.3
WCNUFGGLYB,170228.0,14:55:50.914,L,125.0,LL,421.9,296.9
WCNUFGGLYB,170228.0,14:55:51.117,L,109.4,LL,218.8,93.8
WCNUFGGLYB,170228.0,14:56:13.945,R,125.0,LR,339.8,250.0
WCNUFGGLYB,170228.0,14:56:14.605,R,93.8,RR,691.4,566.4
WCNUFGGLYB,170228.0,14:56:14.902,R,140.6,RR,250.0,156.3
WCNUFGGLYB,170228.0,14:56:15.449,R,140.6,RR,546.9,406.3
WCNUFGGLYB,170228.0,14:56:16.164,L,74.2,RL,781.3,640.6
WCNUFGGLYB,170228.0,14:56:16.527,R,125.0,LR,312.5,238.3
WCNUFGGLYB,170228.0,14:56:16.855,L,156.3,RL,296.9,171.9
WCNUFGGLYB,170228.0,14:56:43.859,L,109.4,LL,484.4,375.0
WCNUFGGLYB,170228.0,14:56:44.258,R,132.8,LR,375.0,265.6
WCNUFGGLYB,170228.0,14:56:44.711,L,187.5,RL,398.4,265.6
WCNUFGGLYB,170228.0,14:56:44.977,R,125.0,LR,328.1,140.6
WCNUFGGLYB,170228.0,14:56:45.336,L,156.3,RL,328.1,203.1
WCNUFGGLYB,170228.0,14:56:45.664,L,109.4,LL,375.0,218.8
WCNUFGGLYB,170228.0,14:56:45.914,L,109.4,LL,250.0,140.6
WCNUFGGLYB,170228.0,14:57:32.488,L,62.5,RL,687.5,562.5
WCNUFGGLYB,170228.0,14:57:32.785,L,109.4,LL,250.0,187.5
WCNUFGGLYB,170228.0,14:57:33.207,R,109.4,LR,421.9,312.5
WCNUFGGLYB,170228.0,14:57:45.023,L,78.1,RL,582.0,457.0
WCNUFGGLYB,170228.0,14:57:45.258,L,78.1,LL,234.4,156.3
WCNUFGGLYB,170228.0,14:57:45.691,R,125.0,LR,386.7,308.6
WCNUFGGLYB,170228.0,15:15:57.508,L,121.1,RL,457.0,312.5
WCNUFGGLYB,170228.0,15:15:59.066,R,117.2,LR,390.6,238.3
WCNUFGGLYB,170228.0,15:15:59.469,L,152.3,RL,367.2,250.0
WCNUFGGLYB,170228.0,15:15:59.902,L,152.3,LL,433.6,281.3
WCNUFGGLYB,170228.0,15:16:00.555,L,132.8,LL,671.9,519.5
