User_ID,Date,Timestamp,Hand,Hold_Time,Direction,Latency_Time,Flight_Time
X7PEJ5EG77,160803.0,17:06:09.020,R,70.3,LR,293.0,62.5
X7PEJ5EG77,160803.0,17:06:09.348,R,109.4,RR,289.1,218.8
X7PEJ5EG77,160803.0,17:06:10.496,L,117.2,RL,421.9,351.6
X7PEJ5EG77,160803.0,17:06:10.770,L,160.2,LL,230.5,113.3
X7PEJ5EG77,160803.0,17:06:11.008,L,109.4,LL,289.1,128.9
X7PEJ5EG77,160803.0,17:06:11.359,L,121.1,LL,339.8,230.5
X7PEJ5EG77,160803.0,17:06:11.738,R,121.1,LR,378.9,257.8
X7PEJ5EG77,160803.0,17:06:11.977,L,179.7,RL,179.7,58.6
X7PEJ5EG77,160803.0,17:06:12.117,R,70.3,LR,250.0,70.3
X7PEJ5EG77,160803.0,17:06:12.387,R,70.3,RR,269.5,199.2
X7PEJ5EG77,160805.0,23:52:40.859,L,234.4,LL,406.3,328.1
X7PEJ5EG77,160805.0,23:52:41.156,L,78.1,LL,218.8,140.6
X7PEJ5EG77,160805.0,23:52:42.039,R,78.1,RR,281.3,203.1
X7PEJ5EG77,160805.0,23:52:42.461,L,218.8,RL,281.3,203.1
X7PEJ5EG77,160805.0,23:52:42.680,R,125.0,LR,312.5,93.8
X7PEJ5EG77,160805.0,23:52:42.945,L,171.9,RL,218.8,93.8
X7PEJ5EG77,160805.0,23:53:54.227,L,187.5,LL,359.4,250.0
X7PEJ5EG77,160805.0,23:53:54.602,L,109.4,LL,453.1,265.6
X7PEJ5EG77,160805.0,23:53:54.891,L,132.8,LL,265.6,156.3
X7PEJ5EG77,160805.0,23:53:55.859,R,78.1,RR,328.1,250.0
X7PEJ5EG77,160806.0,00:55:25.502,L,77.9,RL,452.1,343.0
X7PEJ5EG77,160806.0,00:55:25.970,L,218.0,LL,327.9,250.0
X7PEJ5EG77,160806.0,00:55:34.784,L,62.0,RL,295.9,218.0
X7PEJ5EG77,160806.0,00:55:35.237,L,31.0,LL,188.0,422.1
X7PEJ5EG77,160806.0,00:55:35.268,R,62.0,LR,188.0,422.1
X7PEJ5EG77,160806.0,00:55:38.029,S,62.0,LS,437.0,250.0
X7PEJ5EG77,160806.0,00:55:41.586,R,77.9,RR,390.1,328.1
X7PEJ5EG77,160806.0,00:55:42.038,R,78.1,RR,451.9,374.0
X7PEJ5EG77,160806.0,00:55:42.366,R,77.9,RR,328.1,250.0
X7PEJ5EG77,160806.0,00:55:42.881,L,141.1,RL,451.9,374.0
X7PEJ5EG77,160806.0,01:00:32.045,L,188.0,LL,499.0,374.0
X7PEJ5EG77,160806.0,01:00:32.372,L,78.1,LL,437.0,249.0
X7PEJ5EG77,160806.0,01:00:32.622,L,63.0,LL,265.1,187.0
X7PEJ5EG77,160806.0,01:00:33.636,R,108.9,RR,328.1,250.0
X7PEJ5EG77,160806.0,01:02:59.468,R,109.1,LR,483.9,327.9
X7PEJ5EG77,160806.0,01:12:06.071,L,139.6,LL,375.0,219.2
X7PEJ5EG77,160806.0,01:12:12.810,R,78.1,RR,390.1,327.1
X7PEJ5EG77,160806.0,01:16:53.773,L,78.1,LL,467.8,358.9
X7PEJ5EG77,160806.0,01:16:54.600,L,78.1,LL,265.1,203.1
X7PEJ5EG77,160806.0,01:16:55.536,R,78.1,RR,328.1,250.0
X7PEJ5EG77,160806.0,01:17:29.279,L,109.9,LL,312.0,202.1
X7PEJ5EG77,160806.0,01:17:29.497,L,62.0,LL,266.1,156.3
X7PEJ5EG77,160806.0,01:17:30.995,R,110.4,RR,295.9,186.5
X7PEJ5EG77,160806.0,01:17:31.275,L,78.1,RL,312.0,201.7
X7PEJ5EG77,160812.0,07:43:36.291,R,824.2,SR,359.4,250.0
X7PEJ5EG77,160814.0,08:45:20.160,R,78.1,LR,281.3,62.5
X7PEJ5EG77,160814.0,08:45:20.441,R,78.1,RR,281.3,203.1
X7PEJ5EG77,160814.0,08:45:21.549,L,109.4,RL,406.3,328.1
X7PEJ5EG77,160814.0,08:45:21.812,L,109.4,LL,263.7,154.3
X7PEJ5EG77,160814.0,08:45:22.172,L,156.3,LL,312.5,203.1
X7PEJ5EG77,160814.0,08:45:22.469,L,109.4,LL,343.8,187.5
X7PEJ5EG77,160814.0,08:45:22.766,R,78.1,LR,328.1,218.8
X7PEJ5EG77,160814.0,08:45:23.029,L,185.5,RL,156.3,78.1
X7PEJ5EG77,160814.0,08:45:23.107,R,60.5,LR,203.1,17.6
X7PEJ5EG77,160814.0,08:45:23.373,R,78.1,RR,248.0,187.5
X7PEJ5EG77,160814.0,13:26:46.844,R,46.9,LR,187.5,375.0
X7PEJ5EG77,160814.0,13:26:47.027,R,105.5,RR,125.0,78.1
X7PEJ5EG77,160814.0,13:26:47.246,L,187.5,RL,136.7,31.3
X7PEJ5EG77,160814.0,13:26:51.008,R,62.5,RR,265.6,187.5
X7PEJ5EG77,160814.0,13:26:51.414,S,78.1,RS,390.6,328.1
X7PEJ5EG77,160814.0,13:26:53.770,R,78.1,RR,234.4,171.9
X7PEJ5EG77,160814.0,13:26:56.203,R,109.4,RR,343.8,265.6
X7PEJ5EG77,160814.0,13:26:56.531,R,62.5,RR,375.0,265.6
X7PEJ5EG77,160814.0,13:26:56.922,R,78.1,RR,375.0,312.5
X7PEJ5EG77,160814.0,13:26:57.371,L,187.5,RL,339.8,261.7
X7PEJ5EG77,160814.0,13:26:57.449,R,62.5,LR,203.1,15.6
X7PEJ5EG77,160814.0,13:27:00.320,L,78.1,LL,250.0,31.3
X7PEJ5EG77,160814.0,13:27:00.555,R,78.1,LR,234.4,156.3
X7PEJ5EG77,160814.0,13:27:02.535,R,78.1,RR,156.3,78.1
X7PEJ5EG77,160814.0,13:27:02.832,S,109.4,RS,265.6,187.5
X7PEJ5EG77,160814.0,13:27:04.469,R,109.4,RR,156.3,78.1
X7PEJ5EG77,160814.0,13:27:04.891,L,187.5,RL,343.8,234.4
X7PEJ5EG77,160814.0,13:27:07.699,R,78.1,RR,296.9,218.8
X7PEJ5EG77,160814.0,13:27:07.855,S,46.9,RS,187.5,109.4
X7PEJ5EG77,160814.0,13:27:08.152,R,31.3,SR,187.5,265.6
X7PEJ5EG77,160814.0,13:27:08.855,L,66.4,LL,246.1,136.7
X7PEJ5EG77,160814.0,13:27:09.023,L,109.4,LL,125.0,58.6
X7PEJ5EG77,160814.0,13:27:09.305,R,109.4,LR,281.3,171.9
X7PEJ5EG77,160814.0,13:27:09.539,L,187.5,RL,156.3,46.9
X7PEJ5EG77,160814.0,13:27:09.617,R,62.5,LR,203.1,15.6
X7PEJ5EG77,160814.0,13:27:42.457,L,93.8,LL,140.6,312.5
X7PEJ5EG77,160814.0,13:27:42.895,R,78.1,LR,453.1,359.4
X7PEJ5EG77,160814.0,13:27:43.223,L,171.9,RL,234.4,156.3
X7PEJ5EG77,160814.0,13:27:48.703,L,187.5,RL,386.7,293.0
X7PEJ5EG77,160814.0,13:27:48.859,L,78.1,LL,265.6,78.1
X7PEJ5EG77,160814.0,13:27:49.031,L,78.1,LL,171.9,93.8
X7PEJ5EG77,160814.0,13:27:49.281,S,78.1,LS,250.0,171.9
X7PEJ5EG77,160814.0,13:27:50.234,L,140.6,RL,203.1,125.0
X7PEJ5EG77,160814.0,13:27:50.578,L,109.4,LL,375.0,234.4
X7PEJ5EG77,160814.0,13:27:50.719,R,46.9,LR,203.1,93.8
X7PEJ5EG77,160814.0,13:27:52.262,L,171.9,RL,281.3,203.1
X7PEJ5EG77,160814.0,13:27:52.340,R,62.5,LR,187.5,15.6
X7PEJ5EG77,160814.0,13:27:52.730,R,78.1,RR,375.0,312.5
X7PEJ5EG77,160814.0,13:29:06.562,R,78.1,LR,261.7,89.8
X7PEJ5EG77,160814.0,13:29:08.902,R,121.1,LR,312.5,125.0
X7PEJ5EG77,160814.0,13:29:09.262,L,187.5,RL,293.0,171.9
X7PEJ5EG77,160814.0,13:29:09.465,S,78.1,LS,312.5,125.0
X7PEJ5EG77,160814.0,13:29:12.477,R,109.4,LR,250.0,109.4
X7PEJ5EG77,160814.0,13:29:12.789,L,187.5,RL,234.4,125.0
X7PEJ5EG77,160814.0,13:29:12.992,S,109.4,LS,281.3,93.8
X7PEJ5EG77,160814.0,13:29:14.207,R,78.1,RR,168.0,93.8
X7PEJ5EG77,160814.0,13:29:14.441,R,78.1,RR,234.4,156.3
X7PEJ5EG77,160814.0,13:29:14.691,S,78.1,RS,250.0,171.9
X7PEJ5EG77,160814.0,13:29:15.098,R,46.9,SR,312.5,359.4
X7PEJ5EG77,160814.0,13:29:15.723,L,78.1,RL,421.9,343.8
X7PEJ5EG77,160814.0,13:29:16.098,R,78.1,LR,375.0,296.9
X7PEJ5EG77,160814.0,13:29:16.348,R,78.1,RR,250.0,171.9
X7PEJ5EG77,160814.0,13:29:16.562,R,78.1,RR,214.8,136.7
X7PEJ5EG77,160814.0,13:29:17.016,L,218.8,RL,312.5,234.4
X7PEJ5EG77,160814.0,13:29:19.918,R,78.1,RR,265.6,203.1
X7PEJ5EG77,160814.0,13:29:20.152,L,78.1,RL,234.4,156.3
X7PEJ5EG77,160814.0,13:29:20.371,S,78.1,LS,218.8,140.6
X7PEJ5EG77,160814.0,13:29:20.809,R,78.1,SR,328.1,359.4
X7PEJ5EG77,160814.0,13:29:21.695,L,171.9,LL,261.7,125.0
X7PEJ5EG77,160814.0,13:29:21.836,L,109.4,LL,203.1,31.3
X7PEJ5EG77,160814.0,13:29:22.102,L,78.1,LL,296.9,187.5
X7PEJ5EG77,160814.0,13:29:22.305,L,78.1,LL,203.1,125.0
X7PEJ5EG77,160814.0,13:29:23.633,S,46.9,SS,453.1,421.9
X7PEJ5EG77,160814.0,13:29:54.535,L,218.8,LL,265.6,171.9
X7PEJ5EG77,160814.0,13:29:54.848,R,78.1,LR,453.1,234.4
X7PEJ5EG77,160814.0,13:29:55.004,R,78.1,RR,156.3,78.1
X7PEJ5EG77,160814.0,13:29:55.281,L,183.6,RL,171.9,93.8
X7PEJ5EG77,160814.0,13:29:59.777,S,125.0,RS,421.9,312.5
X7PEJ5EG77,160814.0,13:30:00.898,R,78.1,LR,437.5,359.4
X7PEJ5EG77,160814.0,13:30:05.453,L,15.6,LL,46.9,15.6
X7PEJ5EG77,160814.0,13:30:06.000,L,78.1,LL,343.8,234.4
X7PEJ5EG77,160814.0,13:30:06.828,L,109.4,RL,281.3,203.1
X7PEJ5EG77,160814.0,13:30:07.047,L,109.4,LL,218.8,109.4
X7PEJ5EG77,160814.0,13:30:07.402,S,105.5,LS,359.4,250.0
X7PEJ5EG77,160814.0,13:30:10.883,L,78.1,LL,484.4,421.9
X7PEJ5EG77,160814.0,13:30:11.352,R,78.1,LR,468.8,390.6
X7PEJ5EG77,160814.0,13:30:12.352,L,113.3,RL,246.1,168.0
X7PEJ5EG77,160814.0,13:30:12.598,L,136.7,LL,222.7,109.4
X7PEJ5EG77,160814.0,13:30:13.004,S,109.4,LS,433.6,296.9
X7PEJ5EG77,160814.0,13:30:16.000,R,78.1,SR,140.6,234.4
X7PEJ5EG77,160814.0,13:30:16.703,L,31.3,RL,187.5,421.9
X7PEJ5EG77,160814.0,13:30:16.734,L,62.5,LL,187.5,421.9
X7PEJ5EG77,160814.0,13:30:18.730,L,78.1,LL,156.3,78.1
X7PEJ5EG77,160814.0,13:30:18.949,L,31.3,LL,265.6,187.5
X7PEJ5EG77,160814.0,13:30:35.406,R,78.1,RR,250.0,171.9
X7PEJ5EG77,160814.0,13:30:35.531,R,62.5,RR,140.6,62.5
X7PEJ5EG77,160814.0,13:30:35.828,S,109.4,RS,250.0,187.5
X7PEJ5EG77,160814.0,13:30:37.152,L,218.8,LL,246.1,168.0
X7PEJ5EG77,160814.0,13:30:37.871,L,187.5,RL,250.0,171.9
X7PEJ5EG77,160814.0,13:31:00.027,L,125.0,LL,234.4,93.8
X7PEJ5EG77,160814.0,13:31:01.352,R,78.1,LR,437.5,250.0
X7PEJ5EG77,160814.0,13:31:01.602,R,31.3,RR,109.4,218.8
X7PEJ5EG77,160814.0,13:31:01.648,L,78.1,RL,109.4,218.8
X7PEJ5EG77,160814.0,13:31:01.945,L,78.1,LL,296.9,218.8
X7PEJ5EG77,160814.0,13:31:02.273,S,109.4,LS,296.9,218.8
X7PEJ5EG77,160814.0,13:31:03.285,L,78.1,LL,187.5,109.4
X7PEJ5EG77,160814.0,13:31:03.645,L,62.5,LL,375.0,296.9
X7PEJ5EG77,160814.0,13:31:04.145,R,78.1,LR,484.4,421.9
X7PEJ5EG77,160814.0,13:31:04.457,L,140.6,RL,250.0,171.9
X7PEJ5EG77,160814.0,13:31:04.738,L,109.4,LL,312.5,171.9
X7PEJ5EG77,160814.0,13:31:10.523,R,78.1,LR,480.5,433.6
X7PEJ5EG77,160814.0,13:31:10.930,L,46.9,RL,437.5,359.4
X7PEJ5EG77,160814.0,13:31:11.914,R,78.1,RR,359.4,281.3
X7PEJ5EG77,160814.0,13:31:16.516,L,187.5,RL,296.9,187.5
X7PEJ5EG77,160814.0,13:31:16.656,R,78.1,LR,250.0,62.5
X7PEJ5EG77,160814.0,13:31:17.062,R,78.1,RR,406.3,328.1
X7PEJ5EG77,160814.0,13:31:17.391,L,171.9,RL,234.4,156.3
X7PEJ5EG77,160814.0,13:31:41.695,R,78.1,RR,250.0,171.9
X7PEJ5EG77,160814.0,13:31:41.961,L,31.3,RL,144.5,234.4
X7PEJ5EG77,160814.0,13:31:41.973,R,43.0,LR,144.5,234.4
X7PEJ5EG77,160814.0,13:31:42.270,L,78.1,RL,261.7,218.8
X7PEJ5EG77,160814.0,13:31:42.707,R,78.1,LR,437.5,359.4
X7PEJ5EG77,160814.0,13:31:43.051,L,31.3,RL,156.3,312.5
X7PEJ5EG77,160814.0,13:31:43.082,R,62.5,LR,156.3,312.5
X7PEJ5EG77,160814.0,13:31:43.410,S,62.5,RS,328.1,265.6
X7PEJ5EG77,160814.0,13:31:44.391,L,136.7,RL,468.8,390.6
X7PEJ5EG77,160814.0,13:31:44.484,L,78.1,LL,152.3,15.6
X7PEJ5EG77,160814.0,13:31:44.641,L,78.1,LL,156.3,78.1
X7PEJ5EG77,160814.0,13:31:44.797,L,140.6,LL,93.8,15.6
X7PEJ5EG77,160814.0,13:31:45.109,L,156.3,LL,296.9,156.3
X7PEJ5EG77,160814.0,13:31:45.328,S,78.1,LS,296.9,140.6
X7PEJ5EG77,160814.0,13:31:46.312,R,78.1,LR,468.8,390.6
X7PEJ5EG77,160814.0,13:31:46.547,S,109.4,RS,203.1,125.0
X7PEJ5EG77,160814.0,13:31:46.965,L,93.8,SL,324.2,324.2
X7PEJ5EG77,160814.0,13:31:47.621,L,78.1,LL,140.6,218.8
X7PEJ5EG77,160814.0,13:31:47.637,L,93.8,LL,140.6,218.8
X7PEJ5EG77,160814.0,13:31:47.777,L,62.5,LL,156.3,62.5
X7PEJ5EG77,160814.0,13:31:56.402,L,183.6,RL,375.0,296.9
X7PEJ5EG77,160814.0,13:31:56.824,L,140.6,RL,281.3,203.1
X7PEJ5EG77,160814.0,13:31:56.965,L,62.5,LL,218.8,78.1
X7PEJ5EG77,160814.0,13:31:57.184,L,156.3,LL,125.0,62.5
X7PEJ5EG77,160814.0,13:31:57.324,S,109.4,LS,187.5,31.3
X7PEJ5EG77,160814.0,13:31:57.559,L,78.1,SL,265.6,156.3
X7PEJ5EG77,160814.0,13:31:58.027,R,78.1,LR,468.8,390.6
X7PEJ5EG77,160814.0,13:31:58.230,S,109.4,RS,171.9,93.8
X7PEJ5EG77,160814.0,13:31:58.820,L,183.6,RL,203.1,125.0
X7PEJ5EG77,160814.0,13:31:58.934,L,78.1,LL,218.8,35.2
X7PEJ5EG77,160814.0,13:31:59.727,R,78.1,RR,218.8,140.6
X7PEJ5EG77,160814.0,13:32:27.496,L,109.4,LL,328.1,203.1
X7PEJ5EG77,160814.0,13:32:27.621,R,78.1,LR,156.3,46.9
X7PEJ5EG77,160814.0,13:32:27.887,S,109.4,RS,234.4,156.3
X7PEJ5EG77,160814.0,13:32:28.305,L,168.0,SL,359.4,250.0
X7PEJ5EG77,160814.0,13:32:28.383,R,62.5,LR,183.6,15.6
X7PEJ5EG77,160814.0,13:32:28.648,S,62.5,RS,265.6,203.1
X7PEJ5EG77,160814.0,13:32:29.477,R,109.4,RR,218.8,156.3
X7PEJ5EG77,160814.0,13:32:29.680,L,140.6,RL,171.9,62.5
X7PEJ5EG77,160814.0,13:32:29.773,S,78.1,LS,156.3,15.6
X7PEJ5EG77,160814.0,13:32:30.758,L,113.3,LL,234.4,199.2
X7PEJ5EG77,160814.0,13:32:31.145,R,78.1,LR,421.9,308.6
X7PEJ5EG77,160814.0,13:32:31.285,R,109.4,RR,109.4,31.3
X7PEJ5EG77,160814.0,13:32:31.441,L,140.6,RL,125.0,15.6
X7PEJ5EG77,160814.0,13:32:31.738,L,156.3,LL,281.3,140.6
X7PEJ5EG77,160814.0,13:33:02.348,L,46.9,LL,144.5,250.0
X7PEJ5EG77,160814.0,13:33:02.379,L,78.1,LL,144.5,250.0
X7PEJ5EG77,160814.0,13:33:02.672,S,78.1,LS,293.0,214.8
X7PEJ5EG77,160814.0,13:33:03.750,R,78.1,RR,250.0,171.9
X7PEJ5EG77,160814.0,13:33:03.953,R,78.1,RR,203.1,125.0
X7PEJ5EG77,160814.0,13:33:04.250,L,203.1,RL,171.9,93.8
X7PEJ5EG77,160814.0,13:33:04.609,R,62.5,RR,296.9,218.8
X7PEJ5EG77,160814.0,13:33:11.316,L,140.6,RL,168.0,89.8
X7PEJ5EG77,160814.0,13:33:11.676,L,140.6,LL,359.4,218.8
X7PEJ5EG77,160814.0,13:33:11.895,S,109.4,LS,250.0,109.4
X7PEJ5EG77,160814.0,13:33:12.801,L,109.4,RL,328.1,234.4
X7PEJ5EG77,160814.0,13:33:13.113,L,187.5,LL,234.4,125.0
X7PEJ5EG77,160814.0,13:33:13.609,L,78.1,RL,418.0,355.5
X7PEJ5EG77,160814.0,13:33:13.859,R,62.5,LR,265.6,187.5
X7PEJ5EG77,160814.0,13:33:14.094,S,62.5,RS,234.4,171.9
X7PEJ5EG77,160814.0,13:33:16.902,L,187.5,LL,250.0,93.8
X7PEJ5EG77,160814.0,13:33:17.027,R,78.1,LR,234.4,46.9
X7PEJ5EG77,160814.0,13:33:17.418,L,78.1,RL,390.6,312.5
X7PEJ5EG77,160814.0,13:33:17.699,R,62.5,LR,296.9,218.8
X7PEJ5EG77,160814.0,13:33:17.980,S,109.4,RS,234.4,171.9
X7PEJ5EG77,160814.0,13:33:18.414,R,74.2,SR,250.0,359.4
X7PEJ5EG77,160814.0,13:33:18.961,L,156.3,RL,203.1,125.0
X7PEJ5EG77,160814.0,13:33:19.336,L,78.1,RL,296.9,234.4
X7PEJ5EG77,160814.0,13:33:19.664,L,218.8,LL,187.5,109.4
X7PEJ5EG77,160814.0,13:33:19.758,R,78.1,LR,234.4,15.6
X7PEJ5EG77,160814.0,13:33:19.992,L,109.4,RL,203.1,125.0
X7PEJ5EG77,160814.0,13:33:20.398,L,171.9,LL,343.8,234.4
X7PEJ5EG77,160814.0,13:33:36.871,L,78.1,RL,109.4,187.5
X7PEJ5EG77,160814.0,13:33:36.887,R,93.8,LR,109.4,187.5
X7PEJ5EG77,160814.0,13:33:37.309,L,187.5,RL,328.1,234.4
X7PEJ5EG77,160814.0,13:33:37.527,S,109.4,LS,296.9,109.4
X7PEJ5EG77,160814.0,13:33:40.504,L,140.6,LL,171.9,93.8
X7PEJ5EG77,160814.0,13:33:40.676,R,78.1,LR,234.4,93.8
X7PEJ5EG77,160814.0,13:33:40.941,L,156.3,RL,187.5,109.4
X7PEJ5EG77,160814.0,13:34:14.863,L,187.5,RL,187.5,109.4
X7PEJ5EG77,160814.0,13:34:15.156,L,152.3,LL,328.1,140.6
X7PEJ5EG77,160814.0,13:34:24.285,L,78.1,RL,328.1,265.6
X7PEJ5EG77,160814.0,13:34:24.578,L,43.0,LL,109.4,250.0
X7PEJ5EG77,160814.0,13:34:24.645,L,109.4,LL,109.4,250.0
X7PEJ5EG77,160814.0,13:34:25.906,L,187.5,LL,140.6,78.1
X7PEJ5EG77,160814.0,13:34:25.984,L,62.5,LL,203.1,15.6
X7PEJ5EG77,160814.0,13:34:26.203,L,156.3,LL,125.0,62.5
X7PEJ5EG77,160814.0,13:34:26.312,S,78.1,LS,187.5,31.3
X7PEJ5EG77,160814.0,13:34:26.688,L,78.1,SL,156.3,296.9
X7PEJ5EG77,160814.0,13:34:27.512,R,78.1,RR,214.8,136.7
X7PEJ5EG77,160814.0,13:34:27.871,L,78.1,RL,359.4,281.3
X7PEJ5EG77,160814.0,13:34:28.215,L,250.0,LL,171.9,93.8
X7PEJ5EG77,160814.0,13:34:28.387,R,78.1,LR,343.8,93.8
X7PEJ5EG77,160814.0,13:34:35.719,L,187.5,LL,250.0,109.4
X7PEJ5EG77,160814.0,13:34:35.875,R,109.4,LR,234.4,46.9
X7PEJ5EG77,160814.0,13:34:36.094,S,78.1,RS,250.0,140.6
X7PEJ5EG77,160814.0,13:34:37.074,L,152.3,LL,175.8,97.7
X7PEJ5EG77,160814.0,13:34:37.324,L,152.3,LL,250.0,97.7
X7PEJ5EG77,160814.0,13:34:37.543,R,78.1,LR,293.0,140.6
X7PEJ5EG77,160814.0,13:34:37.777,R,78.1,RR,234.4,156.3
X7PEJ5EG77,160814.0,13:34:37.996,R,78.1,RR,218.8,140.6
X7PEJ5EG77,160814.0,13:34:38.496,L,218.8,RL,359.4,281.3
X7PEJ5EG77,160814.0,13:34:38.637,L,78.1,LL,281.3,62.5
X7PEJ5EG77,160814.0,13:34:38.934,R,62.5,LR,312.5,234.4
X7PEJ5EG77,160814.0,13:34:39.137,R,78.1,RR,187.5,125.0
X7PEJ5EG77,160814.0,13:34:39.414,R,74.2,RR,281.3,203.1
X7PEJ5EG77,160814.0,13:34:40.867,L,140.6,RL,281.3,203.1
X7PEJ5EG77,160814.0,13:34:41.023,L,31.3,LL,265.6,125.0
X7PEJ5EG77,160814.0,13:34:41.164,L,46.9,LL,125.0,93.8
X7PEJ5EG77,160814.0,13:34:41.414,L,171.9,LL,125.0,78.1
X7PEJ5EG77,160814.0,13:34:41.758,L,187.5,LL,328.1,156.3
X7PEJ5EG77,160814.0,13:35:21.020,R,78.1,RR,246.1,168.0
X7PEJ5EG77,160814.0,13:35:21.223,R,78.1,RR,203.1,125.0
X7PEJ5EG77,160814.0,13:35:21.520,S,46.9,RS,328.1,250.0
X7PEJ5EG77,160814.0,13:35:23.703,R,74.2,RR,300.8,222.7
X7PEJ5EG77,160814.0,13:35:23.906,R,78.1,RR,199.2,125.0
X7PEJ5EG77,160814.0,13:35:24.078,S,46.9,RS,203.1,125.0
X7PEJ5EG77,160814.0,13:35:24.344,R,78.1,SR,78.1,187.5
X7PEJ5EG77,160814.0,13:35:24.781,L,93.8,LL,109.4,250.0
X7PEJ5EG77,160814.0,13:35:24.906,L,78.1,LL,140.6,46.9
X7PEJ5EG77,160814.0,13:35:25.297,L,156.3,LL,312.5,234.4
X7PEJ5EG77,160814.0,13:35:25.516,L,156.3,LL,218.8,62.5
X7PEJ5EG77,160814.0,13:35:25.656,L,78.1,LL,218.8,62.5
X7PEJ5EG77,160814.0,13:35:25.855,R,78.1,LR,199.2,121.1
X7PEJ5EG77,160814.0,13:35:39.477,L,156.3,LL,250.0,171.9
X7PEJ5EG77,160814.0,13:35:39.758,L,109.4,LL,328.1,171.9
X7PEJ5EG77,160814.0,13:35:40.023,L,93.8,LL,281.3,171.9
X7PEJ5EG77,160814.0,13:35:40.305,L,156.3,LL,218.8,125.0
X7PEJ5EG77,160814.0,13:36:07.945,L,109.4,RL,265.6,187.5
X7PEJ5EG77,160814.0,13:36:08.180,L,187.5,LL,156.3,46.9
X7PEJ5EG77,160814.0,13:36:08.289,R,78.1,LR,218.8,31.3
X7PEJ5EG77,160814.0,13:36:08.648,S,109.4,RS,328.1,250.0
X7PEJ5EG77,160814.0,13:36:10.113,L,78.1,RL,308.6,250.0
X7PEJ5EG77,160814.0,13:36:10.316,L,140.6,LL,140.6,62.5
X7PEJ5EG77,160814.0,13:36:10.504,L,78.1,LL,250.0,109.4
X7PEJ5EG77,160814.0,13:36:10.723,L,140.6,LL,156.3,78.1
X7PEJ5EG77,160814.0,13:36:35.262,L,62.5,LL,203.1,15.6
X7PEJ5EG77,160814.0,13:36:35.590,R,125.0,LR,265.6,203.1
X7PEJ5EG77,160814.0,13:36:35.934,S,109.4,RS,359.4,234.4
X7PEJ5EG77,160814.0,13:36:39.133,L,109.4,LL,265.6,46.9
X7PEJ5EG77,160814.0,13:36:39.398,R,109.4,LR,265.6,156.3
X7PEJ5EG77,160814.0,13:36:39.680,S,93.8,RS,296.9,187.5
X7PEJ5EG77,160814.0,13:36:41.098,R,78.1,RR,125.0,46.9
X7PEJ5EG77,160814.0,13:36:41.285,S,62.5,RS,203.1,125.0
X7PEJ5EG77,160814.0,13:36:41.566,R,78.1,SR,109.4,203.1
X7PEJ5EG77,160814.0,13:36:42.129,L,144.5,LL,246.1,121.1
X7PEJ5EG77,160814.0,13:36:42.344,L,62.5,LL,296.9,152.3
X7PEJ5EG77,160814.0,13:36:42.766,R,62.5,LR,421.9,359.4
X7PEJ5EG77,160814.0,13:36:43.047,R,109.4,RR,234.4,171.9
X7PEJ5EG77,160814.0,13:36:43.281,L,78.1,RL,265.6,156.3
X7PEJ5EG77,160814.0,13:36:43.531,L,187.5,LL,140.6,62.5
X7PEJ5EG77,160814.0,13:36:54.266,L,78.1,RL,296.9,234.4
X7PEJ5EG77,160814.0,13:36:55.094,L,109.4,RL,234.4,125.0
X7PEJ5EG77,160814.0,13:36:55.656,L,93.8,SL,281.3,359.4
X7PEJ5EG77,160814.0,13:36:56.559,R,62.5,RR,343.8,265.6
X7PEJ5EG77,160814.0,13:36:57.043,R,78.1,RR,484.4,421.9
X7PEJ5EG77,160814.0,13:36:57.293,R,78.1,RR,250.0,171.9
X7PEJ5EG77,160814.0,13:36:57.809,L,140.6,RL,453.1,375.0
X7PEJ5EG77,160814.0,13:36:58.137,L,187.5,LL,281.3,140.6
X7PEJ5EG77,160814.0,13:37:36.434,L,62.5,RL,250.0,187.5
X7PEJ5EG77,160814.0,13:37:37.398,L,78.1,RL,105.5,355.5
X7PEJ5EG77,160814.0,13:37:37.414,L,93.8,LL,105.5,355.5
X7PEJ5EG77,160814.0,13:37:37.898,S,93.8,LS,484.4,390.6
X7PEJ5EG77,160814.0,13:37:43.516,S,109.4,RS,437.5,328.1
X7PEJ5EG77,160814.0,13:37:47.242,L,46.9,RL,156.3,433.6
X7PEJ5EG77,160814.0,13:37:47.273,L,78.1,LL,156.3,433.6
