User_ID,Date,Timestamp,Hand,Hold_Time,Direction,Latency_Time,Flight_Time
ZWBPPNQCUX,161201.0,08:58:06.949,L,78.1,LL,484.4,390.6
ZWBPPNQCUX,161201.0,20:18:16.586,L,109.4,RL,492.2,421.9
ZWBPPNQCUX,161201.0,20:18:17.039,R,70.3,LR,492.2,382.8
ZWBPPNQCUX,161201.0,20:22:20.625,R,109.4,LR,375.0,234.4
ZWBPPNQCUX,161201.0,20:24:08.000,R,140.6,LR,421.9,281.3
ZWBPPNQCUX,161201.0,20:46:16.070,L,78.1,LL,218.8,125.0
ZWBPPNQCUX,161202.0,11:18:12.383,L,113.3,LL,367.2,261.7
ZWBPPNQCUX,161203.0,09:35:31.352,L,109.4,LL,484.4,343.8
ZWBPPNQCUX,161203.0,11:31:38.957,L,109.4,LL,296.9,187.5
ZWBPPNQCUX,161203.0,11:31:59.086,L,109.4,RL,468.8,359.4
ZWBPPNQCUX,161203.0,11:31:59.461,L,78.1,LL,406.3,296.9
ZWBPPNQCUX,161203.0,11:33:10.246,L,156.3,RL,468.8,406.3
ZWBPPNQCUX,161203.0,11:33:10.574,L,93.8,LL,390.6,234.4
ZWBPPNQCUX,161203.0,11:33:10.809,L,109.4,LL,218.8,125.0
ZWBPPNQCUX,161203.0,11:33:11.277,L,105.5,LL,472.7,363.3
ZWBPPNQCUX,161203.0,11:35:27.148,L,93.8,LL,359.4,250.0
ZWBPPNQCUX,161203.0,11:36:20.902,L,140.6,LL,234.4,171.9
ZWBPPNQCUX,161203.0,11:36:21.152,L,171.9,LL,218.8,78.1
ZWBPPNQCUX,161203.0,11:36:21.434,L,140.6,LL,312.5,140.6
ZWBPPNQCUX,161203.0,11:36:32.297,L,78.1,LL,285.2,171.9
ZWBPPNQCUX,161203.0,11:36:32.594,L,113.3,LL,261.7,183.6
ZWBPPNQCUX,161203.0,11:36:35.027,L,78.1,LL,250.0,171.9
ZWBPPNQCUX,161203.0,11:36:52.297,L,140.6,RL,468.8,390.6
ZWBPPNQCUX,161203.0,11:36:52.625,L,78.1,LL,390.6,250.0
ZWBPPNQCUX,161203.0,11:36:52.875,L,109.4,LL,218.8,140.6
ZWBPPNQCUX,161203.0,11:36:53.219,L,78.1,LL,375.0,265.6
ZWBPPNQCUX,161203.0,11:37:33.156,R,109.4,RR,359.4,281.3
ZWBPPNQCUX,161203.0,11:37:44.535,L,74.2,LL,222.7,144.5
ZWBPPNQCUX,161203.0,11:37:57.715,R,109.4,RR,265.6,187.5
ZWBPPNQCUX,161203.0,11:40:14.848,L,109.4,LL,406.3,281.3
ZWBPPNQCUX,161203.0,11:40:23.633,L,62.5,LL,453.1,312.5
ZWBPPNQCUX,161203.0,11:40:52.426,R,156.3,LR,437.5,328.1
ZWBPPNQCUX,161203.0,11:40:52.676,L,109.4,RL,296.9,140.6
ZWBPPNQCUX,161203.0,11:41:06.953,L,62.5,RL,484.4,375.0
ZWBPPNQCUX,161203.0,11:41:35.590,R,66.4,RR,293.0,203.1
ZWBPPNQCUX,161203.0,11:42:19.977,L,160.2,LL,250.0,136.7
ZWBPPNQCUX,161203.0,11:42:20.148,L,78.1,LL,238.3,78.1
ZWBPPNQCUX,161203.0,11:42:20.430,L,144.5,LL,230.5,152.3
ZWBPPNQCUX,161203.0,11:42:20.680,L,93.8,LL,300.8,156.3
ZWBPPNQCUX,161203.0,11:42:20.863,L,78.1,LL,199.2,105.5
ZWBPPNQCUX,161203.0,11:42:22.930,L,109.4,LL,328.1,234.4
ZWBPPNQCUX,161203.0,11:42:23.195,L,140.6,LL,234.4,125.0
ZWBPPNQCUX,161203.0,11:42:33.184,L,62.5,LL,296.9,140.6
ZWBPPNQCUX,161203.0,11:42:47.676,L,125.0,LL,234.4,171.9
ZWBPPNQCUX,161203.0,11:42:47.910,L,78.1,LL,281.3,156.3
ZWBPPNQCUX,161203.0,11:42:48.223,L,140.6,LL,250.0,171.9
ZWBPPNQCUX,161203.0,11:42:48.488,L,109.4,LL,296.9,156.3
ZWBPPNQCUX,161203.0,11:42:48.707,L,78.1,LL,250.0,140.6
ZWBPPNQCUX,161203.0,11:42:50.348,L,109.4,RL,437.5,359.4
ZWBPPNQCUX,161203.0,11:42:50.691,L,78.1,LL,375.0,265.6
ZWBPPNQCUX,161203.0,11:42:50.973,L,156.3,LL,203.1,125.0
ZWBPPNQCUX,161203.0,11:43:01.355,L,78.1,LL,234.4,140.6
ZWBPPNQCUX,161203.0,12:02:42.238,R,109.4,LR,453.1,343.8
ZWBPPNQCUX,161203.0,12:46:44.465,R,78.1,RR,421.9,343.8
ZWBPPNQCUX,161203.0,12:53:00.340,R,113.3,LR,441.4,320.3
ZWBPPNQCUX,161203.0,12:53:06.047,R,101.6,LR,316.4,214.8
ZWBPPNQCUX,161203.0,12:53:30.426,R,70.3,RR,82.0,15.6
ZWBPPNQCUX,161203.0,16:01:37.582,L,109.4,RL,453.1,390.6
ZWBPPNQCUX,161203.0,16:01:39.379,R,171.9,RR,343.8,203.1
ZWBPPNQCUX,161203.0,16:01:57.602,R,93.8,RR,343.8,234.4
ZWBPPNQCUX,161203.0,16:02:00.930,L,78.1,LL,328.1,187.5
ZWBPPNQCUX,161203.0,16:02:01.242,L,78.1,LL,312.5,234.4
ZWBPPNQCUX,161203.0,16:02:34.652,R,109.4,RR,343.8,265.6
ZWBPPNQCUX,161203.0,16:03:00.504,L,62.5,LL,468.8,390.6
ZWBPPNQCUX,161203.0,16:41:34.023,R,140.6,RR,328.1,218.8
ZWBPPNQCUX,161203.0,16:41:49.496,L,140.6,LL,281.3,187.5
ZWBPPNQCUX,161203.0,16:41:49.762,L,109.4,LL,296.9,156.3
ZWBPPNQCUX,161203.0,16:42:34.867,L,109.4,LL,390.6,296.9
ZWBPPNQCUX,161203.0,16:42:53.719,L,78.1,LL,453.1,359.4
ZWBPPNQCUX,161205.0,17:54:12.816,L,109.4,RL,453.1,359.4
ZWBPPNQCUX,161205.0,17:58:35.664,R,78.1,LR,406.3,296.9
ZWBPPNQCUX,161205.0,18:11:43.051,R,101.6,LR,363.3,230.5
ZWBPPNQCUX,161205.0,18:12:58.062,R,101.6,RR,328.1,195.3
ZWBPPNQCUX,161205.0,18:13:00.711,L,140.6,LL,234.4,117.2
ZWBPPNQCUX,161206.0,09:25:27.059,L,78.1,LL,421.9,359.4
ZWBPPNQCUX,161206.0,09:25:54.125,L,140.6,LL,484.4,375.0
ZWBPPNQCUX,161206.0,09:26:09.395,L,125.0,LL,265.6,140.6
ZWBPPNQCUX,161206.0,09:26:09.645,L,78.1,LL,296.9,171.9
ZWBPPNQCUX,161206.0,09:26:09.926,L,125.0,LL,234.4,156.3
ZWBPPNQCUX,161206.0,09:26:10.238,L,125.0,LL,312.5,187.5
ZWBPPNQCUX,161206.0,09:26:10.473,L,109.4,LL,250.0,125.0
ZWBPPNQCUX,161206.0,09:26:12.785,L,62.5,LL,406.3,328.1
ZWBPPNQCUX,161206.0,09:26:13.066,L,125.0,LL,218.8,156.3
ZWBPPNQCUX,161206.0,09:26:23.023,L,93.8,LL,250.0,191.4
ZWBPPNQCUX,161206.0,09:29:35.617,L,109.4,LL,343.8,250.0
ZWBPPNQCUX,161206.0,09:29:35.992,L,93.8,LL,390.6,281.3
ZWBPPNQCUX,161206.0,09:29:36.898,L,109.4,LL,375.0,265.6
ZWBPPNQCUX,161206.0,09:29:37.242,L,109.4,LL,343.8,234.4
ZWBPPNQCUX,161206.0,09:29:39.711,L,78.1,LL,421.9,281.3
ZWBPPNQCUX,161206.0,09:29:39.977,L,109.4,LL,234.4,156.3
ZWBPPNQCUX,161206.0,09:29:40.336,L,78.1,LL,390.6,281.3
ZWBPPNQCUX,161206.0,09:29:48.914,L,109.4,LL,234.4,187.5
ZWBPPNQCUX,161206.0,09:31:09.820,L,109.4,LL,312.5,234.4
ZWBPPNQCUX,161206.0,09:31:10.180,L,109.4,LL,359.4,250.0
ZWBPPNQCUX,161206.0,09:31:14.664,L,93.8,LL,281.3,171.9
ZWBPPNQCUX,161206.0,09:31:17.055,L,78.1,LL,484.4,375.0
ZWBPPNQCUX,161206.0,09:31:32.543,L,109.4,LL,343.8,234.4
ZWBPPNQCUX,161206.0,09:31:49.273,L,140.6,LL,156.3,78.1
ZWBPPNQCUX,161206.0,09:31:49.633,L,140.6,LL,359.4,218.8
ZWBPPNQCUX,161206.0,09:35:24.773,L,113.3,LL,250.0,183.6
ZWBPPNQCUX,161206.0,09:35:25.066,L,125.0,LL,281.3,168.0
ZWBPPNQCUX,161206.0,09:35:25.383,L,156.3,LL,285.2,160.2
ZWBPPNQCUX,161206.0,09:35:25.664,L,109.4,LL,328.1,171.9
ZWBPPNQCUX,161206.0,09:35:25.992,L,156.3,LL,281.3,171.9
ZWBPPNQCUX,161206.0,09:35:28.305,L,62.5,LL,421.9,296.9
ZWBPPNQCUX,161206.0,09:35:28.773,L,125.0,LL,406.3,343.8
ZWBPPNQCUX,161206.0,09:35:37.559,L,125.0,LL,347.7,207.0
ZWBPPNQCUX,161206.0,09:40:39.211,L,125.0,LL,265.6,156.3
ZWBPPNQCUX,161206.0,09:40:39.477,L,109.4,LL,281.3,156.3
ZWBPPNQCUX,161206.0,09:40:39.867,L,109.4,LL,390.6,281.3
ZWBPPNQCUX,161206.0,09:40:40.164,L,109.4,LL,296.9,187.5
ZWBPPNQCUX,161206.0,09:40:40.414,L,109.4,LL,250.0,140.6
ZWBPPNQCUX,161206.0,09:40:42.727,L,78.1,LL,453.1,343.8
ZWBPPNQCUX,161206.0,09:40:43.008,L,109.4,LL,250.0,171.9
ZWBPPNQCUX,161206.0,09:40:53.156,L,109.4,LL,234.4,125.0
ZWBPPNQCUX,161206.0,09:41:53.184,L,109.4,LL,312.5,218.8
ZWBPPNQCUX,161206.0,09:41:53.449,L,78.1,LL,296.9,187.5
ZWBPPNQCUX,161206.0,09:41:53.840,L,125.0,LL,343.8,265.6
ZWBPPNQCUX,161206.0,09:41:54.137,L,109.4,LL,312.5,187.5
ZWBPPNQCUX,161206.0,09:41:54.402,L,109.4,LL,265.6,156.3
ZWBPPNQCUX,161206.0,09:41:56.871,L,78.1,LL,406.3,296.9
ZWBPPNQCUX,161206.0,09:41:57.387,L,140.6,LL,453.1,375.0
ZWBPPNQCUX,161206.0,09:48:11.891,L,109.4,LL,250.0,140.6
ZWBPPNQCUX,161206.0,09:48:12.156,L,125.0,LL,250.0,140.6
ZWBPPNQCUX,161206.0,09:48:12.594,L,125.0,LL,437.5,312.5
ZWBPPNQCUX,161206.0,09:48:12.891,L,125.0,LL,296.9,171.9
ZWBPPNQCUX,161206.0,09:48:13.094,L,78.1,LL,250.0,125.0
ZWBPPNQCUX,161206.0,09:48:15.188,L,125.0,LL,453.1,296.9
ZWBPPNQCUX,161206.0,09:48:15.453,L,109.4,LL,281.3,156.3
ZWBPPNQCUX,161206.0,09:48:15.844,L,109.4,LL,390.6,281.3
ZWBPPNQCUX,161206.0,09:48:24.762,L,109.4,LL,343.8,234.4
ZWBPPNQCUX,161206.0,09:48:33.609,L,62.5,LL,484.4,375.0
ZWBPPNQCUX,161206.0,09:51:46.992,L,93.8,LL,296.9,140.6
ZWBPPNQCUX,161206.0,09:51:47.242,L,109.4,LL,234.4,140.6
ZWBPPNQCUX,161206.0,09:51:47.512,L,125.0,LL,253.9,144.5
ZWBPPNQCUX,161206.0,09:51:47.762,L,78.1,LL,296.9,171.9
ZWBPPNQCUX,161206.0,09:51:47.996,L,78.1,LL,234.4,156.3
ZWBPPNQCUX,161206.0,09:51:49.996,L,78.1,LL,343.8,234.4
ZWBPPNQCUX,161206.0,09:51:50.293,L,140.6,LL,234.4,156.3
ZWBPPNQCUX,161206.0,09:51:50.543,L,78.1,LL,312.5,171.9
ZWBPPNQCUX,161206.0,09:51:58.848,L,109.4,LL,265.6,203.1
ZWBPPNQCUX,161206.0,09:51:59.098,L,109.4,LL,250.0,140.6
ZWBPPNQCUX,161206.0,10:34:42.090,L,109.4,LL,265.6,140.6
ZWBPPNQCUX,161206.0,10:34:42.324,L,109.4,LL,234.4,125.0
ZWBPPNQCUX,161206.0,10:34:42.590,L,109.4,LL,265.6,156.3
ZWBPPNQCUX,161206.0,10:34:42.887,L,125.0,LL,281.3,171.9
ZWBPPNQCUX,161206.0,10:34:43.105,L,78.1,LL,265.6,140.6
ZWBPPNQCUX,161206.0,10:34:45.168,L,109.4,LL,390.6,312.5
ZWBPPNQCUX,161206.0,10:34:45.449,L,140.6,LL,250.0,140.6
ZWBPPNQCUX,161206.0,10:34:45.777,L,125.0,LL,343.8,203.1
ZWBPPNQCUX,161206.0,10:34:55.895,L,93.8,LL,312.5,187.5
ZWBPPNQCUX,161206.0,10:35:05.293,L,109.4,LL,375.0,312.5
ZWBPPNQCUX,161206.0,11:47:01.031,L,117.2,LL,269.5,125.0
ZWBPPNQCUX,161206.0,11:47:03.699,L,78.1,LL,398.4,285.2
ZWBPPNQCUX,161206.0,11:47:04.020,L,152.3,LL,246.1,168.0
ZWBPPNQCUX,161206.0,11:49:38.992,L,101.6,LL,398.4,269.5
ZWBPPNQCUX,161206.0,11:49:39.324,L,152.3,LL,281.3,179.7
ZWBPPNQCUX,161207.0,10:06:24.441,R,62.5,LR,281.3,171.9
ZWBPPNQCUX,161207.0,10:08:51.574,R,93.8,RR,406.3,328.1
ZWBPPNQCUX,161207.0,10:08:52.027,R,105.5,RR,441.4,347.7
ZWBPPNQCUX,161207.0,10:08:59.656,L,140.6,LL,250.0,171.9
ZWBPPNQCUX,161207.0,10:09:02.469,L,46.9,LL,406.3,312.5
ZWBPPNQCUX,161207.0,10:09:02.797,L,171.9,LL,203.1,156.3
ZWBPPNQCUX,161207.0,10:11:58.438,L,187.5,LL,250.0,171.9
ZWBPPNQCUX,161207.0,10:11:58.625,L,109.4,LL,265.6,78.1
ZWBPPNQCUX,161207.0,10:11:58.875,L,109.4,LL,250.0,140.6
ZWBPPNQCUX,161207.0,10:11:59.172,L,109.4,LL,296.9,187.5
ZWBPPNQCUX,161207.0,10:11:59.375,L,93.8,LL,218.8,109.4
ZWBPPNQCUX,161207.0,10:12:01.348,L,62.5,LL,375.0,265.6
ZWBPPNQCUX,161207.0,10:12:01.629,L,109.4,LL,234.4,171.9
ZWBPPNQCUX,161207.0,10:12:11.461,L,93.8,LL,265.6,156.3
ZWBPPNQCUX,161207.0,10:13:07.363,R,93.8,RR,312.5,250.0
ZWBPPNQCUX,161207.0,10:13:07.848,R,125.0,RR,453.1,359.4
ZWBPPNQCUX,161207.0,10:13:08.285,R,78.1,RR,484.4,359.4
ZWBPPNQCUX,161207.0,10:13:14.004,L,109.4,LL,250.0,125.0
ZWBPPNQCUX,161207.0,10:13:16.035,L,93.8,LL,375.0,218.8
ZWBPPNQCUX,161207.0,10:13:16.273,L,109.4,LL,222.7,128.9
ZWBPPNQCUX,161207.0,12:13:00.832,L,62.5,LL,218.8,156.3
ZWBPPNQCUX,161207.0,12:13:28.820,R,78.1,RR,328.1,218.8
ZWBPPNQCUX,161207.0,12:13:38.480,L,78.1,LL,300.8,175.8
ZWBPPNQCUX,161207.0,12:20:43.785,L,105.5,LL,316.4,171.9
ZWBPPNQCUX,161207.0,12:21:02.531,R,109.4,RR,265.6,156.3
ZWBPPNQCUX,161207.0,12:21:22.684,R,78.1,RR,453.1,328.1
ZWBPPNQCUX,161207.0,12:21:34.441,R,78.1,LR,406.3,265.6
ZWBPPNQCUX,161207.0,12:22:08.762,L,125.0,LL,421.9,343.8
ZWBPPNQCUX,161207.0,18:45:59.688,L,93.8,LL,476.6,367.2
ZWBPPNQCUX,161208.0,07:50:03.486,L,109.4,RL,484.4,406.3
ZWBPPNQCUX,161208.0,08:09:43.168,L,78.1,LL,421.9,312.5
ZWBPPNQCUX,161208.0,08:09:43.465,L,125.0,LL,250.0,171.9
ZWBPPNQCUX,161208.0,08:53:35.162,L,78.1,LL,421.9,281.3
ZWBPPNQCUX,161208.0,08:53:35.428,L,109.4,LL,234.4,156.3
ZWBPPNQCUX,161208.0,08:55:23.824,L,78.1,LL,375.0,279.3
ZWBPPNQCUX,161208.0,08:55:24.152,L,138.7,LL,267.6,189.5
ZWBPPNQCUX,161208.0,09:13:15.789,R,62.5,LR,484.4,390.6
ZWBPPNQCUX,161208.0,09:49:38.836,L,78.1,LL,421.9,312.5
ZWBPPNQCUX,161208.0,09:49:47.840,L,109.4,LL,484.4,406.3
ZWBPPNQCUX,161208.0,09:49:53.715,L,78.1,LL,421.9,312.5
ZWBPPNQCUX,161208.0,09:49:53.996,L,93.8,LL,265.6,187.5
ZWBPPNQCUX,161209.0,09:54:29.441,L,62.5,LL,492.2,390.6
ZWBPPNQCUX,161209.0,09:54:29.957,L,109.4,LL,468.8,406.3
ZWBPPNQCUX,161209.0,10:16:20.266,R,66.4,LR,468.8,355.5
ZWBPPNQCUX,161209.0,10:16:20.547,L,50.8,RL,296.9,230.5
ZWBPPNQCUX,161209.0,10:17:12.156,L,109.4,LL,375.0,265.6
ZWBPPNQCUX,161209.0,10:17:36.520,R,93.8,LR,484.4,390.6
ZWBPPNQCUX,161209.0,10:40:30.492,L,78.1,RL,468.8,359.4
ZWBPPNQCUX,161209.0,11:23:14.105,L,140.6,LL,281.3,140.6
ZWBPPNQCUX,161209.0,11:23:14.387,L,125.0,LL,296.9,156.3
ZWBPPNQCUX,161209.0,17:30:05.121,R,78.1,RR,484.4,371.1
ZWBPPNQCUX,161210.0,17:01:34.410,R,109.4,RR,156.3,93.8
ZWBPPNQCUX,161210.0,17:01:52.551,R,62.5,RR,218.8,156.3
ZWBPPNQCUX,161210.0,17:02:10.637,R,109.4,RR,328.1,218.8
ZWBPPNQCUX,161211.0,13:44:42.848,L,125.0,LL,453.1,343.8
ZWBPPNQCUX,161211.0,13:44:51.754,R,156.3,RR,62.5,11.7
ZWBPPNQCUX,161211.0,13:57:27.273,L,78.1,LL,406.3,296.9
ZWBPPNQCUX,161211.0,18:33:43.148,L,78.1,LL,328.1,250.0
ZWBPPNQCUX,161211.0,18:34:05.727,R,54.7,RR,242.2,179.7
ZWBPPNQCUX,161212.0,09:25:27.492,L,132.8,RL,386.7,269.5
ZWBPPNQCUX,161212.0,15:46:07.809,L,109.4,LL,312.5,203.1
ZWBPPNQCUX,161212.0,15:46:08.230,L,78.1,LL,453.1,343.8
ZWBPPNQCUX,161212.0,15:52:36.766,R,78.1,LR,375.0,265.6
ZWBPPNQCUX,161212.0,15:52:37.016,L,46.9,RL,281.3,203.1
ZWBPPNQCUX,161212.0,16:12:04.602,R,93.8,LR,421.9,281.3
ZWBPPNQCUX,161212.0,16:12:04.910,L,74.2,RL,328.1,234.4
ZWBPPNQCUX,161212.0,16:12:05.387,L,93.8,LL,457.0,382.8
ZWBPPNQCUX,161214.0,09:15:25.684,R,74.2,LR,371.1,257.8
ZWBPPNQCUX,161214.0,09:15:26.121,L,109.4,RL,402.3,328.1
ZWBPPNQCUX,161214.0,13:06:38.219,R,121.1,LR,250.0,148.4
ZWBPPNQCUX,161214.0,13:06:38.465,L,101.6,RL,265.6,144.5
ZWBPPNQCUX,161214.0,15:18:51.242,R,82.0,RR,433.6,324.2
ZWBPPNQCUX,161214.0,15:18:52.508,L,109.4,LL,453.1,312.5
ZWBPPNQCUX,161214.0,15:18:52.711,L,109.4,LL,203.1,93.8
ZWBPPNQCUX,161214.0,15:19:07.164,L,78.1,LL,437.5,328.1
ZWBPPNQCUX,161214.0,15:20:13.695,R,82.0,LR,433.6,293.0
ZWBPPNQCUX,161214.0,15:20:13.977,L,113.3,RL,250.0,168.0
ZWBPPNQCUX,161215.0,08:37:30.945,L,109.4,LL,328.1,265.6
ZWBPPNQCUX,161215.0,08:37:31.305,L,109.4,LL,359.4,250.0
ZWBPPNQCUX,161215.0,08:37:31.727,L,78.1,LL,453.1,343.8
ZWBPPNQCUX,161215.0,08:48:01.449,L,109.4,LL,386.7,271.5
ZWBPPNQCUX,161215.0,08:48:04.240,R,101.6,RR,253.9,138.7
ZWBPPNQCUX,161215.0,08:48:30.111,L,87.9,LL,394.5,312.5
ZWBPPNQCUX,161215.0,09:12:36.492,R,66.4,LR,445.3,328.1
ZWBPPNQCUX,161215.0,19:10:01.117,L,78.1,LL,351.6,265.6
ZWBPPNQCUX,161215.0,19:10:07.906,L,85.9,LL,85.9,15.6
ZWBPPNQCUX,161215.0,19:10:33.797,L,125.0,LL,226.6,148.4
ZWBPPNQCUX,161215.0,19:16:48.844,L,85.9,LL,484.4,414.1
ZWBPPNQCUX,161215.0,19:16:49.297,L,101.6,LL,437.5,351.6
ZWBPPNQCUX,161215.0,19:18:45.812,L,85.9,LL,218.8,140.6
ZWBPPNQCUX,161215.0,19:18:46.008,L,62.5,LL,218.8,132.8
ZWBPPNQCUX,161215.0,19:18:53.047,L,70.3,LL,304.7,218.8
ZWBPPNQCUX,161215.0,19:20:48.906,L,85.9,LL,429.7,328.1
ZWBPPNQCUX,161215.0,19:23:54.289,R,101.6,LR,421.9,359.4
ZWBPPNQCUX,161216.0,09:06:38.082,R,132.8,LR,437.5,320.3
ZWBPPNQCUX,161216.0,10:44:12.973,L,70.3,LL,398.4,300.8
ZWBPPNQCUX,161217.0,16:20:28.191,L,101.6,LL,484.4,398.4
ZWBPPNQCUX,161217.0,16:20:30.797,L,101.6,LL,285.2,214.8
ZWBPPNQCUX,161217.0,16:34:10.551,L,136.7,LL,488.3,418.0
ZWBPPNQCUX,161217.0,16:34:13.258,L,121.1,LL,300.8,179.7
ZWBPPNQCUX,161217.0,16:34:45.746,L,152.3,LL,351.6,250.0
ZWBPPNQCUX,161219.0,19:55:16.875,R,62.5,LR,390.6,234.4
ZWBPPNQCUX,161219.0,19:55:17.188,L,140.6,RL,234.4,171.9
ZWBPPNQCUX,161219.0,19:58:56.641,L,109.4,RL,437.5,343.8
ZWBPPNQCUX,161220.0,08:50:07.314,L,140.6,LL,359.4,203.1
ZWBPPNQCUX,161220.0,08:50:15.570,L,78.1,LL,234.4,156.3
ZWBPPNQCUX,161220.0,08:50:18.012,R,64.5,RR,232.4,154.3
ZWBPPNQCUX,161220.0,08:50:44.016,L,156.3,LL,343.8,218.8
ZWBPPNQCUX,161220.0,08:50:44.328,L,109.4,LL,359.4,203.1
ZWBPPNQCUX,161220.0,08:50:58.654,R,109.4,RR,343.8,203.1
ZWBPPNQCUX,161220.0,08:51:49.197,L,169.9,LL,408.2,218.8
ZWBPPNQCUX,161220.0,08:51:49.590,L,109.4,LL,453.1,283.2
ZWBPPNQCUX,161220.0,08:52:19.268,R,111.3,RR,388.7,279.3
ZWBPPNQCUX,161220.0,08:53:37.459,L,140.6,LL,359.4,265.6
ZWBPPNQCUX,161220.0,08:53:37.740,L,125.0,LL,296.9,156.3
ZWBPPNQCUX,161220.0,08:54:01.201,L,125.0,LL,404.3,310.5
ZWBPPNQCUX,161220.0,08:56:56.457,L,60.5,LL,250.0,171.9
ZWBPPNQCUX,161220.0,08:59:07.924,L,111.3,LL,250.0,171.9
ZWBPPNQCUX,161220.0,08:59:08.174,L,78.1,LL,283.2,171.9
ZWBPPNQCUX,161220.0,08:59:08.627,L,78.1,LL,453.1,375.0
ZWBPPNQCUX,161220.0,08:59:10.438,L,78.1,LL,263.7,203.1
ZWBPPNQCUX,161220.0,08:59:12.223,L,62.5,LL,359.4,250.0
ZWBPPNQCUX,161220.0,08:59:12.457,L,109.4,LL,187.5,125.0
ZWBPPNQCUX,161220.0,08:59:12.770,L,78.1,LL,343.8,234.4
ZWBPPNQCUX,161220.0,08:59:29.490,L,109.4,LL,265.6,187.5
ZWBPPNQCUX,161220.0,08:59:29.756,L,109.4,LL,265.6,156.3
ZWBPPNQCUX,161220.0,08:59:30.037,L,109.4,LL,281.3,171.9
ZWBPPNQCUX,161220.0,08:59:30.459,L,109.4,LL,421.9,312.5
ZWBPPNQCUX,161220.0,08:59:30.693,L,78.1,LL,265.6,156.3
ZWBPPNQCUX,161220.0,08:59:32.338,L,142.6,RL,468.8,390.6
ZWBPPNQCUX,161220.0,08:59:32.695,L,93.8,LL,406.3,263.7
ZWBPPNQCUX,161220.0,08:59:32.977,L,109.4,LL,265.6,171.9
ZWBPPNQCUX,161220.0,08:59:33.338,L,125.0,LL,345.7,236.3
ZWBPPNQCUX,161220.0,08:59:41.311,L,91.8,LL,267.6,171.9
ZWBPPNQCUX,161220.0,08:59:41.529,L,78.1,LL,232.4,140.6
ZWBPPNQCUX,161220.0,08:59:41.811,L,109.4,LL,250.0,171.9
ZWBPPNQCUX,161220.0,08:59:42.109,L,111.3,LL,296.9,187.5
ZWBPPNQCUX,161220.0,08:59:42.326,L,60.5,LL,267.6,156.3
ZWBPPNQCUX,161220.0,08:59:44.719,L,125.0,LL,375.0,265.6
ZWBPPNQCUX,161220.0,08:59:44.984,L,140.6,LL,250.0,125.0
ZWBPPNQCUX,161220.0,08:59:54.109,L,62.5,LL,250.0,187.5
ZWBPPNQCUX,161220.0,09:00:42.568,L,125.0,LL,250.0,140.6
ZWBPPNQCUX,161220.0,09:00:42.787,L,93.8,LL,250.0,125.0
ZWBPPNQCUX,161220.0,09:00:43.084,L,156.3,LL,234.4,140.6
ZWBPPNQCUX,161220.0,09:00:43.318,L,109.4,LL,281.3,125.0
ZWBPPNQCUX,161220.0,09:00:43.568,L,109.4,LL,250.0,140.6
ZWBPPNQCUX,161220.0,09:00:45.023,L,111.3,RL,451.2,375.0
ZWBPPNQCUX,161220.0,09:00:45.336,L,78.1,LL,345.7,234.4
ZWBPPNQCUX,161220.0,09:00:45.602,L,140.6,LL,203.1,125.0
ZWBPPNQCUX,161220.0,09:00:45.961,L,109.4,LL,390.6,250.0
ZWBPPNQCUX,161220.0,09:01:12.133,L,109.4,LL,423.8,314.5
ZWBPPNQCUX,161220.0,09:01:12.461,L,93.8,LL,343.8,234.4
ZWBPPNQCUX,161220.0,09:02:39.482,L,93.8,LL,390.6,312.5
ZWBPPNQCUX,161220.0,09:02:39.936,L,93.8,LL,453.1,359.4
ZWBPPNQCUX,161220.0,09:02:42.156,L,60.5,LL,283.2,171.9
ZWBPPNQCUX,161220.0,09:02:44.770,L,78.1,LL,421.9,296.9
ZWBPPNQCUX,161220.0,09:02:45.055,L,144.5,LL,218.8,140.6
ZWBPPNQCUX,161220.0,09:06:36.738,L,125.0,LL,250.0,156.3
ZWBPPNQCUX,161220.0,09:06:36.926,L,78.1,LL,234.4,109.4
ZWBPPNQCUX,161220.0,09:06:37.238,L,109.4,LL,281.3,203.1
ZWBPPNQCUX,161220.0,09:06:37.551,L,109.4,LL,312.5,203.1
ZWBPPNQCUX,161220.0,09:06:37.754,L,78.1,LL,234.4,125.0
ZWBPPNQCUX,161220.0,09:06:40.008,L,62.5,LL,375.0,296.9
ZWBPPNQCUX,161220.0,09:06:40.258,L,109.4,LL,203.1,140.6
ZWBPPNQCUX,161220.0,09:11:10.227,L,125.0,LL,281.3,125.0
ZWBPPNQCUX,161220.0,09:11:10.461,L,62.5,LL,296.9,171.9
ZWBPPNQCUX,161220.0,09:12:14.609,L,109.4,LL,359.4,250.0
ZWBPPNQCUX,161220.0,09:12:15.000,L,125.0,LL,375.0,265.6
ZWBPPNQCUX,161220.0,09:12:54.625,L,78.1,LL,250.0,171.9
ZWBPPNQCUX,161220.0,09:12:56.906,R,105.5,RR,285.2,171.9
ZWBPPNQCUX,161220.0,09:22:11.938,L,109.4,LL,343.8,234.4
ZWBPPNQCUX,161220.0,10:02:57.070,L,156.3,LL,355.5,250.0
ZWBPPNQCUX,161220.0,10:02:57.387,L,113.3,LL,359.4,203.1
ZWBPPNQCUX,161220.0,10:03:00.691,R,78.1,RR,453.1,390.6
ZWBPPNQCUX,161220.0,10:03:03.617,L,78.1,LL,203.1,125.0
ZWBPPNQCUX,161220.0,10:03:06.023,R,109.4,RR,281.3,171.9
ZWBPPNQCUX,161220.0,10:11:19.648,L,109.4,LL,359.4,250.0
ZWBPPNQCUX,161220.0,10:11:20.102,L,109.4,LL,453.1,343.8
ZWBPPNQCUX,161220.0,10:12:19.805,R,62.5,RR,437.5,375.0
ZWBPPNQCUX,161220.0,10:12:20.273,R,62.5,RR,468.8,406.3
ZWBPPNQCUX,161220.0,10:13:01.941,L,109.4,LL,250.0,171.9
ZWBPPNQCUX,161220.0,10:13:03.879,L,78.1,LL,375.0,265.6
ZWBPPNQCUX,161220.0,10:13:04.145,L,109.4,LL,234.4,156.3
ZWBPPNQCUX,161220.0,10:13:31.766,L,78.1,LL,238.3,125.0
ZWBPPNQCUX,161220.0,10:13:32.016,L,78.1,LL,250.0,171.9
ZWBPPNQCUX,161220.0,10:13:32.234,L,82.0,LL,214.8,136.7
ZWBPPNQCUX,161220.0,10:13:32.484,L,82.0,LL,250.0,168.0
ZWBPPNQCUX,161220.0,10:13:32.719,L,109.4,LL,207.0,125.0
ZWBPPNQCUX,161220.0,10:14:12.590,L,125.0,LL,203.1,140.6
ZWBPPNQCUX,161220.0,10:14:12.824,L,78.1,LL,281.3,156.3
ZWBPPNQCUX,161220.0,10:14:13.043,L,125.0,LL,171.9,93.8
ZWBPPNQCUX,161220.0,10:14:13.309,L,93.8,LL,296.9,171.9
ZWBPPNQCUX,161220.0,10:14:13.543,L,62.5,LL,265.6,171.9
ZWBPPNQCUX,161220.0,10:14:15.715,L,62.5,LL,375.0,296.9
ZWBPPNQCUX,161220.0,10:14:15.934,L,93.8,LL,187.5,125.0
ZWBPPNQCUX,161220.0,10:14:25.629,L,78.1,LL,234.4,171.9
ZWBPPNQCUX,161220.0,10:16:07.863,L,109.4,LL,250.0,140.6
ZWBPPNQCUX,161220.0,10:16:08.082,L,78.1,LL,250.0,140.6
ZWBPPNQCUX,161220.0,10:16:08.316,L,78.1,LL,234.4,156.3
ZWBPPNQCUX,161220.0,10:16:08.582,L,78.1,LL,265.6,187.5
ZWBPPNQCUX,161220.0,10:16:08.848,L,78.1,LL,265.6,187.5
ZWBPPNQCUX,161220.0,10:16:10.973,L,78.1,LL,359.4,281.3
ZWBPPNQCUX,161220.0,10:16:11.191,L,78.1,LL,218.8,140.6
ZWBPPNQCUX,161220.0,10:16:11.535,L,78.1,LL,343.8,265.6
ZWBPPNQCUX,161220.0,10:16:19.367,L,78.1,LL,218.8,156.3
ZWBPPNQCUX,161220.0,10:16:21.430,R,109.4,RR,453.1,375.0
ZWBPPNQCUX,161220.0,10:17:23.984,L,58.6,LL,238.3,125.0
ZWBPPNQCUX,161220.0,10:17:24.223,L,78.1,LL,218.8,160.2
ZWBPPNQCUX,161220.0,10:17:24.438,L,78.1,LL,214.8,136.7
ZWBPPNQCUX,161220.0,10:17:24.688,L,78.1,LL,250.0,171.9
ZWBPPNQCUX,161220.0,10:17:24.859,L,58.6,LL,191.4,113.3
ZWBPPNQCUX,161220.0,10:17:26.801,L,97.7,LL,375.0,277.3
ZWBPPNQCUX,161220.0,10:17:27.020,L,113.3,LL,203.1,105.5
ZWBPPNQCUX,161220.0,10:17:27.301,L,78.1,LL,316.4,203.1
ZWBPPNQCUX,161220.0,10:17:39.270,L,125.0,LL,281.3,187.5
ZWBPPNQCUX,161220.0,10:24:14.504,L,78.1,LL,296.9,187.5
ZWBPPNQCUX,161220.0,10:24:14.941,L,125.0,LL,390.6,312.5
ZWBPPNQCUX,161220.0,10:24:31.012,L,113.3,LL,156.3,125.0
ZWBPPNQCUX,161220.0,10:24:36.438,R,113.3,RR,402.3,296.9
ZWBPPNQCUX,161220.0,10:25:18.824,R,62.5,RR,453.1,375.0
ZWBPPNQCUX,161220.0,10:25:52.430,L,109.4,LL,250.0,140.6
ZWBPPNQCUX,161220.0,10:25:52.633,L,62.5,LL,250.0,140.6
ZWBPPNQCUX,161220.0,10:25:52.930,L,109.4,LL,250.0,187.5
ZWBPPNQCUX,161220.0,10:25:53.164,L,78.1,LL,265.6,156.3
ZWBPPNQCUX,161220.0,10:25:53.367,L,78.1,LL,203.1,125.0
ZWBPPNQCUX,161220.0,10:25:55.633,L,46.9,LL,375.0,296.9
ZWBPPNQCUX,161220.0,10:25:55.867,L,46.9,LL,234.4,187.5
ZWBPPNQCUX,161220.0,10:26:06.137,L,78.1,LL,234.4,171.9
ZWBPPNQCUX,161220.0,10:28:48.770,R,78.1,RR,453.1,390.6
ZWBPPNQCUX,161220.0,10:28:49.238,R,62.5,RR,484.4,406.3
ZWBPPNQCUX,161220.0,10:29:23.125,R,78.1,RR,421.9,343.8
ZWBPPNQCUX,161220.0,10:29:23.609,R,78.1,RR,484.4,406.3
ZWBPPNQCUX,161220.0,10:29:37.070,R,93.8,RR,484.4,421.9
ZWBPPNQCUX,161220.0,10:30:10.484,L,78.1,LL,281.3,203.1
ZWBPPNQCUX,161220.0,10:30:23.988,R,62.5,RR,453.1,390.6
ZWBPPNQCUX,161220.0,10:36:51.016,L,62.5,LL,265.6,156.3
ZWBPPNQCUX,161220.0,10:38:27.566,L,78.1,LL,359.4,281.3
ZWBPPNQCUX,161220.0,10:38:27.848,L,78.1,LL,281.3,203.1
ZWBPPNQCUX,161220.0,10:38:36.770,L,62.5,LL,375.0,265.6
ZWBPPNQCUX,161220.0,10:38:37.035,L,62.5,LL,265.6,203.1
ZWBPPNQCUX,161220.0,10:39:20.703,L,93.8,LL,468.8,406.3
ZWBPPNQCUX,161220.0,10:41:11.348,L,82.0,LL,250.0,187.5
ZWBPPNQCUX,161220.0,10:41:34.199,L,62.5,LL,234.4,140.6
ZWBPPNQCUX,161220.0,10:47:32.504,L,125.0,LL,359.4,250.0
ZWBPPNQCUX,161220.0,10:47:32.988,L,125.0,LL,484.4,359.4
ZWBPPNQCUX,161220.0,10:47:33.379,L,78.1,LL,437.5,312.5
ZWBPPNQCUX,161220.0,11:00:00.867,L,109.4,LL,375.0,250.0
ZWBPPNQCUX,161220.0,11:00:01.117,L,109.4,LL,250.0,140.6
ZWBPPNQCUX,161220.0,14:43:25.043,L,105.5,LL,296.9,191.4
ZWBPPNQCUX,161220.0,14:43:36.137,L,113.3,LL,300.8,210.9
ZWBPPNQCUX,161220.0,14:44:02.328,L,113.3,LL,453.1,347.7
ZWBPPNQCUX,161220.0,14:44:02.602,L,109.4,LL,277.3,164.1
ZWBPPNQCUX,161220.0,14:44:02.871,L,109.4,LL,269.5,160.2
ZWBPPNQCUX,161220.0,14:48:08.500,L,109.4,LL,234.4,156.3
ZWBPPNQCUX,161220.0,14:48:29.551,L,109.4,LL,328.1,218.8
ZWBPPNQCUX,161220.0,14:48:29.926,L,78.1,LL,406.3,296.9
ZWBPPNQCUX,161220.0,15:14:49.578,L,109.4,LL,375.0,296.9
ZWBPPNQCUX,161222.0,07:48:14.727,L,109.4,LL,218.8,154.3
ZWBPPNQCUX,161222.0,12:05:31.266,R,93.8,RR,269.5,125.0
ZWBPPNQCUX,161222.0,12:34:46.941,L,113.3,LL,230.5,125.0
ZWBPPNQCUX,161222.0,12:34:47.176,L,109.4,LL,238.3,125.0
ZWBPPNQCUX,161222.0,12:34:47.426,L,144.5,LL,214.8,105.5
ZWBPPNQCUX,161222.0,12:34:47.691,L,125.0,LL,285.2,140.6
ZWBPPNQCUX,161222.0,12:34:47.906,L,125.0,LL,214.8,89.8
ZWBPPNQCUX,161222.0,12:34:49.957,L,125.0,LL,328.1,218.8
ZWBPPNQCUX,161222.0,12:34:50.207,L,109.4,LL,265.6,140.6
ZWBPPNQCUX,161222.0,12:35:00.316,L,187.5,LL,265.6,156.3
ZWBPPNQCUX,161222.0,12:35:07.008,L,113.3,LL,359.4,234.4
ZWBPPNQCUX,161222.0,12:35:08.820,R,82.0,RR,464.8,402.3
ZWBPPNQCUX,161222.0,12:35:20.820,L,105.5,LL,410.2,316.4
ZWBPPNQCUX,161222.0,12:35:21.215,L,109.4,LL,390.6,285.2
ZWBPPNQCUX,161222.0,12:39:50.141,L,156.3,LL,234.4,46.9
ZWBPPNQCUX,161222.0,12:39:50.328,L,109.4,LL,234.4,78.1
ZWBPPNQCUX,161222.0,12:39:50.594,L,140.6,LL,234.4,125.0
ZWBPPNQCUX,161222.0,12:39:50.859,L,109.4,LL,296.9,156.3
ZWBPPNQCUX,161222.0,12:39:51.047,L,78.1,LL,218.8,109.4
ZWBPPNQCUX,161222.0,12:39:56.734,L,78.1,LL,281.3,187.5
ZWBPPNQCUX,161222.0,12:39:56.984,L,78.1,LL,250.0,171.9
ZWBPPNQCUX,161222.0,12:39:57.266,L,125.0,LL,234.4,156.3
ZWBPPNQCUX,161222.0,12:39:57.516,L,93.8,LL,281.3,156.3
ZWBPPNQCUX,161222.0,12:39:57.719,L,78.1,LL,218.8,125.0
ZWBPPNQCUX,161222.0,12:39:59.812,L,78.1,LL,343.8,281.3
ZWBPPNQCUX,161222.0,12:40:00.125,L,140.6,LL,250.0,171.9
ZWBPPNQCUX,161222.0,12:40:11.113,L,125.0,LL,234.4,156.3
ZWBPPNQCUX,161222.0,12:40:29.445,L,93.8,LL,406.3,312.5
ZWBPPNQCUX,161222.0,12:41:13.738,L,109.4,LL,421.9,296.9
ZWBPPNQCUX,161222.0,12:41:14.176,L,125.0,LL,421.9,312.5
ZWBPPNQCUX,161222.0,12:41:15.160,L,125.0,LL,406.3,296.9
ZWBPPNQCUX,161222.0,12:41:15.551,L,78.1,LL,437.5,312.5
ZWBPPNQCUX,161222.0,12:41:17.707,L,125.0,LL,453.1,343.8
ZWBPPNQCUX,161222.0,12:41:18.051,L,156.3,LL,312.5,187.5
ZWBPPNQCUX,161222.0,12:41:32.258,L,62.5,LL,250.0,171.9
ZWBPPNQCUX,161222.0,12:41:58.797,L,78.1,LL,347.7,269.5
ZWBPPNQCUX,161222.0,12:42:32.621,L,74.2,LL,359.4,250.0
ZWBPPNQCUX,161222.0,12:42:32.824,L,78.1,LL,199.2,125.0
ZWBPPNQCUX,161222.0,12:45:19.207,L,140.6,LL,484.4,406.3
ZWBPPNQCUX,161222.0,19:09:14.422,R,93.8,RR,265.6,156.3
ZWBPPNQCUX,161222.0,19:09:39.000,L,78.1,LL,468.8,375.0
ZWBPPNQCUX,161222.0,19:09:41.625,L,109.4,LL,343.8,281.3
ZWBPPNQCUX,161222.0,19:09:41.906,L,125.0,LL,265.6,156.3
ZWBPPNQCUX,161222.0,19:10:07.820,L,78.1,LL,406.3,296.9
ZWBPPNQCUX,161222.0,19:10:09.672,L,109.4,LL,359.4,250.0
ZWBPPNQCUX,161222.0,19:10:16.109,L,78.1,LL,234.4,156.3
ZWBPPNQCUX,161222.0,19:11:44.977,R,62.5,RR,218.8,140.6
ZWBPPNQCUX,161222.0,19:11:53.969,R,78.1,RR,468.8,343.8
ZWBPPNQCUX,161224.0,08:31:17.820,L,125.0,LL,406.3,328.1
ZWBPPNQCUX,161225.0,10:15:59.266,L,62.5,LL,359.4,265.6
ZWBPPNQCUX,161225.0,10:15:59.609,L,93.8,LL,312.5,250.0
ZWBPPNQCUX,161225.0,10:23:18.812,L,109.4,LL,328.1,218.8
ZWBPPNQCUX,161225.0,10:23:19.156,L,109.4,LL,343.8,234.4
ZWBPPNQCUX,161225.0,10:23:27.492,L,156.3,LL,328.1,250.0
ZWBPPNQCUX,161225.0,10:23:27.867,L,109.4,LL,421.9,265.6
ZWBPPNQCUX,161225.0,10:23:41.309,R,78.1,RR,296.9,234.4
ZWBPPNQCUX,161225.0,11:38:12.082,L,93.8,LL,390.6,281.3
ZWBPPNQCUX,161225.0,11:38:12.488,L,62.5,LL,437.5,343.8
ZWBPPNQCUX,161225.0,11:38:17.715,L,109.4,LL,281.3,171.9
ZWBPPNQCUX,161225.0,11:38:17.980,L,125.0,LL,250.0,140.6
ZWBPPNQCUX,161225.0,11:38:18.277,L,125.0,LL,296.9,171.9
ZWBPPNQCUX,161225.0,11:52:05.402,L,125.0,LL,281.3,156.3
ZWBPPNQCUX,161225.0,11:52:05.668,L,93.8,LL,296.9,171.9
ZWBPPNQCUX,161225.0,11:52:05.949,L,140.6,LL,234.4,140.6
ZWBPPNQCUX,161225.0,11:52:14.516,R,109.4,RR,328.1,265.6
ZWBPPNQCUX,161225.0,11:52:24.910,R,62.5,RR,453.1,390.6
ZWBPPNQCUX,161225.0,11:53:22.840,L,62.5,LL,421.9,312.5
ZWBPPNQCUX,161225.0,11:53:23.152,L,140.6,LL,234.4,171.9
ZWBPPNQCUX,161225.0,11:53:58.535,L,109.4,LL,312.5,203.1
ZWBPPNQCUX,161225.0,11:53:58.816,L,187.5,LL,203.1,93.8
ZWBPPNQCUX,161225.0,11:54:49.711,L,78.1,LL,328.1,250.0
ZWBPPNQCUX,161225.0,11:55:51.059,R,140.6,RR,187.5,109.4
ZWBPPNQCUX,161225.0,11:57:31.711,L,140.6,LL,421.9,343.8
ZWBPPNQCUX,161225.0,11:57:31.992,L,78.1,LL,343.8,203.1
ZWBPPNQCUX,161225.0,11:57:32.336,L,125.0,LL,296.9,218.8
ZWBPPNQCUX,161225.0,11:57:32.711,L,109.4,LL,390.6,265.6
ZWBPPNQCUX,161225.0,11:57:32.961,L,78.1,LL,281.3,171.9
ZWBPPNQCUX,161225.0,11:57:34.633,L,156.3,RL,484.4,406.3
ZWBPPNQCUX,161225.0,11:57:34.977,L,125.0,LL,375.0,218.8
ZWBPPNQCUX,161225.0,11:57:35.102,L,31.3,LL,218.8,93.8
ZWBPPNQCUX,161225.0,11:57:35.227,L,109.4,LL,46.9,15.6
ZWBPPNQCUX,161225.0,11:57:54.969,L,125.0,LL,343.8,218.8
ZWBPPNQCUX,161225.0,11:57:58.715,R,50.8,RR,152.3,27.3
ZWBPPNQCUX,161225.0,12:00:09.191,R,58.6,LR,488.3,347.7
ZWBPPNQCUX,161225.0,12:00:32.730,L,93.8,LL,375.0,265.6
ZWBPPNQCUX,161225.0,12:01:00.059,L,78.1,LL,207.0,125.0
ZWBPPNQCUX,161225.0,22:35:45.234,L,109.4,LL,265.6,203.1
ZWBPPNQCUX,161225.0,22:35:45.484,L,62.5,LL,296.9,187.5
ZWBPPNQCUX,161225.0,22:35:45.812,L,109.4,LL,281.3,218.8
ZWBPPNQCUX,161225.0,22:35:46.062,L,62.5,LL,296.9,187.5
ZWBPPNQCUX,161225.0,22:35:46.344,L,78.1,LL,265.6,203.1
ZWBPPNQCUX,161225.0,22:35:48.250,L,109.4,LL,343.8,234.4
ZWBPPNQCUX,161225.0,22:35:48.484,L,109.4,LL,234.4,125.0
ZWBPPNQCUX,161225.0,22:35:58.641,L,117.2,LL,312.5,187.5
ZWBPPNQCUX,161226.0,09:13:44.898,L,125.0,LL,421.9,296.9
ZWBPPNQCUX,161226.0,09:27:58.934,L,93.8,LL,390.6,281.3
ZWBPPNQCUX,161226.0,09:27:59.188,L,109.4,LL,238.3,144.5
ZWBPPNQCUX,161226.0,10:00:24.156,L,109.4,LL,328.1,218.8
ZWBPPNQCUX,161226.0,10:00:24.453,L,109.4,LL,296.9,187.5
ZWBPPNQCUX,161226.0,10:00:24.844,L,78.1,LL,421.9,312.5
ZWBPPNQCUX,161226.0,10:00:25.203,L,93.8,LL,343.8,265.6
ZWBPPNQCUX,161226.0,10:00:25.469,L,109.4,LL,250.0,156.3
ZWBPPNQCUX,161226.0,10:00:28.270,L,78.1,LL,390.6,281.3
ZWBPPNQCUX,161226.0,10:00:28.535,L,140.6,LL,203.1,125.0
ZWBPPNQCUX,161226.0,10:00:38.070,L,62.5,LL,250.0,156.3
ZWBPPNQCUX,161226.0,10:00:49.246,L,125.0,LL,230.5,125.0
ZWBPPNQCUX,161226.0,10:00:50.641,L,62.5,RL,484.4,343.8
ZWBPPNQCUX,161226.0,10:00:51.016,L,109.4,LL,328.1,265.6
ZWBPPNQCUX,161226.0,10:00:51.219,L,93.8,LL,218.8,109.4
ZWBPPNQCUX,161226.0,10:00:51.531,L,109.4,LL,296.9,203.1
ZWBPPNQCUX,161226.0,10:01:59.934,L,109.4,RL,484.4,375.0
ZWBPPNQCUX,161226.0,10:02:02.656,L,109.4,RL,363.3,285.2
ZWBPPNQCUX,161226.0,10:02:02.969,L,109.4,LL,312.5,203.1
ZWBPPNQCUX,161228.0,08:54:18.189,L,78.1,LL,437.5,343.8
ZWBPPNQCUX,161229.0,08:30:35.645,L,78.1,LL,484.4,375.0
ZWBPPNQCUX,161229.0,12:27:19.645,L,89.8,RL,343.8,285.2
ZWBPPNQCUX,161230.0,12:58:54.480,L,113.3,LL,230.5,152.3
ZWBPPNQCUX,161230.0,12:58:54.730,L,140.6,LL,222.7,109.4
ZWBPPNQCUX,161230.0,12:58:54.965,L,109.4,LL,265.6,125.0
ZWBPPNQCUX,161230.0,12:58:55.277,L,125.0,LL,296.9,187.5
ZWBPPNQCUX,161230.0,12:58:55.527,L,113.3,LL,261.7,136.7
ZWBPPNQCUX,161230.0,12:58:57.512,L,109.4,LL,406.3,296.9
ZWBPPNQCUX,161230.0,12:58:57.855,L,78.1,LL,375.0,265.6
ZWBPPNQCUX,161230.0,12:59:08.953,L,109.4,LL,265.6,187.5
ZWBPPNQCUX,161230.0,13:09:48.391,L,140.6,LL,375.0,265.6
ZWBPPNQCUX,161230.0,21:43:22.242,R,125.0,LR,234.4,156.3
ZWBPPNQCUX,161230.0,21:43:22.477,L,109.4,RL,250.0,125.0
ZWBPPNQCUX,161231.0,08:35:18.164,L,107.4,LL,439.5,330.1
ZWBPPNQCUX,161231.0,08:35:27.510,L,109.4,LL,390.6,281.3
ZWBPPNQCUX,161231.0,08:35:27.979,L,138.7,LL,439.5,330.1
ZWBPPNQCUX,161231.0,09:05:25.348,L,111.3,RL,482.4,375.0
ZWBPPNQCUX,160802.0,08:54:04.861,R,146.5,LR,386.7,304.7
ZWBPPNQCUX,160803.0,08:52:55.551,R,109.4,LR,421.9,328.1
ZWBPPNQCUX,160804.0,17:06:49.551,R,78.1,LR,468.8,363.3
ZWBPPNQCUX,160804.0,17:06:51.473,R,78.1,LR,406.3,281.3
ZWBPPNQCUX,160805.0,08:22:02.520,R,109.4,LR,375.0,281.3
ZWBPPNQCUX,160805.0,08:36:15.562,R,117.2,RR,332.0,246.1
ZWBPPNQCUX,160805.0,08:36:16.018,R,117.2,RR,455.1,337.9
ZWBPPNQCUX,160805.0,08:36:44.748,L,107.4,LL,236.3,125.0
ZWBPPNQCUX,160807.0,09:43:28.676,L,62.5,LL,296.9,187.5
ZWBPPNQCUX,160807.0,09:43:32.977,R,93.8,RR,316.4,203.1
ZWBPPNQCUX,160807.0,09:52:37.016,L,109.4,LL,343.8,218.8
ZWBPPNQCUX,160807.0,10:07:13.980,S,125.0,RS,421.9,316.4
ZWBPPNQCUX,160807.0,10:07:51.098,R,78.1,RR,265.6,156.3
ZWBPPNQCUX,160807.0,10:08:06.727,R,125.0,RR,421.9,312.5
ZWBPPNQCUX,160808.0,16:04:49.457,L,93.8,LL,359.4,187.5
ZWBPPNQCUX,160808.0,17:45:36.949,L,121.1,LL,289.1,140.6
ZWBPPNQCUX,160808.0,17:45:37.223,L,109.4,LL,285.2,164.1
ZWBPPNQCUX,160808.0,17:52:18.016,L,347.7,RL,332.0,332.0
ZWBPPNQCUX,160808.0,17:54:04.258,R,246.1,LR,488.3,253.9
ZWBPPNQCUX,160808.0,17:54:04.496,R,0.0,RR,484.4,238.3
ZWBPPNQCUX,160808.0,17:54:04.727,L,0.0,RL,230.5,230.5
ZWBPPNQCUX,160808.0,17:54:04.961,L,0.0,LL,234.4,234.4
ZWBPPNQCUX,160808.0,17:54:05.184,L,0.0,LL,222.7,222.7
ZWBPPNQCUX,160808.0,17:54:06.832,R,0.0,RR,484.4,246.1
ZWBPPNQCUX,160808.0,17:54:07.336,R,171.9,RR,332.0,332.0
ZWBPPNQCUX,160808.0,17:54:07.867,R,277.3,RR,425.8,253.9
ZWBPPNQCUX,160808.0,17:54:08.621,L,269.5,RL,246.1,246.1
ZWBPPNQCUX,160808.0,17:54:10.211,R,152.3,RR,347.7,15.6
ZWBPPNQCUX,160808.0,17:54:10.645,L,250.0,LL,183.6,183.6
ZWBPPNQCUX,160808.0,17:55:00.715,L,0.0,LL,187.5,187.5
ZWBPPNQCUX,160808.0,17:55:01.277,L,335.9,RL,226.6,226.6
ZWBPPNQCUX,160808.0,18:12:21.656,R,62.5,RR,218.8,125.0
ZWBPPNQCUX,160808.0,19:29:37.188,L,140.6,LL,187.5,109.4
ZWBPPNQCUX,160808.0,19:29:51.352,L,62.5,LL,265.6,203.1
ZWBPPNQCUX,160808.0,19:29:54.430,L,78.1,LL,468.8,343.8
ZWBPPNQCUX,160808.0,19:30:31.430,L,62.5,LL,484.4,375.0
ZWBPPNQCUX,160808.0,19:35:04.766,L,109.4,LL,328.1,156.3
ZWBPPNQCUX,160808.0,19:35:08.906,L,78.1,LL,453.1,343.8
ZWBPPNQCUX,160808.0,19:36:56.148,L,78.1,LL,312.5,234.4
ZWBPPNQCUX,160808.0,19:37:08.656,L,78.1,LL,156.3,78.1
ZWBPPNQCUX,160808.0,20:19:06.273,L,125.0,LL,320.3,171.9
ZWBPPNQCUX,160808.0,20:24:36.773,L,78.1,LL,328.1,203.1
ZWBPPNQCUX,160808.0,20:25:47.297,R,62.5,RR,375.0,312.5
ZWBPPNQCUX,160808.0,20:28:50.430,L,109.4,LL,437.5,343.8
ZWBPPNQCUX,160808.0,20:34:35.539,L,125.0,LL,406.3,328.1
ZWBPPNQCUX,160808.0,20:34:35.883,L,125.0,LL,343.8,218.8
ZWBPPNQCUX,160808.0,20:34:37.633,L,93.8,RL,453.1,375.0
ZWBPPNQCUX,160808.0,20:34:38.086,R,78.1,LR,468.8,375.0
ZWBPPNQCUX,160808.0,20:35:19.664,L,109.4,LL,312.5,203.1
ZWBPPNQCUX,160808.0,20:36:42.406,L,109.4,LL,468.8,359.4
ZWBPPNQCUX,160808.0,20:38:44.234,L,93.8,LL,234.4,125.0
ZWBPPNQCUX,160808.0,20:38:44.609,L,109.4,LL,359.4,265.6
ZWBPPNQCUX,160808.0,21:51:07.438,L,171.9,LL,328.1,218.8
ZWBPPNQCUX,160809.0,14:26:41.809,L,140.6,LL,343.8,234.4
ZWBPPNQCUX,160809.0,14:27:38.102,R,109.4,RR,312.5,203.1
ZWBPPNQCUX,160809.0,14:31:11.621,L,109.4,LL,390.6,250.0
ZWBPPNQCUX,160809.0,14:31:11.980,L,93.8,LL,375.0,265.6
ZWBPPNQCUX,160809.0,14:31:45.363,R,109.4,RR,359.4,265.6
ZWBPPNQCUX,160809.0,14:31:51.129,L,62.5,LL,218.8,140.6
ZWBPPNQCUX,160809.0,14:32:14.469,R,109.4,RR,312.5,234.4
ZWBPPNQCUX,160809.0,14:59:46.984,R,97.7,LR,480.5,378.9
ZWBPPNQCUX,160815.0,17:41:49.586,L,62.5,LL,472.7,394.5
ZWBPPNQCUX,160815.0,17:42:07.688,L,93.8,LL,203.1,125.0
ZWBPPNQCUX,160815.0,17:43:48.703,L,105.5,LL,421.9,343.8
ZWBPPNQCUX,160815.0,17:43:51.410,L,109.4,LL,281.3,171.9
ZWBPPNQCUX,160815.0,17:44:01.582,L,62.5,LL,218.8,109.4
ZWBPPNQCUX,160815.0,17:51:42.832,L,109.4,LL,390.6,281.3
ZWBPPNQCUX,160816.0,08:12:53.266,L,109.4,LL,265.6,158.2
ZWBPPNQCUX,160825.0,08:15:53.865,L,109.4,LL,468.8,390.6
ZWBPPNQCUX,160825.0,16:23:31.609,R,109.4,LR,453.1,328.1
ZWBPPNQCUX,160825.0,18:27:32.688,R,78.1,RR,312.5,203.1
ZWBPPNQCUX,160825.0,18:43:05.695,R,78.1,RR,406.3,328.1
ZWBPPNQCUX,160825.0,18:44:04.766,R,78.1,RR,468.8,343.8
ZWBPPNQCUX,160825.0,18:50:44.062,L,78.1,LL,171.9,93.8
ZWBPPNQCUX,160825.0,18:50:49.969,R,78.1,RR,421.9,296.9
ZWBPPNQCUX,160830.0,07:56:07.240,L,93.8,LL,484.4,421.9
ZWBPPNQCUX,160830.0,20:34:32.570,L,109.4,LL,375.0,281.3
ZWBPPNQCUX,160831.0,08:17:00.781,L,78.1,LL,453.1,390.6
ZWBPPNQCUX,160831.0,08:17:01.297,L,109.4,LL,484.4,406.3
