BirthYear,DA,DiagnosisYear,Gender,Impact,Levadopa,MAOB,Other,Parkinsons,Sided,Tremors,UPDRS,User_ID,count,In_Train,In_Test,In_Hold
1949,False,2002,Female,Mild,False,False,True,True,Left,True,Don't know,VVYPNRQ5KG,173558,1,0,0
1943,False,-1,Female,-1,False,False,False,False,None,False,Don't know,SOP2REQFUH,3074,1,0,0
1947,False,2015,Female,Mild,False,False,True,True,Right,True,Don't know,Z2UPVHHGBE,42361,1,0,0
1943,False,2013,Female,Mild,True,False,False,True,None,True,Don't know,IDZHIUK2W2,18896,1,0,0
1941,False,2000,Female,Mild,True,False,True,True,Left,True,Don't know,GRPUBQLE4F,132258,1,0,0
1955,False,2006,Female,Mild,True,False,True,True,Left,True,Don't know,Q6MXNH0MGM,3655,1,0,0
1958,False,2008,Female,Mild,True,False,False,True,Left,False,Don't know,UJ2F1R6ODJ,9617,1,0,0
1945,False,-1,Female,-1,False,False,False,False,None,False,Don't know,S9C3TTX3NE,4666,1,0,0
-1,False,-1,Male,-1,True,False,False,True,None,True,Don't know,ZEA4RST93H,127878,1,0,0
1943,True,2009,Female,Mild,False,False,True,True,Right,True,Don't know,5PQVTWULAC,4720,1,0,0
1934,False,-1,Female,-1,False,False,False,False,None,False,Don't know,YIA9DW5AGQ,8928,1,0,0
1986,False,2016,Male,Mild,False,False,False,False,Left,True,Don't know,VCFUOTMSKT,6864,1,0,0
-1,False,-1,Male,-1,False,False,False,False,None,False,Don't know,COK8G1W7JY,416915,1,0,0
1947,False,2014,Male,Mild,False,False,True,True,Left,True,Don't know,TL2XHTLK1T,55489,1,0,0
1941,False,2015,Female,Mild,False,False,True,True,Right,False,Don't know,V2SZVYXBOD,79898,1,0,0
1959,False,-1,Female,-1,False,False,False,False,None,False,Don't know,WXNQ0QM0XD,30088,1,0,0
1950,False,2010,Male,Mild,False,False,True,True,None,False,Don't know,48DZPAJ5NS,12073,1,0,0
1948,False,-1,Male,-1,False,False,False,False,None,False,Don't know,RDJHNZGQL2,46418,1,0,0
1951,False,2016,Female,Mild,False,True,False,True,Left,False,Don't know,EF9XEFXPBN,91502,1,0,0
1954,True,2015,Male,Mild,False,True,False,True,Left,False,Don't know,K2VMDST8HC,64360,1,0,0
1962,False,-1,Male,-1,False,False,False,False,None,False,Don't know,QCFNDCZPQH,115310,1,0,0
1947,False,-1,Female,-1,False,False,False,False,None,False,Don't know,8O9IAIA9L1,15072,1,0,0
1951,False,-1,Female,-1,False,False,False,False,None,False,Don't know,BFXNVL50DC,55859,1,0,0
1952,False,2017,Female,Mild,True,False,False,True,None,True,Don't know,LFKWFNOFEM,11485,1,0,0
1942,False,2016,Female,Mild,True,False,False,True,None,True,Don't know,R8CJDKFQJZ,192593,1,0,0
1946,False,-1,Male,-1,False,False,False,False,None,False,Don't know,STW9PUPHWN,2480,1,0,0
1946,False,2015,Female,Mild,False,False,True,True,Left,True,Don't know,CAXCJIKLYM,161122,1,0,0
1941,False,2017,Male,Mild,False,False,False,True,None,True,Don't know,5USOYSDCXB,66094,1,0,0
-1,False,-1,Male,Mild,True,False,False,True,Left,True,Don't know,AFQWSP8ARK,131503,1,0,0
1939,False,2016,Female,Mild,True,False,False,True,None,True,Don't know,JHBOKKHOQW,44317,1,0,0
-1,False,-1,Male,-1,False,False,False,False,None,False,Don't know,MQJBGHOEXP,3613,1,0,0
1950,False,-1,Female,-1,False,False,False,False,Left,False,Don't know,M4ARHBY168,122377,1,0,0
-1,False,-1,Female,Mild,False,True,True,True,None,False,Don't know,MDL9KS0SFL,8086,1,0,0
1961,False,-1,Male,-1,False,False,False,False,None,False,Don't know,F56FSV2EP7,6667,1,0,0
1943,False,2016,Male,Mild,True,False,False,True,None,False,Don't know,LEFLOMUTBN,4663,1,0,0
1956,False,-1,Female,-1,False,False,False,False,None,False,Don't know,6LB9FQABZQ,34334,1,0,0
1985,False,2013,Male,Mild,False,False,False,True,Left,True,Don't know,HAEZ2A3NM5,18018,1,0,0
1958,False,2016,Female,Mild,False,False,False,False,Left,True,Don't know,LA6KW35OXK,79453,1,0,0
1945,False,-1,Male,-1,False,False,False,False,None,False,Don't know,EMYGMAIB2L,4611,1,0,0
1948,False,-1,Female,-1,False,False,False,False,None,False,Don't know,AVNGRDUXE5,4339,1,0,0
1940,False,-1,Female,-1,False,False,False,False,None,False,Don't know,IDYIDJBAXF,65136,1,0,0
1947,False,-1,Male,-1,False,False,False,False,None,False,Don't know,JWGIQXYUDJ,5428,1,0,0
-1,False,2008,Female,Mild,True,False,True,True,Right,True,Don't know,JMYZ5IKGWE,25392,1,0,0
-1,False,-1,Female,-1,False,False,False,True,None,False,Don't know,3MZWDTW7CC,49011,1,0,0
1935,False,1991,Female,Mild,True,False,True,True,None,True,Don't know,PRGWGP1WH4,21038,1,0,0
1947,False,2014,Female,Mild,True,False,True,True,Left,True,Don't know,6R9IGYWVWT,11384,1,0,0
1950,False,2012,Female,Mild,True,False,True,True,Right,True,Don't know,8EY6NZAKCI,292919,1,0,0
1944,False,2012,Female,Mild,True,False,True,True,None,True,Don't know,O0L3RD63QP,2651,1,0,0
1951,True,2016,Male,Mild,False,False,False,True,Left,True,Don't know,LSQWWDXEYO,119281,1,0,0
1954,True,1998,Female,Mild,True,False,False,True,Left,True,Don't know,CYC6IZJYTE,5019,1,0,0
1951,False,-1,Female,-1,False,False,False,False,None,False,Don't know,9RCEHVGNCJ,11465,0,1,0
1936,False,2016,Male,Mild,False,False,False,False,Left,True,Don't know,UH6FQWXIZI,16586,0,1,0
1953,False,-1,Female,-1,False,False,False,False,None,False,Don't know,QXLSWXKHEX,199740,0,1,0
1936,False,-1,Male,-1,False,False,False,False,None,False,Don't know,F8KU8UP2SZ,6398,0,1,0
1938,False,2016,Male,Mild,True,False,False,True,Left,False,Don't know,UDCY90VKYN,3903,0,1,0
1948,False,2016,Male,Mild,False,False,False,True,Right,False,Don't know,NMMGWRY6SO,42779,0,1,0
1942,False,2016,Male,Mild,False,False,False,True,None,False,Don't know,TBOPVHGLMX,16435,0,1,0
1949,False,2014,Female,Mild,True,False,True,True,Right,True,Don't know,9JRHCGCWAZ,42670,0,1,0
1942,False,-1,Female,-1,False,False,False,False,None,False,Don't know,MG8XVA5BFA,319817,0,1,0
1958,False,-1,Female,-1,False,False,False,False,None,False,Don't know,FFNMFHHSZJ,43827,0,1,0
1948,False,-1,Male,-1,False,False,False,False,None,False,Don't know,YQSGN9BMVK,28806,0,1,0
1957,False,2016,Female,Mild,False,False,False,True,Right,False,Don't know,XPHHPHIVZ4,9718,0,1,0
1967,False,2016,Male,Mild,True,False,False,True,None,True,Don't know,5YFAPLRCMD,10281,0,1,0
1958,True,2015,Male,Mild,False,False,False,True,Right,True,Don't know,YI43UM1CEH,126693,0,1,0
1953,False,2016,Female,Mild,True,False,False,True,None,False,Don't know,PWXIPGSKEF,4825,0,1,0
1946,False,2017,Female,Mild,False,False,False,True,Right,True,Don't know,LKYPMARSKU,14218,0,0,1
1952,False,2016,Female,Mild,False,False,False,True,Right,False,Don't know,VSBEPFSFWK,31938,0,0,1
-1,False,-1,Female,-1,False,False,False,False,None,False,Don't know,SDZPQV3VZ1,42123,0,0,1
1928,False,-1,Male,-1,False,False,False,False,None,False,Don't know,YYPKGX6B24,2207,0,0,1
1952,False,-1,Male,-1,False,False,False,False,None,False,Don't know,OMCPRWYBSQ,144371,0,0,1
1952,False,-1,Male,-1,False,False,False,False,None,False,Don't know,G6OE5CXQPY,658810,0,0,1
-1,False,-1,Male,-1,False,False,False,False,None,False,Don't know,81NEUZEBXI,16951,0,0,1
